EESchema Schematic File Version 4
EELAYER 29 0
EELAYER END
$Descr A4 11693 8268
encoding utf-8
Sheet 1 1
Title ""
Date ""
Rev ""
Comp ""
Comment1 ""
Comment2 ""
Comment3 ""
Comment4 ""
$EndDescr
$Comp
L pspice:INDUCTOR L?
U 1 1 5CBE21C1
P 1550 1300
F 0 "L?" H 1550 1515 50  0000 C CNN
F 1 "INDUCTOR" H 1550 1424 50  0000 C CNN
F 2 "" H 1550 1300 50  0001 C CNN
F 3 "~" H 1550 1300 50  0001 C CNN
	1    1550 1300
	1    0    0    -1  
$EndComp
$Comp
L pspice:C C?
U 1 1 5CBE2AC3
P 2200 1500
F 0 "C?" H 2378 1546 50  0000 L CNN
F 1 "10uF" H 2378 1455 50  0000 L CNN
F 2 "" H 2200 1500 50  0001 C CNN
F 3 "~" H 2200 1500 50  0001 C CNN
	1    2200 1500
	1    0    0    -1  
$EndComp
$Comp
L pspice:C C?
U 1 1 5CBE4182
P 2550 1500
F 0 "C?" H 2728 1546 50  0000 L CNN
F 1 "10uF" H 2728 1455 50  0000 L CNN
F 2 "" H 2550 1500 50  0001 C CNN
F 3 "~" H 2550 1500 50  0001 C CNN
	1    2550 1500
	1    0    0    -1  
$EndComp
$Comp
L pspice:C C?
U 1 1 5CBE4761
P 2900 1500
F 0 "C?" H 3078 1546 50  0000 L CNN
F 1 "1uF" H 3078 1455 50  0000 L CNN
F 2 "" H 2900 1500 50  0001 C CNN
F 3 "~" H 2900 1500 50  0001 C CNN
	1    2900 1500
	1    0    0    -1  
$EndComp
$Comp
L pspice:C C?
U 1 1 5CBE48D5
P 3250 1500
F 0 "C?" H 3428 1546 50  0000 L CNN
F 1 "0.1uF" H 3428 1455 50  0000 L CNN
F 2 "" H 3250 1500 50  0001 C CNN
F 3 "~" H 3250 1500 50  0001 C CNN
	1    3250 1500
	1    0    0    -1  
$EndComp
Connection ~ 2550 1250
Wire Wire Line
	2550 1250 2200 1250
Connection ~ 2900 1250
Wire Wire Line
	2900 1250 2550 1250
Wire Wire Line
	3250 1250 2900 1250
Wire Wire Line
	2200 1750 2550 1750
Connection ~ 2550 1750
Connection ~ 2900 1750
Wire Wire Line
	2900 1750 3250 1750
$Comp
L power:VCC #PWR?
U 1 1 5CBEC387
P 2200 1250
F 0 "#PWR?" H 2200 1100 50  0001 C CNN
F 1 "VCC" H 2217 1423 50  0000 C CNN
F 2 "" H 2200 1250 50  0001 C CNN
F 3 "" H 2200 1250 50  0001 C CNN
	1    2200 1250
	1    0    0    -1  
$EndComp
Connection ~ 2200 1250
$Comp
L power:VCC #PWR?
U 1 1 5CBECA45
P 1800 1300
F 0 "#PWR?" H 1800 1150 50  0001 C CNN
F 1 "VCC" H 1817 1473 50  0000 C CNN
F 2 "" H 1800 1300 50  0001 C CNN
F 3 "" H 1800 1300 50  0001 C CNN
	1    1800 1300
	1    0    0    -1  
$EndComp
Wire Wire Line
	2550 1750 2900 1750
$Comp
L power:GND #PWR?
U 1 1 5CBED45A
P 2200 1750
F 0 "#PWR?" H 2200 1500 50  0001 C CNN
F 1 "GND" H 2205 1577 50  0000 C CNN
F 2 "" H 2200 1750 50  0001 C CNN
F 3 "" H 2200 1750 50  0001 C CNN
	1    2200 1750
	1    0    0    -1  
$EndComp
Connection ~ 2200 1750
Text Notes 2300 1000 0    50   ~ 0
Bipass Caps Phase A
$Comp
L pspice:C C?
U 1 1 5CBF2BD9
P 3700 1500
F 0 "C?" H 3878 1546 50  0000 L CNN
F 1 "10uF" H 3878 1455 50  0000 L CNN
F 2 "" H 3700 1500 50  0001 C CNN
F 3 "~" H 3700 1500 50  0001 C CNN
	1    3700 1500
	1    0    0    -1  
$EndComp
$Comp
L pspice:C C?
U 1 1 5CBF2BDF
P 4050 1500
F 0 "C?" H 4228 1546 50  0000 L CNN
F 1 "10uF" H 4228 1455 50  0000 L CNN
F 2 "" H 4050 1500 50  0001 C CNN
F 3 "~" H 4050 1500 50  0001 C CNN
	1    4050 1500
	1    0    0    -1  
$EndComp
$Comp
L pspice:C C?
U 1 1 5CBF2BE5
P 4400 1500
F 0 "C?" H 4578 1546 50  0000 L CNN
F 1 "1uF" H 4578 1455 50  0000 L CNN
F 2 "" H 4400 1500 50  0001 C CNN
F 3 "~" H 4400 1500 50  0001 C CNN
	1    4400 1500
	1    0    0    -1  
$EndComp
$Comp
L pspice:C C?
U 1 1 5CBF2BEB
P 4750 1500
F 0 "C?" H 4928 1546 50  0000 L CNN
F 1 "0.1uF" H 4928 1455 50  0000 L CNN
F 2 "" H 4750 1500 50  0001 C CNN
F 3 "~" H 4750 1500 50  0001 C CNN
	1    4750 1500
	1    0    0    -1  
$EndComp
Connection ~ 4050 1250
Wire Wire Line
	4050 1250 3700 1250
Connection ~ 4400 1250
Wire Wire Line
	4400 1250 4050 1250
Wire Wire Line
	4750 1250 4400 1250
Wire Wire Line
	3700 1750 4050 1750
Connection ~ 4050 1750
Connection ~ 4400 1750
Wire Wire Line
	4400 1750 4750 1750
$Comp
L power:VCC #PWR?
U 1 1 5CBF2BFA
P 3700 1250
F 0 "#PWR?" H 3700 1100 50  0001 C CNN
F 1 "VCC" H 3717 1423 50  0000 C CNN
F 2 "" H 3700 1250 50  0001 C CNN
F 3 "" H 3700 1250 50  0001 C CNN
	1    3700 1250
	1    0    0    -1  
$EndComp
Connection ~ 3700 1250
Wire Wire Line
	4050 1750 4400 1750
$Comp
L power:GND #PWR?
U 1 1 5CBF2C02
P 3700 1750
F 0 "#PWR?" H 3700 1500 50  0001 C CNN
F 1 "GND" H 3705 1577 50  0000 C CNN
F 2 "" H 3700 1750 50  0001 C CNN
F 3 "" H 3700 1750 50  0001 C CNN
	1    3700 1750
	1    0    0    -1  
$EndComp
Connection ~ 3700 1750
Text Notes 3800 1000 0    50   ~ 0
Bipass Caps Phase B
$Comp
L pspice:C C?
U 1 1 5CBF845F
P 5300 1500
F 0 "C?" H 5478 1546 50  0000 L CNN
F 1 "10uF" H 5478 1455 50  0000 L CNN
F 2 "" H 5300 1500 50  0001 C CNN
F 3 "~" H 5300 1500 50  0001 C CNN
	1    5300 1500
	1    0    0    -1  
$EndComp
$Comp
L pspice:C C?
U 1 1 5CBF8465
P 5650 1500
F 0 "C?" H 5828 1546 50  0000 L CNN
F 1 "10uF" H 5828 1455 50  0000 L CNN
F 2 "" H 5650 1500 50  0001 C CNN
F 3 "~" H 5650 1500 50  0001 C CNN
	1    5650 1500
	1    0    0    -1  
$EndComp
$Comp
L pspice:C C?
U 1 1 5CBF846B
P 6000 1500
F 0 "C?" H 6178 1546 50  0000 L CNN
F 1 "1uF" H 6178 1455 50  0000 L CNN
F 2 "" H 6000 1500 50  0001 C CNN
F 3 "~" H 6000 1500 50  0001 C CNN
	1    6000 1500
	1    0    0    -1  
$EndComp
$Comp
L pspice:C C?
U 1 1 5CBF8471
P 6350 1500
F 0 "C?" H 6528 1546 50  0000 L CNN
F 1 "0.1uF" H 6528 1455 50  0000 L CNN
F 2 "" H 6350 1500 50  0001 C CNN
F 3 "~" H 6350 1500 50  0001 C CNN
	1    6350 1500
	1    0    0    -1  
$EndComp
Connection ~ 5650 1250
Wire Wire Line
	5650 1250 5300 1250
Connection ~ 6000 1250
Wire Wire Line
	6000 1250 5650 1250
Wire Wire Line
	6350 1250 6000 1250
Wire Wire Line
	5300 1750 5650 1750
Connection ~ 5650 1750
Connection ~ 6000 1750
Wire Wire Line
	6000 1750 6350 1750
$Comp
L power:VCC #PWR?
U 1 1 5CBF8480
P 5300 1250
F 0 "#PWR?" H 5300 1100 50  0001 C CNN
F 1 "VCC" H 5317 1423 50  0000 C CNN
F 2 "" H 5300 1250 50  0001 C CNN
F 3 "" H 5300 1250 50  0001 C CNN
	1    5300 1250
	1    0    0    -1  
$EndComp
Connection ~ 5300 1250
Wire Wire Line
	5650 1750 6000 1750
$Comp
L power:GND #PWR?
U 1 1 5CBF8488
P 5300 1750
F 0 "#PWR?" H 5300 1500 50  0001 C CNN
F 1 "GND" H 5305 1577 50  0000 C CNN
F 2 "" H 5300 1750 50  0001 C CNN
F 3 "" H 5300 1750 50  0001 C CNN
	1    5300 1750
	1    0    0    -1  
$EndComp
Connection ~ 5300 1750
Text Notes 5400 1000 0    50   ~ 0
Bipass Caps Phase C
$Comp
L pspice:INDUCTOR L?
U 1 1 5CBFB7B2
P 1550 1700
F 0 "L?" H 1550 1915 50  0000 C CNN
F 1 "INDUCTOR" H 1550 1824 50  0000 C CNN
F 2 "" H 1550 1700 50  0001 C CNN
F 3 "~" H 1550 1700 50  0001 C CNN
	1    1550 1700
	1    0    0    -1  
$EndComp
$Comp
L power:GND #PWR?
U 1 1 5CBFBE23
P 1800 1700
F 0 "#PWR?" H 1800 1450 50  0001 C CNN
F 1 "GND" H 1805 1527 50  0000 C CNN
F 2 "" H 1800 1700 50  0001 C CNN
F 3 "" H 1800 1700 50  0001 C CNN
	1    1800 1700
	1    0    0    -1  
$EndComp
Text Notes 1050 1000 0    50   ~ 0
Input Filter
Text GLabel 1050 1300 0    50   Input ~ 0
Vin
Text GLabel 1050 1700 0    50   Input ~ 0
GNDin
Wire Wire Line
	1300 1700 1050 1700
Wire Wire Line
	1300 1300 1050 1300
$EndSCHEMATC
