G04 EAGLE Gerber X2 export*
%TF.Part,Single*%
%TF.FileFunction,Copper,L2,Bot,Mixed*%
%TF.FilePolarity,Positive*%
%TF.GenerationSoftware,Autodesk,EAGLE,9.1.3*%
%TF.CreationDate,2018-10-07T16:26:31Z*%
G75*
%MOMM*%
%FSLAX34Y34*%
%LPD*%
%AMOC8*
5,1,8,0,0,1.08239X$1,22.5*%
G01*
%ADD10C,1.524000*%
%ADD11P,1.649562X8X202.500000*%
%ADD12C,0.756400*%
%ADD13C,0.304800*%

G36*
X598379Y10172D02*
X598379Y10172D01*
X598479Y10174D01*
X598551Y10192D01*
X598625Y10201D01*
X598720Y10234D01*
X598817Y10259D01*
X598883Y10293D01*
X598953Y10318D01*
X599038Y10373D01*
X599127Y10419D01*
X599184Y10467D01*
X599246Y10507D01*
X599316Y10579D01*
X599393Y10644D01*
X599437Y10704D01*
X599488Y10758D01*
X599540Y10844D01*
X599600Y10925D01*
X599629Y10993D01*
X599667Y11057D01*
X599698Y11153D01*
X599738Y11245D01*
X599751Y11318D01*
X599774Y11389D01*
X599782Y11489D01*
X599799Y11588D01*
X599796Y11662D01*
X599802Y11736D01*
X599787Y11836D01*
X599781Y11936D01*
X599761Y12007D01*
X599750Y12081D01*
X599713Y12174D01*
X599685Y12271D01*
X599649Y12336D01*
X599621Y12405D01*
X599564Y12487D01*
X599515Y12575D01*
X599450Y12651D01*
X599422Y12691D01*
X599396Y12715D01*
X599356Y12761D01*
X595816Y16301D01*
X592504Y22038D01*
X590789Y28438D01*
X590789Y35062D01*
X592504Y41462D01*
X595816Y47199D01*
X600501Y51884D01*
X606238Y55196D01*
X612638Y56911D01*
X619262Y56911D01*
X625662Y55196D01*
X631399Y51884D01*
X634739Y48544D01*
X634817Y48481D01*
X634890Y48412D01*
X634954Y48373D01*
X635012Y48327D01*
X635103Y48284D01*
X635189Y48233D01*
X635260Y48210D01*
X635327Y48178D01*
X635425Y48157D01*
X635521Y48126D01*
X635595Y48120D01*
X635668Y48105D01*
X635768Y48107D01*
X635868Y48098D01*
X635942Y48110D01*
X636016Y48111D01*
X636113Y48135D01*
X636213Y48150D01*
X636282Y48178D01*
X636354Y48196D01*
X636443Y48242D01*
X636537Y48279D01*
X636598Y48321D01*
X636664Y48355D01*
X636740Y48421D01*
X636823Y48478D01*
X636873Y48533D01*
X636929Y48581D01*
X636989Y48662D01*
X637056Y48737D01*
X637092Y48802D01*
X637137Y48862D01*
X637176Y48954D01*
X637225Y49042D01*
X637245Y49113D01*
X637275Y49182D01*
X637292Y49280D01*
X637320Y49377D01*
X637328Y49477D01*
X637336Y49525D01*
X637334Y49560D01*
X637339Y49621D01*
X637339Y617129D01*
X637328Y617229D01*
X637326Y617329D01*
X637308Y617401D01*
X637299Y617475D01*
X637266Y617570D01*
X637241Y617667D01*
X637207Y617733D01*
X637182Y617803D01*
X637127Y617888D01*
X637081Y617977D01*
X637033Y618034D01*
X636993Y618096D01*
X636921Y618166D01*
X636856Y618243D01*
X636796Y618287D01*
X636742Y618338D01*
X636656Y618390D01*
X636575Y618450D01*
X636507Y618479D01*
X636443Y618517D01*
X636347Y618548D01*
X636255Y618588D01*
X636182Y618601D01*
X636111Y618624D01*
X636011Y618632D01*
X635912Y618649D01*
X635838Y618646D01*
X635764Y618652D01*
X635664Y618637D01*
X635564Y618631D01*
X635493Y618611D01*
X635419Y618600D01*
X635326Y618563D01*
X635229Y618535D01*
X635164Y618499D01*
X635095Y618471D01*
X635013Y618414D01*
X634925Y618365D01*
X634849Y618300D01*
X634809Y618272D01*
X634785Y618246D01*
X634739Y618206D01*
X631399Y614866D01*
X625662Y611554D01*
X619262Y609839D01*
X612638Y609839D01*
X606238Y611554D01*
X600501Y614866D01*
X595816Y619551D01*
X592504Y625288D01*
X590789Y631688D01*
X590789Y638312D01*
X592504Y644712D01*
X595816Y650449D01*
X600501Y655134D01*
X603382Y656797D01*
X603482Y656871D01*
X603587Y656939D01*
X603622Y656975D01*
X603662Y657004D01*
X603743Y657100D01*
X603830Y657190D01*
X603855Y657232D01*
X603887Y657270D01*
X603944Y657382D01*
X604008Y657489D01*
X604023Y657536D01*
X604046Y657580D01*
X604076Y657702D01*
X604115Y657821D01*
X604119Y657870D01*
X604131Y657919D01*
X604133Y658044D01*
X604143Y658168D01*
X604135Y658217D01*
X604136Y658267D01*
X604109Y658389D01*
X604091Y658513D01*
X604072Y658559D01*
X604062Y658608D01*
X604008Y658720D01*
X603962Y658837D01*
X603934Y658877D01*
X603913Y658922D01*
X603834Y659020D01*
X603763Y659123D01*
X603726Y659156D01*
X603695Y659195D01*
X603597Y659273D01*
X603504Y659356D01*
X603461Y659380D01*
X603422Y659411D01*
X603309Y659464D01*
X603199Y659525D01*
X603152Y659538D01*
X603107Y659560D01*
X602984Y659586D01*
X602864Y659620D01*
X602802Y659625D01*
X602766Y659632D01*
X602718Y659631D01*
X602620Y659639D01*
X45080Y659639D01*
X44956Y659625D01*
X44831Y659619D01*
X44783Y659605D01*
X44734Y659599D01*
X44616Y659557D01*
X44496Y659523D01*
X44452Y659499D01*
X44405Y659482D01*
X44300Y659414D01*
X44191Y659353D01*
X44154Y659320D01*
X44113Y659293D01*
X44026Y659203D01*
X43933Y659119D01*
X43905Y659078D01*
X43870Y659042D01*
X43806Y658935D01*
X43735Y658832D01*
X43717Y658786D01*
X43692Y658743D01*
X43654Y658624D01*
X43608Y658508D01*
X43601Y658458D01*
X43585Y658411D01*
X43575Y658287D01*
X43557Y658163D01*
X43561Y658113D01*
X43557Y658064D01*
X43576Y657940D01*
X43586Y657816D01*
X43602Y657768D01*
X43609Y657719D01*
X43655Y657603D01*
X43694Y657484D01*
X43720Y657441D01*
X43738Y657395D01*
X43809Y657293D01*
X43874Y657185D01*
X43909Y657150D01*
X43937Y657109D01*
X44029Y657026D01*
X44117Y656936D01*
X44168Y656900D01*
X44196Y656876D01*
X44237Y656853D01*
X44318Y656797D01*
X47199Y655134D01*
X51884Y650449D01*
X55196Y644712D01*
X56911Y638312D01*
X56911Y631688D01*
X55196Y625288D01*
X51884Y619551D01*
X47199Y614866D01*
X41462Y611554D01*
X35062Y609839D01*
X28438Y609839D01*
X22038Y611554D01*
X16301Y614866D01*
X12761Y618406D01*
X12683Y618469D01*
X12610Y618538D01*
X12546Y618577D01*
X12488Y618623D01*
X12397Y618666D01*
X12311Y618717D01*
X12240Y618740D01*
X12173Y618772D01*
X12075Y618793D01*
X11979Y618824D01*
X11905Y618830D01*
X11832Y618845D01*
X11732Y618843D01*
X11632Y618852D01*
X11558Y618840D01*
X11484Y618839D01*
X11387Y618815D01*
X11287Y618800D01*
X11218Y618772D01*
X11146Y618754D01*
X11056Y618708D01*
X10963Y618671D01*
X10902Y618629D01*
X10836Y618595D01*
X10760Y618529D01*
X10677Y618472D01*
X10627Y618417D01*
X10571Y618369D01*
X10511Y618288D01*
X10444Y618213D01*
X10408Y618148D01*
X10363Y618088D01*
X10324Y617996D01*
X10275Y617908D01*
X10255Y617837D01*
X10225Y617768D01*
X10208Y617670D01*
X10180Y617573D01*
X10172Y617473D01*
X10164Y617425D01*
X10166Y617390D01*
X10161Y617329D01*
X10161Y49421D01*
X10172Y49321D01*
X10174Y49221D01*
X10192Y49149D01*
X10201Y49075D01*
X10234Y48980D01*
X10259Y48883D01*
X10293Y48817D01*
X10318Y48747D01*
X10373Y48662D01*
X10419Y48573D01*
X10467Y48516D01*
X10507Y48454D01*
X10579Y48384D01*
X10644Y48307D01*
X10704Y48263D01*
X10758Y48212D01*
X10844Y48160D01*
X10925Y48100D01*
X10993Y48071D01*
X11057Y48033D01*
X11153Y48002D01*
X11245Y47962D01*
X11318Y47949D01*
X11389Y47926D01*
X11489Y47918D01*
X11588Y47901D01*
X11662Y47904D01*
X11736Y47898D01*
X11836Y47913D01*
X11936Y47919D01*
X12007Y47939D01*
X12081Y47950D01*
X12174Y47987D01*
X12271Y48015D01*
X12336Y48051D01*
X12405Y48079D01*
X12487Y48136D01*
X12575Y48185D01*
X12651Y48250D01*
X12691Y48278D01*
X12715Y48304D01*
X12761Y48344D01*
X16301Y51884D01*
X22038Y55196D01*
X28438Y56911D01*
X35062Y56911D01*
X41462Y55196D01*
X47199Y51884D01*
X51884Y47199D01*
X55196Y41462D01*
X56911Y35062D01*
X56911Y28438D01*
X55196Y22038D01*
X51884Y16301D01*
X48344Y12761D01*
X48281Y12683D01*
X48212Y12610D01*
X48173Y12546D01*
X48127Y12488D01*
X48084Y12397D01*
X48033Y12311D01*
X48010Y12240D01*
X47978Y12173D01*
X47957Y12075D01*
X47926Y11979D01*
X47920Y11905D01*
X47905Y11832D01*
X47907Y11732D01*
X47898Y11632D01*
X47910Y11558D01*
X47911Y11484D01*
X47935Y11387D01*
X47950Y11287D01*
X47978Y11218D01*
X47996Y11146D01*
X48042Y11056D01*
X48079Y10963D01*
X48121Y10902D01*
X48155Y10836D01*
X48221Y10760D01*
X48278Y10677D01*
X48333Y10627D01*
X48381Y10571D01*
X48462Y10511D01*
X48537Y10444D01*
X48602Y10408D01*
X48662Y10363D01*
X48754Y10324D01*
X48842Y10275D01*
X48913Y10255D01*
X48982Y10225D01*
X49080Y10208D01*
X49177Y10180D01*
X49277Y10172D01*
X49325Y10164D01*
X49360Y10166D01*
X49421Y10161D01*
X598279Y10161D01*
X598379Y10172D01*
G37*
%LPC*%
G36*
X493481Y91185D02*
X493481Y91185D01*
X490120Y92578D01*
X487548Y95150D01*
X486155Y98511D01*
X486155Y116078D01*
X486152Y116104D01*
X486154Y116130D01*
X486132Y116277D01*
X486115Y116424D01*
X486107Y116449D01*
X486103Y116475D01*
X486048Y116613D01*
X485998Y116752D01*
X485984Y116774D01*
X485974Y116799D01*
X485889Y116920D01*
X485809Y117045D01*
X485790Y117063D01*
X485775Y117085D01*
X485665Y117184D01*
X485558Y117287D01*
X485536Y117301D01*
X485516Y117318D01*
X485386Y117390D01*
X485259Y117466D01*
X485234Y117474D01*
X485211Y117487D01*
X485068Y117527D01*
X484927Y117572D01*
X484901Y117574D01*
X484876Y117582D01*
X484632Y117601D01*
X468637Y117601D01*
X443429Y142809D01*
X443330Y142888D01*
X443236Y142972D01*
X443194Y142996D01*
X443156Y143026D01*
X443042Y143080D01*
X442931Y143141D01*
X442885Y143154D01*
X442841Y143175D01*
X442718Y143201D01*
X442596Y143236D01*
X442535Y143241D01*
X442500Y143248D01*
X442452Y143247D01*
X442352Y143255D01*
X434362Y143255D01*
X429005Y148612D01*
X429005Y156188D01*
X434362Y161545D01*
X441938Y161545D01*
X447295Y156188D01*
X447295Y148198D01*
X447309Y148072D01*
X447316Y147946D01*
X447329Y147900D01*
X447335Y147852D01*
X447377Y147733D01*
X447412Y147611D01*
X447436Y147569D01*
X447452Y147523D01*
X447521Y147417D01*
X447582Y147307D01*
X447622Y147261D01*
X447641Y147231D01*
X447676Y147197D01*
X447741Y147121D01*
X470717Y124145D01*
X470816Y124066D01*
X470910Y123982D01*
X470952Y123958D01*
X470990Y123928D01*
X471104Y123874D01*
X471215Y123813D01*
X471261Y123800D01*
X471305Y123779D01*
X471428Y123753D01*
X471550Y123718D01*
X471611Y123713D01*
X471646Y123706D01*
X471694Y123707D01*
X471794Y123699D01*
X483399Y123699D01*
X483525Y123713D01*
X483651Y123720D01*
X483698Y123733D01*
X483746Y123739D01*
X483865Y123781D01*
X483986Y123816D01*
X484028Y123840D01*
X484074Y123856D01*
X484180Y123925D01*
X484290Y123986D01*
X484336Y124026D01*
X484366Y124045D01*
X484400Y124080D01*
X484476Y124145D01*
X489618Y129287D01*
X526382Y129287D01*
X531524Y124145D01*
X531623Y124066D01*
X531716Y123982D01*
X531759Y123958D01*
X531797Y123928D01*
X531911Y123874D01*
X532021Y123813D01*
X532068Y123800D01*
X532112Y123779D01*
X532235Y123753D01*
X532357Y123718D01*
X532418Y123713D01*
X532452Y123706D01*
X532500Y123707D01*
X532601Y123699D01*
X547877Y123699D01*
X547953Y123707D01*
X548029Y123706D01*
X548125Y123727D01*
X548223Y123739D01*
X548295Y123764D01*
X548370Y123781D01*
X548458Y123823D01*
X548551Y123856D01*
X548615Y123898D01*
X548684Y123930D01*
X548761Y123992D01*
X548844Y124045D01*
X548897Y124100D01*
X548957Y124148D01*
X549018Y124225D01*
X549086Y124296D01*
X549125Y124361D01*
X549173Y124421D01*
X549241Y124555D01*
X549265Y124595D01*
X549271Y124613D01*
X549284Y124639D01*
X549777Y125830D01*
X552350Y128402D01*
X555711Y129795D01*
X574589Y129795D01*
X577950Y128402D01*
X580522Y125830D01*
X581915Y122469D01*
X581915Y118831D01*
X580522Y115470D01*
X577950Y112898D01*
X574589Y111505D01*
X555711Y111505D01*
X552350Y112898D01*
X549777Y115470D01*
X549284Y116661D01*
X549247Y116728D01*
X549219Y116799D01*
X549163Y116880D01*
X549115Y116966D01*
X549063Y117022D01*
X549020Y117085D01*
X548947Y117151D01*
X548881Y117224D01*
X548818Y117267D01*
X548761Y117318D01*
X548675Y117366D01*
X548594Y117422D01*
X548523Y117450D01*
X548456Y117487D01*
X548361Y117514D01*
X548270Y117550D01*
X548194Y117561D01*
X548121Y117582D01*
X547972Y117594D01*
X547925Y117601D01*
X547906Y117599D01*
X547877Y117601D01*
X532384Y117601D01*
X532358Y117598D01*
X532332Y117600D01*
X532185Y117578D01*
X532038Y117561D01*
X532013Y117553D01*
X531987Y117549D01*
X531849Y117494D01*
X531710Y117444D01*
X531688Y117430D01*
X531663Y117420D01*
X531542Y117335D01*
X531417Y117255D01*
X531399Y117236D01*
X531377Y117221D01*
X531278Y117111D01*
X531175Y117004D01*
X531161Y116982D01*
X531144Y116962D01*
X531072Y116832D01*
X530996Y116705D01*
X530988Y116680D01*
X530975Y116657D01*
X530935Y116514D01*
X530890Y116373D01*
X530888Y116347D01*
X530880Y116322D01*
X530861Y116078D01*
X530861Y110489D01*
X521716Y110489D01*
X521690Y110486D01*
X521664Y110488D01*
X521517Y110466D01*
X521370Y110449D01*
X521345Y110441D01*
X521319Y110437D01*
X521182Y110382D01*
X521042Y110332D01*
X521020Y110318D01*
X520995Y110308D01*
X520874Y110223D01*
X520749Y110143D01*
X520731Y110124D01*
X520709Y110109D01*
X520695Y110093D01*
X520610Y110175D01*
X520587Y110189D01*
X520568Y110206D01*
X520438Y110278D01*
X520311Y110354D01*
X520286Y110362D01*
X520263Y110375D01*
X520120Y110415D01*
X519979Y110460D01*
X519953Y110462D01*
X519928Y110470D01*
X519684Y110489D01*
X510539Y110489D01*
X510539Y116370D01*
X510789Y117949D01*
X511284Y119470D01*
X512050Y120974D01*
X512063Y121008D01*
X512081Y121039D01*
X512123Y121171D01*
X512172Y121301D01*
X512176Y121337D01*
X512187Y121371D01*
X512198Y121509D01*
X512216Y121647D01*
X512212Y121682D01*
X512215Y121718D01*
X512195Y121855D01*
X512181Y121993D01*
X512169Y122027D01*
X512164Y122063D01*
X512112Y122192D01*
X512067Y122323D01*
X512048Y122353D01*
X512035Y122387D01*
X511956Y122501D01*
X511882Y122618D01*
X511856Y122643D01*
X511836Y122673D01*
X511733Y122766D01*
X511634Y122863D01*
X511604Y122882D01*
X511577Y122906D01*
X511456Y122973D01*
X511338Y123046D01*
X511303Y123058D01*
X511272Y123075D01*
X511139Y123113D01*
X511007Y123157D01*
X510971Y123160D01*
X510937Y123170D01*
X510693Y123189D01*
X504291Y123189D01*
X504191Y123178D01*
X504090Y123176D01*
X504018Y123158D01*
X503945Y123149D01*
X503850Y123115D01*
X503752Y123091D01*
X503686Y123057D01*
X503616Y123032D01*
X503532Y122977D01*
X503442Y122931D01*
X503386Y122883D01*
X503324Y122843D01*
X503254Y122770D01*
X503177Y122705D01*
X503133Y122646D01*
X503081Y122592D01*
X503030Y122506D01*
X502970Y122425D01*
X502941Y122357D01*
X502903Y122293D01*
X502872Y122197D01*
X502832Y122105D01*
X502819Y122032D01*
X502796Y121961D01*
X502788Y121861D01*
X502771Y121762D01*
X502774Y121688D01*
X502768Y121614D01*
X502783Y121514D01*
X502789Y121414D01*
X502809Y121343D01*
X502820Y121269D01*
X502857Y121176D01*
X502885Y121079D01*
X502921Y121014D01*
X502949Y120945D01*
X503005Y120864D01*
X504445Y117389D01*
X504445Y98511D01*
X503052Y95150D01*
X500480Y92578D01*
X497119Y91185D01*
X493481Y91185D01*
G37*
%LPD*%
%LPC*%
G36*
X555711Y136905D02*
X555711Y136905D01*
X552350Y138298D01*
X549777Y140870D01*
X549284Y142061D01*
X549247Y142128D01*
X549219Y142199D01*
X549163Y142280D01*
X549115Y142366D01*
X549063Y142422D01*
X549020Y142485D01*
X548947Y142551D01*
X548881Y142624D01*
X548818Y142667D01*
X548761Y142718D01*
X548675Y142766D01*
X548594Y142822D01*
X548523Y142850D01*
X548456Y142887D01*
X548361Y142914D01*
X548270Y142950D01*
X548194Y142961D01*
X548121Y142982D01*
X547972Y142994D01*
X547925Y143001D01*
X547906Y142999D01*
X547877Y143001D01*
X483724Y143001D01*
X475295Y151430D01*
X475217Y151493D01*
X475144Y151562D01*
X475080Y151601D01*
X475022Y151647D01*
X474931Y151690D01*
X474845Y151741D01*
X474774Y151764D01*
X474707Y151796D01*
X474609Y151817D01*
X474513Y151848D01*
X474439Y151853D01*
X474366Y151869D01*
X474266Y151867D01*
X474166Y151875D01*
X474092Y151864D01*
X474018Y151863D01*
X473921Y151839D01*
X473821Y151824D01*
X473752Y151796D01*
X473680Y151778D01*
X473590Y151732D01*
X473497Y151695D01*
X473436Y151653D01*
X473370Y151619D01*
X473293Y151553D01*
X473211Y151496D01*
X473161Y151441D01*
X473105Y151393D01*
X473045Y151312D01*
X472978Y151237D01*
X472942Y151172D01*
X472897Y151112D01*
X472858Y151020D01*
X472809Y150932D01*
X472789Y150861D01*
X472759Y150792D01*
X472742Y150694D01*
X472714Y150597D01*
X472706Y150497D01*
X472698Y150449D01*
X472700Y150414D01*
X472695Y150353D01*
X472695Y148612D01*
X467338Y143255D01*
X459762Y143255D01*
X454405Y148612D01*
X454405Y156188D01*
X455636Y157419D01*
X455699Y157498D01*
X455769Y157570D01*
X455807Y157634D01*
X455853Y157692D01*
X455896Y157783D01*
X455947Y157869D01*
X455970Y157940D01*
X456002Y158007D01*
X456023Y158105D01*
X456054Y158201D01*
X456060Y158275D01*
X456075Y158348D01*
X456074Y158448D01*
X456082Y158548D01*
X456071Y158622D01*
X456069Y158696D01*
X456045Y158793D01*
X456030Y158893D01*
X456002Y158962D01*
X455984Y159034D01*
X455938Y159123D01*
X455901Y159217D01*
X455859Y159278D01*
X455825Y159344D01*
X455760Y159420D01*
X455702Y159503D01*
X455647Y159553D01*
X455599Y159609D01*
X455518Y159669D01*
X455443Y159736D01*
X455378Y159772D01*
X455319Y159817D01*
X455226Y159856D01*
X455138Y159905D01*
X455067Y159925D01*
X454999Y159955D01*
X454900Y159972D01*
X454803Y160000D01*
X454703Y160008D01*
X454655Y160016D01*
X454620Y160014D01*
X454559Y160019D01*
X451619Y160019D01*
X443429Y168209D01*
X443330Y168288D01*
X443236Y168372D01*
X443194Y168396D01*
X443156Y168426D01*
X443042Y168480D01*
X442931Y168541D01*
X442885Y168554D01*
X442841Y168575D01*
X442718Y168601D01*
X442596Y168636D01*
X442535Y168641D01*
X442500Y168648D01*
X442452Y168647D01*
X442352Y168655D01*
X434362Y168655D01*
X429005Y174012D01*
X429005Y181588D01*
X434362Y186945D01*
X441938Y186945D01*
X447295Y181588D01*
X447295Y173598D01*
X447309Y173472D01*
X447316Y173346D01*
X447329Y173300D01*
X447335Y173252D01*
X447377Y173132D01*
X447412Y173011D01*
X447436Y172969D01*
X447452Y172923D01*
X447521Y172817D01*
X447582Y172707D01*
X447622Y172661D01*
X447641Y172631D01*
X447676Y172597D01*
X447741Y172521D01*
X453699Y166563D01*
X453798Y166484D01*
X453892Y166400D01*
X453934Y166376D01*
X453972Y166346D01*
X454086Y166292D01*
X454197Y166231D01*
X454243Y166218D01*
X454287Y166197D01*
X454410Y166171D01*
X454532Y166136D01*
X454593Y166131D01*
X454628Y166124D01*
X454676Y166125D01*
X454776Y166117D01*
X458623Y166117D01*
X458723Y166128D01*
X458823Y166130D01*
X458896Y166148D01*
X458969Y166157D01*
X459064Y166190D01*
X459161Y166215D01*
X459228Y166249D01*
X459298Y166274D01*
X459382Y166329D01*
X459471Y166375D01*
X459528Y166423D01*
X459590Y166463D01*
X459660Y166535D01*
X459737Y166600D01*
X459781Y166660D01*
X459833Y166714D01*
X459884Y166800D01*
X459944Y166881D01*
X459973Y166949D01*
X460011Y167013D01*
X460042Y167109D01*
X460082Y167201D01*
X460095Y167274D01*
X460118Y167345D01*
X460126Y167445D01*
X460143Y167544D01*
X460140Y167618D01*
X460146Y167692D01*
X460131Y167792D01*
X460126Y167892D01*
X460105Y167963D01*
X460094Y168037D01*
X460057Y168130D01*
X460029Y168227D01*
X459993Y168292D01*
X459965Y168361D01*
X459908Y168443D01*
X459859Y168531D01*
X459794Y168607D01*
X459766Y168647D01*
X459740Y168671D01*
X459700Y168717D01*
X454405Y174012D01*
X454405Y181588D01*
X459762Y186945D01*
X467338Y186945D01*
X472695Y181588D01*
X472695Y174012D01*
X467400Y168717D01*
X467337Y168639D01*
X467267Y168566D01*
X467229Y168502D01*
X467183Y168444D01*
X467140Y168353D01*
X467089Y168267D01*
X467066Y168196D01*
X467034Y168129D01*
X467013Y168031D01*
X466982Y167935D01*
X466976Y167861D01*
X466961Y167788D01*
X466962Y167688D01*
X466954Y167588D01*
X466965Y167514D01*
X466967Y167440D01*
X466991Y167343D01*
X467006Y167243D01*
X467034Y167174D01*
X467052Y167102D01*
X467098Y167012D01*
X467135Y166919D01*
X467177Y166858D01*
X467211Y166792D01*
X467277Y166715D01*
X467334Y166633D01*
X467389Y166583D01*
X467437Y166527D01*
X467518Y166467D01*
X467593Y166400D01*
X467658Y166364D01*
X467717Y166319D01*
X467810Y166280D01*
X467898Y166231D01*
X467969Y166211D01*
X468037Y166181D01*
X468136Y166164D01*
X468233Y166136D01*
X468333Y166128D01*
X468381Y166120D01*
X468416Y166122D01*
X468477Y166117D01*
X469232Y166117D01*
X485804Y149545D01*
X485903Y149466D01*
X485996Y149382D01*
X486039Y149358D01*
X486077Y149328D01*
X486191Y149274D01*
X486301Y149213D01*
X486348Y149200D01*
X486392Y149179D01*
X486515Y149153D01*
X486637Y149118D01*
X486698Y149113D01*
X486732Y149106D01*
X486780Y149107D01*
X486881Y149099D01*
X547877Y149099D01*
X547953Y149107D01*
X548029Y149106D01*
X548125Y149127D01*
X548223Y149139D01*
X548295Y149164D01*
X548370Y149181D01*
X548458Y149223D01*
X548551Y149256D01*
X548615Y149298D01*
X548684Y149330D01*
X548761Y149392D01*
X548844Y149445D01*
X548897Y149500D01*
X548957Y149548D01*
X549018Y149625D01*
X549086Y149696D01*
X549125Y149761D01*
X549173Y149821D01*
X549241Y149955D01*
X549265Y149995D01*
X549271Y150013D01*
X549284Y150039D01*
X549777Y151230D01*
X552350Y153802D01*
X555711Y155195D01*
X574589Y155195D01*
X577950Y153802D01*
X580522Y151230D01*
X581915Y147869D01*
X581915Y144231D01*
X580522Y140870D01*
X577950Y138298D01*
X574589Y136905D01*
X555711Y136905D01*
G37*
%LPD*%
%LPC*%
G36*
X379944Y343943D02*
X379944Y343943D01*
X377994Y344751D01*
X376501Y346244D01*
X375693Y348194D01*
X375693Y349614D01*
X375679Y349740D01*
X375672Y349866D01*
X375659Y349912D01*
X375653Y349960D01*
X375611Y350079D01*
X375576Y350201D01*
X375552Y350243D01*
X375536Y350289D01*
X375467Y350395D01*
X375406Y350505D01*
X375366Y350551D01*
X375347Y350581D01*
X375312Y350615D01*
X375247Y350691D01*
X259533Y466405D01*
X259434Y466484D01*
X259340Y466568D01*
X259298Y466592D01*
X259260Y466622D01*
X259146Y466676D01*
X259035Y466737D01*
X258989Y466750D01*
X258945Y466771D01*
X258822Y466797D01*
X258700Y466832D01*
X258639Y466837D01*
X258604Y466844D01*
X258556Y466843D01*
X258456Y466851D01*
X132087Y466851D01*
X131961Y466837D01*
X131835Y466830D01*
X131789Y466817D01*
X131741Y466811D01*
X131622Y466769D01*
X131500Y466734D01*
X131458Y466710D01*
X131413Y466694D01*
X131307Y466625D01*
X131196Y466564D01*
X131150Y466524D01*
X131120Y466505D01*
X131086Y466470D01*
X131010Y466405D01*
X130006Y465401D01*
X128056Y464593D01*
X125944Y464593D01*
X123994Y465401D01*
X122501Y466894D01*
X121693Y468844D01*
X121693Y470956D01*
X122501Y472906D01*
X123994Y474399D01*
X125944Y475207D01*
X128056Y475207D01*
X130006Y474399D01*
X131010Y473395D01*
X131109Y473316D01*
X131203Y473232D01*
X131245Y473208D01*
X131283Y473178D01*
X131397Y473124D01*
X131508Y473063D01*
X131554Y473050D01*
X131598Y473029D01*
X131721Y473003D01*
X131843Y472968D01*
X131904Y472963D01*
X131939Y472956D01*
X131987Y472957D01*
X132087Y472949D01*
X261613Y472949D01*
X379559Y355003D01*
X379658Y354924D01*
X379752Y354840D01*
X379794Y354816D01*
X379832Y354786D01*
X379946Y354732D01*
X380057Y354671D01*
X380103Y354658D01*
X380147Y354637D01*
X380270Y354611D01*
X380392Y354576D01*
X380453Y354571D01*
X380488Y354564D01*
X380536Y354565D01*
X380636Y354557D01*
X382056Y354557D01*
X384006Y353749D01*
X385499Y352256D01*
X386307Y350306D01*
X386307Y348194D01*
X385499Y346244D01*
X384006Y344751D01*
X382056Y343943D01*
X379944Y343943D01*
G37*
%LPD*%
%LPC*%
G36*
X408962Y168655D02*
X408962Y168655D01*
X403605Y174012D01*
X403605Y182002D01*
X403591Y182128D01*
X403584Y182254D01*
X403571Y182300D01*
X403565Y182348D01*
X403523Y182467D01*
X403488Y182589D01*
X403464Y182631D01*
X403448Y182677D01*
X403379Y182783D01*
X403318Y182893D01*
X403278Y182939D01*
X403259Y182969D01*
X403224Y183003D01*
X403159Y183079D01*
X282701Y303537D01*
X282701Y325113D01*
X282687Y325239D01*
X282680Y325365D01*
X282667Y325411D01*
X282661Y325459D01*
X282619Y325578D01*
X282584Y325700D01*
X282560Y325742D01*
X282544Y325787D01*
X282475Y325893D01*
X282414Y326004D01*
X282374Y326050D01*
X282355Y326080D01*
X282320Y326114D01*
X282255Y326190D01*
X281251Y327194D01*
X280443Y329144D01*
X280443Y331256D01*
X281251Y333206D01*
X282744Y334699D01*
X284694Y335507D01*
X286806Y335507D01*
X288756Y334699D01*
X290249Y333206D01*
X291057Y331256D01*
X291057Y329144D01*
X290249Y327194D01*
X289245Y326190D01*
X289166Y326091D01*
X289082Y325997D01*
X289058Y325955D01*
X289028Y325917D01*
X288974Y325803D01*
X288913Y325692D01*
X288900Y325646D01*
X288879Y325602D01*
X288853Y325479D01*
X288818Y325357D01*
X288813Y325296D01*
X288806Y325261D01*
X288807Y325213D01*
X288799Y325113D01*
X288799Y306694D01*
X288813Y306568D01*
X288820Y306442D01*
X288833Y306396D01*
X288839Y306348D01*
X288881Y306229D01*
X288916Y306107D01*
X288940Y306065D01*
X288956Y306019D01*
X289025Y305913D01*
X289086Y305803D01*
X289126Y305757D01*
X289145Y305727D01*
X289180Y305693D01*
X289245Y305617D01*
X407471Y187391D01*
X407570Y187312D01*
X407664Y187228D01*
X407706Y187204D01*
X407744Y187174D01*
X407858Y187120D01*
X407969Y187059D01*
X408015Y187046D01*
X408059Y187025D01*
X408182Y186999D01*
X408304Y186964D01*
X408365Y186959D01*
X408400Y186952D01*
X408448Y186953D01*
X408548Y186945D01*
X416538Y186945D01*
X421895Y181588D01*
X421895Y174012D01*
X416538Y168655D01*
X408962Y168655D01*
G37*
%LPD*%
%LPC*%
G36*
X310094Y509043D02*
X310094Y509043D01*
X308144Y509851D01*
X306651Y511344D01*
X305843Y513294D01*
X305843Y514714D01*
X305829Y514840D01*
X305822Y514966D01*
X305809Y515012D01*
X305803Y515060D01*
X305761Y515179D01*
X305726Y515301D01*
X305702Y515343D01*
X305686Y515389D01*
X305617Y515495D01*
X305556Y515605D01*
X305516Y515651D01*
X305497Y515681D01*
X305462Y515715D01*
X305397Y515791D01*
X265883Y555305D01*
X265784Y555384D01*
X265690Y555468D01*
X265648Y555492D01*
X265610Y555522D01*
X265496Y555576D01*
X265385Y555637D01*
X265339Y555650D01*
X265295Y555671D01*
X265172Y555697D01*
X265050Y555732D01*
X264989Y555737D01*
X264954Y555744D01*
X264906Y555743D01*
X264806Y555751D01*
X246387Y555751D01*
X246261Y555737D01*
X246135Y555730D01*
X246089Y555717D01*
X246041Y555711D01*
X245922Y555669D01*
X245800Y555634D01*
X245758Y555610D01*
X245713Y555594D01*
X245607Y555525D01*
X245496Y555464D01*
X245450Y555424D01*
X245420Y555405D01*
X245386Y555370D01*
X245310Y555305D01*
X244306Y554301D01*
X242356Y553493D01*
X240244Y553493D01*
X238294Y554301D01*
X236801Y555794D01*
X235993Y557744D01*
X235993Y559856D01*
X236801Y561806D01*
X238294Y563299D01*
X240244Y564107D01*
X242356Y564107D01*
X244306Y563299D01*
X245310Y562295D01*
X245409Y562216D01*
X245503Y562132D01*
X245545Y562108D01*
X245583Y562078D01*
X245697Y562024D01*
X245808Y561963D01*
X245854Y561950D01*
X245898Y561929D01*
X246021Y561903D01*
X246143Y561868D01*
X246204Y561863D01*
X246239Y561856D01*
X246287Y561857D01*
X246387Y561849D01*
X267963Y561849D01*
X309709Y520103D01*
X309808Y520024D01*
X309902Y519940D01*
X309944Y519916D01*
X309982Y519886D01*
X310096Y519832D01*
X310207Y519771D01*
X310253Y519758D01*
X310297Y519737D01*
X310420Y519711D01*
X310542Y519676D01*
X310603Y519671D01*
X310638Y519664D01*
X310686Y519665D01*
X310786Y519657D01*
X312206Y519657D01*
X314156Y518849D01*
X315649Y517356D01*
X316457Y515406D01*
X316457Y513294D01*
X315649Y511344D01*
X314156Y509851D01*
X312206Y509043D01*
X310094Y509043D01*
G37*
%LPD*%
%LPC*%
G36*
X125181Y573785D02*
X125181Y573785D01*
X121820Y575178D01*
X119248Y577750D01*
X117855Y581111D01*
X117855Y599989D01*
X119248Y603350D01*
X121820Y605922D01*
X125181Y607315D01*
X128819Y607315D01*
X132180Y605922D01*
X134752Y603350D01*
X136145Y599989D01*
X136145Y581111D01*
X134752Y577750D01*
X132180Y575178D01*
X128819Y573785D01*
X125181Y573785D01*
G37*
%LPD*%
%LPC*%
G36*
X99781Y573785D02*
X99781Y573785D01*
X96420Y575178D01*
X93848Y577750D01*
X92455Y581111D01*
X92455Y599989D01*
X93848Y603350D01*
X96420Y605922D01*
X99781Y607315D01*
X103419Y607315D01*
X106780Y605922D01*
X109352Y603350D01*
X110745Y599989D01*
X110745Y581111D01*
X109352Y577750D01*
X106780Y575178D01*
X103419Y573785D01*
X99781Y573785D01*
G37*
%LPD*%
%LPC*%
G36*
X322031Y357885D02*
X322031Y357885D01*
X318670Y359278D01*
X316098Y361850D01*
X314705Y365211D01*
X314705Y384089D01*
X316098Y387450D01*
X318670Y390022D01*
X322031Y391415D01*
X325669Y391415D01*
X329030Y390022D01*
X331602Y387450D01*
X332995Y384089D01*
X332995Y365211D01*
X331602Y361850D01*
X329030Y359278D01*
X325669Y357885D01*
X322031Y357885D01*
G37*
%LPD*%
%LPC*%
G36*
X296631Y357885D02*
X296631Y357885D01*
X293270Y359278D01*
X290698Y361850D01*
X289305Y365211D01*
X289305Y384089D01*
X290698Y387450D01*
X293270Y390022D01*
X296631Y391415D01*
X300269Y391415D01*
X303630Y390022D01*
X306202Y387450D01*
X307595Y384089D01*
X307595Y365211D01*
X306202Y361850D01*
X303630Y359278D01*
X300269Y357885D01*
X296631Y357885D01*
G37*
%LPD*%
%LPC*%
G36*
X271231Y357885D02*
X271231Y357885D01*
X267870Y359278D01*
X265298Y361850D01*
X263905Y365211D01*
X263905Y384089D01*
X265298Y387450D01*
X267870Y390022D01*
X271231Y391415D01*
X274869Y391415D01*
X278230Y390022D01*
X280802Y387450D01*
X282195Y384089D01*
X282195Y365211D01*
X280802Y361850D01*
X278230Y359278D01*
X274869Y357885D01*
X271231Y357885D01*
G37*
%LPD*%
%LPC*%
G36*
X245831Y357885D02*
X245831Y357885D01*
X242470Y359278D01*
X239898Y361850D01*
X238505Y365211D01*
X238505Y384089D01*
X239898Y387450D01*
X242470Y390022D01*
X245831Y391415D01*
X249469Y391415D01*
X252830Y390022D01*
X255402Y387450D01*
X256795Y384089D01*
X256795Y365211D01*
X255402Y361850D01*
X252830Y359278D01*
X249469Y357885D01*
X245831Y357885D01*
G37*
%LPD*%
%LPC*%
G36*
X79461Y365505D02*
X79461Y365505D01*
X76100Y366898D01*
X73528Y369470D01*
X72135Y372831D01*
X72135Y376469D01*
X73528Y379830D01*
X76100Y382402D01*
X79461Y383795D01*
X98339Y383795D01*
X101700Y382402D01*
X104272Y379830D01*
X105665Y376469D01*
X105665Y372831D01*
X104272Y369470D01*
X101700Y366898D01*
X98339Y365505D01*
X79461Y365505D01*
G37*
%LPD*%
%LPC*%
G36*
X79461Y340105D02*
X79461Y340105D01*
X76100Y341498D01*
X73528Y344070D01*
X72135Y347431D01*
X72135Y351069D01*
X73528Y354430D01*
X76100Y357002D01*
X79461Y358395D01*
X98339Y358395D01*
X101700Y357002D01*
X104272Y354430D01*
X105665Y351069D01*
X105665Y347431D01*
X104272Y344070D01*
X101700Y341498D01*
X98339Y340105D01*
X79461Y340105D01*
G37*
%LPD*%
%LPC*%
G36*
X302981Y103885D02*
X302981Y103885D01*
X299620Y105278D01*
X297048Y107850D01*
X295655Y111211D01*
X295655Y130089D01*
X297048Y133450D01*
X299620Y136022D01*
X302981Y137415D01*
X306619Y137415D01*
X309980Y136022D01*
X312552Y133450D01*
X313945Y130089D01*
X313945Y111211D01*
X312552Y107850D01*
X309980Y105278D01*
X306619Y103885D01*
X302981Y103885D01*
G37*
%LPD*%
%LPC*%
G36*
X277581Y103885D02*
X277581Y103885D01*
X274220Y105278D01*
X271648Y107850D01*
X270255Y111211D01*
X270255Y130089D01*
X271648Y133450D01*
X274220Y136022D01*
X277581Y137415D01*
X281219Y137415D01*
X284580Y136022D01*
X287152Y133450D01*
X288545Y130089D01*
X288545Y111211D01*
X287152Y107850D01*
X284580Y105278D01*
X281219Y103885D01*
X277581Y103885D01*
G37*
%LPD*%
%LPC*%
G36*
X252181Y103885D02*
X252181Y103885D01*
X248820Y105278D01*
X246248Y107850D01*
X244855Y111211D01*
X244855Y130089D01*
X246248Y133450D01*
X248820Y136022D01*
X252181Y137415D01*
X255819Y137415D01*
X259180Y136022D01*
X261752Y133450D01*
X263145Y130089D01*
X263145Y111211D01*
X261752Y107850D01*
X259180Y105278D01*
X255819Y103885D01*
X252181Y103885D01*
G37*
%LPD*%
%LPC*%
G36*
X226781Y103885D02*
X226781Y103885D01*
X223420Y105278D01*
X220848Y107850D01*
X219455Y111211D01*
X219455Y130089D01*
X220848Y133450D01*
X223420Y136022D01*
X226781Y137415D01*
X230419Y137415D01*
X233780Y136022D01*
X236352Y133450D01*
X237745Y130089D01*
X237745Y111211D01*
X236352Y107850D01*
X233780Y105278D01*
X230419Y103885D01*
X226781Y103885D01*
G37*
%LPD*%
%LPC*%
G36*
X201381Y103885D02*
X201381Y103885D01*
X198020Y105278D01*
X195448Y107850D01*
X194055Y111211D01*
X194055Y130089D01*
X195448Y133450D01*
X198020Y136022D01*
X201381Y137415D01*
X205019Y137415D01*
X208380Y136022D01*
X210952Y133450D01*
X212345Y130089D01*
X212345Y111211D01*
X210952Y107850D01*
X208380Y105278D01*
X205019Y103885D01*
X201381Y103885D01*
G37*
%LPD*%
%LPC*%
G36*
X175981Y103885D02*
X175981Y103885D01*
X172620Y105278D01*
X170048Y107850D01*
X168655Y111211D01*
X168655Y130089D01*
X170048Y133450D01*
X172620Y136022D01*
X175981Y137415D01*
X179619Y137415D01*
X182980Y136022D01*
X185552Y133450D01*
X186945Y130089D01*
X186945Y111211D01*
X185552Y107850D01*
X182980Y105278D01*
X179619Y103885D01*
X175981Y103885D01*
G37*
%LPD*%
%LPC*%
G36*
X555711Y86105D02*
X555711Y86105D01*
X552350Y87498D01*
X549778Y90070D01*
X548385Y93431D01*
X548385Y97069D01*
X549778Y100430D01*
X552350Y103002D01*
X555711Y104395D01*
X574589Y104395D01*
X577950Y103002D01*
X580522Y100430D01*
X581915Y97069D01*
X581915Y93431D01*
X580522Y90070D01*
X577950Y87498D01*
X574589Y86105D01*
X555711Y86105D01*
G37*
%LPD*%
%LPC*%
G36*
X555711Y60705D02*
X555711Y60705D01*
X552350Y62098D01*
X549778Y64670D01*
X548385Y68031D01*
X548385Y71669D01*
X549778Y75030D01*
X552350Y77602D01*
X555711Y78995D01*
X574589Y78995D01*
X577950Y77602D01*
X580522Y75030D01*
X581915Y71669D01*
X581915Y68031D01*
X580522Y64670D01*
X577950Y62098D01*
X574589Y60705D01*
X555711Y60705D01*
G37*
%LPD*%
%LPC*%
G36*
X411694Y108993D02*
X411694Y108993D01*
X409744Y109801D01*
X408251Y111294D01*
X407443Y113244D01*
X407443Y115356D01*
X408251Y117306D01*
X409255Y118310D01*
X409334Y118409D01*
X409418Y118503D01*
X409442Y118545D01*
X409472Y118583D01*
X409526Y118697D01*
X409587Y118808D01*
X409600Y118854D01*
X409621Y118898D01*
X409647Y119021D01*
X409682Y119143D01*
X409687Y119204D01*
X409694Y119239D01*
X409693Y119287D01*
X409701Y119387D01*
X409701Y141885D01*
X409687Y142011D01*
X409680Y142137D01*
X409667Y142183D01*
X409661Y142231D01*
X409619Y142350D01*
X409584Y142472D01*
X409560Y142514D01*
X409544Y142559D01*
X409475Y142666D01*
X409414Y142776D01*
X409374Y142822D01*
X409355Y142852D01*
X409320Y142886D01*
X409255Y142962D01*
X403605Y148612D01*
X403605Y156188D01*
X408962Y161545D01*
X416538Y161545D01*
X421895Y156188D01*
X421895Y148612D01*
X416245Y142962D01*
X416166Y142863D01*
X416082Y142769D01*
X416058Y142727D01*
X416028Y142689D01*
X415974Y142575D01*
X415913Y142464D01*
X415900Y142418D01*
X415879Y142374D01*
X415853Y142251D01*
X415818Y142129D01*
X415813Y142068D01*
X415806Y142033D01*
X415807Y141985D01*
X415799Y141885D01*
X415799Y119387D01*
X415813Y119261D01*
X415820Y119135D01*
X415833Y119089D01*
X415839Y119041D01*
X415881Y118922D01*
X415916Y118800D01*
X415940Y118758D01*
X415956Y118713D01*
X416025Y118607D01*
X416086Y118496D01*
X416126Y118450D01*
X416145Y118420D01*
X416180Y118386D01*
X416245Y118310D01*
X417249Y117306D01*
X418057Y115356D01*
X418057Y113244D01*
X417249Y111294D01*
X415756Y109801D01*
X413806Y108993D01*
X411694Y108993D01*
G37*
%LPD*%
%LPC*%
G36*
X567689Y173989D02*
X567689Y173989D01*
X567689Y181611D01*
X573570Y181611D01*
X575149Y181361D01*
X576670Y180866D01*
X578095Y180140D01*
X579389Y179200D01*
X580520Y178069D01*
X581460Y176775D01*
X582186Y175350D01*
X582629Y173989D01*
X567689Y173989D01*
G37*
%LPD*%
%LPC*%
G36*
X547671Y173989D02*
X547671Y173989D01*
X548114Y175350D01*
X548840Y176775D01*
X549780Y178069D01*
X550911Y179200D01*
X552205Y180140D01*
X553630Y180866D01*
X555151Y181361D01*
X556730Y181611D01*
X562611Y181611D01*
X562611Y173989D01*
X547671Y173989D01*
G37*
%LPD*%
%LPC*%
G36*
X523239Y105411D02*
X523239Y105411D01*
X530861Y105411D01*
X530861Y99530D01*
X530611Y97951D01*
X530116Y96430D01*
X529390Y95005D01*
X528450Y93711D01*
X527319Y92580D01*
X526025Y91640D01*
X524600Y90914D01*
X523239Y90471D01*
X523239Y105411D01*
G37*
%LPD*%
%LPC*%
G36*
X567689Y161289D02*
X567689Y161289D01*
X567689Y168911D01*
X582629Y168911D01*
X582186Y167550D01*
X581460Y166125D01*
X580520Y164831D01*
X579389Y163700D01*
X578095Y162760D01*
X576670Y162034D01*
X575149Y161539D01*
X573570Y161289D01*
X567689Y161289D01*
G37*
%LPD*%
%LPC*%
G36*
X556730Y161289D02*
X556730Y161289D01*
X555151Y161539D01*
X553630Y162034D01*
X552205Y162760D01*
X550911Y163700D01*
X549780Y164831D01*
X548840Y166125D01*
X548114Y167550D01*
X547671Y168911D01*
X562611Y168911D01*
X562611Y161289D01*
X556730Y161289D01*
G37*
%LPD*%
%LPC*%
G36*
X516800Y90914D02*
X516800Y90914D01*
X515375Y91640D01*
X514081Y92580D01*
X512950Y93711D01*
X512010Y95005D01*
X511284Y96430D01*
X510789Y97951D01*
X510539Y99530D01*
X510539Y105411D01*
X518161Y105411D01*
X518161Y90471D01*
X516800Y90914D01*
G37*
%LPD*%
D10*
X127000Y598170D02*
X127000Y582930D01*
X101600Y582930D02*
X101600Y598170D01*
X96520Y374650D02*
X81280Y374650D01*
X81280Y349250D02*
X96520Y349250D01*
D11*
X463550Y177800D03*
X463550Y152400D03*
X438150Y177800D03*
X438150Y152400D03*
X412750Y177800D03*
X412750Y152400D03*
D10*
X495300Y115570D02*
X495300Y100330D01*
X520700Y100330D02*
X520700Y115570D01*
X323850Y367030D02*
X323850Y382270D01*
X298450Y382270D02*
X298450Y367030D01*
X247650Y367030D02*
X247650Y382270D01*
X273050Y382270D02*
X273050Y367030D01*
X557530Y69850D02*
X572770Y69850D01*
X572770Y95250D02*
X557530Y95250D01*
X557530Y120650D02*
X572770Y120650D01*
X572770Y146050D02*
X557530Y146050D01*
X557530Y171450D02*
X572770Y171450D01*
X304800Y128270D02*
X304800Y113030D01*
X279400Y113030D02*
X279400Y128270D01*
X254000Y128270D02*
X254000Y113030D01*
X228600Y113030D02*
X228600Y128270D01*
X203200Y128270D02*
X203200Y113030D01*
X177800Y113030D02*
X177800Y128270D01*
D12*
X527050Y584200D03*
X501650Y584200D03*
X476250Y584200D03*
X450850Y584200D03*
X425450Y584200D03*
X184150Y311150D03*
X292100Y450850D03*
D13*
X412750Y152400D02*
X412750Y114300D01*
D12*
X412750Y114300D03*
X381000Y349250D03*
D13*
X260350Y469900D01*
X127000Y469900D01*
D12*
X127000Y469900D03*
X311150Y514350D03*
D13*
X266700Y558800D01*
X241300Y558800D01*
D12*
X241300Y558800D03*
D13*
X438150Y152400D02*
X469900Y120650D01*
X530707Y120650D02*
X565150Y120650D01*
X530707Y120650D02*
X525119Y126238D01*
X490881Y126238D02*
X485293Y120650D01*
X469900Y120650D01*
X490881Y126238D02*
X525119Y126238D01*
X565150Y146050D02*
X484987Y146050D01*
X452882Y163068D02*
X438150Y177800D01*
X467969Y163068D02*
X484987Y146050D01*
X467969Y163068D02*
X452882Y163068D01*
X412750Y177800D02*
X285750Y304800D01*
X285750Y330200D01*
D12*
X285750Y330200D03*
M02*
