<?xml version="1.0" encoding="utf-8"?>
<!DOCTYPE eagle SYSTEM "eagle.dtd">
<eagle version="8.5.1">
<drawing>
<settings>
<setting alwaysvectorfont="no"/>
<setting verticaltext="up"/>
</settings>
<grid distance="0.1" unitdist="inch" unit="inch" style="lines" multiple="1" display="no" altdistance="0.01" altunitdist="inch" altunit="inch"/>
<layers>
<layer number="1" name="Top" color="4" fill="1" visible="no" active="no"/>
<layer number="2" name="Route2" color="1" fill="3" visible="no" active="no"/>
<layer number="3" name="Route3" color="4" fill="3" visible="no" active="no"/>
<layer number="4" name="Route4" color="1" fill="4" visible="no" active="no"/>
<layer number="5" name="Route5" color="4" fill="4" visible="no" active="no"/>
<layer number="6" name="Route6" color="1" fill="8" visible="no" active="no"/>
<layer number="7" name="Route7" color="4" fill="8" visible="no" active="no"/>
<layer number="8" name="Route8" color="1" fill="2" visible="no" active="no"/>
<layer number="9" name="Route9" color="4" fill="2" visible="no" active="no"/>
<layer number="10" name="Route10" color="1" fill="7" visible="no" active="no"/>
<layer number="11" name="Route11" color="4" fill="7" visible="no" active="no"/>
<layer number="12" name="Route12" color="1" fill="5" visible="no" active="no"/>
<layer number="13" name="Route13" color="4" fill="5" visible="no" active="no"/>
<layer number="14" name="Route14" color="1" fill="6" visible="no" active="no"/>
<layer number="15" name="Route15" color="4" fill="6" visible="no" active="no"/>
<layer number="16" name="Bottom" color="1" fill="1" visible="no" active="no"/>
<layer number="17" name="Pads" color="2" fill="1" visible="no" active="no"/>
<layer number="18" name="Vias" color="2" fill="1" visible="no" active="no"/>
<layer number="19" name="Unrouted" color="6" fill="1" visible="no" active="no"/>
<layer number="20" name="Dimension" color="15" fill="1" visible="no" active="no"/>
<layer number="21" name="tPlace" color="7" fill="1" visible="no" active="no"/>
<layer number="22" name="bPlace" color="7" fill="1" visible="no" active="no"/>
<layer number="23" name="tOrigins" color="15" fill="1" visible="no" active="no"/>
<layer number="24" name="bOrigins" color="15" fill="1" visible="no" active="no"/>
<layer number="25" name="tNames" color="7" fill="1" visible="no" active="no"/>
<layer number="26" name="bNames" color="7" fill="1" visible="no" active="no"/>
<layer number="27" name="tValues" color="7" fill="1" visible="no" active="no"/>
<layer number="28" name="bValues" color="7" fill="1" visible="no" active="no"/>
<layer number="29" name="tStop" color="7" fill="3" visible="no" active="no"/>
<layer number="30" name="bStop" color="7" fill="6" visible="no" active="no"/>
<layer number="31" name="tCream" color="7" fill="4" visible="no" active="no"/>
<layer number="32" name="bCream" color="7" fill="5" visible="no" active="no"/>
<layer number="33" name="tFinish" color="6" fill="3" visible="no" active="no"/>
<layer number="34" name="bFinish" color="6" fill="6" visible="no" active="no"/>
<layer number="35" name="tGlue" color="7" fill="4" visible="no" active="no"/>
<layer number="36" name="bGlue" color="7" fill="5" visible="no" active="no"/>
<layer number="37" name="tTest" color="7" fill="1" visible="no" active="no"/>
<layer number="38" name="bTest" color="7" fill="1" visible="no" active="no"/>
<layer number="39" name="tKeepout" color="4" fill="11" visible="no" active="no"/>
<layer number="40" name="bKeepout" color="1" fill="11" visible="no" active="no"/>
<layer number="41" name="tRestrict" color="4" fill="10" visible="no" active="no"/>
<layer number="42" name="bRestrict" color="1" fill="10" visible="no" active="no"/>
<layer number="43" name="vRestrict" color="2" fill="10" visible="no" active="no"/>
<layer number="44" name="Drills" color="7" fill="1" visible="no" active="no"/>
<layer number="45" name="Holes" color="7" fill="1" visible="no" active="no"/>
<layer number="46" name="Milling" color="3" fill="1" visible="no" active="no"/>
<layer number="47" name="Measures" color="7" fill="1" visible="no" active="no"/>
<layer number="48" name="Document" color="7" fill="1" visible="no" active="no"/>
<layer number="49" name="Reference" color="7" fill="1" visible="no" active="no"/>
<layer number="51" name="tDocu" color="7" fill="1" visible="no" active="no"/>
<layer number="52" name="bDocu" color="7" fill="1" visible="no" active="no"/>
<layer number="88" name="SimResults" color="9" fill="1" visible="yes" active="yes"/>
<layer number="89" name="SimProbes" color="9" fill="1" visible="yes" active="yes"/>
<layer number="90" name="Modules" color="5" fill="1" visible="yes" active="yes"/>
<layer number="91" name="Nets" color="2" fill="1" visible="yes" active="yes"/>
<layer number="92" name="Busses" color="1" fill="1" visible="yes" active="yes"/>
<layer number="93" name="Pins" color="2" fill="1" visible="no" active="yes"/>
<layer number="94" name="Symbols" color="4" fill="1" visible="yes" active="yes"/>
<layer number="95" name="Names" color="7" fill="1" visible="yes" active="yes"/>
<layer number="96" name="Values" color="7" fill="1" visible="yes" active="yes"/>
<layer number="97" name="Info" color="7" fill="1" visible="yes" active="yes"/>
<layer number="98" name="Guide" color="6" fill="1" visible="yes" active="yes"/>
</layers>
<schematic xreflabel="%F%N/%S.%C%R" xrefpart="/%S.%C%R">
<libraries>
<library name="docu-dummy" urn="urn:adsk.eagle:library:215">
<description>Dummy symbols</description>
<packages>
</packages>
<symbols>
<symbol name="RESISTOR" urn="urn:adsk.eagle:symbol:13162/1" library_version="1">
<wire x1="-2.54" y1="-0.889" x2="2.54" y2="-0.889" width="0.254" layer="94"/>
<wire x1="2.54" y1="0.889" x2="-2.54" y2="0.889" width="0.254" layer="94"/>
<wire x1="2.54" y1="-0.889" x2="2.54" y2="0" width="0.254" layer="94"/>
<wire x1="2.54" y1="0" x2="2.54" y2="0.889" width="0.254" layer="94"/>
<wire x1="-2.54" y1="-0.889" x2="-2.54" y2="0" width="0.254" layer="94"/>
<wire x1="-2.54" y1="0" x2="-2.54" y2="0.889" width="0.254" layer="94"/>
<wire x1="-5.08" y1="0" x2="-2.54" y2="0" width="0.1524" layer="94"/>
<wire x1="2.54" y1="0" x2="5.08" y2="0" width="0.1524" layer="94"/>
</symbol>
</symbols>
<devicesets>
<deviceset name="R" urn="urn:adsk.eagle:component:13171/1" prefix="R" library_version="1">
<description>&lt;b&gt;RESISTOR&lt;/b&gt;</description>
<gates>
<gate name="G$1" symbol="RESISTOR" x="0" y="0"/>
</gates>
<devices>
<device name="">
<technologies>
<technology name=""/>
</technologies>
</device>
</devices>
</deviceset>
</devicesets>
</library>
<library name="supply1" urn="urn:adsk.eagle:library:371">
<description>&lt;b&gt;Supply Symbols&lt;/b&gt;&lt;p&gt;
 GND, VCC, 0V, +5V, -5V, etc.&lt;p&gt;
 Please keep in mind, that these devices are necessary for the
 automatic wiring of the supply signals.&lt;p&gt;
 The pin name defined in the symbol is identical to the net which is to be wired automatically.&lt;p&gt;
 In this library the device names are the same as the pin names of the symbols, therefore the correct signal names appear next to the supply symbols in the schematic.&lt;p&gt;
 &lt;author&gt;Created by librarian@cadsoft.de&lt;/author&gt;</description>
<packages>
</packages>
<symbols>
<symbol name="VCC" urn="urn:adsk.eagle:symbol:26928/1" library_version="1">
<wire x1="1.27" y1="-1.905" x2="0" y2="0" width="0.254" layer="94"/>
<wire x1="0" y1="0" x2="-1.27" y2="-1.905" width="0.254" layer="94"/>
<text x="-2.54" y="-2.54" size="1.778" layer="96" rot="R90">&gt;VALUE</text>
<pin name="VCC" x="0" y="-2.54" visible="off" length="short" direction="sup" rot="R90"/>
</symbol>
</symbols>
<devicesets>
<deviceset name="VCC" urn="urn:adsk.eagle:component:26957/1" prefix="P+" library_version="1">
<description>&lt;b&gt;SUPPLY SYMBOL&lt;/b&gt;</description>
<gates>
<gate name="VCC" symbol="VCC" x="0" y="0"/>
</gates>
<devices>
<device name="">
<technologies>
<technology name=""/>
</technologies>
</device>
</devices>
</deviceset>
</devicesets>
</library>
<library name="transistor-fet" urn="urn:adsk.eagle:library:396">
<description>&lt;b&gt;Field Effect Transistors&lt;/b&gt;&lt;p&gt;
&lt;author&gt;Created by librarian@cadsoft.de&lt;/author&gt;&lt;p&gt;
&lt;p&gt;
Symbols changed according to IEC617&lt;p&gt; 
All types, packages and assignment to symbols and pins checked&lt;p&gt;
Package outlines partly checked&lt;p&gt;
&lt;p&gt;
JFET = junction FET&lt;p&gt;
IGBT-x = insulated gate bipolar transistor&lt;p&gt;
x=N: NPN; x=P: PNP&lt;p&gt;
IGFET-mc-nnn; (IGFET=insulated gate field effect transistor)&lt;P&gt;
m=D: depletion mode (Verdr&amp;auml;ngungstyp)&lt;p&gt;
m=E: enhancement mode (Anreicherungstyp)&lt;p&gt;
c: N=N-channel; P=P-Channel&lt;p&gt;
GDSB: gate, drain, source, bulk&lt;p&gt;
&lt;p&gt;
by R. Vogg  15.March.2002</description>
<packages>
<package name="TO-92" urn="urn:adsk.eagle:footprint:28467/1" library_version="2">
<description>&lt;b&gt;TP 92&lt;/b&gt;</description>
<wire x1="-2.0946" y1="-1.651" x2="-2.6549" y2="-0.254" width="0.127" layer="21" curve="-32.781"/>
<wire x1="-2.6549" y1="-0.254" x2="-0.7863" y2="2.5485" width="0.127" layer="21" curve="-78.3185"/>
<wire x1="0.7863" y1="2.5484" x2="2.0945" y2="-1.651" width="0.127" layer="21" curve="-111.1"/>
<wire x1="-2.0945" y1="-1.651" x2="2.0945" y2="-1.651" width="0.127" layer="21"/>
<wire x1="-2.2537" y1="-0.254" x2="-0.2863" y2="-0.254" width="0.127" layer="27"/>
<wire x1="-2.6549" y1="-0.254" x2="-2.2537" y2="-0.254" width="0.127" layer="21"/>
<wire x1="-0.2863" y1="-0.254" x2="0.2863" y2="-0.254" width="0.127" layer="21"/>
<wire x1="2.2537" y1="-0.254" x2="2.6549" y2="-0.254" width="0.127" layer="21"/>
<wire x1="0.2863" y1="-0.254" x2="2.2537" y2="-0.254" width="0.127" layer="27"/>
<wire x1="-0.7863" y1="2.5485" x2="0.7863" y2="2.5485" width="0.127" layer="27" curve="-34.2936"/>
<pad name="3" x="1.27" y="0" drill="0.8128" shape="octagon"/>
<pad name="2" x="0" y="1.905" drill="0.8128" shape="octagon"/>
<pad name="1" x="-1.27" y="0" drill="0.8128" shape="octagon"/>
<text x="3.175" y="0.635" size="1.27" layer="25" ratio="10">&gt;NAME</text>
<text x="3.175" y="-1.27" size="1.27" layer="27" ratio="10">&gt;VALUE</text>
<text x="-0.635" y="0.635" size="1.27" layer="27" ratio="10">2</text>
<text x="-2.159" y="0" size="1.27" layer="27" ratio="10">1</text>
<text x="1.143" y="0" size="1.27" layer="27" ratio="10">3</text>
</package>
</packages>
<packages3d>
<package3d name="TO-92" urn="urn:adsk.eagle:package:28535/2" type="model" library_version="2">
<description>TP 92</description>
</package3d>
</packages3d>
<symbols>
<symbol name="IGFET-EP-GDS" urn="urn:adsk.eagle:symbol:28458/1" library_version="2">
<wire x1="-2.54" y1="-2.54" x2="-1.2192" y2="-2.54" width="0.1524" layer="94"/>
<wire x1="0" y1="0.762" x2="0" y2="0" width="0.254" layer="94"/>
<wire x1="0" y1="0" x2="0" y2="-0.762" width="0.254" layer="94"/>
<wire x1="0" y1="3.683" x2="0" y2="1.397" width="0.254" layer="94"/>
<wire x1="0.635" y1="0.635" x2="1.905" y2="0" width="0.254" layer="94"/>
<wire x1="0.635" y1="-0.635" x2="1.905" y2="0" width="0.254" layer="94"/>
<wire x1="0" y1="0" x2="1.905" y2="0" width="0.1524" layer="94"/>
<wire x1="1.905" y1="0" x2="2.54" y2="0" width="0.1524" layer="94"/>
<wire x1="2.54" y1="0" x2="2.54" y2="-2.54" width="0.1524" layer="94"/>
<wire x1="0" y1="-1.397" x2="0" y2="-3.683" width="0.254" layer="94"/>
<wire x1="-1.143" y1="2.54" x2="-1.143" y2="-2.54" width="0.254" layer="94"/>
<text x="-11.43" y="0" size="1.778" layer="96">&gt;VALUE</text>
<text x="-11.43" y="2.54" size="1.778" layer="95">&gt;NAME</text>
<pin name="D" x="5.08" y="2.54" visible="off" length="middle" direction="pas" rot="R180"/>
<pin name="S" x="5.08" y="-2.54" visible="off" length="middle" direction="pas" rot="R180"/>
<pin name="G" x="-5.08" y="-2.54" visible="off" length="short" direction="pas"/>
</symbol>
</symbols>
<devicesets>
<deviceset name="LP0701N3" urn="urn:adsk.eagle:component:28620/2" prefix="Q" library_version="2">
<description>&lt;b&gt;P-Channel Enhancement MOSFET&lt;/b&gt; -16,5V; -1,25A; 1,5Ohm</description>
<gates>
<gate name="G$1" symbol="IGFET-EP-GDS" x="0" y="0"/>
</gates>
<devices>
<device name="" package="TO-92">
<connects>
<connect gate="G$1" pin="D" pad="3"/>
<connect gate="G$1" pin="G" pad="2"/>
<connect gate="G$1" pin="S" pad="1"/>
</connects>
<package3dinstances>
<package3dinstance package3d_urn="urn:adsk.eagle:package:28535/2"/>
</package3dinstances>
<technologies>
<technology name=""/>
</technologies>
</device>
</devices>
</deviceset>
</devicesets>
</library>
</libraries>
<attributes>
</attributes>
<variantdefs>
</variantdefs>
<classes>
<class number="0" name="default" width="0" drill="0">
</class>
</classes>
<parts>
<part name="R1" library="docu-dummy" library_urn="urn:adsk.eagle:library:215" deviceset="R" device=""/>
<part name="P+1" library="supply1" library_urn="urn:adsk.eagle:library:371" deviceset="VCC" device=""/>
<part name="Q1" library="transistor-fet" library_urn="urn:adsk.eagle:library:396" deviceset="LP0701N3" device="" package3d_urn="urn:adsk.eagle:package:28535/2"/>
</parts>
<sheets>
<sheet>
<plain>
<wire x1="5.08" y1="63.5" x2="5.08" y2="43.18" width="0.1524" layer="97"/>
<wire x1="5.08" y1="43.18" x2="30.48" y2="43.18" width="0.1524" layer="97"/>
<wire x1="30.48" y1="43.18" x2="30.48" y2="63.5" width="0.1524" layer="97"/>
<wire x1="30.48" y1="63.5" x2="5.08" y2="63.5" width="0.1524" layer="97"/>
<wire x1="25.4" y1="121.92" x2="25.4" y2="101.6" width="0.1524" layer="97"/>
<wire x1="25.4" y1="101.6" x2="50.8" y2="101.6" width="0.1524" layer="97"/>
<wire x1="50.8" y1="101.6" x2="50.8" y2="121.92" width="0.1524" layer="97"/>
<wire x1="50.8" y1="121.92" x2="25.4" y2="121.92" width="0.1524" layer="97"/>
<text x="30.48" y="111.76" size="1.778" layer="97">E-off</text>
<wire x1="60.96" y1="121.92" x2="60.96" y2="101.6" width="0.1524" layer="97"/>
<wire x1="60.96" y1="101.6" x2="86.36" y2="101.6" width="0.1524" layer="97"/>
<wire x1="86.36" y1="101.6" x2="86.36" y2="121.92" width="0.1524" layer="97"/>
<wire x1="86.36" y1="121.92" x2="60.96" y2="121.92" width="0.1524" layer="97"/>
<text x="66.04" y="111.76" size="1.778" layer="97">BMS</text>
<wire x1="-35.56" y1="63.5" x2="-35.56" y2="43.18" width="0.1524" layer="97"/>
<wire x1="-35.56" y1="43.18" x2="-10.16" y2="43.18" width="0.1524" layer="97"/>
<wire x1="-10.16" y1="43.18" x2="-10.16" y2="63.5" width="0.1524" layer="97"/>
<wire x1="-10.16" y1="63.5" x2="-35.56" y2="63.5" width="0.1524" layer="97"/>
<text x="-30.48" y="53.34" size="1.778" layer="97">Power meter</text>
<wire x1="-15.24" y1="81.28" x2="-15.24" y2="96.52" width="0.1524" layer="97"/>
<wire x1="-15.24" y1="96.52" x2="5.08" y2="96.52" width="0.1524" layer="97"/>
<wire x1="5.08" y1="96.52" x2="5.08" y2="81.28" width="0.1524" layer="97"/>
<wire x1="5.08" y1="81.28" x2="-15.24" y2="81.28" width="0.1524" layer="97"/>
<text x="-10.16" y="88.9" size="1.778" layer="97">12V dc/dc</text>
<text x="-10.16" y="71.12" size="1.778" layer="97">48V</text>
<text x="5.08" y="88.9" size="1.778" layer="97">12V</text>
<text x="48.26" y="53.34" size="1.778" layer="97">12V</text>
<text x="48.26" y="58.42" size="1.778" layer="97">48V</text>
<text x="-5.08" y="48.26" size="1.778" layer="97">GND</text>
<text x="48.26" y="48.26" size="1.778" layer="97">GND</text>
<text x="-22.86" y="88.9" size="1.778" layer="97">GND</text>
<text x="73.66" y="96.52" size="1.778" layer="97">5V</text>
</plain>
<instances>
<instance part="R1" gate="G$1" x="68.58" y="91.44" rot="R180"/>
<instance part="P+1" gate="VCC" x="73.66" y="104.14"/>
<instance part="Q1" gate="G$1" x="20.32" y="58.42" rot="R270"/>
</instances>
<busses>
</busses>
<nets>
<net name="N$1" class="0">
<segment>
<wire x1="-10.16" y1="58.42" x2="-5.08" y2="58.42" width="0.1524" layer="91"/>
<wire x1="-5.08" y1="58.42" x2="5.08" y2="58.42" width="0.1524" layer="91"/>
<wire x1="-5.08" y1="58.42" x2="-5.08" y2="81.28" width="0.1524" layer="91"/>
<junction x="-5.08" y="58.42"/>
</segment>
</net>
<net name="N$2" class="0">
<segment>
<wire x1="-10.16" y1="48.26" x2="5.08" y2="48.26" width="0.1524" layer="91"/>
</segment>
</net>
<net name="N$3" class="0">
<segment>
<wire x1="30.48" y1="58.42" x2="58.42" y2="58.42" width="0.1524" layer="91"/>
</segment>
</net>
<net name="N$4" class="0">
<segment>
<wire x1="30.48" y1="48.26" x2="58.42" y2="48.26" width="0.1524" layer="91"/>
</segment>
</net>
<net name="N$5" class="0">
<segment>
<wire x1="63.5" y1="91.44" x2="63.5" y2="73.66" width="0.1524" layer="91"/>
<wire x1="63.5" y1="73.66" x2="38.1" y2="73.66" width="0.1524" layer="91"/>
<wire x1="38.1" y1="73.66" x2="17.78" y2="73.66" width="0.1524" layer="91"/>
<wire x1="17.78" y1="73.66" x2="17.78" y2="63.5" width="0.1524" layer="91"/>
<wire x1="38.1" y1="101.6" x2="38.1" y2="73.66" width="0.1524" layer="91"/>
<junction x="38.1" y="73.66"/>
<pinref part="Q1" gate="G$1" pin="G"/>
</segment>
</net>
<net name="VCC" class="0">
<segment>
<wire x1="73.66" y1="101.6" x2="73.66" y2="91.44" width="0.1524" layer="91"/>
<pinref part="P+1" gate="VCC" pin="VCC"/>
</segment>
</net>
<net name="N$6" class="0">
<segment>
<wire x1="-35.56" y1="58.42" x2="-48.26" y2="58.42" width="0.1524" layer="91"/>
</segment>
</net>
<net name="N$7" class="0">
<segment>
<wire x1="-35.56" y1="48.26" x2="-48.26" y2="48.26" width="0.1524" layer="91"/>
</segment>
</net>
<net name="N$8" class="0">
<segment>
<wire x1="5.08" y1="88.9" x2="10.16" y2="88.9" width="0.1524" layer="91"/>
<wire x1="10.16" y1="88.9" x2="10.16" y2="63.5" width="0.1524" layer="91"/>
</segment>
</net>
<net name="N$9" class="0">
<segment>
<wire x1="30.48" y1="53.34" x2="58.42" y2="53.34" width="0.1524" layer="91"/>
</segment>
</net>
<net name="N$10" class="0">
<segment>
<wire x1="-22.86" y1="63.5" x2="-22.86" y2="88.9" width="0.1524" layer="91"/>
<wire x1="-22.86" y1="88.9" x2="-15.24" y2="88.9" width="0.1524" layer="91"/>
</segment>
</net>
</nets>
</sheet>
</sheets>
</schematic>
</drawing>
<compatibility>
<note version="8.2" severity="warning">
Since Version 8.2, EAGLE supports online libraries. The ids
of those online libraries will not be understood (or retained)
with this version.
</note>
<note version="8.3" severity="warning">
Since Version 8.3, EAGLE supports URNs for individual library
assets (packages, symbols, and devices). The URNs of those assets
will not be understood (or retained) with this version.
</note>
<note version="8.3" severity="warning">
Since Version 8.3, EAGLE supports the association of 3D packages
with devices in libraries, schematics, and board files. Those 3D
packages will not be understood (or retained) with this version.
</note>
</compatibility>
</eagle>
