EESchema Schematic File Version 4
LIBS:Motor Controller AUX-cache
EELAYER 29 0
EELAYER END
$Descr A4 11693 8268
encoding utf-8
Sheet 1 1
Title ""
Date ""
Rev ""
Comp ""
Comment1 ""
Comment2 ""
Comment3 ""
Comment4 ""
$EndDescr
$Comp
L dk_Pushbutton-Switches:GPTS203211B S1
U 1 1 5CC76568
P 1250 1300
F 0 "S1" H 1250 1575 50  0000 C CNN
F 1 "GPTS203211B" H 1250 1484 50  0000 C CNN
F 2 "Button_Switch_SMD:SW_SPST_SKQG_WithStem" H 1450 1500 50  0001 L CNN
F 3 "http://switches-connectors-custom.cwind.com/Asset/GPTS203211BR2.pdf" H 1450 1600 60  0001 L CNN
F 4 "CW181-ND" H 1450 1700 60  0001 L CNN "Digi-Key_PN"
F 5 "GPTS203211B" H 1450 1800 60  0001 L CNN "MPN"
F 6 "Switches" H 1450 1900 60  0001 L CNN "Category"
F 7 "Pushbutton Switches" H 1450 2000 60  0001 L CNN "Family"
F 8 "http://switches-connectors-custom.cwind.com/Asset/GPTS203211BR2.pdf" H 1450 2100 60  0001 L CNN "DK_Datasheet_Link"
F 9 "/product-detail/en/cw-industries/GPTS203211B/CW181-ND/3190590" H 1450 2200 60  0001 L CNN "DK_Detail_Page"
F 10 "SWITCH PUSHBUTTON SPST 1A 30V" H 1450 2300 60  0001 L CNN "Description"
F 11 "CW Industries" H 1450 2400 60  0001 L CNN "Manufacturer"
F 12 "Active" H 1450 2500 60  0001 L CNN "Status"
	1    1250 1300
	1    0    0    -1  
$EndComp
$Comp
L MCU_ST_STM32F1:STM32F103C8Tx U1
U 1 1 5CC7948D
P 3000 3200
F 0 "U1" H 3000 3200 50  0000 C CNN
F 1 "STM32F103C8Tx" H 3000 3100 50  0000 C CNN
F 2 "Package_QFP:LQFP-48_7x7mm_P0.5mm" H 2400 1800 50  0001 R CNN
F 3 "http://www.st.com/st-web-ui/static/active/en/resource/technical/document/datasheet/CD00161566.pdf" H 3000 3200 50  0001 C CNN
	1    3000 3200
	1    0    0    -1  
$EndComp
$Comp
L Device:Crystal Y1
U 1 1 5CC7D1BB
P 1400 2400
F 0 "Y1" H 1400 2668 50  0000 C CNN
F 1 "16MHz" H 1400 2577 50  0000 C CNN
F 2 "Crystal:Crystal_SMD_3225-4Pin_3.2x2.5mm_HandSoldering" H 1400 2400 50  0001 C CNN
F 3 "~" H 1400 2400 50  0001 C CNN
	1    1400 2400
	-1   0    0    1   
$EndComp
$Comp
L Device:C_Small C1
U 1 1 5CC81A07
P 1250 2500
F 0 "C1" H 1342 2546 50  0000 L CNN
F 1 "16pF" H 1342 2455 50  0000 L CNN
F 2 "Capacitor_SMD:C_0603_1608Metric" H 1250 2500 50  0001 C CNN
F 3 "~" H 1250 2500 50  0001 C CNN
	1    1250 2500
	1    0    0    -1  
$EndComp
$Comp
L Device:C_Small C2
U 1 1 5CC8366D
P 1550 2500
F 0 "C2" H 1642 2546 50  0000 L CNN
F 1 "16pF" H 1642 2455 50  0000 L CNN
F 2 "Capacitor_SMD:C_0603_1608Metric" H 1550 2500 50  0001 C CNN
F 3 "~" H 1550 2500 50  0001 C CNN
	1    1550 2500
	1    0    0    -1  
$EndComp
$Comp
L power:GND #PWR01
U 1 1 5CC83BE4
P 1250 2600
F 0 "#PWR01" H 1250 2350 50  0001 C CNN
F 1 "GND" H 1255 2427 50  0000 C CNN
F 2 "" H 1250 2600 50  0001 C CNN
F 3 "" H 1250 2600 50  0001 C CNN
	1    1250 2600
	1    0    0    -1  
$EndComp
$Comp
L power:GND #PWR02
U 1 1 5CC845FC
P 1550 2600
F 0 "#PWR02" H 1550 2350 50  0001 C CNN
F 1 "GND" H 1555 2427 50  0000 C CNN
F 2 "" H 1550 2600 50  0001 C CNN
F 3 "" H 1550 2600 50  0001 C CNN
	1    1550 2600
	1    0    0    -1  
$EndComp
Wire Wire Line
	2300 2400 1550 2400
Connection ~ 1550 2400
Wire Wire Line
	2300 2300 1550 2300
Wire Wire Line
	1550 2300 1550 2050
Wire Wire Line
	1550 2050 1250 2050
Wire Wire Line
	1250 2050 1250 2400
Connection ~ 1250 2400
$Comp
L power:GND #PWR04
U 1 1 5CC856A0
P 2950 4700
F 0 "#PWR04" H 2950 4450 50  0001 C CNN
F 1 "GND" H 2950 4550 50  0000 C CNN
F 2 "" H 2950 4700 50  0001 C CNN
F 3 "" H 2950 4700 50  0001 C CNN
	1    2950 4700
	1    0    0    -1  
$EndComp
Wire Wire Line
	2800 4700 2900 4700
Connection ~ 2900 4700
Wire Wire Line
	2900 4700 2950 4700
Connection ~ 2950 4700
Wire Wire Line
	2950 4700 3000 4700
Connection ~ 3000 4700
Wire Wire Line
	3000 4700 3100 4700
Text GLabel 2300 2100 0    50   Input ~ 0
BOOT0
Text GLabel 2300 3200 0    50   Input ~ 0
BOOT1
$Comp
L dk_PMIC-Voltage-Regulators-Linear:NCP1117ST33T3G U2
U 1 1 5CC93C29
P 2900 5400
F 0 "U2" H 2950 5687 60  0000 C CNN
F 1 "NCP1117ST33T3G" H 2950 5581 60  0000 C CNN
F 2 "digikey-footprints:SOT-223" H 3100 5600 60  0001 L CNN
F 3 "https://www.onsemi.com/pub/Collateral/NCP1117-D.PDF" H 3100 5700 60  0001 L CNN
F 4 "NCP1117ST33T3GOSCT-ND" H 3100 5800 60  0001 L CNN "Digi-Key_PN"
F 5 "NCP1117ST33T3G" H 3100 5900 60  0001 L CNN "MPN"
F 6 "Integrated Circuits (ICs)" H 3100 6000 60  0001 L CNN "Category"
F 7 "PMIC - Voltage Regulators - Linear" H 3100 6100 60  0001 L CNN "Family"
F 8 "https://www.onsemi.com/pub/Collateral/NCP1117-D.PDF" H 3100 6200 60  0001 L CNN "DK_Datasheet_Link"
F 9 "/product-detail/en/on-semiconductor/NCP1117ST33T3G/NCP1117ST33T3GOSCT-ND/660708" H 3100 6300 60  0001 L CNN "DK_Detail_Page"
F 10 "IC REG LINEAR 3.3V 1A SOT223" H 3100 6400 60  0001 L CNN "Description"
F 11 "ON Semiconductor" H 3100 6500 60  0001 L CNN "Manufacturer"
F 12 "Active" H 3100 6600 60  0001 L CNN "Status"
	1    2900 5400
	1    0    0    -1  
$EndComp
$Comp
L Device:C_Small C5
U 1 1 5CC95791
P 2450 5500
F 0 "C5" H 2542 5546 50  0000 L CNN
F 1 "10uF" H 2542 5455 50  0000 L CNN
F 2 "Capacitor_SMD:C_1206_3216Metric" H 2450 5500 50  0001 C CNN
F 3 "~" H 2450 5500 50  0001 C CNN
	1    2450 5500
	1    0    0    -1  
$EndComp
$Comp
L power:GND #PWR08
U 1 1 5CC95797
P 2450 5600
F 0 "#PWR08" H 2450 5350 50  0001 C CNN
F 1 "GND" H 2455 5427 50  0000 C CNN
F 2 "" H 2450 5600 50  0001 C CNN
F 3 "" H 2450 5600 50  0001 C CNN
	1    2450 5600
	1    0    0    -1  
$EndComp
$Comp
L Device:C_Small C6
U 1 1 5CC9838B
P 3450 5500
F 0 "C6" H 3542 5546 50  0000 L CNN
F 1 "10uF" H 3542 5455 50  0000 L CNN
F 2 "Capacitor_SMD:C_1206_3216Metric" H 3450 5500 50  0001 C CNN
F 3 "~" H 3450 5500 50  0001 C CNN
	1    3450 5500
	1    0    0    -1  
$EndComp
$Comp
L power:GND #PWR010
U 1 1 5CC98391
P 3450 5600
F 0 "#PWR010" H 3450 5350 50  0001 C CNN
F 1 "GND" H 3455 5427 50  0000 C CNN
F 2 "" H 3450 5600 50  0001 C CNN
F 3 "" H 3450 5600 50  0001 C CNN
	1    3450 5600
	1    0    0    -1  
$EndComp
$Comp
L power:GND #PWR09
U 1 1 5CC9878D
P 2900 5800
F 0 "#PWR09" H 2900 5550 50  0001 C CNN
F 1 "GND" H 2905 5627 50  0000 C CNN
F 2 "" H 2900 5800 50  0001 C CNN
F 3 "" H 2900 5800 50  0001 C CNN
	1    2900 5800
	1    0    0    -1  
$EndComp
Wire Wire Line
	2450 5400 2600 5400
Wire Wire Line
	3450 5400 3300 5400
Wire Wire Line
	3300 5500 3300 5400
Connection ~ 3300 5400
Text GLabel 3800 5400 2    50   Input ~ 0
3.3V
Text GLabel 2150 5400 0    50   Input ~ 0
7V
$Comp
L Isolator:ISO1540 U3
U 1 1 5CC9CCDB
P 8050 1550
F 0 "U3" H 8050 1917 50  0000 C CNN
F 1 "ISO1540" H 8050 1826 50  0000 C CNN
F 2 "Package_SO:SOIC-8_3.9x4.9mm_P1.27mm" H 8050 1200 50  0001 C CNN
F 3 "http://www.ti.com/lit/ds/symlink/iso1541.pdf" H 8050 1600 50  0001 C CNN
	1    8050 1550
	1    0    0    -1  
$EndComp
$Comp
L power:GND #PWR014
U 1 1 5CC9F397
P 7650 1750
F 0 "#PWR014" H 7650 1500 50  0001 C CNN
F 1 "GND" H 7655 1577 50  0000 C CNN
F 2 "" H 7650 1750 50  0001 C CNN
F 3 "" H 7650 1750 50  0001 C CNN
	1    7650 1750
	1    0    0    -1  
$EndComp
Text GLabel 7650 1450 0    50   Input ~ 0
3.3V
$Comp
L Device:C_Small C7
U 1 1 5CC9FE1C
P 6700 1650
F 0 "C7" H 6792 1696 50  0000 L CNN
F 1 "0.1uF" H 6792 1605 50  0000 L CNN
F 2 "Capacitor_SMD:C_1206_3216Metric" H 6700 1650 50  0001 C CNN
F 3 "~" H 6700 1650 50  0001 C CNN
	1    6700 1650
	1    0    0    -1  
$EndComp
$Comp
L power:GND #PWR011
U 1 1 5CC9FE22
P 6700 1750
F 0 "#PWR011" H 6700 1500 50  0001 C CNN
F 1 "GND" H 6705 1577 50  0000 C CNN
F 2 "" H 6700 1750 50  0001 C CNN
F 3 "" H 6700 1750 50  0001 C CNN
	1    6700 1750
	1    0    0    -1  
$EndComp
Text GLabel 6700 1550 1    50   Input ~ 0
3.3V
$Comp
L power:GNDPWR #PWR022
U 1 1 5CC9A2BD
P 8800 4500
F 0 "#PWR022" H 8800 4300 50  0001 C CNN
F 1 "GNDPWR" H 8804 4346 50  0000 C CNN
F 2 "" H 8800 4450 50  0001 C CNN
F 3 "" H 8800 4450 50  0001 C CNN
	1    8800 4500
	1    0    0    -1  
$EndComp
$Comp
L Device:D_ALT D1
U 1 1 5CC98155
P 7500 4700
F 0 "D1" H 7500 4484 50  0000 C CNN
F 1 "D_ALT" H 7500 4575 50  0000 C CNN
F 2 "Diode_SMD:D_SMA" H 7500 4700 50  0001 C CNN
F 3 "~" H 7500 4700 50  0001 C CNN
	1    7500 4700
	1    0    0    -1  
$EndComp
$Comp
L Device:C_Small C8
U 1 1 5CC979C4
P 7050 4800
F 0 "C8" H 7142 4846 50  0000 L CNN
F 1 "10uF" H 7142 4755 50  0000 L CNN
F 2 "Capacitor_SMD:C_1206_3216Metric" H 7050 4800 50  0001 C CNN
F 3 "~" H 7050 4800 50  0001 C CNN
	1    7050 4800
	1    0    0    -1  
$EndComp
$Comp
L Device:C_Small C9
U 1 1 5CC979B8
P 7250 4800
F 0 "C9" H 7342 4846 50  0000 L CNN
F 1 "10uF" H 7342 4755 50  0000 L CNN
F 2 "Capacitor_SMD:C_1206_3216Metric" H 7250 4800 50  0001 C CNN
F 3 "~" H 7250 4800 50  0001 C CNN
	1    7250 4800
	1    0    0    -1  
$EndComp
Wire Wire Line
	8600 4300 8800 4300
$Comp
L Device:C_Small C12
U 1 1 5CC90174
P 8600 4400
F 0 "C12" H 8692 4446 50  0000 L CNN
F 1 "10uF" H 8692 4355 50  0000 L CNN
F 2 "Capacitor_SMD:C_1206_3216Metric" H 8600 4400 50  0001 C CNN
F 3 "~" H 8600 4400 50  0001 C CNN
	1    8600 4400
	1    0    0    -1  
$EndComp
$Comp
L Device:C_Small C13
U 1 1 5CC908DB
P 8800 4400
F 0 "C13" H 8892 4446 50  0000 L CNN
F 1 "10uF" H 8892 4355 50  0000 L CNN
F 2 "Capacitor_SMD:C_1206_3216Metric" H 8800 4400 50  0001 C CNN
F 3 "~" H 8800 4400 50  0001 C CNN
	1    8800 4400
	1    0    0    -1  
$EndComp
$Comp
L Regulator_Switching:LM5017MR U5
U 1 1 5CC85EA7
P 8750 5650
F 0 "U5" H 8750 6117 50  0000 C CNN
F 1 "LM5017MR" H 8750 6026 50  0000 C CNN
F 2 "Package_SO:SOIC-8-1EP_3.9x4.9mm_P1.27mm_EP2.95x4.9mm_Mask2.71x3.4mm_ThermalVias" H 8800 5200 50  0001 L CIN
F 3 "http://www.ti.com/lit/ds/symlink/lm5017.pdf" H 8750 5650 50  0001 C CNN
	1    8750 5650
	1    0    0    -1  
$EndComp
$Comp
L Connector_Generic:Conn_02x03_Top_Bottom J1
U 1 1 5CCBC82F
P 2900 1100
F 0 "J1" H 2950 1417 50  0000 C CNN
F 1 "Conn_02x03_Top_Bottom" H 2950 1326 50  0000 C CNN
F 2 "Connector_PinHeader_2.54mm:PinHeader_2x03_P2.54mm_Vertical" H 2900 1100 50  0001 C CNN
F 3 "~" H 2900 1100 50  0001 C CNN
	1    2900 1100
	1    0    0    -1  
$EndComp
$Comp
L power:GND #PWR03
U 1 1 5CCBE636
P 3200 1200
F 0 "#PWR03" H 3200 950 50  0001 C CNN
F 1 "GND" H 3205 1027 50  0000 C CNN
F 2 "" H 3200 1200 50  0001 C CNN
F 3 "" H 3200 1200 50  0001 C CNN
	1    3200 1200
	1    0    0    -1  
$EndComp
Text GLabel 2700 1000 0    50   Input ~ 0
3.3V
Text GLabel 2700 1100 0    50   Input ~ 0
3.3V
Text GLabel 2700 1200 0    50   Input ~ 0
BOOT0
Text GLabel 3200 1000 2    50   Input ~ 0
BOOT1
Text GLabel 3000 1700 1    50   Input ~ 0
3.3V
Connection ~ 2900 1700
Wire Wire Line
	2900 1700 3000 1700
Connection ~ 3000 1700
Wire Wire Line
	3000 1700 3100 1700
Connection ~ 3100 1700
Wire Wire Line
	3100 1700 3200 1700
Wire Wire Line
	2800 1700 2900 1700
$Comp
L Device:C_Small C3
U 1 1 5CCC6CEE
P 3750 2200
F 0 "C3" H 3842 2246 50  0000 L CNN
F 1 "0.1uF" H 3842 2155 50  0000 L CNN
F 2 "Capacitor_SMD:C_0603_1608Metric" H 3750 2200 50  0001 C CNN
F 3 "~" H 3750 2200 50  0001 C CNN
	1    3750 2200
	1    0    0    -1  
$EndComp
$Comp
L power:GND #PWR06
U 1 1 5CCC6CF4
P 3750 2300
F 0 "#PWR06" H 3750 2050 50  0001 C CNN
F 1 "GND" H 3755 2127 50  0000 C CNN
F 2 "" H 3750 2300 50  0001 C CNN
F 3 "" H 3750 2300 50  0001 C CNN
	1    3750 2300
	1    0    0    -1  
$EndComp
Text GLabel 3750 2100 1    50   Input ~ 0
3.3V
$Comp
L Device:C_Small C4
U 1 1 5CCC8334
P 3950 2200
F 0 "C4" H 4042 2246 50  0000 L CNN
F 1 "0.1uF" H 4042 2155 50  0000 L CNN
F 2 "Capacitor_SMD:C_0603_1608Metric" H 3950 2200 50  0001 C CNN
F 3 "~" H 3950 2200 50  0001 C CNN
	1    3950 2200
	1    0    0    -1  
$EndComp
$Comp
L power:GND #PWR07
U 1 1 5CCC833A
P 3950 2300
F 0 "#PWR07" H 3950 2050 50  0001 C CNN
F 1 "GND" H 3955 2127 50  0000 C CNN
F 2 "" H 3950 2300 50  0001 C CNN
F 3 "" H 3950 2300 50  0001 C CNN
	1    3950 2300
	1    0    0    -1  
$EndComp
Text GLabel 3950 2100 1    50   Input ~ 0
3.3V
$Comp
L power:GNDPWR #PWR021
U 1 1 5CC998B2
P 8600 4500
F 0 "#PWR021" H 8600 4300 50  0001 C CNN
F 1 "GNDPWR" H 8604 4346 50  0000 C CNN
F 2 "" H 8600 4450 50  0001 C CNN
F 3 "" H 8600 4450 50  0001 C CNN
	1    8600 4500
	1    0    0    -1  
$EndComp
Connection ~ 8600 4300
Wire Wire Line
	9150 5550 9300 5550
Wire Wire Line
	9300 5550 9300 5250
Text GLabel 7000 4700 0    50   Input ~ 0
7V
Wire Wire Line
	7350 4700 7250 4700
Connection ~ 7050 4700
Wire Wire Line
	7050 4700 7000 4700
Connection ~ 7250 4700
Wire Wire Line
	7250 4700 7050 4700
$Comp
L power:GND #PWR015
U 1 1 5CCE85C3
P 7650 4300
F 0 "#PWR015" H 7650 4050 50  0001 C CNN
F 1 "GND" H 7655 4127 50  0000 C CNN
F 2 "" H 7650 4300 50  0001 C CNN
F 3 "" H 7650 4300 50  0001 C CNN
	1    7650 4300
	1    0    0    -1  
$EndComp
$Comp
L power:GND #PWR013
U 1 1 5CCE8AB2
P 7250 4900
F 0 "#PWR013" H 7250 4650 50  0001 C CNN
F 1 "GND" H 7255 4727 50  0000 C CNN
F 2 "" H 7250 4900 50  0001 C CNN
F 3 "" H 7250 4900 50  0001 C CNN
	1    7250 4900
	1    0    0    -1  
$EndComp
$Comp
L power:GND #PWR012
U 1 1 5CCE8EAE
P 7050 4900
F 0 "#PWR012" H 7050 4650 50  0001 C CNN
F 1 "GND" H 7055 4727 50  0000 C CNN
F 2 "" H 7050 4900 50  0001 C CNN
F 3 "" H 7050 4900 50  0001 C CNN
	1    7050 4900
	1    0    0    -1  
$EndComp
$Comp
L Device:C_Small C14
U 1 1 5CCEEDC6
P 9250 1650
F 0 "C14" H 9342 1696 50  0000 L CNN
F 1 "0.1uF" H 9342 1605 50  0000 L CNN
F 2 "Capacitor_SMD:C_1206_3216Metric" H 9250 1650 50  0001 C CNN
F 3 "~" H 9250 1650 50  0001 C CNN
	1    9250 1650
	1    0    0    -1  
$EndComp
Text GLabel 9250 1550 1    50   Input ~ 0
5VPower
Text GLabel 8450 1450 2    50   Input ~ 0
5VPower
$Comp
L power:GNDPWR #PWR018
U 1 1 5CCF665F
P 8450 1750
F 0 "#PWR018" H 8450 1550 50  0001 C CNN
F 1 "GNDPWR" H 8454 1596 50  0000 C CNN
F 2 "" H 8450 1700 50  0001 C CNN
F 3 "" H 8450 1700 50  0001 C CNN
	1    8450 1750
	1    0    0    -1  
$EndComp
$Comp
L power:GNDPWR #PWR025
U 1 1 5CCF731E
P 9250 1750
F 0 "#PWR025" H 9250 1550 50  0001 C CNN
F 1 "GNDPWR" H 9254 1596 50  0000 C CNN
F 2 "" H 9250 1700 50  0001 C CNN
F 3 "" H 9250 1700 50  0001 C CNN
	1    9250 1750
	1    0    0    -1  
$EndComp
$Comp
L dk_PMIC-Voltage-Regulators-Linear:NCP1117ST50T3G U7
U 1 1 5CCF80B0
P 10200 5150
F 0 "U7" H 10250 5437 60  0000 C CNN
F 1 "NCP1117ST50T3G" H 10250 5331 60  0000 C CNN
F 2 "digikey-footprints:SOT-223" H 10400 5350 60  0001 L CNN
F 3 "https://www.onsemi.com/pub/Collateral/NCP1117-D.PDF" H 10400 5450 60  0001 L CNN
F 4 "NCP1117ST50T3GOSCT-ND" H 10400 5550 60  0001 L CNN "Digi-Key_PN"
F 5 "NCP1117ST50T3G" H 10400 5650 60  0001 L CNN "MPN"
F 6 "Integrated Circuits (ICs)" H 10400 5750 60  0001 L CNN "Category"
F 7 "PMIC - Voltage Regulators - Linear" H 10400 5850 60  0001 L CNN "Family"
F 8 "https://www.onsemi.com/pub/Collateral/NCP1117-D.PDF" H 10400 5950 60  0001 L CNN "DK_Datasheet_Link"
F 9 "/product-detail/en/on-semiconductor/NCP1117ST50T3G/NCP1117ST50T3GOSCT-ND/1967217" H 10400 6050 60  0001 L CNN "DK_Detail_Page"
F 10 "IC REG LINEAR 5V 1A SOT223" H 10400 6150 60  0001 L CNN "Description"
F 11 "ON Semiconductor" H 10400 6250 60  0001 L CNN "Manufacturer"
F 12 "Active" H 10400 6350 60  0001 L CNN "Status"
	1    10200 5150
	1    0    0    -1  
$EndComp
Text GLabel 8800 4300 2    50   Input ~ 0
7VPower
$Comp
L Device:C_Small C11
U 1 1 5CD0107D
P 9750 5250
F 0 "C11" H 9842 5296 50  0000 L CNN
F 1 "10uF" H 9842 5205 50  0000 L CNN
F 2 "Capacitor_SMD:C_1206_3216Metric" H 9750 5250 50  0001 C CNN
F 3 "~" H 9750 5250 50  0001 C CNN
	1    9750 5250
	1    0    0    -1  
$EndComp
$Comp
L Device:C_Small C16
U 1 1 5CD01083
P 10750 5250
F 0 "C16" H 10842 5296 50  0000 L CNN
F 1 "10uF" H 10842 5205 50  0000 L CNN
F 2 "Capacitor_SMD:C_1206_3216Metric" H 10750 5250 50  0001 C CNN
F 3 "~" H 10750 5250 50  0001 C CNN
	1    10750 5250
	1    0    0    -1  
$EndComp
Wire Wire Line
	9750 5150 9900 5150
Wire Wire Line
	10750 5150 10600 5150
Wire Wire Line
	10600 5250 10600 5150
Text GLabel 9750 5150 0    50   Input ~ 0
7VPower
Text GLabel 10750 5150 2    50   Input ~ 0
5VPower
$Comp
L power:GNDPWR #PWR024
U 1 1 5CD0108F
P 10200 5550
F 0 "#PWR024" H 10200 5350 50  0001 C CNN
F 1 "GNDPWR" H 10204 5396 50  0000 C CNN
F 2 "" H 10200 5500 50  0001 C CNN
F 3 "" H 10200 5500 50  0001 C CNN
	1    10200 5550
	1    0    0    -1  
$EndComp
$Comp
L power:GNDPWR #PWR020
U 1 1 5CD01095
P 9750 5350
F 0 "#PWR020" H 9750 5150 50  0001 C CNN
F 1 "GNDPWR" H 9754 5196 50  0000 C CNN
F 2 "" H 9750 5300 50  0001 C CNN
F 3 "" H 9750 5300 50  0001 C CNN
	1    9750 5350
	1    0    0    -1  
$EndComp
$Comp
L power:GNDPWR #PWR027
U 1 1 5CD0109B
P 10750 5350
F 0 "#PWR027" H 10750 5150 50  0001 C CNN
F 1 "GNDPWR" H 10754 5196 50  0000 C CNN
F 2 "" H 10750 5300 50  0001 C CNN
F 3 "" H 10750 5300 50  0001 C CNN
	1    10750 5350
	1    0    0    -1  
$EndComp
Connection ~ 10600 5150
$Comp
L Device:R_Small R1
U 1 1 5CD034CB
P 8050 6250
F 0 "R1" V 7854 6250 50  0000 C CNN
F 1 "R_Small" V 7945 6250 50  0000 C CNN
F 2 "Resistor_SMD:R_1206_3216Metric" H 8050 6250 50  0001 C CNN
F 3 "~" H 8050 6250 50  0001 C CNN
	1    8050 6250
	0    1    1    0   
$EndComp
$Comp
L power:GNDPWR #PWR017
U 1 1 5CD048BB
P 8150 6250
F 0 "#PWR017" H 8150 6050 50  0001 C CNN
F 1 "GNDPWR" H 8154 6096 50  0000 C CNN
F 2 "" H 8150 6200 50  0001 C CNN
F 3 "" H 8150 6200 50  0001 C CNN
	1    8150 6250
	1    0    0    -1  
$EndComp
$Comp
L power:GND #PWR016
U 1 1 5CD04FF0
P 7950 6250
F 0 "#PWR016" H 7950 6000 50  0001 C CNN
F 1 "GND" H 7955 6077 50  0000 C CNN
F 2 "" H 7950 6250 50  0001 C CNN
F 3 "" H 7950 6250 50  0001 C CNN
	1    7950 6250
	1    0    0    -1  
$EndComp
$Comp
L MotorControllercache:Motor-Controller-rescue_ISO7760-EVCONCEPT U8
U 1 1 5CD11705
P 8050 2600
F 0 "U8" H 8050 3215 50  0000 C CNN
F 1 "Motor-Controller-rescue_ISO7760-EVCONCEPT" H 8050 3124 50  0000 C CNN
F 2 "Package_SO:SOIC-16W_7.5x10.3mm_P1.27mm" H 8050 2600 50  0001 C CNN
F 3 "http://www.ti.com/lit/ds/symlink/iso7760.pdf" H 8050 2600 50  0001 C CNN
	1    8050 2600
	1    0    0    -1  
$EndComp
Wire Wire Line
	9300 4700 8450 4700
$Comp
L MotorControllercache:Motor-Controller-rescue_ISO7762-EVCONCEPT U9
U 1 1 5CD2EE68
P 8050 3700
F 0 "U9" H 8050 4315 50  0000 C CNN
F 1 "Motor-Controller-rescue_ISO7762-EVCONCEPT" H 8050 4224 50  0000 C CNN
F 2 "Package_SO:SOIC-16W_7.5x10.3mm_P1.27mm" H 8050 3700 50  0001 C CNN
F 3 "http://www.ti.com/lit/ds/symlink/iso7760.pdf" H 8050 3700 50  0001 C CNN
	1    8050 3700
	1    0    0    -1  
$EndComp
$Comp
L Device:C_Small C19
U 1 1 5CD30D5D
P 9250 2850
F 0 "C19" H 9342 2896 50  0000 L CNN
F 1 "0.1uF" H 9342 2805 50  0000 L CNN
F 2 "Capacitor_SMD:C_1206_3216Metric" H 9250 2850 50  0001 C CNN
F 3 "~" H 9250 2850 50  0001 C CNN
	1    9250 2850
	1    0    0    -1  
$EndComp
Text GLabel 9250 2750 1    50   Input ~ 0
5VPower
$Comp
L power:GNDPWR #PWR035
U 1 1 5CD30D64
P 9250 2950
F 0 "#PWR035" H 9250 2750 50  0001 C CNN
F 1 "GNDPWR" H 9254 2796 50  0000 C CNN
F 2 "" H 9250 2900 50  0001 C CNN
F 3 "" H 9250 2900 50  0001 C CNN
	1    9250 2950
	1    0    0    -1  
$EndComp
$Comp
L Device:C_Small C20
U 1 1 5CD3150C
P 9250 3950
F 0 "C20" H 9342 3996 50  0000 L CNN
F 1 "0.1uF" H 9342 3905 50  0000 L CNN
F 2 "Capacitor_SMD:C_1206_3216Metric" H 9250 3950 50  0001 C CNN
F 3 "~" H 9250 3950 50  0001 C CNN
	1    9250 3950
	1    0    0    -1  
$EndComp
Text GLabel 9250 3850 1    50   Input ~ 0
5VPower
$Comp
L power:GNDPWR #PWR036
U 1 1 5CD31513
P 9250 4050
F 0 "#PWR036" H 9250 3850 50  0001 C CNN
F 1 "GNDPWR" H 9254 3896 50  0000 C CNN
F 2 "" H 9250 4000 50  0001 C CNN
F 3 "" H 9250 4000 50  0001 C CNN
	1    9250 4050
	1    0    0    -1  
$EndComp
Text GLabel 9800 2450 2    50   Input ~ 0
5VPower
Text GLabel 8550 2250 2    50   Input ~ 0
5VPower
$Comp
L power:GNDPWR #PWR033
U 1 1 5CD32FF2
P 8550 2950
F 0 "#PWR033" H 8550 2750 50  0001 C CNN
F 1 "GNDPWR" H 8554 2796 50  0000 C CNN
F 2 "" H 8550 2900 50  0001 C CNN
F 3 "" H 8550 2900 50  0001 C CNN
	1    8550 2950
	1    0    0    -1  
$EndComp
$Comp
L power:GNDPWR #PWR034
U 1 1 5CD338B1
P 8550 4050
F 0 "#PWR034" H 8550 3850 50  0001 C CNN
F 1 "GNDPWR" H 8554 3896 50  0000 C CNN
F 2 "" H 8550 4000 50  0001 C CNN
F 3 "" H 8550 4000 50  0001 C CNN
	1    8550 4050
	1    0    0    -1  
$EndComp
$Comp
L Device:C_Small C17
U 1 1 5CD347C8
P 6700 2850
F 0 "C17" H 6792 2896 50  0000 L CNN
F 1 "0.1uF" H 6792 2805 50  0000 L CNN
F 2 "Capacitor_SMD:C_1206_3216Metric" H 6700 2850 50  0001 C CNN
F 3 "~" H 6700 2850 50  0001 C CNN
	1    6700 2850
	1    0    0    -1  
$EndComp
$Comp
L power:GND #PWR029
U 1 1 5CD347CE
P 6700 2950
F 0 "#PWR029" H 6700 2700 50  0001 C CNN
F 1 "GND" H 6705 2777 50  0000 C CNN
F 2 "" H 6700 2950 50  0001 C CNN
F 3 "" H 6700 2950 50  0001 C CNN
	1    6700 2950
	1    0    0    -1  
$EndComp
Text GLabel 6700 2750 1    50   Input ~ 0
3.3V
$Comp
L Device:C_Small C18
U 1 1 5CD351AC
P 6700 3950
F 0 "C18" H 6792 3996 50  0000 L CNN
F 1 "0.1uF" H 6792 3905 50  0000 L CNN
F 2 "Capacitor_SMD:C_1206_3216Metric" H 6700 3950 50  0001 C CNN
F 3 "~" H 6700 3950 50  0001 C CNN
	1    6700 3950
	1    0    0    -1  
$EndComp
$Comp
L power:GND #PWR030
U 1 1 5CD351B2
P 6700 4050
F 0 "#PWR030" H 6700 3800 50  0001 C CNN
F 1 "GND" H 6705 3877 50  0000 C CNN
F 2 "" H 6700 4050 50  0001 C CNN
F 3 "" H 6700 4050 50  0001 C CNN
	1    6700 4050
	1    0    0    -1  
$EndComp
Text GLabel 6700 3850 1    50   Input ~ 0
3.3V
$Comp
L power:GND #PWR031
U 1 1 5CD357B9
P 7550 2950
F 0 "#PWR031" H 7550 2700 50  0001 C CNN
F 1 "GND" H 7555 2777 50  0000 C CNN
F 2 "" H 7550 2950 50  0001 C CNN
F 3 "" H 7550 2950 50  0001 C CNN
	1    7550 2950
	1    0    0    -1  
$EndComp
$Comp
L power:GND #PWR032
U 1 1 5CD35DAA
P 7550 4050
F 0 "#PWR032" H 7550 3800 50  0001 C CNN
F 1 "GND" H 7555 3877 50  0000 C CNN
F 2 "" H 7550 4050 50  0001 C CNN
F 3 "" H 7550 4050 50  0001 C CNN
	1    7550 4050
	1    0    0    -1  
$EndComp
Text GLabel 7550 2250 0    50   Input ~ 0
3.3V
Text GLabel 7550 3350 0    50   Input ~ 0
3.3V
Text GLabel 7650 1550 0    50   Input ~ 0
SDA
Text GLabel 7650 1650 0    50   Input ~ 0
SCL
Text GLabel 8450 1550 2    50   Input ~ 0
SDAOUT
Text GLabel 8450 1650 2    50   Input ~ 0
SCLOUT
Text GLabel 7550 2850 0    50   Input ~ 0
INHA
Text GLabel 7550 2750 0    50   Input ~ 0
INLA
Text GLabel 7550 2650 0    50   Input ~ 0
INHB
Text GLabel 7550 2550 0    50   Input ~ 0
INLB
Text GLabel 7550 2450 0    50   Input ~ 0
INHC
Text GLabel 7550 2350 0    50   Input ~ 0
INLC
Text GLabel 8550 2850 2    50   Input ~ 0
INHAOUT
Text GLabel 8550 2750 2    50   Input ~ 0
INLAOUT
Text GLabel 8550 2650 2    50   Input ~ 0
INHBOUT
Text GLabel 8550 2550 2    50   Input ~ 0
INLBOUT
Text GLabel 8550 2450 2    50   Input ~ 0
INHCOUT
Text GLabel 8550 2350 2    50   Input ~ 0
INLCOUT
Text GLabel 7550 3550 0    50   Input ~ 0
CS
Text GLabel 7550 3650 0    50   Input ~ 0
SCK
Text GLabel 7550 3750 0    50   Input ~ 0
MOSI
Text GLabel 7550 3850 0    50   Input ~ 0
MISO
Text GLabel 7550 3950 0    50   Input ~ 0
NFAULT
Text GLabel 7550 3450 0    50   Input ~ 0
ENABLE
$Comp
L Device:R_Small R2
U 1 1 5CD469F0
P 1700 1200
F 0 "R2" V 1504 1200 50  0000 C CNN
F 1 "10kΩ" V 1595 1200 50  0000 C CNN
F 2 "Resistor_SMD:R_0603_1608Metric" H 1700 1200 50  0001 C CNN
F 3 "~" H 1700 1200 50  0001 C CNN
	1    1700 1200
	1    0    0    -1  
$EndComp
$Comp
L Device:C_Small C25
U 1 1 5CD48796
P 1700 1400
F 0 "C25" H 1792 1446 50  0000 L CNN
F 1 "0.1uF" H 1792 1355 50  0000 L CNN
F 2 "Capacitor_SMD:C_0603_1608Metric" H 1700 1400 50  0001 C CNN
F 3 "~" H 1700 1400 50  0001 C CNN
	1    1700 1400
	1    0    0    -1  
$EndComp
$Comp
L power:GND #PWR028
U 1 1 5CD4879C
P 1700 1500
F 0 "#PWR028" H 1700 1250 50  0001 C CNN
F 1 "GND" H 1705 1327 50  0000 C CNN
F 2 "" H 1700 1500 50  0001 C CNN
F 3 "" H 1700 1500 50  0001 C CNN
	1    1700 1500
	1    0    0    -1  
$EndComp
Text GLabel 1950 1300 2    50   Input ~ 0
RESET
Connection ~ 1700 1300
Text GLabel 1700 1100 1    50   Input ~ 0
3.3V
Wire Wire Line
	1700 1300 1950 1300
Wire Wire Line
	1450 1300 1700 1300
Text GLabel 2300 1900 0    50   Input ~ 0
RESET
$Comp
L power:GND #PWR037
U 1 1 5CD5185E
P 1050 1300
F 0 "#PWR037" H 1050 1050 50  0001 C CNN
F 1 "GND" H 1055 1127 50  0000 C CNN
F 2 "" H 1050 1300 50  0001 C CNN
F 3 "" H 1050 1300 50  0001 C CNN
	1    1050 1300
	1    0    0    -1  
$EndComp
$Comp
L Connector:USB_B_Micro J2
U 1 1 5CD5404B
P 2950 6500
F 0 "J2" H 3007 6967 50  0000 C CNN
F 1 "USB_B_Micro" H 3007 6876 50  0000 C CNN
F 2 "Connector_USB:USB_Micro-B_Molex_47346-0001" H 3100 6450 50  0001 C CNN
F 3 "~" H 3100 6450 50  0001 C CNN
	1    2950 6500
	1    0    0    -1  
$EndComp
$Comp
L Device:D_ALT D2
U 1 1 5CD59404
P 3400 6300
F 0 "D2" H 3400 6084 50  0000 C CNN
F 1 "D_ALT" H 3400 6175 50  0000 C CNN
F 2 "Diode_SMD:D_SMA" H 3400 6300 50  0001 C CNN
F 3 "~" H 3400 6300 50  0001 C CNN
	1    3400 6300
	-1   0    0    1   
$EndComp
$Comp
L power:GND #PWR039
U 1 1 5CD59CC0
P 2950 6900
F 0 "#PWR039" H 2950 6650 50  0001 C CNN
F 1 "GND" H 2955 6727 50  0000 C CNN
F 2 "" H 2950 6900 50  0001 C CNN
F 3 "" H 2950 6900 50  0001 C CNN
	1    2950 6900
	1    0    0    -1  
$EndComp
$Comp
L Device:R_Small R4
U 1 1 5CD5B3AF
P 3350 6500
F 0 "R4" V 3154 6500 50  0000 C CNN
F 1 "20Ω" V 3245 6500 50  0000 C CNN
F 2 "Resistor_SMD:R_0603_1608Metric" H 3350 6500 50  0001 C CNN
F 3 "~" H 3350 6500 50  0001 C CNN
	1    3350 6500
	0    1    1    0   
$EndComp
Text GLabel 3550 6300 2    50   Input ~ 0
7V
$Comp
L Device:R_Small R5
U 1 1 5CD5CA88
P 3350 6600
F 0 "R5" V 3154 6600 50  0000 C CNN
F 1 "20Ω" V 3245 6600 50  0000 C CNN
F 2 "Resistor_SMD:R_0603_1608Metric" H 3350 6600 50  0001 C CNN
F 3 "~" H 3350 6600 50  0001 C CNN
	1    3350 6600
	0    1    1    0   
$EndComp
$Comp
L power:GND #PWR040
U 1 1 5CD5E2B8
P 3250 6700
F 0 "#PWR040" H 3250 6450 50  0001 C CNN
F 1 "GND" H 3255 6527 50  0000 C CNN
F 2 "" H 3250 6700 50  0001 C CNN
F 3 "" H 3250 6700 50  0001 C CNN
	1    3250 6700
	1    0    0    -1  
$EndComp
Text GLabel 8550 3550 2    50   Input ~ 0
CSOUT
Text GLabel 8550 3650 2    50   Input ~ 0
SCKOUT
Text GLabel 8550 3750 2    50   Input ~ 0
MOSIOUT
Text GLabel 8550 3850 2    50   Input ~ 0
MISOOUT
Text GLabel 8550 3950 2    50   Input ~ 0
nFAULTOUT
Text GLabel 8550 3450 2    50   Input ~ 0
ENABLEOUT
$Comp
L Device:R_Small R11
U 1 1 5CCA2395
P 9550 5850
F 0 "R11" V 9354 5850 50  0000 C CNN
F 1 "1kΩ" V 9445 5850 50  0000 C CNN
F 2 "Resistor_SMD:R_0603_1608Metric" H 9550 5850 50  0001 C CNN
F 3 "~" H 9550 5850 50  0001 C CNN
	1    9550 5850
	0    -1   -1   0   
$EndComp
$Comp
L Device:R_Small R10
U 1 1 5CCA2A29
P 9550 5750
F 0 "R10" V 9354 5750 50  0000 C CNN
F 1 "4.714kΩ" V 9445 5750 50  0000 C CNN
F 2 "Resistor_SMD:R_0603_1608Metric" H 9550 5750 50  0001 C CNN
F 3 "~" H 9550 5750 50  0001 C CNN
	1    9550 5750
	0    -1   -1   0   
$EndComp
$Comp
L power:GNDPWR #PWR046
U 1 1 5CCA3DBB
P 9650 5850
F 0 "#PWR046" H 9650 5650 50  0001 C CNN
F 1 "GNDPWR" H 9654 5696 50  0000 C CNN
F 2 "" H 9650 5800 50  0001 C CNN
F 3 "" H 9650 5800 50  0001 C CNN
	1    9650 5850
	1    0    0    -1  
$EndComp
Text GLabel 9650 5750 2    50   Input ~ 0
7VPower
$Comp
L power:GNDPWR #PWR043
U 1 1 5CCA91E4
P 8650 6150
F 0 "#PWR043" H 8650 5950 50  0001 C CNN
F 1 "GNDPWR" H 8654 5996 50  0000 C CNN
F 2 "" H 8650 6100 50  0001 C CNN
F 3 "" H 8650 6100 50  0001 C CNN
	1    8650 6150
	1    0    0    -1  
$EndComp
$Comp
L power:GNDPWR #PWR044
U 1 1 5CCA9DF5
P 8750 6150
F 0 "#PWR044" H 8750 5950 50  0001 C CNN
F 1 "GNDPWR" H 8754 5996 50  0000 C CNN
F 2 "" H 8750 6100 50  0001 C CNN
F 3 "" H 8750 6100 50  0001 C CNN
	1    8750 6150
	1    0    0    -1  
$EndComp
Wire Wire Line
	9150 5250 9300 5250
Connection ~ 9300 5250
Wire Wire Line
	9300 5250 9300 4700
$Comp
L Device:R_Small R9
U 1 1 5CCB0134
P 8250 5750
F 0 "R9" V 8054 5750 50  0000 C CNN
F 1 "10kΩ" V 8145 5750 50  0000 C CNN
F 2 "Resistor_SMD:R_0603_1608Metric" H 8250 5750 50  0001 C CNN
F 3 "~" H 8250 5750 50  0001 C CNN
	1    8250 5750
	0    -1   -1   0   
$EndComp
$Comp
L power:+48V #PWR041
U 1 1 5CCB16CD
P 8150 5750
F 0 "#PWR041" H 8150 5600 50  0001 C CNN
F 1 "+48V" H 8165 5923 50  0000 C CNN
F 2 "" H 8150 5750 50  0001 C CNN
F 3 "" H 8150 5750 50  0001 C CNN
	1    8150 5750
	1    0    0    -1  
$EndComp
$Comp
L Device:R_Small R8
U 1 1 5CCB4403
P 8250 5550
F 0 "R8" V 8054 5550 50  0000 C CNN
F 1 "130kΩ" V 8145 5550 50  0000 C CNN
F 2 "Resistor_SMD:R_0603_1608Metric" H 8250 5550 50  0001 C CNN
F 3 "~" H 8250 5550 50  0001 C CNN
	1    8250 5550
	0    -1   -1   0   
$EndComp
Wire Wire Line
	8150 5450 8350 5450
Wire Wire Line
	8150 5450 8150 5550
$Comp
L Device:C_Small C21
U 1 1 5CCAC360
P 9150 5350
F 0 "C21" H 9242 5396 50  0000 L CNN
F 1 "0.01uF" H 9242 5305 50  0000 L CNN
F 2 "Capacitor_SMD:C_0603_1608Metric" H 9150 5350 50  0001 C CNN
F 3 "~" H 9150 5350 50  0001 C CNN
	1    9150 5350
	1    0    0    -1  
$EndComp
Wire Wire Line
	9150 5750 9450 5750
Wire Wire Line
	9450 5750 9450 5850
Connection ~ 9450 5750
$Comp
L Device:C_Small C22
U 1 1 5CCCD4D7
P 9150 6050
F 0 "C22" H 9242 6096 50  0000 L CNN
F 1 "1uF" H 9242 6005 50  0000 L CNN
F 2 "Capacitor_SMD:C_0603_1608Metric" H 9150 6050 50  0001 C CNN
F 3 "~" H 9150 6050 50  0001 C CNN
	1    9150 6050
	1    0    0    -1  
$EndComp
$Comp
L power:GNDPWR #PWR045
U 1 1 5CCCF099
P 9150 6150
F 0 "#PWR045" H 9150 5950 50  0001 C CNN
F 1 "GNDPWR" H 9154 5996 50  0000 C CNN
F 2 "" H 9150 6100 50  0001 C CNN
F 3 "" H 9150 6100 50  0001 C CNN
	1    9150 6150
	1    0    0    -1  
$EndComp
Text GLabel 3600 4400 2    50   Input ~ 0
SWDCLK
Text GLabel 3600 4300 2    50   Input ~ 0
SWDIO
$Comp
L Connector:Conn_01x04_Male J3
U 1 1 5CCA4E56
P 750 3600
F 0 "J3" H 858 3881 50  0000 C CNN
F 1 "Conn_01x04_Male" H 858 3790 50  0000 C CNN
F 2 "Connector_PinHeader_2.54mm:PinHeader_1x04_P2.54mm_Vertical" H 750 3600 50  0001 C CNN
F 3 "~" H 750 3600 50  0001 C CNN
	1    750  3600
	1    0    0    -1  
$EndComp
Text GLabel 950  3700 2    50   Input ~ 0
SWDCLK
Text GLabel 950  3600 2    50   Input ~ 0
SWDIO
Text GLabel 3450 6600 2    50   Input ~ 0
D-
Text GLabel 3450 6500 2    50   Input ~ 0
D+
Text GLabel 3600 4100 2    50   Input ~ 0
D-
Text GLabel 3600 4200 2    50   Input ~ 0
D+
Text GLabel 950  3500 2    50   Input ~ 0
3.3V
$Comp
L power:GND #PWR019
U 1 1 5CCA9A32
P 950 3800
F 0 "#PWR019" H 950 3550 50  0001 C CNN
F 1 "GND" H 955 3627 50  0000 C CNN
F 2 "" H 950 3800 50  0001 C CNN
F 3 "" H 950 3800 50  0001 C CNN
	1    950  3800
	1    0    0    -1  
$EndComp
$Comp
L Device:C_Small C10
U 1 1 5CCB6DE6
P 4150 2200
F 0 "C10" H 4242 2246 50  0000 L CNN
F 1 "0.1uF" H 4242 2155 50  0000 L CNN
F 2 "Capacitor_SMD:C_0603_1608Metric" H 4150 2200 50  0001 C CNN
F 3 "~" H 4150 2200 50  0001 C CNN
	1    4150 2200
	1    0    0    -1  
$EndComp
$Comp
L power:GND #PWR023
U 1 1 5CCB6DEC
P 4150 2300
F 0 "#PWR023" H 4150 2050 50  0001 C CNN
F 1 "GND" H 4155 2127 50  0000 C CNN
F 2 "" H 4150 2300 50  0001 C CNN
F 3 "" H 4150 2300 50  0001 C CNN
	1    4150 2300
	1    0    0    -1  
$EndComp
Text GLabel 4150 2100 1    50   Input ~ 0
3.3V
$Comp
L Device:C_Small C15
U 1 1 5CCB6DF3
P 4350 2200
F 0 "C15" H 4442 2246 50  0000 L CNN
F 1 "0.1uF" H 4442 2155 50  0000 L CNN
F 2 "Capacitor_SMD:C_0603_1608Metric" H 4350 2200 50  0001 C CNN
F 3 "~" H 4350 2200 50  0001 C CNN
	1    4350 2200
	1    0    0    -1  
$EndComp
$Comp
L power:GND #PWR026
U 1 1 5CCB6DF9
P 4350 2300
F 0 "#PWR026" H 4350 2050 50  0001 C CNN
F 1 "GND" H 4355 2127 50  0000 C CNN
F 2 "" H 4350 2300 50  0001 C CNN
F 3 "" H 4350 2300 50  0001 C CNN
	1    4350 2300
	1    0    0    -1  
$EndComp
Text GLabel 4350 2100 1    50   Input ~ 0
3.3V
$Comp
L Device:LED D3
U 1 1 5CCB7F55
P 4400 900
F 0 "D3" H 4393 645 50  0000 C CNN
F 1 "LED" H 4393 736 50  0000 C CNN
F 2 "LED_SMD:LED_0603_1608Metric" H 4400 900 50  0001 C CNN
F 3 "~" H 4400 900 50  0001 C CNN
	1    4400 900 
	-1   0    0    1   
$EndComp
$Comp
L Device:R_Small R6
U 1 1 5CCB9B1E
P 4150 900
F 0 "R6" V 3954 900 50  0000 C CNN
F 1 "500Ω" V 4045 900 50  0000 C CNN
F 2 "Resistor_SMD:R_0603_1608Metric" H 4150 900 50  0001 C CNN
F 3 "~" H 4150 900 50  0001 C CNN
	1    4150 900 
	0    1    1    0   
$EndComp
$Comp
L Device:LED D4
U 1 1 5CCBA970
P 4400 1200
F 0 "D4" H 4393 945 50  0000 C CNN
F 1 "LED" H 4393 1036 50  0000 C CNN
F 2 "LED_SMD:LED_0603_1608Metric" H 4400 1200 50  0001 C CNN
F 3 "~" H 4400 1200 50  0001 C CNN
	1    4400 1200
	-1   0    0    1   
$EndComp
$Comp
L Device:R_Small R7
U 1 1 5CCBA976
P 4150 1200
F 0 "R7" V 3954 1200 50  0000 C CNN
F 1 "500Ω" V 4045 1200 50  0000 C CNN
F 2 "Resistor_SMD:R_0603_1608Metric" H 4150 1200 50  0001 C CNN
F 3 "~" H 4150 1200 50  0001 C CNN
	1    4150 1200
	0    1    1    0   
$EndComp
$Comp
L power:GND #PWR038
U 1 1 5CCBD4DE
P 4550 900
F 0 "#PWR038" H 4550 650 50  0001 C CNN
F 1 "GND" H 4555 727 50  0000 C CNN
F 2 "" H 4550 900 50  0001 C CNN
F 3 "" H 4550 900 50  0001 C CNN
	1    4550 900 
	1    0    0    -1  
$EndComp
Text GLabel 4050 900  0    50   Input ~ 0
3.3V
Text GLabel 4050 1200 0    50   Input ~ 0
3.3V
Text GLabel 4550 1200 2    50   Input ~ 0
PC13
Text GLabel 2300 2600 0    50   Input ~ 0
PC13
Connection ~ 2450 5400
$Comp
L Device:C_Small C26
U 1 1 5CCC72AA
P 3650 5500
F 0 "C26" H 3742 5546 50  0000 L CNN
F 1 "10uF" H 3742 5455 50  0000 L CNN
F 2 "Capacitor_SMD:C_1206_3216Metric" H 3650 5500 50  0001 C CNN
F 3 "~" H 3650 5500 50  0001 C CNN
	1    3650 5500
	1    0    0    -1  
$EndComp
$Comp
L power:GND #PWR050
U 1 1 5CCC72B0
P 3650 5600
F 0 "#PWR050" H 3650 5350 50  0001 C CNN
F 1 "GND" H 3655 5427 50  0000 C CNN
F 2 "" H 3650 5600 50  0001 C CNN
F 3 "" H 3650 5600 50  0001 C CNN
	1    3650 5600
	1    0    0    -1  
$EndComp
Wire Wire Line
	3450 5400 3650 5400
Connection ~ 3450 5400
Connection ~ 3650 5400
Wire Wire Line
	3650 5400 3800 5400
Text GLabel 2300 3300 0    50   Input ~ 0
SCK
Text GLabel 2300 3500 0    50   Input ~ 0
MOSI
Text GLabel 2300 3400 0    50   Input ~ 0
MISO
Text GLabel 2300 3700 0    50   Input ~ 0
SDA
Text GLabel 2300 3600 0    50   Input ~ 0
SCL
Text GLabel 3600 3800 2    50   Input ~ 0
INHA
Text GLabel 3600 3700 2    50   Input ~ 0
INLA
Text GLabel 3600 3900 2    50   Input ~ 0
INHB
Text GLabel 2300 3000 0    50   Input ~ 0
INLB
Text GLabel 3600 4000 2    50   Input ~ 0
INHC
Text GLabel 2300 3100 0    50   Input ~ 0
INLC
$Comp
L Device:Crystal Y2
U 1 1 5CCF1FA1
P 900 2800
F 0 "Y2" H 900 3068 50  0000 C CNN
F 1 "Crystal" H 900 2977 50  0000 C CNN
F 2 "Crystal:Crystal_SMD_3215-2Pin_3.2x1.5mm" H 900 2800 50  0001 C CNN
F 3 "~" H 900 2800 50  0001 C CNN
	1    900  2800
	1    0    0    -1  
$EndComp
$Comp
L Device:C_Small C23
U 1 1 5CCF1FA7
P 750 2900
F 0 "C23" H 842 2946 50  0000 L CNN
F 1 "16pF" H 842 2855 50  0000 L CNN
F 2 "Capacitor_SMD:C_0603_1608Metric" H 750 2900 50  0001 C CNN
F 3 "~" H 750 2900 50  0001 C CNN
	1    750  2900
	1    0    0    -1  
$EndComp
$Comp
L Device:C_Small C24
U 1 1 5CCF1FAD
P 1050 2900
F 0 "C24" H 1142 2946 50  0000 L CNN
F 1 "16pF" H 1142 2855 50  0000 L CNN
F 2 "Capacitor_SMD:C_0603_1608Metric" H 1050 2900 50  0001 C CNN
F 3 "~" H 1050 2900 50  0001 C CNN
	1    1050 2900
	1    0    0    -1  
$EndComp
$Comp
L power:GND #PWR047
U 1 1 5CCF1FB3
P 750 3000
F 0 "#PWR047" H 750 2750 50  0001 C CNN
F 1 "GND" H 755 2827 50  0000 C CNN
F 2 "" H 750 3000 50  0001 C CNN
F 3 "" H 750 3000 50  0001 C CNN
	1    750  3000
	1    0    0    -1  
$EndComp
$Comp
L power:GND #PWR048
U 1 1 5CCF1FB9
P 1050 3000
F 0 "#PWR048" H 1050 2750 50  0001 C CNN
F 1 "GND" H 1055 2827 50  0000 C CNN
F 2 "" H 1050 3000 50  0001 C CNN
F 3 "" H 1050 3000 50  0001 C CNN
	1    1050 3000
	1    0    0    -1  
$EndComp
Connection ~ 1050 2800
Wire Wire Line
	1050 2700 1050 2450
Wire Wire Line
	1050 2450 750  2450
Wire Wire Line
	750  2450 750  2800
Connection ~ 750  2800
Wire Wire Line
	1050 2700 2300 2700
Wire Wire Line
	1050 2800 2300 2800
$Comp
L Interface_CAN_LIN:ISO1050DUB U6
U 1 1 5CCF7E83
P 8050 800
F 0 "U6" H 8050 800 50  0000 C CNN
F 1 "ISO1050DUB" H 8050 1076 50  0000 C CNN
F 2 "Package_SO:SOP-8_6.62x9.15mm_P2.54mm" H 8050 450 50  0001 C CIN
F 3 "http://www.ti.com/lit/ds/symlink/iso1050.pdf" H 8050 750 50  0001 C CNN
	1    8050 800 
	1    0    0    -1  
$EndComp
Wire Notes Line
	8050 1150 11200 1150
$Comp
L Connector:Conn_01x04_Male J4
U 1 1 5CD02F0A
P 9000 900
F 0 "J4" H 9108 1181 50  0000 C CNN
F 1 "Conn_01x04_Male" H 9108 1090 50  0000 C CNN
F 2 "Connector_PinHeader_2.54mm:PinHeader_1x04_P2.54mm_Vertical" H 9000 900 50  0001 C CNN
F 3 "~" H 9000 900 50  0001 C CNN
	1    9000 900 
	-1   0    0    1   
$EndComp
Wire Wire Line
	8450 900  8800 900 
Wire Wire Line
	8800 1000 8450 1000
Wire Wire Line
	8450 800  8800 800 
Wire Wire Line
	8800 700  8450 700 
Text GLabel 2300 3800 0    50   Input ~ 0
CANRX
Text GLabel 2300 3900 0    50   Input ~ 0
CANTX
Text GLabel 7650 800  0    50   Input ~ 0
CANRX
Text GLabel 7650 900  0    50   Input ~ 0
CANTX
Text GLabel 7650 700  0    50   Input ~ 0
3.3V
$Comp
L Device:C_Small C27
U 1 1 5CD15541
P 6700 900
F 0 "C27" H 6792 946 50  0000 L CNN
F 1 "0.1uF" H 6792 855 50  0000 L CNN
F 2 "Capacitor_SMD:C_1206_3216Metric" H 6700 900 50  0001 C CNN
F 3 "~" H 6700 900 50  0001 C CNN
	1    6700 900 
	1    0    0    -1  
$EndComp
$Comp
L power:GND #PWR051
U 1 1 5CD15547
P 6700 1000
F 0 "#PWR051" H 6700 750 50  0001 C CNN
F 1 "GND" H 6705 827 50  0000 C CNN
F 2 "" H 6700 1000 50  0001 C CNN
F 3 "" H 6700 1000 50  0001 C CNN
	1    6700 1000
	1    0    0    -1  
$EndComp
Text GLabel 6700 800  1    50   Input ~ 0
3.3V
$Comp
L power:GND #PWR052
U 1 1 5CD16464
P 7650 1000
F 0 "#PWR052" H 7650 750 50  0001 C CNN
F 1 "GND" H 7655 827 50  0000 C CNN
F 2 "" H 7650 1000 50  0001 C CNN
F 3 "" H 7650 1000 50  0001 C CNN
	1    7650 1000
	1    0    0    -1  
$EndComp
$Comp
L Connector:Conn_01x17_Female J5
U 1 1 5CCA7EF8
P 10750 2950
F 0 "J5" H 10778 2976 50  0000 L CNN
F 1 "Conn_01x17_Female" H 10778 2885 50  0000 L CNN
F 2 "Connector_PinHeader_2.54mm:PinHeader_1x17_P2.54mm_Vertical" H 10750 2950 50  0001 C CNN
F 3 "~" H 10750 2950 50  0001 C CNN
	1    10750 2950
	1    0    0    -1  
$EndComp
Text GLabel 10550 2150 0    50   Input ~ 0
SDAOUT
Text GLabel 10550 2250 0    50   Input ~ 0
SCLOUT
Text GLabel 10550 2850 0    50   Input ~ 0
INHAOUT
Text GLabel 10550 2750 0    50   Input ~ 0
INLAOUT
Text GLabel 10550 2650 0    50   Input ~ 0
INHBOUT
Text GLabel 10550 2550 0    50   Input ~ 0
INLBOUT
Text GLabel 10550 2450 0    50   Input ~ 0
INHCOUT
Text GLabel 10550 2350 0    50   Input ~ 0
INLCOUT
$Comp
L power:+48V #PWR0101
U 1 1 5CCB1F34
P 10100 2950
F 0 "#PWR0101" H 10100 2800 50  0001 C CNN
F 1 "+48V" H 10115 3123 50  0000 C CNN
F 2 "" H 10100 2950 50  0001 C CNN
F 3 "" H 10100 2950 50  0001 C CNN
	1    10100 2950
	1    0    0    -1  
$EndComp
Wire Wire Line
	10100 2950 10550 2950
Text GLabel 10550 3050 0    50   Input ~ 0
5VPower
Text GLabel 10550 3250 0    50   Input ~ 0
CSOUT
Text GLabel 10550 3350 0    50   Input ~ 0
SCKOUT
Text GLabel 10550 3450 0    50   Input ~ 0
MOSIOUT
Text GLabel 10550 3550 0    50   Input ~ 0
MISOOUT
Text GLabel 10550 3650 0    50   Input ~ 0
nFAULTOUT
Text GLabel 10550 3150 0    50   Input ~ 0
ENABLEOUT
$Comp
L power:GNDPWR #PWR0102
U 1 1 5CCBA93D
P 10550 3750
F 0 "#PWR0102" H 10550 3550 50  0001 C CNN
F 1 "GNDPWR" H 10554 3596 50  0000 C CNN
F 2 "" H 10550 3700 50  0001 C CNN
F 3 "" H 10550 3700 50  0001 C CNN
	1    10550 3750
	1    0    0    -1  
$EndComp
NoConn ~ 2850 6900
NoConn ~ 2300 4300
NoConn ~ 2300 4400
NoConn ~ 2300 4500
NoConn ~ 3600 4500
NoConn ~ 3600 3600
NoConn ~ 3600 3500
NoConn ~ 3600 3400
NoConn ~ 3600 3300
NoConn ~ 3600 3200
NoConn ~ 3600 3100
NoConn ~ 3600 3000
Text GLabel 2300 4100 0    50   Input ~ 0
CS
Text GLabel 2300 4000 0    50   Input ~ 0
ENABLE
Text GLabel 2300 4200 0    50   Input ~ 0
NFAULT
$Comp
L Device:C_Small C28
U 1 1 5CCD27DF
P 9150 850
F 0 "C28" H 9242 896 50  0000 L CNN
F 1 "0.1uF" H 9242 805 50  0000 L CNN
F 2 "Capacitor_SMD:C_1206_3216Metric" H 9150 850 50  0001 C CNN
F 3 "~" H 9150 850 50  0001 C CNN
	1    9150 850 
	1    0    0    -1  
$EndComp
Wire Wire Line
	9150 750  9150 550 
Wire Wire Line
	9150 550  8800 550 
Wire Wire Line
	8800 550  8800 700 
Connection ~ 8800 700 
Wire Wire Line
	8800 1000 8800 1050
Wire Wire Line
	8800 1050 9150 1050
Wire Wire Line
	9150 1050 9150 950 
Connection ~ 8800 1000
$Comp
L Device:Transformer_1P_1S T1
U 1 1 5CCCA65D
P 8050 4500
F 0 "T1" H 8050 4881 50  0000 C CNN
F 1 "Transformer_1P_1S" H 8050 4790 50  0000 C CNN
F 2 "EVCONCEPT:msd1278" H 8050 4500 50  0001 C CNN
F 3 "https://www.coilcraft.com/pdfs/msd1278.pdf" H 8050 4500 50  0001 C CNN
	1    8050 4500
	1    0    0    -1  
$EndComp
Wire Notes Line
	8050 6500 8050 500 
$Comp
L power:+48V #PWR0103
U 1 1 5CCED2E1
P 10600 5950
F 0 "#PWR0103" H 10600 5800 50  0001 C CNN
F 1 "+48V" H 10615 6123 50  0000 C CNN
F 2 "" H 10600 5950 50  0001 C CNN
F 3 "" H 10600 5950 50  0001 C CNN
	1    10600 5950
	1    0    0    -1  
$EndComp
$Comp
L power:+48V #PWR042
U 1 1 5CCB355F
P 8150 5450
F 0 "#PWR042" H 8150 5300 50  0001 C CNN
F 1 "+48V" H 8165 5623 50  0000 C CNN
F 2 "" H 8150 5450 50  0001 C CNN
F 3 "" H 8150 5450 50  0001 C CNN
	1    8150 5450
	1    0    0    -1  
$EndComp
Connection ~ 8150 5450
$Comp
L Device:C_Small C30
U 1 1 5CCF2B1D
P 10600 6050
F 0 "C30" H 10692 6096 50  0000 L CNN
F 1 "1uF" H 10692 6005 50  0000 L CNN
F 2 "Capacitor_SMD:C_1206_3216Metric" H 10600 6050 50  0001 C CNN
F 3 "~" H 10600 6050 50  0001 C CNN
	1    10600 6050
	1    0    0    -1  
$EndComp
$Comp
L power:GNDPWR #PWR0104
U 1 1 5CCF2B23
P 10600 6150
F 0 "#PWR0104" H 10600 5950 50  0001 C CNN
F 1 "GNDPWR" H 10604 5996 50  0000 C CNN
F 2 "" H 10600 6100 50  0001 C CNN
F 3 "" H 10600 6100 50  0001 C CNN
	1    10600 6150
	1    0    0    -1  
$EndComp
$Comp
L power:+48V #PWR0105
U 1 1 5CCF482D
P 10750 5950
F 0 "#PWR0105" H 10750 5800 50  0001 C CNN
F 1 "+48V" H 10765 6123 50  0000 C CNN
F 2 "" H 10750 5950 50  0001 C CNN
F 3 "" H 10750 5950 50  0001 C CNN
	1    10750 5950
	1    0    0    -1  
$EndComp
$Comp
L Device:C_Small C31
U 1 1 5CCF4833
P 10750 6050
F 0 "C31" H 10842 6096 50  0000 L CNN
F 1 "0.1uF" H 10842 6005 50  0000 L CNN
F 2 "Capacitor_SMD:C_1206_3216Metric" H 10750 6050 50  0001 C CNN
F 3 "~" H 10750 6050 50  0001 C CNN
	1    10750 6050
	1    0    0    -1  
$EndComp
$Comp
L power:GNDPWR #PWR0106
U 1 1 5CCF4839
P 10750 6150
F 0 "#PWR0106" H 10750 5950 50  0001 C CNN
F 1 "GNDPWR" H 10754 5996 50  0000 C CNN
F 2 "" H 10750 6100 50  0001 C CNN
F 3 "" H 10750 6100 50  0001 C CNN
	1    10750 6150
	1    0    0    -1  
$EndComp
$Comp
L power:+48V #PWR0107
U 1 1 5CCF91C0
P 10450 5950
F 0 "#PWR0107" H 10450 5800 50  0001 C CNN
F 1 "+48V" H 10465 6123 50  0000 C CNN
F 2 "" H 10450 5950 50  0001 C CNN
F 3 "" H 10450 5950 50  0001 C CNN
	1    10450 5950
	1    0    0    -1  
$EndComp
$Comp
L Device:C_Small C29
U 1 1 5CCF91C6
P 10450 6050
F 0 "C29" H 10542 6096 50  0000 L CNN
F 1 "10uF" H 10542 6005 50  0000 L CNN
F 2 "Capacitor_SMD:C_2220_5650Metric" H 10450 6050 50  0001 C CNN
F 3 "~" H 10450 6050 50  0001 C CNN
	1    10450 6050
	1    0    0    -1  
$EndComp
$Comp
L power:GNDPWR #PWR0108
U 1 1 5CCF91CC
P 10450 6150
F 0 "#PWR0108" H 10450 5950 50  0001 C CNN
F 1 "GNDPWR" H 10454 5996 50  0000 C CNN
F 2 "" H 10450 6100 50  0001 C CNN
F 3 "" H 10450 6100 50  0001 C CNN
	1    10450 6150
	1    0    0    -1  
$EndComp
Text GLabel 8550 3350 2    50   Input ~ 0
5VPower
Wire Wire Line
	2150 5400 2450 5400
Text GLabel 6500 1750 3    50   Input ~ 0
SDA
Text GLabel 6400 1750 3    50   Input ~ 0
SCL
Text GLabel 6500 1550 1    50   Input ~ 0
3.3V
Text GLabel 6400 1550 1    50   Input ~ 0
3.3V
$Comp
L Device:R_Small R3
U 1 1 5CDCF525
P 6400 1650
F 0 "R3" V 6204 1650 50  0000 C CNN
F 1 "4.7kΩ" V 6295 1650 50  0000 C CNN
F 2 "Resistor_SMD:R_0603_1608Metric" H 6400 1650 50  0001 C CNN
F 3 "~" H 6400 1650 50  0001 C CNN
	1    6400 1650
	-1   0    0    1   
$EndComp
$Comp
L Device:R_Small R12
U 1 1 5CDD2E03
P 6500 1650
F 0 "R12" V 6304 1650 50  0000 C CNN
F 1 "4.7kΩ" V 6395 1650 50  0000 C CNN
F 2 "Resistor_SMD:R_0603_1608Metric" H 6500 1650 50  0001 C CNN
F 3 "~" H 6500 1650 50  0001 C CNN
	1    6500 1650
	-1   0    0    1   
$EndComp
Wire Wire Line
	3200 1100 3200 1200
Connection ~ 3200 1200
Wire Wire Line
	8450 4300 8600 4300
$EndSCHEMATC
