G04 EAGLE Gerber X2 export*
%TF.Part,Single*%
%TF.FileFunction,Soldermask,Bot,1*%
%TF.FilePolarity,Negative*%
%TF.GenerationSoftware,Autodesk,EAGLE,9.1.3*%
%TF.CreationDate,2019-02-05T19:04:39Z*%
G75*
%MOMM*%
%FSLAX34Y34*%
%LPD*%
%AMOC8*
5,1,8,0,0,1.08239X$1,22.5*%
G01*
%ADD10C,3.203200*%
%ADD11P,1.869504X8X112.500000*%
%ADD12P,1.869504X8X292.500000*%
%ADD13P,1.869504X8X22.500000*%
%ADD14C,1.727200*%
%ADD15C,0.959600*%


D10*
X25400Y26988D03*
X974725Y866775D03*
X712788Y25400D03*
D11*
X958850Y412750D03*
D12*
X958850Y304800D03*
X958850Y196850D03*
X958850Y88900D03*
D13*
X50800Y850900D03*
X158750Y850900D03*
X266700Y850900D03*
X374650Y850900D03*
X482600Y850900D03*
X596900Y850900D03*
X704850Y850900D03*
D12*
X958850Y628650D03*
D13*
X958850Y520700D03*
D11*
X57150Y501650D03*
X31750Y501650D03*
X57150Y527050D03*
X31750Y527050D03*
X57150Y552450D03*
X31750Y552450D03*
D14*
X570230Y501650D02*
X585470Y501650D01*
X585470Y476250D02*
X570230Y476250D01*
X36195Y184150D02*
X20955Y184150D01*
X20955Y158750D02*
X36195Y158750D01*
X205105Y314325D02*
X220345Y314325D01*
X220345Y339725D02*
X205105Y339725D01*
X431800Y449580D02*
X431800Y464820D01*
X457200Y464820D02*
X457200Y449580D01*
D15*
X603504Y493776D03*
X836676Y557784D03*
X804672Y532638D03*
X793242Y342900D03*
X786384Y416052D03*
X786384Y626364D03*
X592074Y436626D03*
X788670Y233172D03*
X731520Y640080D03*
X189738Y610362D03*
X228600Y729234D03*
X153162Y676656D03*
X182880Y596646D03*
X173736Y313182D03*
X557784Y532638D03*
X772668Y155448D03*
X726948Y100584D03*
X806958Y262890D03*
X806958Y162306D03*
X806958Y370332D03*
X98298Y676656D03*
X194310Y676656D03*
X409194Y699516D03*
X498348Y685800D03*
X633222Y676656D03*
X738378Y678942D03*
X793242Y610362D03*
X20574Y598932D03*
X795528Y489204D03*
X786384Y22860D03*
X681228Y301752D03*
X415925Y431800D03*
X758825Y41275D03*
X779526Y141732D03*
X653796Y306324D03*
X415925Y441325D03*
X765175Y149225D03*
X415925Y488950D03*
X762000Y257175D03*
X349250Y539750D03*
X765175Y365125D03*
X342900Y549275D03*
X777875Y469900D03*
X244475Y492125D03*
X768350Y577850D03*
X236614Y484264D03*
X752475Y660400D03*
X228600Y479425D03*
X644525Y660400D03*
X228600Y466725D03*
X527050Y657225D03*
X489204Y635508D03*
X644652Y594360D03*
X215900Y466725D03*
X422275Y654050D03*
X117475Y565150D03*
X233172Y688086D03*
X294894Y626364D03*
X468630Y626364D03*
X633222Y594360D03*
X117475Y555625D03*
X112014Y649224D03*
X329184Y633222D03*
X795528Y125730D03*
X788670Y210312D03*
X781812Y313182D03*
X756666Y338328D03*
X452628Y425196D03*
X125730Y699516D03*
X27432Y699516D03*
X333756Y708660D03*
X445770Y690372D03*
X562356Y690372D03*
X667512Y690372D03*
X841248Y544068D03*
X804672Y642366D03*
X585216Y333756D03*
X644652Y562356D03*
X688086Y477774D03*
X637794Y372618D03*
X361950Y415925D03*
X330200Y434975D03*
X330200Y857250D03*
X368046Y738378D03*
X653796Y848106D03*
X953262Y400050D03*
X861822Y217170D03*
X153162Y699516D03*
X164592Y658368D03*
X342900Y393700D03*
X219075Y368300D03*
X226314Y146304D03*
X283464Y146304D03*
X212725Y403225D03*
X231775Y447675D03*
X387350Y577850D03*
X311150Y565150D03*
X358775Y511175D03*
X330200Y492125D03*
M02*
