G04 EAGLE Gerber X2 export*
%TF.Part,Single*%
%TF.FileFunction,Soldermask,Top,1*%
%TF.FilePolarity,Negative*%
%TF.GenerationSoftware,Autodesk,EAGLE,9.1.3*%
%TF.CreationDate,2019-02-05T19:04:39Z*%
G75*
%MOMM*%
%FSLAX34Y34*%
%LPD*%
%AMOC8*
5,1,8,0,0,1.08239X$1,22.5*%
G01*
%ADD10C,3.203200*%
%ADD11R,1.803200X2.003200*%
%ADD12R,2.003200X1.803200*%
%ADD13P,1.869504X8X112.500000*%
%ADD14R,1.303200X1.203200*%
%ADD15R,2.006200X1.803200*%
%ADD16R,1.103200X1.003200*%
%ADD17R,2.703200X1.903200*%
%ADD18P,1.869504X8X292.500000*%
%ADD19P,1.869504X8X22.500000*%
%ADD20R,1.203200X1.303200*%
%ADD21R,1.803200X2.006200*%
%ADD22R,1.003200X1.103200*%
%ADD23R,1.903200X2.703200*%
%ADD24C,1.727200*%
%ADD25R,1.203200X1.603200*%
%ADD26R,0.703200X2.203200*%
%ADD27R,2.203200X0.703200*%
%ADD28R,3.203200X0.838200*%
%ADD29R,1.703200X0.653200*%
%ADD30R,0.653200X1.703200*%
%ADD31R,2.203200X1.203200*%
%ADD32R,2.203200X0.838200*%
%ADD33R,1.753200X0.803200*%
%ADD34R,2.913200X3.603200*%
%ADD35R,3.703200X5.603200*%
%ADD36R,2.003200X2.603200*%
%ADD37C,0.959600*%


D10*
X25400Y26988D03*
X974725Y866775D03*
X712788Y25400D03*
D11*
X586075Y546100D03*
X614075Y546100D03*
X182275Y581025D03*
X154275Y581025D03*
X243175Y581025D03*
X271175Y581025D03*
X322550Y609600D03*
X350550Y609600D03*
X576550Y349250D03*
X604550Y349250D03*
D12*
X577850Y318800D03*
X577850Y290800D03*
D11*
X643225Y511175D03*
X671225Y511175D03*
X807750Y393700D03*
X779750Y393700D03*
D13*
X958850Y412750D03*
D14*
X857250Y421250D03*
X857250Y404250D03*
X831850Y404250D03*
X831850Y421250D03*
X831850Y370450D03*
X831850Y353450D03*
D15*
X933450Y398530D03*
X933450Y426970D03*
X908050Y398530D03*
X908050Y426970D03*
X882650Y398530D03*
X882650Y426970D03*
D16*
X796450Y371450D03*
X796450Y352450D03*
X816450Y361950D03*
X796450Y434950D03*
X796450Y415950D03*
X816450Y425450D03*
D17*
X857250Y374650D03*
X857250Y349650D03*
X937250Y349650D03*
X937250Y374650D03*
D11*
X807750Y285750D03*
X779750Y285750D03*
D18*
X958850Y304800D03*
D14*
X857250Y313300D03*
X857250Y296300D03*
X831850Y296300D03*
X831850Y313300D03*
X831850Y262500D03*
X831850Y245500D03*
D15*
X882650Y319020D03*
X882650Y290580D03*
X908050Y319020D03*
X908050Y290580D03*
X933450Y319020D03*
X933450Y290580D03*
D16*
X796450Y263500D03*
X796450Y244500D03*
X816450Y254000D03*
X796450Y327000D03*
X796450Y308000D03*
X816450Y317500D03*
D17*
X857250Y266700D03*
X857250Y241700D03*
X937250Y241700D03*
X937250Y266700D03*
D11*
X807750Y177800D03*
X779750Y177800D03*
D18*
X958850Y196850D03*
D14*
X857250Y205350D03*
X857250Y188350D03*
X831850Y188350D03*
X831850Y205350D03*
X831850Y154550D03*
X831850Y137550D03*
D15*
X933450Y182630D03*
X933450Y211070D03*
X908050Y182630D03*
X908050Y211070D03*
X882650Y182630D03*
X882650Y211070D03*
D16*
X796450Y155550D03*
X796450Y136550D03*
X816450Y146050D03*
X796450Y219050D03*
X796450Y200050D03*
X816450Y209550D03*
D17*
X857250Y158750D03*
X857250Y133750D03*
X937250Y133750D03*
X937250Y158750D03*
D11*
X807750Y69850D03*
X779750Y69850D03*
D18*
X958850Y88900D03*
D14*
X857250Y97400D03*
X857250Y80400D03*
X831850Y80400D03*
X831850Y97400D03*
X831850Y46600D03*
X831850Y29600D03*
D15*
X882650Y74680D03*
X882650Y103120D03*
X908050Y74680D03*
X908050Y103120D03*
X933450Y74680D03*
X933450Y103120D03*
D16*
X796450Y47600D03*
X796450Y28600D03*
X816450Y38100D03*
X796450Y111100D03*
X796450Y92100D03*
X816450Y101600D03*
D17*
X857250Y50800D03*
X857250Y25800D03*
X937250Y25800D03*
X937250Y50800D03*
D12*
X69850Y699800D03*
X69850Y671800D03*
D19*
X50800Y850900D03*
D20*
X42300Y749300D03*
X59300Y749300D03*
X59300Y723900D03*
X42300Y723900D03*
X93100Y723900D03*
X110100Y723900D03*
D21*
X65020Y825500D03*
X36580Y825500D03*
X65020Y800100D03*
X36580Y800100D03*
X65020Y774700D03*
X36580Y774700D03*
D22*
X92100Y688500D03*
X111100Y688500D03*
X101600Y708500D03*
X28600Y688500D03*
X47600Y688500D03*
X38100Y708500D03*
D23*
X88900Y749300D03*
X113900Y749300D03*
X113900Y829300D03*
X88900Y829300D03*
D12*
X177800Y699800D03*
X177800Y671800D03*
D19*
X158750Y850900D03*
D20*
X150250Y749300D03*
X167250Y749300D03*
X167250Y723900D03*
X150250Y723900D03*
X201050Y723900D03*
X218050Y723900D03*
D21*
X172970Y774700D03*
X144530Y774700D03*
X172970Y800100D03*
X144530Y800100D03*
X172970Y825500D03*
X144530Y825500D03*
D22*
X200050Y688500D03*
X219050Y688500D03*
X209550Y708500D03*
X136550Y688500D03*
X155550Y688500D03*
X146050Y708500D03*
D23*
X196850Y749300D03*
X221850Y749300D03*
X221850Y829300D03*
X196850Y829300D03*
D12*
X285750Y671800D03*
X285750Y699800D03*
D19*
X266700Y850900D03*
D20*
X258200Y749300D03*
X275200Y749300D03*
X275200Y723900D03*
X258200Y723900D03*
X309000Y723900D03*
X326000Y723900D03*
D21*
X280920Y774700D03*
X252480Y774700D03*
X280920Y800100D03*
X252480Y800100D03*
X280920Y825500D03*
X252480Y825500D03*
D22*
X308000Y688500D03*
X327000Y688500D03*
X317500Y708500D03*
X244500Y688500D03*
X263500Y688500D03*
X254000Y708500D03*
D23*
X304800Y749300D03*
X329800Y749300D03*
X329800Y829300D03*
X304800Y829300D03*
D12*
X393700Y699800D03*
X393700Y671800D03*
D19*
X374650Y850900D03*
D20*
X366150Y749300D03*
X383150Y749300D03*
X383150Y723900D03*
X366150Y723900D03*
X416950Y723900D03*
X433950Y723900D03*
D21*
X388870Y825500D03*
X360430Y825500D03*
X388870Y800100D03*
X360430Y800100D03*
X388870Y774700D03*
X360430Y774700D03*
D22*
X415950Y688500D03*
X434950Y688500D03*
X425450Y708500D03*
X352450Y688500D03*
X371450Y688500D03*
X361950Y708500D03*
D23*
X412750Y749300D03*
X437750Y749300D03*
X437750Y829300D03*
X412750Y829300D03*
D12*
X501650Y699800D03*
X501650Y671800D03*
D19*
X482600Y850900D03*
D20*
X474100Y749300D03*
X491100Y749300D03*
X491100Y723900D03*
X474100Y723900D03*
X531250Y723900D03*
X548250Y723900D03*
D21*
X468380Y774700D03*
X496820Y774700D03*
X468380Y800100D03*
X496820Y800100D03*
X468380Y825500D03*
X496820Y825500D03*
D22*
X523900Y688500D03*
X542900Y688500D03*
X533400Y708500D03*
X460400Y688500D03*
X479400Y688500D03*
X469900Y708500D03*
D23*
X527050Y749300D03*
X552050Y749300D03*
X552050Y829300D03*
X527050Y829300D03*
D12*
X615950Y671800D03*
X615950Y699800D03*
D19*
X596900Y850900D03*
D20*
X588400Y749300D03*
X605400Y749300D03*
X588400Y723900D03*
X605400Y723900D03*
X639200Y723900D03*
X656200Y723900D03*
D21*
X582680Y774700D03*
X611120Y774700D03*
X582680Y800100D03*
X611120Y800100D03*
X582680Y825500D03*
X611120Y825500D03*
D22*
X638200Y688500D03*
X657200Y688500D03*
X647700Y708500D03*
X574700Y688500D03*
X593700Y688500D03*
X584200Y708500D03*
D23*
X635000Y749300D03*
X660000Y749300D03*
X660000Y829300D03*
X635000Y829300D03*
D12*
X723900Y699800D03*
X723900Y671800D03*
D19*
X704850Y850900D03*
D20*
X696350Y749300D03*
X713350Y749300D03*
X713350Y723900D03*
X696350Y723900D03*
X747150Y723900D03*
X764150Y723900D03*
D21*
X719070Y825500D03*
X690630Y825500D03*
X719070Y800100D03*
X690630Y800100D03*
X719070Y774700D03*
X690630Y774700D03*
D22*
X746150Y688500D03*
X765150Y688500D03*
X755650Y708500D03*
X682650Y688500D03*
X701650Y688500D03*
X692150Y708500D03*
D23*
X742950Y749300D03*
X767950Y749300D03*
X767950Y829300D03*
X742950Y829300D03*
D11*
X807750Y609600D03*
X779750Y609600D03*
D18*
X958850Y628650D03*
D14*
X857250Y637150D03*
X857250Y620150D03*
X831850Y620150D03*
X831850Y637150D03*
X831850Y586350D03*
X831850Y569350D03*
D15*
X882650Y614430D03*
X882650Y642870D03*
X908050Y614430D03*
X908050Y642870D03*
X933450Y614430D03*
X933450Y642870D03*
D16*
X796450Y587350D03*
X796450Y568350D03*
X816450Y577850D03*
X796450Y650850D03*
X796450Y631850D03*
X816450Y641350D03*
D17*
X857250Y590550D03*
X857250Y565550D03*
X937250Y565550D03*
X937250Y590550D03*
D11*
X807750Y501650D03*
X779750Y501650D03*
D19*
X958850Y520700D03*
D14*
X857250Y529200D03*
X857250Y512200D03*
X831850Y512200D03*
X831850Y529200D03*
X831850Y478400D03*
X831850Y461400D03*
D15*
X882650Y506480D03*
X882650Y534920D03*
X933450Y506480D03*
X933450Y534920D03*
X908050Y506480D03*
X908050Y534920D03*
D16*
X796450Y479400D03*
X796450Y460400D03*
X816450Y469900D03*
X796450Y542900D03*
X796450Y523900D03*
X816450Y533400D03*
D17*
X857250Y482600D03*
X857250Y457600D03*
X937250Y457600D03*
X937250Y482600D03*
D13*
X57150Y501650D03*
X31750Y501650D03*
X57150Y527050D03*
X31750Y527050D03*
X57150Y552450D03*
X31750Y552450D03*
D24*
X570230Y501650D02*
X585470Y501650D01*
X585470Y476250D02*
X570230Y476250D01*
D20*
X608575Y609600D03*
X591575Y609600D03*
X655075Y488950D03*
X672075Y488950D03*
D14*
X555625Y303775D03*
X555625Y286775D03*
D20*
X543950Y454025D03*
X560950Y454025D03*
X599050Y412750D03*
X582050Y412750D03*
D25*
X600075Y566850D03*
X590575Y588850D03*
X609575Y588850D03*
D26*
X345575Y510475D03*
X337575Y510475D03*
X329575Y510475D03*
X321575Y510475D03*
X313575Y510475D03*
X305575Y510475D03*
X297575Y510475D03*
X289575Y510475D03*
D27*
X270575Y491475D03*
X270575Y483475D03*
X270575Y475475D03*
X270575Y467475D03*
X270575Y459475D03*
X270575Y451475D03*
X270575Y443475D03*
X270575Y435475D03*
D26*
X289575Y416475D03*
X297575Y416475D03*
X305575Y416475D03*
X313575Y416475D03*
X321575Y416475D03*
X329575Y416475D03*
X337575Y416475D03*
X345575Y416475D03*
D27*
X364575Y435475D03*
X364575Y443475D03*
X364575Y451475D03*
X364575Y459475D03*
X364575Y467475D03*
X364575Y475475D03*
X364575Y483475D03*
X364575Y491475D03*
D28*
X158750Y537850D03*
X272750Y537850D03*
D29*
X609600Y331250D03*
X609600Y324750D03*
X609600Y318250D03*
X609600Y311750D03*
X609600Y305250D03*
X609600Y298750D03*
X609600Y292250D03*
X609600Y285750D03*
X668100Y285750D03*
X668100Y292250D03*
X668100Y298750D03*
X668100Y305250D03*
X668100Y311750D03*
X668100Y318250D03*
X668100Y324750D03*
X668100Y331250D03*
D30*
X630775Y549275D03*
X637275Y549275D03*
X643775Y549275D03*
X650275Y549275D03*
X656775Y549275D03*
X663275Y549275D03*
X669775Y549275D03*
X676275Y549275D03*
X676275Y607775D03*
X669775Y607775D03*
X663275Y607775D03*
X656775Y607775D03*
X650275Y607775D03*
X643775Y607775D03*
X637275Y607775D03*
X630775Y607775D03*
D25*
X590550Y370000D03*
X581050Y392000D03*
X600050Y392000D03*
D31*
X488950Y470975D03*
X542950Y470975D03*
X488950Y434975D03*
X542950Y434975D03*
X488950Y417000D03*
X542950Y417000D03*
X488950Y381000D03*
X542950Y381000D03*
X488950Y363025D03*
X542950Y363025D03*
X488950Y327025D03*
X542950Y327025D03*
D32*
X115380Y381770D03*
X115380Y369070D03*
X115380Y356370D03*
X115380Y343670D03*
X177380Y343670D03*
X177380Y356370D03*
X177380Y369070D03*
X177380Y381770D03*
D11*
X322550Y584200D03*
X350550Y584200D03*
X160050Y311150D03*
X132050Y311150D03*
D33*
X130175Y171450D03*
X130175Y158750D03*
X130175Y146050D03*
X130175Y133350D03*
X184175Y133350D03*
X184175Y146050D03*
X184175Y158750D03*
X184175Y171450D03*
D34*
X157175Y152350D03*
D12*
X66675Y157450D03*
X66675Y185450D03*
X92075Y157450D03*
X92075Y185450D03*
D20*
X302650Y60325D03*
X319650Y60325D03*
X287900Y60325D03*
X270900Y60325D03*
X287900Y82550D03*
X270900Y82550D03*
X287900Y38100D03*
X270900Y38100D03*
D11*
X211425Y158750D03*
X239425Y158750D03*
D35*
X219075Y234950D03*
X347075Y234950D03*
D11*
X296575Y158750D03*
X268575Y158750D03*
D12*
X269875Y341025D03*
X269875Y313025D03*
X320675Y341025D03*
X320675Y313025D03*
X244475Y341025D03*
X244475Y313025D03*
X346075Y341025D03*
X346075Y313025D03*
D11*
X325725Y130175D03*
X353725Y130175D03*
X271750Y107950D03*
X299750Y107950D03*
D12*
X295275Y341025D03*
X295275Y313025D03*
D36*
X319475Y158750D03*
X359975Y158750D03*
D21*
X299970Y130175D03*
X271530Y130175D03*
X99945Y107950D03*
X71505Y107950D03*
X128655Y107950D03*
X157095Y107950D03*
X99945Y133350D03*
X71505Y133350D03*
D24*
X36195Y184150D02*
X20955Y184150D01*
X20955Y158750D02*
X36195Y158750D01*
X205105Y314325D02*
X220345Y314325D01*
X220345Y339725D02*
X205105Y339725D01*
D36*
X125800Y428625D03*
X166300Y428625D03*
X166300Y460375D03*
X125800Y460375D03*
D12*
X190500Y401925D03*
X190500Y429925D03*
D11*
X160050Y403225D03*
X132050Y403225D03*
D24*
X431800Y449580D02*
X431800Y464820D01*
X457200Y464820D02*
X457200Y449580D01*
D31*
X488950Y524950D03*
X542950Y524950D03*
X488950Y488950D03*
X542950Y488950D03*
X488950Y578925D03*
X542950Y578925D03*
X488950Y542925D03*
X542950Y542925D03*
D37*
X603504Y493776D03*
X836676Y557784D03*
X804672Y532638D03*
X793242Y342900D03*
X786384Y416052D03*
X786384Y626364D03*
X592074Y436626D03*
X788670Y233172D03*
X731520Y640080D03*
X189738Y610362D03*
X228600Y729234D03*
X153162Y676656D03*
X182880Y596646D03*
X173736Y313182D03*
X557784Y532638D03*
X772668Y155448D03*
X726948Y100584D03*
X806958Y262890D03*
X806958Y162306D03*
X806958Y370332D03*
X98298Y676656D03*
X194310Y676656D03*
X409194Y699516D03*
X498348Y685800D03*
X633222Y676656D03*
X738378Y678942D03*
X793242Y610362D03*
X20574Y598932D03*
X795528Y489204D03*
X786384Y22860D03*
X681228Y301752D03*
X415925Y431800D03*
X758825Y41275D03*
X779526Y141732D03*
X653796Y306324D03*
X415925Y441325D03*
X765175Y149225D03*
X415925Y488950D03*
X762000Y257175D03*
X349250Y539750D03*
X765175Y365125D03*
X342900Y549275D03*
X777875Y469900D03*
X244475Y492125D03*
X768350Y577850D03*
X236614Y484264D03*
X752475Y660400D03*
X228600Y479425D03*
X644525Y660400D03*
X228600Y466725D03*
X527050Y657225D03*
X489204Y635508D03*
X644652Y594360D03*
X215900Y466725D03*
X422275Y654050D03*
X117475Y565150D03*
X233172Y688086D03*
X294894Y626364D03*
X468630Y626364D03*
X633222Y594360D03*
X117475Y555625D03*
X112014Y649224D03*
X329184Y633222D03*
X795528Y125730D03*
X788670Y210312D03*
X781812Y313182D03*
X756666Y338328D03*
X452628Y425196D03*
X125730Y699516D03*
X27432Y699516D03*
X333756Y708660D03*
X445770Y690372D03*
X562356Y690372D03*
X667512Y690372D03*
X841248Y544068D03*
X804672Y642366D03*
X585216Y333756D03*
X644652Y562356D03*
X688086Y477774D03*
X637794Y372618D03*
X361950Y415925D03*
X330200Y434975D03*
X330200Y857250D03*
X368046Y738378D03*
X653796Y848106D03*
X953262Y400050D03*
X861822Y217170D03*
X153162Y699516D03*
X164592Y658368D03*
X342900Y393700D03*
X219075Y368300D03*
X226314Y146304D03*
X283464Y146304D03*
X212725Y403225D03*
X231775Y447675D03*
X387350Y577850D03*
X311150Y565150D03*
X358775Y511175D03*
X330200Y492125D03*
M02*
