<?xml version="1.0" encoding="utf-8"?>
<!DOCTYPE eagle SYSTEM "eagle.dtd">
<eagle version="8.5.1">
<drawing>
<settings>
<setting alwaysvectorfont="no"/>
<setting verticaltext="up"/>
</settings>
<grid distance="0.3" unitdist="mm" unit="mm" style="lines" multiple="1" display="no" altdistance="5" altunitdist="mil" altunit="mil"/>
<layers>
<layer number="1" name="Top" color="4" fill="1" visible="yes" active="yes"/>
<layer number="2" name="Route2" color="1" fill="3" visible="no" active="no"/>
<layer number="3" name="Route3" color="4" fill="3" visible="no" active="no"/>
<layer number="4" name="Route4" color="1" fill="4" visible="no" active="no"/>
<layer number="5" name="Route5" color="4" fill="4" visible="no" active="no"/>
<layer number="6" name="Route6" color="1" fill="8" visible="no" active="no"/>
<layer number="7" name="Route7" color="4" fill="8" visible="no" active="no"/>
<layer number="8" name="Route8" color="1" fill="2" visible="no" active="no"/>
<layer number="9" name="Route9" color="4" fill="2" visible="no" active="no"/>
<layer number="10" name="Route10" color="1" fill="7" visible="no" active="no"/>
<layer number="11" name="Route11" color="4" fill="7" visible="no" active="no"/>
<layer number="12" name="Route12" color="1" fill="5" visible="no" active="no"/>
<layer number="13" name="Route13" color="4" fill="5" visible="no" active="no"/>
<layer number="14" name="Route14" color="1" fill="6" visible="no" active="no"/>
<layer number="15" name="Route15" color="4" fill="6" visible="no" active="no"/>
<layer number="16" name="Bottom" color="1" fill="1" visible="yes" active="yes"/>
<layer number="17" name="Pads" color="2" fill="1" visible="yes" active="yes"/>
<layer number="18" name="Vias" color="2" fill="1" visible="yes" active="yes"/>
<layer number="19" name="Unrouted" color="6" fill="1" visible="yes" active="yes"/>
<layer number="20" name="Dimension" color="24" fill="1" visible="yes" active="yes"/>
<layer number="21" name="tPlace" color="7" fill="1" visible="yes" active="yes"/>
<layer number="22" name="bPlace" color="7" fill="1" visible="yes" active="yes"/>
<layer number="23" name="tOrigins" color="15" fill="1" visible="yes" active="yes"/>
<layer number="24" name="bOrigins" color="15" fill="1" visible="yes" active="yes"/>
<layer number="25" name="tNames" color="7" fill="1" visible="yes" active="yes"/>
<layer number="26" name="bNames" color="7" fill="1" visible="yes" active="yes"/>
<layer number="27" name="tValues" color="7" fill="1" visible="yes" active="yes"/>
<layer number="28" name="bValues" color="7" fill="1" visible="yes" active="yes"/>
<layer number="29" name="tStop" color="7" fill="3" visible="no" active="yes"/>
<layer number="30" name="bStop" color="7" fill="6" visible="no" active="yes"/>
<layer number="31" name="tCream" color="7" fill="4" visible="no" active="yes"/>
<layer number="32" name="bCream" color="7" fill="5" visible="no" active="yes"/>
<layer number="33" name="tFinish" color="6" fill="3" visible="no" active="yes"/>
<layer number="34" name="bFinish" color="6" fill="6" visible="no" active="yes"/>
<layer number="35" name="tGlue" color="7" fill="4" visible="no" active="yes"/>
<layer number="36" name="bGlue" color="7" fill="5" visible="no" active="yes"/>
<layer number="37" name="tTest" color="7" fill="1" visible="no" active="yes"/>
<layer number="38" name="bTest" color="7" fill="1" visible="no" active="yes"/>
<layer number="39" name="tKeepout" color="4" fill="11" visible="yes" active="yes"/>
<layer number="40" name="bKeepout" color="1" fill="11" visible="yes" active="yes"/>
<layer number="41" name="tRestrict" color="4" fill="10" visible="yes" active="yes"/>
<layer number="42" name="bRestrict" color="1" fill="10" visible="yes" active="yes"/>
<layer number="43" name="vRestrict" color="2" fill="10" visible="yes" active="yes"/>
<layer number="44" name="Drills" color="7" fill="1" visible="no" active="yes"/>
<layer number="45" name="Holes" color="7" fill="1" visible="no" active="yes"/>
<layer number="46" name="Milling" color="3" fill="1" visible="no" active="yes"/>
<layer number="47" name="Measures" color="7" fill="1" visible="no" active="yes"/>
<layer number="48" name="Document" color="7" fill="1" visible="yes" active="yes"/>
<layer number="49" name="Reference" color="7" fill="1" visible="yes" active="yes"/>
<layer number="51" name="tDocu" color="7" fill="1" visible="yes" active="yes"/>
<layer number="52" name="bDocu" color="7" fill="1" visible="yes" active="yes"/>
<layer number="88" name="SimResults" color="9" fill="1" visible="no" active="no"/>
<layer number="89" name="SimProbes" color="9" fill="1" visible="no" active="no"/>
<layer number="90" name="Modules" color="5" fill="1" visible="no" active="no"/>
<layer number="91" name="Nets" color="2" fill="1" visible="no" active="no"/>
<layer number="92" name="Busses" color="1" fill="1" visible="no" active="no"/>
<layer number="93" name="Pins" color="2" fill="1" visible="no" active="no"/>
<layer number="94" name="Symbols" color="4" fill="1" visible="no" active="no"/>
<layer number="95" name="Names" color="7" fill="1" visible="no" active="no"/>
<layer number="96" name="Values" color="7" fill="1" visible="no" active="no"/>
<layer number="97" name="Info" color="7" fill="1" visible="no" active="no"/>
<layer number="98" name="Guide" color="6" fill="1" visible="no" active="no"/>
<layer number="99" name="SpiceOrder" color="5" fill="1" visible="no" active="no"/>
</layers>
<board>
<plain>
<wire x1="0" y1="0" x2="100" y2="0" width="0" layer="20"/>
<wire x1="100" y1="0" x2="100" y2="100" width="0" layer="20"/>
<wire x1="100" y1="100" x2="0" y2="100" width="0" layer="20"/>
<wire x1="0" y1="100" x2="0" y2="0" width="0" layer="20"/>
<text x="8.255" y="25.4" size="1.778" layer="21">Logan Rosenmayer
Motor Controller 9.0
SEM
5/2/18</text>
<text x="11.43" y="8.255" size="6" layer="21">ILLINI EV CONCEPT</text>
<text x="62.23" y="29.21" size="1" layer="21">Motor Power</text>
<text x="64.135" y="31.75" size="1" layer="21">IC Power</text>
<text x="66.675" y="34.29" size="1" layer="21">PWM</text>
<text x="50.165" y="20.32" size="1" layer="21" rot="R90">VCC</text>
<text x="52.705" y="20.32" size="1" layer="21" rot="R90">GND</text>
<text x="55.245" y="20.32" size="1" layer="21" rot="R90">PWM</text>
<text x="93.345" y="65.405" size="1" layer="21">Motor+</text>
<text x="93.345" y="52.705" size="1" layer="21">Motor-</text>
<text x="50.8" y="92.71" size="3" layer="21">+</text>
<text x="65.405" y="92.71" size="3" layer="21">-</text>
</plain>
<libraries>
<library name="eagle-ltspice" urn="urn:adsk.eagle:library:217">
<description>Default symbols for import LTspice schematics&lt;p&gt;
2012-10-29 alf@cadsoft.de&lt;br&gt;</description>
<packages>
<package name="C1206" urn="urn:adsk.eagle:footprint:13201/1" library_version="1">
<description>&lt;b&gt;CAPACITOR&lt;/b&gt;</description>
<wire x1="-2.473" y1="0.983" x2="2.473" y2="0.983" width="0.0508" layer="39"/>
<wire x1="2.473" y1="-0.983" x2="-2.473" y2="-0.983" width="0.0508" layer="39"/>
<wire x1="-2.473" y1="-0.983" x2="-2.473" y2="0.983" width="0.0508" layer="39"/>
<wire x1="2.473" y1="0.983" x2="2.473" y2="-0.983" width="0.0508" layer="39"/>
<wire x1="-0.965" y1="0.787" x2="0.965" y2="0.787" width="0.1016" layer="51"/>
<wire x1="-0.965" y1="-0.787" x2="0.965" y2="-0.787" width="0.1016" layer="51"/>
<rectangle x1="-1.7018" y1="-0.8509" x2="-0.9517" y2="0.8491" layer="51"/>
<rectangle x1="0.9517" y1="-0.8491" x2="1.7018" y2="0.8509" layer="51"/>
<rectangle x1="-0.1999" y1="-0.4001" x2="0.1999" y2="0.4001" layer="35"/>
<smd name="1" x="-1.4" y="0" dx="1.6" dy="1.8" layer="1"/>
<smd name="2" x="1.4" y="0" dx="1.6" dy="1.8" layer="1"/>
<text x="-1.27" y="1.27" size="1.27" layer="25">&gt;NAME</text>
<text x="-1.27" y="-2.54" size="1.27" layer="27">&gt;VALUE</text>
</package>
<package name="R1206" urn="urn:adsk.eagle:footprint:13238/1" library_version="1">
<description>&lt;b&gt;RESISTOR&lt;/b&gt;</description>
<wire x1="0.9525" y1="-0.8128" x2="-0.9652" y2="-0.8128" width="0.1524" layer="51"/>
<wire x1="0.9525" y1="0.8128" x2="-0.9652" y2="0.8128" width="0.1524" layer="51"/>
<wire x1="-2.473" y1="0.983" x2="2.473" y2="0.983" width="0.0508" layer="39"/>
<wire x1="2.473" y1="0.983" x2="2.473" y2="-0.983" width="0.0508" layer="39"/>
<wire x1="2.473" y1="-0.983" x2="-2.473" y2="-0.983" width="0.0508" layer="39"/>
<wire x1="-2.473" y1="-0.983" x2="-2.473" y2="0.983" width="0.0508" layer="39"/>
<rectangle x1="-1.6891" y1="-0.8763" x2="-0.9525" y2="0.8763" layer="51"/>
<rectangle x1="0.9525" y1="-0.8763" x2="1.6891" y2="0.8763" layer="51"/>
<rectangle x1="-0.3" y1="-0.7" x2="0.3" y2="0.7" layer="35"/>
<smd name="1" x="-1.422" y="0" dx="1.6" dy="1.803" layer="1"/>
<smd name="2" x="1.422" y="0" dx="1.6" dy="1.803" layer="1"/>
<text x="-1.27" y="1.27" size="1.27" layer="25">&gt;NAME</text>
<text x="-1.27" y="-2.54" size="1.27" layer="27">&gt;VALUE</text>
</package>
</packages>
<packages3d>
<package3d name="C1206" urn="urn:adsk.eagle:package:13279/1" type="box" library_version="1">
<description>CAPACITOR</description>
</package3d>
<package3d name="R1206" urn="urn:adsk.eagle:package:13301/1" type="box" library_version="1">
<description>RESISTOR</description>
</package3d>
</packages3d>
</library>
<library name="rcl" urn="urn:adsk.eagle:library:334">
<description>&lt;b&gt;Resistors, Capacitors, Inductors&lt;/b&gt;&lt;p&gt;
Based on the previous libraries:
&lt;ul&gt;
&lt;li&gt;r.lbr
&lt;li&gt;cap.lbr 
&lt;li&gt;cap-fe.lbr
&lt;li&gt;captant.lbr
&lt;li&gt;polcap.lbr
&lt;li&gt;ipc-smd.lbr
&lt;/ul&gt;
All SMD packages are defined according to the IPC specifications and  CECC&lt;p&gt;
&lt;author&gt;Created by librarian@cadsoft.de&lt;/author&gt;&lt;p&gt;
&lt;p&gt;
for Electrolyt Capacitors see also :&lt;p&gt;
www.bccomponents.com &lt;p&gt;
www.panasonic.com&lt;p&gt;
www.kemet.com&lt;p&gt;
http://www.secc.co.jp/pdf/os_e/2004/e_os_all.pdf &lt;b&gt;(SANYO)&lt;/b&gt;
&lt;p&gt;
for trimmer refence see : &lt;u&gt;www.electrospec-inc.com/cross_references/trimpotcrossref.asp&lt;/u&gt;&lt;p&gt;

&lt;table border=0 cellspacing=0 cellpadding=0 width="100%" cellpaddding=0&gt;
&lt;tr valign="top"&gt;

&lt;! &lt;td width="10"&gt;&amp;nbsp;&lt;/td&gt;
&lt;td width="90%"&gt;

&lt;b&gt;&lt;font color="#0000FF" size="4"&gt;TRIM-POT CROSS REFERENCE&lt;/font&gt;&lt;/b&gt;
&lt;P&gt;
&lt;TABLE BORDER=0 CELLSPACING=1 CELLPADDING=2&gt;
  &lt;TR&gt;
    &lt;TD COLSPAN=8&gt;
      &lt;FONT SIZE=3 FACE=ARIAL&gt;&lt;B&gt;RECTANGULAR MULTI-TURN&lt;/B&gt;&lt;/FONT&gt;
    &lt;/TD&gt;
  &lt;/TR&gt;
  &lt;TR&gt;
    &lt;TD ALIGN=CENTER&gt;
      &lt;B&gt;
      &lt;FONT SIZE=3 FACE=ARIAL color="#FF0000"&gt;BOURNS&lt;/FONT&gt;
      &lt;/B&gt;
    &lt;/TD&gt;
    &lt;TD ALIGN=CENTER&gt;
      &lt;B&gt;
      &lt;FONT SIZE=3 FACE=ARIAL color="#FF0000"&gt;BI&amp;nbsp;TECH&lt;/FONT&gt;
      &lt;/B&gt;
    &lt;/TD&gt;
    &lt;TD ALIGN=CENTER&gt;
      &lt;B&gt;
      &lt;FONT SIZE=3 FACE=ARIAL color="#FF0000"&gt;DALE-VISHAY&lt;/FONT&gt;
      &lt;/B&gt;
    &lt;/TD&gt;
    &lt;TD ALIGN=CENTER&gt;
      &lt;B&gt;
      &lt;FONT SIZE=3 FACE=ARIAL color="#FF0000"&gt;PHILIPS/MEPCO&lt;/FONT&gt;
      &lt;/B&gt;
    &lt;/TD&gt;
    &lt;TD ALIGN=CENTER&gt;
      &lt;B&gt;
      &lt;FONT SIZE=3 FACE=ARIAL color="#FF0000"&gt;MURATA&lt;/FONT&gt;
      &lt;/B&gt;
    &lt;/TD&gt;
    &lt;TD ALIGN=CENTER&gt;
      &lt;B&gt;
      &lt;FONT SIZE=3 FACE=ARIAL color="#FF0000"&gt;PANASONIC&lt;/FONT&gt;
      &lt;/B&gt;
    &lt;/TD&gt;
    &lt;TD ALIGN=CENTER&gt;
      &lt;B&gt;
      &lt;FONT SIZE=3 FACE=ARIAL color="#FF0000"&gt;SPECTROL&lt;/FONT&gt;
      &lt;/B&gt;
    &lt;/TD&gt;
    &lt;TD ALIGN=CENTER&gt;
      &lt;B&gt;
      &lt;FONT SIZE=3 FACE=ARIAL color="#FF0000"&gt;MILSPEC&lt;/FONT&gt;
      &lt;/B&gt;
    &lt;/TD&gt;&lt;TD&gt;&amp;nbsp;&lt;/TD&gt;
  &lt;/TR&gt;
  &lt;TR&gt;
    &lt;TD BGCOLOR="#cccccc" ALIGN=CENTER&gt;&lt;FONT FACE=ARIAL SIZE=3 &gt;
      3005P&lt;BR&gt;
      3006P&lt;BR&gt;
      3006W&lt;BR&gt;
      3006Y&lt;BR&gt;
      3009P&lt;BR&gt;
      3009W&lt;BR&gt;
      3009Y&lt;BR&gt;
      3057J&lt;BR&gt;
      3057L&lt;BR&gt;
      3057P&lt;BR&gt;
      3057Y&lt;BR&gt;
      3059J&lt;BR&gt;
      3059L&lt;BR&gt;
      3059P&lt;BR&gt;
      3059Y&lt;BR&gt;&lt;/FONT&gt;
    &lt;/TD&gt;
    &lt;TD BGCOLOR="#cccccc" ALIGN=CENTER&gt;&lt;FONT FACE=ARIAL SIZE=3&gt;
      -&lt;BR&gt;
      89P&lt;BR&gt;
      89W&lt;BR&gt;
      89X&lt;BR&gt;
      89PH&lt;BR&gt;
      76P&lt;BR&gt;
      89XH&lt;BR&gt;
      78SLT&lt;BR&gt;
      78L&amp;nbsp;ALT&lt;BR&gt;
      56P&amp;nbsp;ALT&lt;BR&gt;
      78P&amp;nbsp;ALT&lt;BR&gt;
      T8S&lt;BR&gt;
      78L&lt;BR&gt;
      56P&lt;BR&gt;
      78P&lt;BR&gt;&lt;/FONT&gt;
    &lt;/TD&gt;
    &lt;TD BGCOLOR="#cccccc" ALIGN=CENTER&gt;&lt;FONT FACE=ARIAL SIZE=3&gt;
      -&lt;BR&gt;
      T18/784&lt;BR&gt;
      783&lt;BR&gt;
      781&lt;BR&gt;
      -&lt;BR&gt;
      -&lt;BR&gt;
      -&lt;BR&gt;
      2199&lt;BR&gt;
      1697/1897&lt;BR&gt;
      1680/1880&lt;BR&gt;
      2187&lt;BR&gt;
      -&lt;BR&gt;
      -&lt;BR&gt;
      -&lt;BR&gt;
      -&lt;BR&gt;&lt;/FONT&gt;
    &lt;/TD&gt;
    &lt;TD BGCOLOR="#cccccc" ALIGN=CENTER&gt;&lt;FONT FACE=ARIAL SIZE=3&gt;
      -&lt;BR&gt;
      8035EKP/CT20/RJ-20P&lt;BR&gt;
      -&lt;BR&gt;
      RJ-20X&lt;BR&gt;
      -&lt;BR&gt;
      -&lt;BR&gt;
      -&lt;BR&gt;
      1211L&lt;BR&gt;
      8012EKQ&amp;nbsp;ALT&lt;BR&gt;
      8012EKR&amp;nbsp;ALT&lt;BR&gt;
      1211P&lt;BR&gt;
      8012EKJ&lt;BR&gt;
      8012EKL&lt;BR&gt;
      8012EKQ&lt;BR&gt;
      8012EKR&lt;BR&gt;&lt;/FONT&gt;
    &lt;/TD&gt;
    &lt;TD BGCOLOR="#cccccc" ALIGN=CENTER&gt;&lt;FONT FACE=ARIAL SIZE=3&gt;
      -&lt;BR&gt;
      2101P&lt;BR&gt;
      2101W&lt;BR&gt;
      2101Y&lt;BR&gt;
      -&lt;BR&gt;
      -&lt;BR&gt;
      -&lt;BR&gt;
      -&lt;BR&gt;
      -&lt;BR&gt;
      -&lt;BR&gt;
      -&lt;BR&gt;
      -&lt;BR&gt;
      2102L&lt;BR&gt;
      2102S&lt;BR&gt;
      2102Y&lt;BR&gt;&lt;/FONT&gt;
    &lt;/TD&gt;
    &lt;TD BGCOLOR="#cccccc" ALIGN=CENTER&gt;&lt;FONT FACE=ARIAL SIZE=3&gt;
      -&lt;BR&gt;
      EVMCOG&lt;BR&gt;
      -&lt;BR&gt;
      -&lt;BR&gt;
      -&lt;BR&gt;
      -&lt;BR&gt;
      -&lt;BR&gt;
      -&lt;BR&gt;
      -&lt;BR&gt;
      -&lt;BR&gt;
      -&lt;BR&gt;
      -&lt;BR&gt;
      -&lt;BR&gt;
      -&lt;BR&gt;
      -&lt;BR&gt;&lt;/FONT&gt;
    &lt;/TD&gt;
    &lt;TD BGCOLOR="#cccccc" ALIGN=CENTER&gt;&lt;FONT FACE=ARIAL SIZE=3&gt;
      -&lt;BR&gt;
      43P&lt;BR&gt;
      43W&lt;BR&gt;
      43Y&lt;BR&gt;
      -&lt;BR&gt;
      -&lt;BR&gt;
      -&lt;BR&gt;
      -&lt;BR&gt;
      40L&lt;BR&gt;
      40P&lt;BR&gt;
      40Y&lt;BR&gt;
      70Y-T602&lt;BR&gt;
      70L&lt;BR&gt;
      70P&lt;BR&gt;
      70Y&lt;BR&gt;&lt;/FONT&gt;
    &lt;/TD&gt;
    &lt;TD BGCOLOR="#cccccc" ALIGN=CENTER&gt;&lt;FONT FACE=ARIAL SIZE=3&gt;
      -&lt;BR&gt;
      -&lt;BR&gt;
      -&lt;BR&gt;
      -&lt;BR&gt;
      -&lt;BR&gt;
      -&lt;BR&gt;
      -&lt;BR&gt;
      -&lt;BR&gt;
      RT/RTR12&lt;BR&gt;
      RT/RTR12&lt;BR&gt;
      RT/RTR12&lt;BR&gt;
      -&lt;BR&gt;
      RJ/RJR12&lt;BR&gt;
      RJ/RJR12&lt;BR&gt;
      RJ/RJR12&lt;BR&gt;&lt;/FONT&gt;
    &lt;/TD&gt;
  &lt;/TR&gt;
  &lt;TR&gt;
    &lt;TD COLSPAN=8&gt;&amp;nbsp;
    &lt;/TD&gt;
  &lt;/TR&gt;
  &lt;TR&gt;
    &lt;TD COLSPAN=8&gt;
      &lt;FONT SIZE=4 FACE=ARIAL&gt;&lt;B&gt;SQUARE MULTI-TURN&lt;/B&gt;&lt;/FONT&gt;
    &lt;/TD&gt;
  &lt;/TR&gt;
  &lt;TR&gt;
   &lt;TD ALIGN=CENTER&gt;
      &lt;FONT SIZE=3 FACE=ARIAL&gt;&lt;B&gt;BOURN&lt;/B&gt;&lt;/FONT&gt;
    &lt;/TD&gt;
    &lt;TD ALIGN=CENTER&gt;
      &lt;FONT SIZE=3 FACE=ARIAL&gt;&lt;B&gt;BI&amp;nbsp;TECH&lt;/B&gt;&lt;/FONT&gt;
    &lt;/TD&gt;
    &lt;TD ALIGN=CENTER&gt;
      &lt;FONT SIZE=3 FACE=ARIAL&gt;&lt;B&gt;DALE-VISHAY&lt;/B&gt;&lt;/FONT&gt;
    &lt;/TD&gt;
    &lt;TD ALIGN=CENTER&gt;
      &lt;FONT SIZE=3 FACE=ARIAL&gt;&lt;B&gt;PHILIPS/MEPCO&lt;/B&gt;&lt;/FONT&gt;
    &lt;/TD&gt;
    &lt;TD ALIGN=CENTER&gt;
      &lt;FONT SIZE=3 FACE=ARIAL&gt;&lt;B&gt;MURATA&lt;/B&gt;&lt;/FONT&gt;
    &lt;/TD&gt;
    &lt;TD ALIGN=CENTER&gt;
      &lt;FONT SIZE=3 FACE=ARIAL&gt;&lt;B&gt;PANASONIC&lt;/B&gt;&lt;/FONT&gt;
    &lt;/TD&gt;
    &lt;TD ALIGN=CENTER&gt;
      &lt;FONT SIZE=3 FACE=ARIAL&gt;&lt;B&gt;SPECTROL&lt;/B&gt;&lt;/FONT&gt;
    &lt;/TD&gt;
    &lt;TD ALIGN=CENTER&gt;
      &lt;FONT SIZE=3 FACE=ARIAL&gt;&lt;B&gt;MILSPEC&lt;/B&gt;&lt;/FONT&gt;
    &lt;/TD&gt;
  &lt;/TR&gt;
  &lt;TR&gt;
    &lt;TD BGCOLOR="#cccccc" ALIGN=CENTER&gt;&lt;FONT FACE=ARIAL SIZE=3&gt;
      3250L&lt;BR&gt;
      3250P&lt;BR&gt;
      3250W&lt;BR&gt;
      3250X&lt;BR&gt;
      3252P&lt;BR&gt;
      3252W&lt;BR&gt;
      3252X&lt;BR&gt;
      3260P&lt;BR&gt;
      3260W&lt;BR&gt;
      3260X&lt;BR&gt;
      3262P&lt;BR&gt;
      3262W&lt;BR&gt;
      3262X&lt;BR&gt;
      3266P&lt;BR&gt;
      3266W&lt;BR&gt;
      3266X&lt;BR&gt;
      3290H&lt;BR&gt;
      3290P&lt;BR&gt;
      3290W&lt;BR&gt;
      3292P&lt;BR&gt;
      3292W&lt;BR&gt;
      3292X&lt;BR&gt;
      3296P&lt;BR&gt;
      3296W&lt;BR&gt;
      3296X&lt;BR&gt;
      3296Y&lt;BR&gt;
      3296Z&lt;BR&gt;
      3299P&lt;BR&gt;
      3299W&lt;BR&gt;
      3299X&lt;BR&gt;
      3299Y&lt;BR&gt;
      3299Z&lt;BR&gt;&lt;/FONT&gt;
    &lt;/TD&gt;
    &lt;TD BGCOLOR="#cccccc" ALIGN=CENTER&gt;&lt;FONT FACE=ARIAL SIZE=3&gt;
      -&lt;BR&gt;
      66P&amp;nbsp;ALT&lt;BR&gt;
      66W&amp;nbsp;ALT&lt;BR&gt;
      66X&amp;nbsp;ALT&lt;BR&gt;
      66P&amp;nbsp;ALT&lt;BR&gt;
      66W&amp;nbsp;ALT&lt;BR&gt;
      66X&amp;nbsp;ALT&lt;BR&gt;
      -&lt;BR&gt;
      64W&amp;nbsp;ALT&lt;BR&gt;
      -&lt;BR&gt;
      64P&amp;nbsp;ALT&lt;BR&gt;
      64W&amp;nbsp;ALT&lt;BR&gt;
      64X&amp;nbsp;ALT&lt;BR&gt;
      64P&lt;BR&gt;
      64W&lt;BR&gt;
      64X&lt;BR&gt;
      66X&amp;nbsp;ALT&lt;BR&gt;
      66P&amp;nbsp;ALT&lt;BR&gt;
      66W&amp;nbsp;ALT&lt;BR&gt;
      66P&lt;BR&gt;
      66W&lt;BR&gt;
      66X&lt;BR&gt;
      67P&lt;BR&gt;
      67W&lt;BR&gt;
      67X&lt;BR&gt;
      67Y&lt;BR&gt;
      67Z&lt;BR&gt;
      68P&lt;BR&gt;
      68W&lt;BR&gt;
      68X&lt;BR&gt;
      67Y&amp;nbsp;ALT&lt;BR&gt;
      67Z&amp;nbsp;ALT&lt;BR&gt;&lt;/FONT&gt;
    &lt;/TD&gt;
    &lt;TD BGCOLOR="#cccccc" ALIGN=CENTER&gt;&lt;FONT FACE=ARIAL SIZE=3&gt;
      5050&lt;BR&gt;
      5091&lt;BR&gt;
      5080&lt;BR&gt;
      5087&lt;BR&gt;
      -&lt;BR&gt;
      -&lt;BR&gt;
      -&lt;BR&gt;
      -&lt;BR&gt;
      -&lt;BR&gt;
      -&lt;BR&gt;
      -&lt;BR&gt;
      T63YB&lt;BR&gt;
      T63XB&lt;BR&gt;
      -&lt;BR&gt;
      -&lt;BR&gt;
      -&lt;BR&gt;
      5887&lt;BR&gt;
      5891&lt;BR&gt;
      5880&lt;BR&gt;
      -&lt;BR&gt;
      -&lt;BR&gt;
      -&lt;BR&gt;
      T93Z&lt;BR&gt;
      T93YA&lt;BR&gt;
      T93XA&lt;BR&gt;
      T93YB&lt;BR&gt;
      T93XB&lt;BR&gt;
      -&lt;BR&gt;
      -&lt;BR&gt;
      -&lt;BR&gt;
      -&lt;BR&gt;
      -&lt;BR&gt;&lt;/FONT&gt;
    &lt;/TD&gt;
    &lt;TD BGCOLOR="#cccccc" ALIGN=CENTER&gt;&lt;FONT FACE=ARIAL SIZE=3&gt;
      -&lt;BR&gt;
      -&lt;BR&gt;
      -&lt;BR&gt;
      -&lt;BR&gt;
      -&lt;BR&gt;
      -&lt;BR&gt;
      -&lt;BR&gt;
      -&lt;BR&gt;
      -&lt;BR&gt;
      -&lt;BR&gt;
      8026EKP&lt;BR&gt;
      8026EKW&lt;BR&gt;
      8026EKM&lt;BR&gt;
      8026EKP&lt;BR&gt;
      8026EKB&lt;BR&gt;
      8026EKM&lt;BR&gt;
      1309X&lt;BR&gt;
      1309P&lt;BR&gt;
      1309W&lt;BR&gt;
      8024EKP&lt;BR&gt;
      8024EKW&lt;BR&gt;
      8024EKN&lt;BR&gt;
      RJ-9P/CT9P&lt;BR&gt;
      RJ-9W&lt;BR&gt;
      RJ-9X&lt;BR&gt;
      -&lt;BR&gt;
      -&lt;BR&gt;
      -&lt;BR&gt;
      -&lt;BR&gt;
      -&lt;BR&gt;
      -&lt;BR&gt;
      -&lt;BR&gt;&lt;/FONT&gt;
    &lt;/TD&gt;
    &lt;TD BGCOLOR="#cccccc" ALIGN=CENTER&gt;&lt;FONT FACE=ARIAL SIZE=3&gt;
      -&lt;BR&gt;
      -&lt;BR&gt;
      -&lt;BR&gt;
      -&lt;BR&gt;
      -&lt;BR&gt;
      -&lt;BR&gt;
      -&lt;BR&gt;
      -&lt;BR&gt;
      -&lt;BR&gt;
      -&lt;BR&gt;
      3103P&lt;BR&gt;
      3103Y&lt;BR&gt;
      3103Z&lt;BR&gt;
      3103P&lt;BR&gt;
      3103Y&lt;BR&gt;
      3103Z&lt;BR&gt;
      -&lt;BR&gt;
      -&lt;BR&gt;
      -&lt;BR&gt;
      -&lt;BR&gt;
      -&lt;BR&gt;
      -&lt;BR&gt;
      3105P/3106P&lt;BR&gt;
      3105W/3106W&lt;BR&gt;
      3105X/3106X&lt;BR&gt;
      3105Y/3106Y&lt;BR&gt;
      3105Z/3105Z&lt;BR&gt;
      3102P&lt;BR&gt;
      3102W&lt;BR&gt;
      3102X&lt;BR&gt;
      3102Y&lt;BR&gt;
      3102Z&lt;BR&gt;&lt;/FONT&gt;
    &lt;/TD&gt;
    &lt;TD BGCOLOR="#cccccc" ALIGN=CENTER&gt;&lt;FONT FACE=ARIAL SIZE=3&gt;
      -&lt;BR&gt;
      -&lt;BR&gt;
      -&lt;BR&gt;
      -&lt;BR&gt;
      -&lt;BR&gt;
      -&lt;BR&gt;
      -&lt;BR&gt;
      -&lt;BR&gt;
      -&lt;BR&gt;
      -&lt;BR&gt;
      -&lt;BR&gt;
      -&lt;BR&gt;
      -&lt;BR&gt;
      -&lt;BR&gt;
      -&lt;BR&gt;
      -&lt;BR&gt;
      -&lt;BR&gt;
      -&lt;BR&gt;
      -&lt;BR&gt;
      -&lt;BR&gt;
      -&lt;BR&gt;
      -&lt;BR&gt;
      EVMCBG&lt;BR&gt;
      EVMCCG&lt;BR&gt;
      -&lt;BR&gt;
      -&lt;BR&gt;
      -&lt;BR&gt;
      -&lt;BR&gt;
      -&lt;BR&gt;
      -&lt;BR&gt;
      -&lt;BR&gt;
      -&lt;BR&gt;&lt;/FONT&gt;
    &lt;/TD&gt;
    &lt;TD BGCOLOR="#cccccc" ALIGN=CENTER&gt;&lt;FONT FACE=ARIAL SIZE=3&gt;
      55-1-X&lt;BR&gt;
      55-4-X&lt;BR&gt;
      55-3-X&lt;BR&gt;
      55-2-X&lt;BR&gt;
      -&lt;BR&gt;
      -&lt;BR&gt;
      -&lt;BR&gt;
      -&lt;BR&gt;
      -&lt;BR&gt;
      -&lt;BR&gt;
      -&lt;BR&gt;
      -&lt;BR&gt;
      -&lt;BR&gt;
      -&lt;BR&gt;
      -&lt;BR&gt;
      -&lt;BR&gt;
      50-2-X&lt;BR&gt;
      50-4-X&lt;BR&gt;
      50-3-X&lt;BR&gt;
      -&lt;BR&gt;
      -&lt;BR&gt;
      -&lt;BR&gt;
      64P&lt;BR&gt;
      64W&lt;BR&gt;
      64X&lt;BR&gt;
      64Y&lt;BR&gt;
      64Z&lt;BR&gt;
      -&lt;BR&gt;
      -&lt;BR&gt;
      -&lt;BR&gt;
      -&lt;BR&gt;
      -&lt;BR&gt;&lt;/FONT&gt;
    &lt;/TD&gt;
    &lt;TD BGCOLOR="#cccccc" ALIGN=CENTER&gt;&lt;FONT FACE=ARIAL SIZE=3&gt;
      RT/RTR22&lt;BR&gt;
      RT/RTR22&lt;BR&gt;
      RT/RTR22&lt;BR&gt;
      RT/RTR22&lt;BR&gt;
      RJ/RJR22&lt;BR&gt;
      RJ/RJR22&lt;BR&gt;
      RJ/RJR22&lt;BR&gt;
      RT/RTR26&lt;BR&gt;
      RT/RTR26&lt;BR&gt;
      RT/RTR26&lt;BR&gt;
      RJ/RJR26&lt;BR&gt;
      RJ/RJR26&lt;BR&gt;
      RJ/RJR26&lt;BR&gt;
      RJ/RJR26&lt;BR&gt;
      RJ/RJR26&lt;BR&gt;
      RJ/RJR26&lt;BR&gt;
      RT/RTR24&lt;BR&gt;
      RT/RTR24&lt;BR&gt;
      RT/RTR24&lt;BR&gt;
      RJ/RJR24&lt;BR&gt;
      RJ/RJR24&lt;BR&gt;
      RJ/RJR24&lt;BR&gt;
      RJ/RJR24&lt;BR&gt;
      RJ/RJR24&lt;BR&gt;
      RJ/RJR24&lt;BR&gt;
      -&lt;BR&gt;
      -&lt;BR&gt;
      -&lt;BR&gt;
      -&lt;BR&gt;
      -&lt;BR&gt;
      -&lt;BR&gt;
      -&lt;BR&gt;&lt;/FONT&gt;
    &lt;/TD&gt;
  &lt;/TR&gt;
  &lt;TR&gt;
    &lt;TD COLSPAN=8&gt;&amp;nbsp;
    &lt;/TD&gt;
  &lt;/TR&gt;
  &lt;TR&gt;
    &lt;TD COLSPAN=8&gt;
      &lt;FONT SIZE=4 FACE=ARIAL&gt;&lt;B&gt;SINGLE TURN&lt;/B&gt;&lt;/FONT&gt;
    &lt;/TD&gt;
  &lt;/TR&gt;
  &lt;TR&gt;
    &lt;TD ALIGN=CENTER&gt;
      &lt;FONT SIZE=3 FACE=ARIAL&gt;&lt;B&gt;BOURN&lt;/B&gt;&lt;/FONT&gt;
    &lt;/TD&gt;
    &lt;TD ALIGN=CENTER&gt;
      &lt;FONT SIZE=3 FACE=ARIAL&gt;&lt;B&gt;BI&amp;nbsp;TECH&lt;/B&gt;&lt;/FONT&gt;
    &lt;/TD&gt;
    &lt;TD ALIGN=CENTER&gt;
      &lt;FONT SIZE=3 FACE=ARIAL&gt;&lt;B&gt;DALE-VISHAY&lt;/B&gt;&lt;/FONT&gt;
    &lt;/TD&gt;
    &lt;TD ALIGN=CENTER&gt;
      &lt;FONT SIZE=3 FACE=ARIAL&gt;&lt;B&gt;PHILIPS/MEPCO&lt;/B&gt;&lt;/FONT&gt;
    &lt;/TD&gt;
    &lt;TD ALIGN=CENTER&gt;
      &lt;FONT SIZE=3 FACE=ARIAL&gt;&lt;B&gt;MURATA&lt;/B&gt;&lt;/FONT&gt;
    &lt;/TD&gt;
    &lt;TD ALIGN=CENTER&gt;
      &lt;FONT SIZE=3 FACE=ARIAL&gt;&lt;B&gt;PANASONIC&lt;/B&gt;&lt;/FONT&gt;
    &lt;/TD&gt;
    &lt;TD ALIGN=CENTER&gt;
      &lt;FONT SIZE=3 FACE=ARIAL&gt;&lt;B&gt;SPECTROL&lt;/B&gt;&lt;/FONT&gt;
    &lt;/TD&gt;
    &lt;TD ALIGN=CENTER&gt;
      &lt;FONT SIZE=3 FACE=ARIAL&gt;&lt;B&gt;MILSPEC&lt;/B&gt;&lt;/FONT&gt;
    &lt;/TD&gt;
  &lt;/TR&gt;
  &lt;TR&gt;
    &lt;TD BGCOLOR="#cccccc" ALIGN=CENTER&gt;&lt;FONT FACE=ARIAL SIZE=3&gt;
      3323P&lt;BR&gt;
      3323S&lt;BR&gt;
      3323W&lt;BR&gt;
      3329H&lt;BR&gt;
      3329P&lt;BR&gt;
      3329W&lt;BR&gt;
      3339H&lt;BR&gt;
      3339P&lt;BR&gt;
      3339W&lt;BR&gt;
      3352E&lt;BR&gt;
      3352H&lt;BR&gt;
      3352K&lt;BR&gt;
      3352P&lt;BR&gt;
      3352T&lt;BR&gt;
      3352V&lt;BR&gt;
      3352W&lt;BR&gt;
      3362H&lt;BR&gt;
      3362M&lt;BR&gt;
      3362P&lt;BR&gt;
      3362R&lt;BR&gt;
      3362S&lt;BR&gt;
      3362U&lt;BR&gt;
      3362W&lt;BR&gt;
      3362X&lt;BR&gt;
      3386B&lt;BR&gt;
      3386C&lt;BR&gt;
      3386F&lt;BR&gt;
      3386H&lt;BR&gt;
      3386K&lt;BR&gt;
      3386M&lt;BR&gt;
      3386P&lt;BR&gt;
      3386S&lt;BR&gt;
      3386W&lt;BR&gt;
      3386X&lt;BR&gt;&lt;/FONT&gt;
    &lt;/TD&gt;
    &lt;TD BGCOLOR="#cccccc" ALIGN=CENTER&gt;&lt;FONT FACE=ARIAL SIZE=3&gt;
      25P&lt;BR&gt;
      25S&lt;BR&gt;
      25RX&lt;BR&gt;
      82P&lt;BR&gt;
      82M&lt;BR&gt;
      82PA&lt;BR&gt;
      -&lt;BR&gt;
      -&lt;BR&gt;
      -&lt;BR&gt;
      91E&lt;BR&gt;
      91X&lt;BR&gt;
      91T&lt;BR&gt;
      91B&lt;BR&gt;
      91A&lt;BR&gt;
      91V&lt;BR&gt;
      91W&lt;BR&gt;
      25W&lt;BR&gt;
      25V&lt;BR&gt;
      25P&lt;BR&gt;
      -&lt;BR&gt;
      25S&lt;BR&gt;
      25U&lt;BR&gt;
      25RX&lt;BR&gt;
      25X&lt;BR&gt;
      72XW&lt;BR&gt;
      72XL&lt;BR&gt;
      72PM&lt;BR&gt;
      72RX&lt;BR&gt;
      -&lt;BR&gt;
      72PX&lt;BR&gt;
      72P&lt;BR&gt;
      72RXW&lt;BR&gt;
      72RXL&lt;BR&gt;
      72X&lt;BR&gt;&lt;/FONT&gt;
    &lt;/TD&gt;
    &lt;TD BGCOLOR="#cccccc" ALIGN=CENTER&gt;&lt;FONT FACE=ARIAL SIZE=3&gt;
      -&lt;BR&gt;
      -&lt;BR&gt;
      -&lt;BR&gt;
      T7YB&lt;BR&gt;
      T7YA&lt;BR&gt;
      -&lt;BR&gt;
      -&lt;BR&gt;
      -&lt;BR&gt;
      -&lt;BR&gt;
      -&lt;BR&gt;
      -&lt;BR&gt;
      -&lt;BR&gt;
      -&lt;BR&gt;
      -&lt;BR&gt;
      -&lt;BR&gt;
      -&lt;BR&gt;
      -&lt;BR&gt;
      TXD&lt;BR&gt;
      TYA&lt;BR&gt;
      TYP&lt;BR&gt;
      -&lt;BR&gt;
      TYD&lt;BR&gt;
      TX&lt;BR&gt;
      -&lt;BR&gt;
      150SX&lt;BR&gt;
      100SX&lt;BR&gt;
      102T&lt;BR&gt;
      101S&lt;BR&gt;
      190T&lt;BR&gt;
      150TX&lt;BR&gt;
      101&lt;BR&gt;
      -&lt;BR&gt;
      -&lt;BR&gt;
      101SX&lt;BR&gt;&lt;/FONT&gt;
    &lt;/TD&gt;
    &lt;TD BGCOLOR="#cccccc" ALIGN=CENTER&gt;&lt;FONT FACE=ARIAL SIZE=3&gt;
      ET6P&lt;BR&gt;
      ET6S&lt;BR&gt;
      ET6X&lt;BR&gt;
      RJ-6W/8014EMW&lt;BR&gt;
      RJ-6P/8014EMP&lt;BR&gt;
      RJ-6X/8014EMX&lt;BR&gt;
      TM7W&lt;BR&gt;
      TM7P&lt;BR&gt;
      TM7X&lt;BR&gt;
      -&lt;BR&gt;
      8017SMS&lt;BR&gt;
      -&lt;BR&gt;
      8017SMB&lt;BR&gt;
      8017SMA&lt;BR&gt;
      -&lt;BR&gt;
      -&lt;BR&gt;
      CT-6W&lt;BR&gt;
      CT-6H&lt;BR&gt;
      CT-6P&lt;BR&gt;
      CT-6R&lt;BR&gt;
      -&lt;BR&gt;
      CT-6V&lt;BR&gt;
      CT-6X&lt;BR&gt;
      -&lt;BR&gt;
      -&lt;BR&gt;
      8038EKV&lt;BR&gt;
      -&lt;BR&gt;
      8038EKX&lt;BR&gt;
      -&lt;BR&gt;
      -&lt;BR&gt;
      8038EKP&lt;BR&gt;
      8038EKZ&lt;BR&gt;
      8038EKW&lt;BR&gt;
      -&lt;BR&gt;&lt;/FONT&gt;
    &lt;/TD&gt;
    &lt;TD BGCOLOR="#cccccc" ALIGN=CENTER&gt;&lt;FONT FACE=ARIAL SIZE=3&gt;
      -&lt;BR&gt;
      -&lt;BR&gt;
      -&lt;BR&gt;
      3321H&lt;BR&gt;
      3321P&lt;BR&gt;
      3321N&lt;BR&gt;
      1102H&lt;BR&gt;
      1102P&lt;BR&gt;
      1102T&lt;BR&gt;
      RVA0911V304A&lt;BR&gt;
      -&lt;BR&gt;
      RVA0911H413A&lt;BR&gt;
      RVG0707V100A&lt;BR&gt;
      RVA0607V(H)306A&lt;BR&gt;
      RVA1214H213A&lt;BR&gt;
      -&lt;BR&gt;
      -&lt;BR&gt;
      -&lt;BR&gt;
      -&lt;BR&gt;
      -&lt;BR&gt;
      -&lt;BR&gt;
      -&lt;BR&gt;
      -&lt;BR&gt;
      -&lt;BR&gt;
      3104B&lt;BR&gt;
      3104C&lt;BR&gt;
      3104F&lt;BR&gt;
      3104H&lt;BR&gt;
      -&lt;BR&gt;
      3104M&lt;BR&gt;
      3104P&lt;BR&gt;
      3104S&lt;BR&gt;
      3104W&lt;BR&gt;
      3104X&lt;BR&gt;&lt;/FONT&gt;
    &lt;/TD&gt;
    &lt;TD BGCOLOR="#cccccc" ALIGN=CENTER&gt;&lt;FONT FACE=ARIAL SIZE=3&gt;
      EVMQ0G&lt;BR&gt;
      EVMQIG&lt;BR&gt;
      EVMQ3G&lt;BR&gt;
      EVMS0G&lt;BR&gt;
      EVMQ0G&lt;BR&gt;
      EVMG0G&lt;BR&gt;
      -&lt;BR&gt;
      -&lt;BR&gt;
      -&lt;BR&gt;
      EVMK4GA00B&lt;BR&gt;
      EVM30GA00B&lt;BR&gt;
      EVMK0GA00B&lt;BR&gt;
      EVM38GA00B&lt;BR&gt;
      EVMB6&lt;BR&gt;
      EVLQ0&lt;BR&gt;
      -&lt;BR&gt;
      EVMMSG&lt;BR&gt;
      EVMMBG&lt;BR&gt;
      EVMMAG&lt;BR&gt;
      -&lt;BR&gt;
      -&lt;BR&gt;
      EVMMCS&lt;BR&gt;
      -&lt;BR&gt;
      -&lt;BR&gt;
      -&lt;BR&gt;
      -&lt;BR&gt;
      -&lt;BR&gt;
      EVMM1&lt;BR&gt;
      -&lt;BR&gt;
      -&lt;BR&gt;
      EVMM0&lt;BR&gt;
      -&lt;BR&gt;
      -&lt;BR&gt;
      EVMM3&lt;BR&gt;&lt;/FONT&gt;
    &lt;/TD&gt;
    &lt;TD BGCOLOR="#cccccc" ALIGN=CENTER&gt;&lt;FONT FACE=ARIAL SIZE=3&gt;
      -&lt;BR&gt;
      -&lt;BR&gt;
      -&lt;BR&gt;
      62-3-1&lt;BR&gt;
      62-1-2&lt;BR&gt;
      -&lt;BR&gt;
      -&lt;BR&gt;
      -&lt;BR&gt;
      -&lt;BR&gt;
      -&lt;BR&gt;
      -&lt;BR&gt;
      -&lt;BR&gt;
      -&lt;BR&gt;
      -&lt;BR&gt;
      -&lt;BR&gt;
      -&lt;BR&gt;
      67R&lt;BR&gt;
      -&lt;BR&gt;
      67P&lt;BR&gt;
      -&lt;BR&gt;
      -&lt;BR&gt;
      -&lt;BR&gt;
      -&lt;BR&gt;
      67X&lt;BR&gt;
      63V&lt;BR&gt;
      63S&lt;BR&gt;
      63M&lt;BR&gt;
      -&lt;BR&gt;
      -&lt;BR&gt;
      63H&lt;BR&gt;
      63P&lt;BR&gt;
      -&lt;BR&gt;
      -&lt;BR&gt;
      63X&lt;BR&gt;&lt;/FONT&gt;
    &lt;/TD&gt;
    &lt;TD BGCOLOR="#cccccc" ALIGN=CENTER&gt;&lt;FONT FACE=ARIAL SIZE=3&gt;
      -&lt;BR&gt;
      -&lt;BR&gt;
      -&lt;BR&gt;
      RJ/RJR50&lt;BR&gt;
      RJ/RJR50&lt;BR&gt;
      RJ/RJR50&lt;BR&gt;
      -&lt;BR&gt;
      -&lt;BR&gt;
      -&lt;BR&gt;
      -&lt;BR&gt;
      -&lt;BR&gt;
      -&lt;BR&gt;
      -&lt;BR&gt;
      -&lt;BR&gt;
      -&lt;BR&gt;
      -&lt;BR&gt;
      -&lt;BR&gt;
      -&lt;BR&gt;
      -&lt;BR&gt;
      -&lt;BR&gt;
      -&lt;BR&gt;
      -&lt;BR&gt;
      -&lt;BR&gt;
      -&lt;BR&gt;
      -&lt;BR&gt;
      -&lt;BR&gt;
      -&lt;BR&gt;
      -&lt;BR&gt;
      -&lt;BR&gt;
      -&lt;BR&gt;
      -&lt;BR&gt;
      -&lt;BR&gt;
      -&lt;BR&gt;
      -&lt;BR&gt;&lt;/FONT&gt;
    &lt;/TD&gt;
  &lt;/TR&gt;
&lt;/TABLE&gt;
&lt;P&gt;&amp;nbsp;&lt;P&gt;
&lt;TABLE BORDER=0 CELLSPACING=1 CELLPADDING=3&gt;
  &lt;TR&gt;
    &lt;TD COLSPAN=7&gt;
      &lt;FONT color="#0000FF" SIZE=4 FACE=ARIAL&gt;&lt;B&gt;SMD TRIM-POT CROSS REFERENCE&lt;/B&gt;&lt;/FONT&gt;
      &lt;P&gt;
      &lt;FONT SIZE=4 FACE=ARIAL&gt;&lt;B&gt;MULTI-TURN&lt;/B&gt;&lt;/FONT&gt;
    &lt;/TD&gt;
  &lt;/TR&gt;
  &lt;TR&gt;
    &lt;TD&gt;
      &lt;FONT SIZE=3 FACE=ARIAL&gt;&lt;B&gt;BOURNS&lt;/B&gt;&lt;/FONT&gt;
    &lt;/TD&gt;
    &lt;TD&gt;
      &lt;FONT SIZE=3 FACE=ARIAL&gt;&lt;B&gt;BI&amp;nbsp;TECH&lt;/B&gt;&lt;/FONT&gt;
    &lt;/TD&gt;
    &lt;TD&gt;
      &lt;FONT SIZE=3 FACE=ARIAL&gt;&lt;B&gt;DALE-VISHAY&lt;/B&gt;&lt;/FONT&gt;
    &lt;/TD&gt;
    &lt;TD&gt;
      &lt;FONT SIZE=3 FACE=ARIAL&gt;&lt;B&gt;PHILIPS/MEPCO&lt;/B&gt;&lt;/FONT&gt;
    &lt;/TD&gt;
    &lt;TD&gt;
      &lt;FONT SIZE=3 FACE=ARIAL&gt;&lt;B&gt;PANASONIC&lt;/B&gt;&lt;/FONT&gt;
    &lt;/TD&gt;
    &lt;TD&gt;
      &lt;FONT SIZE=3 FACE=ARIAL&gt;&lt;B&gt;TOCOS&lt;/B&gt;&lt;/FONT&gt;
    &lt;/TD&gt;
    &lt;TD&gt;
      &lt;FONT SIZE=3 FACE=ARIAL&gt;&lt;B&gt;AUX/KYOCERA&lt;/B&gt;&lt;/FONT&gt;
    &lt;/TD&gt;
  &lt;/TR&gt;
  &lt;TR&gt;
    &lt;TD BGCOLOR="#cccccc" ALIGN=CENTER&gt;&lt;FONT FACE=ARIAL SIZE=3&gt;
      3224G&lt;BR&gt;
      3224J&lt;BR&gt;
      3224W&lt;BR&gt;
      3269P&lt;BR&gt;
      3269W&lt;BR&gt;
      3269X&lt;BR&gt;&lt;/FONT&gt;
    &lt;/TD&gt;
    &lt;TD BGCOLOR="#cccccc" ALIGN=CENTER&gt;&lt;FONT FACE=ARIAL SIZE=3&gt;
      44G&lt;BR&gt;
      44J&lt;BR&gt;
      44W&lt;BR&gt;
      84P&lt;BR&gt;
      84W&lt;BR&gt;
      84X&lt;BR&gt;&lt;/FONT&gt;
    &lt;/TD&gt;
    &lt;TD BGCOLOR="#cccccc" ALIGN=CENTER&gt;&lt;FONT FACE=ARIAL SIZE=3&gt;
      -&lt;BR&gt;
      -&lt;BR&gt;
      -&lt;BR&gt;
      ST63Z&lt;BR&gt;
      ST63Y&lt;BR&gt;
      -&lt;BR&gt;&lt;/FONT&gt;
    &lt;/TD&gt;
    &lt;TD BGCOLOR="#cccccc" ALIGN=CENTER&gt;&lt;FONT FACE=ARIAL SIZE=3&gt;
      -&lt;BR&gt;
      -&lt;BR&gt;
      -&lt;BR&gt;
      ST5P&lt;BR&gt;
      ST5W&lt;BR&gt;
      ST5X&lt;BR&gt;&lt;/FONT&gt;
    &lt;/TD&gt;
    &lt;TD BGCOLOR="#cccccc" ALIGN=CENTER&gt;&lt;FONT FACE=ARIAL SIZE=3&gt;
      -&lt;BR&gt;
      -&lt;BR&gt;
      -&lt;BR&gt;
      -&lt;BR&gt;
      -&lt;BR&gt;
      -&lt;BR&gt;&lt;/FONT&gt;
    &lt;/TD&gt;
    &lt;TD BGCOLOR="#cccccc" ALIGN=CENTER&gt;&lt;FONT FACE=ARIAL SIZE=3&gt;
      -&lt;BR&gt;
      -&lt;BR&gt;
      -&lt;BR&gt;
      -&lt;BR&gt;
      -&lt;BR&gt;
      -&lt;BR&gt;&lt;/FONT&gt;
    &lt;/TD&gt;
    &lt;TD BGCOLOR="#cccccc" ALIGN=CENTER&gt;&lt;FONT FACE=ARIAL SIZE=3&gt;
      -&lt;BR&gt;
      -&lt;BR&gt;
      -&lt;BR&gt;
      -&lt;BR&gt;
      -&lt;BR&gt;
      -&lt;BR&gt;&lt;/FONT&gt;
    &lt;/TD&gt;
  &lt;/TR&gt;
  &lt;TR&gt;
    &lt;TD COLSPAN=7&gt;&amp;nbsp;
    &lt;/TD&gt;
  &lt;/TR&gt;
  &lt;TR&gt;
    &lt;TD COLSPAN=7&gt;
      &lt;FONT SIZE=4 FACE=ARIAL&gt;&lt;B&gt;SINGLE TURN&lt;/B&gt;&lt;/FONT&gt;
    &lt;/TD&gt;
  &lt;/TR&gt;
  &lt;TR&gt;
    &lt;TD&gt;
      &lt;FONT SIZE=3 FACE=ARIAL&gt;&lt;B&gt;BOURNS&lt;/B&gt;&lt;/FONT&gt;
    &lt;/TD&gt;
    &lt;TD&gt;
      &lt;FONT SIZE=3 FACE=ARIAL&gt;&lt;B&gt;BI&amp;nbsp;TECH&lt;/B&gt;&lt;/FONT&gt;
    &lt;/TD&gt;
    &lt;TD&gt;
      &lt;FONT SIZE=3 FACE=ARIAL&gt;&lt;B&gt;DALE-VISHAY&lt;/B&gt;&lt;/FONT&gt;
    &lt;/TD&gt;
    &lt;TD&gt;
      &lt;FONT SIZE=3 FACE=ARIAL&gt;&lt;B&gt;PHILIPS/MEPCO&lt;/B&gt;&lt;/FONT&gt;
    &lt;/TD&gt;
    &lt;TD&gt;
      &lt;FONT SIZE=3 FACE=ARIAL&gt;&lt;B&gt;PANASONIC&lt;/B&gt;&lt;/FONT&gt;
    &lt;/TD&gt;
    &lt;TD&gt;
      &lt;FONT SIZE=3 FACE=ARIAL&gt;&lt;B&gt;TOCOS&lt;/B&gt;&lt;/FONT&gt;
    &lt;/TD&gt;
    &lt;TD&gt;
      &lt;FONT SIZE=3 FACE=ARIAL&gt;&lt;B&gt;AUX/KYOCERA&lt;/B&gt;&lt;/FONT&gt;
    &lt;/TD&gt;
  &lt;/TR&gt;
  &lt;TR&gt;
    &lt;TD BGCOLOR="#cccccc" ALIGN=CENTER&gt;&lt;FONT FACE=ARIAL SIZE=3&gt;
      3314G&lt;BR&gt;
      3314J&lt;BR&gt;
      3364A/B&lt;BR&gt;
      3364C/D&lt;BR&gt;
      3364W/X&lt;BR&gt;
      3313G&lt;BR&gt;
      3313J&lt;BR&gt;&lt;/FONT&gt;
    &lt;/TD&gt;
    &lt;TD BGCOLOR="#cccccc" ALIGN=CENTER&gt;&lt;FONT FACE=ARIAL SIZE=3&gt;
      23B&lt;BR&gt;
      23A&lt;BR&gt;
      21X&lt;BR&gt;
      21W&lt;BR&gt;
      -&lt;BR&gt;
      22B&lt;BR&gt;
      22A&lt;BR&gt;&lt;/FONT&gt;
    &lt;/TD&gt;
    &lt;TD BGCOLOR="#cccccc" ALIGN=CENTER&gt;&lt;FONT FACE=ARIAL SIZE=3&gt;
      ST5YL/ST53YL&lt;BR&gt;
      ST5YJ/5T53YJ&lt;BR&gt;
      ST-23A&lt;BR&gt;
      ST-22B&lt;BR&gt;
      ST-22&lt;BR&gt;
      -&lt;BR&gt;
      -&lt;BR&gt;&lt;/FONT&gt;
    &lt;/TD&gt;
    &lt;TD BGCOLOR="#cccccc" ALIGN=CENTER&gt;&lt;FONT FACE=ARIAL SIZE=3&gt;
      ST-4B&lt;BR&gt;
      ST-4A&lt;BR&gt;
      -&lt;BR&gt;
      -&lt;BR&gt;
      -&lt;BR&gt;
      ST-3B&lt;BR&gt;
      ST-3A&lt;BR&gt;&lt;/FONT&gt;
    &lt;/TD&gt;
    &lt;TD BGCOLOR="#cccccc" ALIGN=CENTER&gt;&lt;FONT FACE=ARIAL SIZE=3&gt;
      -&lt;BR&gt;
      EVM-6YS&lt;BR&gt;
      EVM-1E&lt;BR&gt;
      EVM-1G&lt;BR&gt;
      EVM-1D&lt;BR&gt;
      -&lt;BR&gt;
      -&lt;BR&gt;&lt;/FONT&gt;
    &lt;/TD&gt;
    &lt;TD BGCOLOR="#cccccc" ALIGN=CENTER&gt;&lt;FONT FACE=ARIAL SIZE=3&gt;
      G4B&lt;BR&gt;
      G4A&lt;BR&gt;
      TR04-3S1&lt;BR&gt;
      TRG04-2S1&lt;BR&gt;
      -&lt;BR&gt;
      -&lt;BR&gt;
      -&lt;BR&gt;&lt;/FONT&gt;
    &lt;/TD&gt;
    &lt;TD BGCOLOR="#cccccc" ALIGN=CENTER&gt;&lt;FONT FACE=ARIAL SIZE=3&gt;
      -&lt;BR&gt;
      -&lt;BR&gt;
      DVR-43A&lt;BR&gt;
      CVR-42C&lt;BR&gt;
      CVR-42A/C&lt;BR&gt;
      -&lt;BR&gt;
      -&lt;BR&gt;&lt;/FONT&gt;
    &lt;/TD&gt;
  &lt;/TR&gt;
&lt;/TABLE&gt;
&lt;P&gt;
&lt;FONT SIZE=4 FACE=ARIAL&gt;&lt;B&gt;ALT =&amp;nbsp;ALTERNATE&lt;/B&gt;&lt;/FONT&gt;
&lt;P&gt;

&amp;nbsp;
&lt;P&gt;
&lt;/td&gt;
&lt;/tr&gt;
&lt;/table&gt;</description>
<packages>
<package name="EB25D" urn="urn:adsk.eagle:footprint:22885/1" library_version="3">
<description>&lt;b&gt;ELECTROLYTIC CAPACITOR&lt;/b&gt;&lt;p&gt;
grid 10.16 mm, diameter 25 mm</description>
<wire x1="-2.54" y1="0" x2="-1.5748" y2="0" width="0.254" layer="21"/>
<wire x1="-1.5748" y1="0" x2="-1.5748" y2="2.54" width="0.254" layer="21"/>
<wire x1="-1.5748" y1="2.54" x2="-0.4318" y2="2.54" width="0.254" layer="21"/>
<wire x1="-0.4318" y1="2.54" x2="-0.4318" y2="-2.54" width="0.254" layer="21"/>
<wire x1="-0.4318" y1="-2.54" x2="-1.5748" y2="-2.54" width="0.254" layer="21"/>
<wire x1="-1.5748" y1="-2.54" x2="-1.5748" y2="0" width="0.254" layer="21"/>
<wire x1="0.635" y1="0" x2="2.54" y2="0" width="0.254" layer="21"/>
<wire x1="-2.794" y1="2.54" x2="-2.794" y2="1.27" width="0.254" layer="21"/>
<wire x1="-2.159" y1="1.905" x2="-3.429" y2="1.905" width="0.254" layer="21"/>
<circle x="0" y="0" radius="12.7" width="0.254" layer="21"/>
<circle x="0" y="0" radius="8.89" width="0.254" layer="21"/>
<pad name="+" x="-5.08" y="0" drill="2.0066" diameter="4.5974"/>
<pad name="-" x="5.08" y="0" drill="2.0066" diameter="4.5974" shape="octagon"/>
<text x="9.6774" y="9.525" size="1.778" layer="25" ratio="10">&gt;NAME</text>
<text x="-5.0546" y="-5.715" size="1.778" layer="27" ratio="10">&gt;VALUE</text>
<rectangle x1="0.3302" y1="-2.54" x2="1.6002" y2="2.54" layer="21"/>
</package>
</packages>
<packages3d>
<package3d name="EB25D" urn="urn:adsk.eagle:package:23399/1" type="box" library_version="3">
<description>ELECTROLYTIC CAPACITOR
grid 10.16 mm, diameter 25 mm</description>
</package3d>
</packages3d>
</library>
<library name="diode" urn="urn:adsk.eagle:library:210">
<description>&lt;b&gt;Diodes&lt;/b&gt;&lt;p&gt;
Based on the following sources:
&lt;ul&gt;
&lt;li&gt;Motorola : www.onsemi.com
&lt;li&gt;Fairchild : www.fairchildsemi.com
&lt;li&gt;Philips : www.semiconductors.com
&lt;li&gt;Vishay : www.vishay.de
&lt;/ul&gt;
&lt;author&gt;Created by librarian@cadsoft.de&lt;/author&gt;</description>
<packages>
<package name="TO220ABS" urn="urn:adsk.eagle:footprint:43135/1" library_version="2">
<description>&lt;B&gt;DIODE&lt;/B&gt;&lt;p&gt;
3-lead molded, vertical</description>
<wire x1="5.08" y1="-1.143" x2="4.953" y2="-4.064" width="0.1524" layer="21"/>
<wire x1="4.699" y1="-4.318" x2="4.953" y2="-4.064" width="0.1524" layer="21"/>
<wire x1="4.699" y1="-4.318" x2="-4.699" y2="-4.318" width="0.1524" layer="21"/>
<wire x1="-4.953" y1="-4.064" x2="-4.699" y2="-4.318" width="0.1524" layer="21"/>
<wire x1="-4.953" y1="-4.064" x2="-5.08" y2="-1.143" width="0.1524" layer="21"/>
<circle x="-4.4958" y="-3.7084" radius="0.254" width="0" layer="21"/>
<pad name="A1" x="-2.54" y="-2.54" drill="1.016" shape="long" rot="R90"/>
<pad name="C" x="0" y="-2.54" drill="1.016" shape="long" rot="R90"/>
<pad name="A2" x="2.54" y="-2.54" drill="1.016" shape="long" rot="R90"/>
<text x="-5.08" y="-6.0452" size="1.27" layer="25" ratio="10">&gt;NAME</text>
<text x="-5.08" y="-7.62" size="1.27" layer="27" ratio="10">&gt;VALUE</text>
<rectangle x1="-5.334" y1="-0.762" x2="5.334" y2="0" layer="21"/>
<rectangle x1="-5.334" y1="-1.27" x2="-3.429" y2="-0.762" layer="21"/>
<rectangle x1="-1.651" y1="-1.27" x2="-0.889" y2="-0.762" layer="21"/>
<rectangle x1="-3.429" y1="-1.27" x2="-1.651" y2="-0.762" layer="51"/>
<rectangle x1="0.889" y1="-1.27" x2="1.651" y2="-0.762" layer="21"/>
<rectangle x1="3.429" y1="-1.27" x2="5.334" y2="-0.762" layer="21"/>
<rectangle x1="-0.889" y1="-1.27" x2="0.889" y2="-0.762" layer="51"/>
<rectangle x1="1.651" y1="-1.27" x2="3.429" y2="-0.762" layer="51"/>
</package>
</packages>
<packages3d>
<package3d name="TO220ABS" urn="urn:adsk.eagle:package:43372/2" type="model" library_version="2">
<description>DIODE
3-lead molded, vertical</description>
</package3d>
</packages3d>
</library>
<library name="pinhead" urn="urn:adsk.eagle:library:325">
<description>&lt;b&gt;Pin Header Connectors&lt;/b&gt;&lt;p&gt;
&lt;author&gt;Created by librarian@cadsoft.de&lt;/author&gt;</description>
<packages>
<package name="1X03" urn="urn:adsk.eagle:footprint:22340/1" library_version="3">
<description>&lt;b&gt;PIN HEADER&lt;/b&gt;</description>
<wire x1="-3.175" y1="1.27" x2="-1.905" y2="1.27" width="0.1524" layer="21"/>
<wire x1="-1.905" y1="1.27" x2="-1.27" y2="0.635" width="0.1524" layer="21"/>
<wire x1="-1.27" y1="0.635" x2="-1.27" y2="-0.635" width="0.1524" layer="21"/>
<wire x1="-1.27" y1="-0.635" x2="-1.905" y2="-1.27" width="0.1524" layer="21"/>
<wire x1="-1.27" y1="0.635" x2="-0.635" y2="1.27" width="0.1524" layer="21"/>
<wire x1="-0.635" y1="1.27" x2="0.635" y2="1.27" width="0.1524" layer="21"/>
<wire x1="0.635" y1="1.27" x2="1.27" y2="0.635" width="0.1524" layer="21"/>
<wire x1="1.27" y1="0.635" x2="1.27" y2="-0.635" width="0.1524" layer="21"/>
<wire x1="1.27" y1="-0.635" x2="0.635" y2="-1.27" width="0.1524" layer="21"/>
<wire x1="0.635" y1="-1.27" x2="-0.635" y2="-1.27" width="0.1524" layer="21"/>
<wire x1="-0.635" y1="-1.27" x2="-1.27" y2="-0.635" width="0.1524" layer="21"/>
<wire x1="-3.81" y1="0.635" x2="-3.81" y2="-0.635" width="0.1524" layer="21"/>
<wire x1="-3.175" y1="1.27" x2="-3.81" y2="0.635" width="0.1524" layer="21"/>
<wire x1="-3.81" y1="-0.635" x2="-3.175" y2="-1.27" width="0.1524" layer="21"/>
<wire x1="-1.905" y1="-1.27" x2="-3.175" y2="-1.27" width="0.1524" layer="21"/>
<wire x1="1.27" y1="0.635" x2="1.905" y2="1.27" width="0.1524" layer="21"/>
<wire x1="1.905" y1="1.27" x2="3.175" y2="1.27" width="0.1524" layer="21"/>
<wire x1="3.175" y1="1.27" x2="3.81" y2="0.635" width="0.1524" layer="21"/>
<wire x1="3.81" y1="0.635" x2="3.81" y2="-0.635" width="0.1524" layer="21"/>
<wire x1="3.81" y1="-0.635" x2="3.175" y2="-1.27" width="0.1524" layer="21"/>
<wire x1="3.175" y1="-1.27" x2="1.905" y2="-1.27" width="0.1524" layer="21"/>
<wire x1="1.905" y1="-1.27" x2="1.27" y2="-0.635" width="0.1524" layer="21"/>
<pad name="1" x="-2.54" y="0" drill="1.016" shape="long" rot="R90"/>
<pad name="2" x="0" y="0" drill="1.016" shape="long" rot="R90"/>
<pad name="3" x="2.54" y="0" drill="1.016" shape="long" rot="R90"/>
<text x="-3.8862" y="1.8288" size="1.27" layer="25" ratio="10">&gt;NAME</text>
<text x="-3.81" y="-3.175" size="1.27" layer="27">&gt;VALUE</text>
<rectangle x1="-0.254" y1="-0.254" x2="0.254" y2="0.254" layer="51"/>
<rectangle x1="-2.794" y1="-0.254" x2="-2.286" y2="0.254" layer="51"/>
<rectangle x1="2.286" y1="-0.254" x2="2.794" y2="0.254" layer="51"/>
</package>
</packages>
<packages3d>
<package3d name="1X03" urn="urn:adsk.eagle:package:22458/2" type="model" library_version="3">
<description>PIN HEADER</description>
</package3d>
</packages3d>
</library>
<library name="BMS">
<packages>
<package name="LM5111">
<wire x1="0" y1="0" x2="4.9" y2="0" width="0.127" layer="21"/>
<wire x1="4.9" y1="0" x2="4.9" y2="3.9" width="0.127" layer="21"/>
<wire x1="4.9" y1="3.9" x2="0" y2="3.9" width="0.127" layer="21"/>
<wire x1="0" y1="3.9" x2="0" y2="0" width="0.127" layer="21"/>
<wire x1="0.4" y1="0.2" x2="0.4" y2="0.5" width="0.127" layer="21" curve="-180"/>
<wire x1="0.45" y1="0.2" x2="0.45" y2="0.5" width="0.127" layer="21"/>
<smd name="P$1" x="0.558" y="-1.162" dx="2" dy="0.635" layer="1" rot="R270"/>
<smd name="P$2" x="1.828" y="-1.162" dx="2" dy="0.635" layer="1" rot="R270"/>
<smd name="P$3" x="3.098" y="-1.162" dx="2" dy="0.635" layer="1" rot="R270"/>
<smd name="P$4" x="4.368" y="-1.162" dx="2" dy="0.635" layer="1" rot="R270"/>
<smd name="P$5" x="4.368" y="5.038" dx="2" dy="0.635" layer="1" rot="R270"/>
<smd name="P$6" x="3.098" y="5.038" dx="2" dy="0.635" layer="1" rot="R270"/>
<smd name="P$7" x="1.828" y="5.038" dx="2" dy="0.635" layer="1" rot="R270"/>
<smd name="P$8" x="0.558" y="5.038" dx="2" dy="0.635" layer="1" rot="R270"/>
<text x="1" y="1.8" size="0.6096" layer="21">LM5111</text>
</package>
<package name="TO200_NEW">
<pad name="1" x="2.54" y="1.905" drill="1.1176" shape="long" rot="R90"/>
<pad name="2" x="5.08" y="1.905" drill="1.1176" shape="long" rot="R90"/>
<pad name="3" x="7.62" y="1.905" drill="1.1176" shape="long" rot="R90"/>
<text x="1" y="-3.103" size="1.778" layer="25" ratio="10">&gt;NAME</text>
<wire x1="0" y1="0" x2="10.16" y2="0" width="0.127" layer="21"/>
<wire x1="0" y1="0" x2="0" y2="3.81" width="0.127" layer="21"/>
<wire x1="0" y1="3.81" x2="10.16" y2="3.81" width="0.127" layer="21"/>
<wire x1="10.16" y1="3.81" x2="10.16" y2="0" width="0.127" layer="21"/>
<pad name="P$1" x="5.1" y="6.6" drill="1.8"/>
<wire x1="0" y1="0" x2="-2.54" y2="0" width="0.127" layer="21"/>
<wire x1="-2.54" y1="0" x2="-2.54" y2="10.16" width="0.127" layer="21"/>
<wire x1="-2.54" y1="10.16" x2="12.7" y2="10.16" width="0.127" layer="21"/>
<wire x1="12.7" y1="10.16" x2="12.7" y2="0" width="0.127" layer="21"/>
<wire x1="12.7" y1="0" x2="10.16" y2="0" width="0.127" layer="21"/>
</package>
<package name="MEGA-FIT-2">
<pad name="P$1" x="0" y="0" drill="1.85"/>
<pad name="P$2" x="0" y="5.7" drill="1.85"/>
<wire x1="-5.7" y1="11.4" x2="-5.7" y2="-5.7" width="0.127" layer="21"/>
<wire x1="-5.7" y1="-5.7" x2="5.7" y2="-5.7" width="0.127" layer="21"/>
<wire x1="5.7" y1="-5.7" x2="5.7" y2="11.4" width="0.127" layer="21"/>
<wire x1="5.7" y1="11.4" x2="-5.7" y2="11.4" width="0.127" layer="21"/>
<hole x="3.48" y="-2.77" drill="1.85"/>
</package>
<package name="PHOENIX-2PIN">
<pad name="P$1" x="0" y="0" drill="1.6" shape="long" rot="R90"/>
<pad name="P$2" x="5" y="0" drill="1.6" shape="long" rot="R90"/>
<wire x1="-2.5" y1="3" x2="-2.5" y2="-3" width="0.127" layer="21"/>
<wire x1="-2.5" y1="-3" x2="7.5" y2="-3" width="0.127" layer="21"/>
<wire x1="7.5" y1="-3" x2="7.5" y2="3" width="0.127" layer="21"/>
<wire x1="7.5" y1="3" x2="-2.5" y2="3" width="0.127" layer="21"/>
</package>
</packages>
</library>
<library name="led" urn="urn:adsk.eagle:library:259">
<description>&lt;b&gt;LEDs&lt;/b&gt;&lt;p&gt;
&lt;author&gt;Created by librarian@cadsoft.de&lt;/author&gt;&lt;br&gt;
Extended by Federico Battaglin &lt;author&gt;&amp;lt;federico.rd@fdpinternational.com&amp;gt;&lt;/author&gt; with DUOLED</description>
<packages>
<package name="1206" urn="urn:adsk.eagle:footprint:15651/1" library_version="2">
<description>&lt;b&gt;CHICAGO MINIATURE LAMP, INC.&lt;/b&gt;&lt;p&gt;
7022X Series SMT LEDs 1206 Package Size</description>
<wire x1="1.55" y1="-0.75" x2="-1.55" y2="-0.75" width="0.1016" layer="51"/>
<wire x1="-1.55" y1="-0.75" x2="-1.55" y2="0.75" width="0.1016" layer="51"/>
<wire x1="-1.55" y1="0.75" x2="1.55" y2="0.75" width="0.1016" layer="51"/>
<wire x1="1.55" y1="0.75" x2="1.55" y2="-0.75" width="0.1016" layer="51"/>
<wire x1="-0.55" y1="-0.5" x2="0.55" y2="-0.5" width="0.1016" layer="21" curve="95.452622"/>
<wire x1="-0.55" y1="-0.5" x2="-0.55" y2="0.5" width="0.1016" layer="51" curve="-84.547378"/>
<wire x1="-0.55" y1="0.5" x2="0.55" y2="0.5" width="0.1016" layer="21" curve="-95.452622"/>
<wire x1="0.55" y1="0.5" x2="0.55" y2="-0.5" width="0.1016" layer="51" curve="-84.547378"/>
<smd name="A" x="-1.422" y="0" dx="1.6" dy="1.803" layer="1"/>
<smd name="C" x="1.422" y="0" dx="1.6" dy="1.803" layer="1"/>
<text x="-1.27" y="1.27" size="1.27" layer="25">&gt;NAME</text>
<text x="-1.27" y="-2.54" size="1.27" layer="27">&gt;VALUE</text>
<rectangle x1="-0.1" y1="-0.1" x2="0.1" y2="0.1" layer="21"/>
<rectangle x1="0.45" y1="-0.7" x2="0.8" y2="-0.45" layer="51"/>
<rectangle x1="0.8" y1="-0.7" x2="0.9" y2="0.5" layer="51"/>
<rectangle x1="0.8" y1="0.55" x2="0.9" y2="0.7" layer="51"/>
<rectangle x1="-0.9" y1="-0.7" x2="-0.8" y2="0.5" layer="51"/>
<rectangle x1="-0.9" y1="0.55" x2="-0.8" y2="0.7" layer="51"/>
<rectangle x1="0.45" y1="-0.7" x2="0.6" y2="-0.45" layer="21"/>
</package>
</packages>
<packages3d>
<package3d name="1206" urn="urn:adsk.eagle:package:15796/1" type="box" library_version="2">
<description>CHICAGO MINIATURE LAMP, INC.
7022X Series SMT LEDs 1206 Package Size</description>
</package3d>
</packages3d>
</library>
</libraries>
<attributes>
</attributes>
<variantdefs>
</variantdefs>
<classes>
<class number="0" name="default" width="0" drill="0">
</class>
</classes>
<designrules name="default">
<description language="de">&lt;b&gt;EAGLE Design Rules&lt;/b&gt;
&lt;p&gt;
Die Standard-Design-Rules sind so gewählt, dass sie für 
die meisten Anwendungen passen. Sollte ihre Platine 
besondere Anforderungen haben, treffen Sie die erforderlichen
Einstellungen hier und speichern die Design Rules unter 
einem neuen Namen ab.</description>
<description language="en">&lt;b&gt;EAGLE Design Rules&lt;/b&gt;
&lt;p&gt;
The default Design Rules have been set to cover
a wide range of applications. Your particular design
may have different requirements, so please make the
necessary adjustments and save your customized
design rules under a new name.</description>
<param name="layerSetup" value="(1*16)"/>
<param name="mtCopper" value="0.035mm 0.035mm 0.035mm 0.035mm 0.035mm 0.035mm 0.035mm 0.035mm 0.035mm 0.035mm 0.035mm 0.035mm 0.035mm 0.035mm 0.035mm 0.035mm"/>
<param name="mtIsolate" value="1.5mm 0.15mm 0.2mm 0.15mm 0.2mm 0.15mm 0.2mm 0.15mm 0.2mm 0.15mm 0.2mm 0.15mm 0.2mm 0.15mm 0.2mm"/>
<param name="mdWireWire" value="6mil"/>
<param name="mdWirePad" value="6mil"/>
<param name="mdWireVia" value="6mil"/>
<param name="mdPadPad" value="6mil"/>
<param name="mdPadVia" value="6mil"/>
<param name="mdViaVia" value="6mil"/>
<param name="mdSmdPad" value="6mil"/>
<param name="mdSmdVia" value="6mil"/>
<param name="mdSmdSmd" value="6mil"/>
<param name="mdViaViaSameLayer" value="6mil"/>
<param name="mnLayersViaInSmd" value="2"/>
<param name="mdCopperDimension" value="40mil"/>
<param name="mdDrill" value="6mil"/>
<param name="mdSmdStop" value="0mil"/>
<param name="msWidth" value="6mil"/>
<param name="msDrill" value="0.35mm"/>
<param name="msMicroVia" value="9.99mm"/>
<param name="msBlindViaRatio" value="0.5"/>
<param name="rvPadTop" value="0.25"/>
<param name="rvPadInner" value="0.25"/>
<param name="rvPadBottom" value="0.25"/>
<param name="rvViaOuter" value="0.25"/>
<param name="rvViaInner" value="0.25"/>
<param name="rvMicroViaOuter" value="0.25"/>
<param name="rvMicroViaInner" value="0.25"/>
<param name="rlMinPadTop" value="10mil"/>
<param name="rlMaxPadTop" value="20mil"/>
<param name="rlMinPadInner" value="10mil"/>
<param name="rlMaxPadInner" value="20mil"/>
<param name="rlMinPadBottom" value="10mil"/>
<param name="rlMaxPadBottom" value="20mil"/>
<param name="rlMinViaOuter" value="8mil"/>
<param name="rlMaxViaOuter" value="20mil"/>
<param name="rlMinViaInner" value="8mil"/>
<param name="rlMaxViaInner" value="20mil"/>
<param name="rlMinMicroViaOuter" value="4mil"/>
<param name="rlMaxMicroViaOuter" value="20mil"/>
<param name="rlMinMicroViaInner" value="4mil"/>
<param name="rlMaxMicroViaInner" value="20mil"/>
<param name="psTop" value="-1"/>
<param name="psBottom" value="-1"/>
<param name="psFirst" value="-1"/>
<param name="psElongationLong" value="100"/>
<param name="psElongationOffset" value="100"/>
<param name="mvStopFrame" value="1"/>
<param name="mvCreamFrame" value="0"/>
<param name="mlMinStopFrame" value="4mil"/>
<param name="mlMaxStopFrame" value="4mil"/>
<param name="mlMinCreamFrame" value="0mil"/>
<param name="mlMaxCreamFrame" value="0mil"/>
<param name="mlViaStopLimit" value="0mil"/>
<param name="srRoundness" value="0"/>
<param name="srMinRoundness" value="0mil"/>
<param name="srMaxRoundness" value="0mil"/>
<param name="slThermalIsolate" value="10mil"/>
<param name="slThermalsForVias" value="0"/>
<param name="dpMaxLengthDifference" value="10mm"/>
<param name="dpGapFactor" value="2.5"/>
<param name="checkAngle" value="0"/>
<param name="checkFont" value="1"/>
<param name="checkRestrict" value="1"/>
<param name="checkStop" value="0"/>
<param name="checkValues" value="0"/>
<param name="useDiameter" value="13"/>
<param name="maxErrors" value="50"/>
</designrules>
<autorouter>
<pass name="Default">
<param name="RoutingGrid" value="50mil"/>
<param name="AutoGrid" value="1"/>
<param name="Efforts" value="0"/>
<param name="TopRouterVariant" value="1"/>
<param name="tpViaShape" value="round"/>
<param name="PrefDir.1" value="a"/>
<param name="PrefDir.2" value="0"/>
<param name="PrefDir.3" value="0"/>
<param name="PrefDir.4" value="0"/>
<param name="PrefDir.5" value="0"/>
<param name="PrefDir.6" value="0"/>
<param name="PrefDir.7" value="0"/>
<param name="PrefDir.8" value="0"/>
<param name="PrefDir.9" value="0"/>
<param name="PrefDir.10" value="0"/>
<param name="PrefDir.11" value="0"/>
<param name="PrefDir.12" value="0"/>
<param name="PrefDir.13" value="0"/>
<param name="PrefDir.14" value="0"/>
<param name="PrefDir.15" value="0"/>
<param name="PrefDir.16" value="a"/>
<param name="cfVia" value="8"/>
<param name="cfNonPref" value="5"/>
<param name="cfChangeDir" value="2"/>
<param name="cfOrthStep" value="2"/>
<param name="cfDiagStep" value="3"/>
<param name="cfExtdStep" value="0"/>
<param name="cfBonusStep" value="1"/>
<param name="cfMalusStep" value="1"/>
<param name="cfPadImpact" value="4"/>
<param name="cfSmdImpact" value="4"/>
<param name="cfBusImpact" value="0"/>
<param name="cfHugging" value="3"/>
<param name="cfAvoid" value="4"/>
<param name="cfPolygon" value="10"/>
<param name="cfBase.1" value="0"/>
<param name="cfBase.2" value="1"/>
<param name="cfBase.3" value="1"/>
<param name="cfBase.4" value="1"/>
<param name="cfBase.5" value="1"/>
<param name="cfBase.6" value="1"/>
<param name="cfBase.7" value="1"/>
<param name="cfBase.8" value="1"/>
<param name="cfBase.9" value="1"/>
<param name="cfBase.10" value="1"/>
<param name="cfBase.11" value="1"/>
<param name="cfBase.12" value="1"/>
<param name="cfBase.13" value="1"/>
<param name="cfBase.14" value="1"/>
<param name="cfBase.15" value="1"/>
<param name="cfBase.16" value="0"/>
<param name="mnVias" value="20"/>
<param name="mnSegments" value="9999"/>
<param name="mnExtdSteps" value="9999"/>
<param name="mnRipupLevel" value="10"/>
<param name="mnRipupSteps" value="100"/>
<param name="mnRipupTotal" value="100"/>
</pass>
<pass name="Follow-me" refer="Default" active="yes">
</pass>
<pass name="Busses" refer="Default" active="yes">
<param name="cfNonPref" value="4"/>
<param name="cfBusImpact" value="4"/>
<param name="cfHugging" value="0"/>
<param name="mnVias" value="0"/>
</pass>
<pass name="Route" refer="Default" active="yes">
</pass>
<pass name="Optimize1" refer="Default" active="yes">
<param name="cfVia" value="99"/>
<param name="cfExtdStep" value="10"/>
<param name="cfHugging" value="1"/>
<param name="mnExtdSteps" value="1"/>
<param name="mnRipupLevel" value="0"/>
</pass>
<pass name="Optimize2" refer="Optimize1" active="yes">
<param name="cfNonPref" value="0"/>
<param name="cfChangeDir" value="6"/>
<param name="cfExtdStep" value="0"/>
<param name="cfBonusStep" value="2"/>
<param name="cfMalusStep" value="2"/>
<param name="cfPadImpact" value="2"/>
<param name="cfSmdImpact" value="2"/>
<param name="cfHugging" value="0"/>
</pass>
<pass name="Optimize3" refer="Optimize2" active="yes">
<param name="cfChangeDir" value="8"/>
<param name="cfPadImpact" value="0"/>
<param name="cfSmdImpact" value="0"/>
</pass>
<pass name="Optimize4" refer="Optimize3" active="yes">
<param name="cfChangeDir" value="25"/>
</pass>
</autorouter>
<elements>
<element name="C1" library="eagle-ltspice" library_urn="urn:adsk.eagle:library:217" package="C1206" package3d_urn="urn:adsk.eagle:package:13279/1" value="" x="41.91" y="35.56" rot="R90">
<attribute name="SPICEMODEL" value="NONE" x="41.91" y="35.56" size="1.778" layer="27" rot="R90" display="off"/>
<attribute name="SPICEPREFIX" value="C" x="41.91" y="35.56" size="1.778" layer="27" rot="R90" display="off"/>
</element>
<element name="C2" library="eagle-ltspice" library_urn="urn:adsk.eagle:library:217" package="C1206" package3d_urn="urn:adsk.eagle:package:13279/1" value="" x="45.72" y="35.56" rot="R90">
<attribute name="SPICEMODEL" value="NONE" x="45.72" y="35.56" size="1.778" layer="27" rot="R90" display="off"/>
<attribute name="SPICEPREFIX" value="C" x="45.72" y="35.56" size="1.778" layer="27" rot="R90" display="off"/>
</element>
<element name="C3" library="eagle-ltspice" library_urn="urn:adsk.eagle:library:217" package="C1206" package3d_urn="urn:adsk.eagle:package:13279/1" value="" x="2.24" y="63.5" rot="R270">
<attribute name="SPICEMODEL" value="NONE" x="2.24" y="63.5" size="1.778" layer="27" rot="R270" display="off"/>
<attribute name="SPICEPREFIX" value="C" x="2.24" y="63.5" size="1.778" layer="27" rot="R270" display="off"/>
</element>
<element name="C4" library="eagle-ltspice" library_urn="urn:adsk.eagle:library:217" package="C1206" package3d_urn="urn:adsk.eagle:package:13279/1" value="" x="4.445" y="63.5" rot="R270">
<attribute name="SPICEMODEL" value="NONE" x="4.445" y="63.5" size="1.778" layer="27" rot="R270" display="off"/>
<attribute name="SPICEPREFIX" value="C" x="4.445" y="63.5" size="1.778" layer="27" rot="R270" display="off"/>
</element>
<element name="C5" library="eagle-ltspice" library_urn="urn:adsk.eagle:library:217" package="C1206" package3d_urn="urn:adsk.eagle:package:13279/1" value="" x="2.24" y="58.42" rot="R90">
<attribute name="SPICEMODEL" value="NONE" x="2.24" y="58.42" size="1.778" layer="27" rot="R90" display="off"/>
<attribute name="SPICEPREFIX" value="C" x="2.24" y="58.42" size="1.778" layer="27" rot="R90" display="off"/>
</element>
<element name="C6" library="eagle-ltspice" library_urn="urn:adsk.eagle:library:217" package="C1206" package3d_urn="urn:adsk.eagle:package:13279/1" value="" x="4.445" y="58.42" rot="R90">
<attribute name="SPICEMODEL" value="NONE" x="4.445" y="58.42" size="1.778" layer="27" rot="R90" display="off"/>
<attribute name="SPICEPREFIX" value="C" x="4.445" y="58.42" size="1.778" layer="27" rot="R90" display="off"/>
</element>
<element name="C7" library="rcl" library_urn="urn:adsk.eagle:library:334" package="EB25D" package3d_urn="urn:adsk.eagle:package:23399/1" value="" x="17.78" y="82.55" rot="R90">
<attribute name="SPICEPREFIX" value="C" x="17.78" y="82.55" size="1.778" layer="27" rot="R90" display="off"/>
</element>
<element name="C8" library="rcl" library_urn="urn:adsk.eagle:library:334" package="EB25D" package3d_urn="urn:adsk.eagle:package:23399/1" value="" x="82.55" y="81.28" rot="R90">
<attribute name="SPICEPREFIX" value="C" x="82.55" y="81.28" size="1.778" layer="27" rot="R90" display="off"/>
</element>
<element name="D7" library="diode" library_urn="urn:adsk.eagle:library:210" package="TO220ABS" package3d_urn="urn:adsk.eagle:package:43372/2" value="BYV32" x="13.97" y="60.96" rot="R270"/>
<element name="JP1" library="pinhead" library_urn="urn:adsk.eagle:library:325" package="1X03" package3d_urn="urn:adsk.eagle:package:22458/2" value="" x="52.07" y="25.4" rot="R180"/>
<element name="R1" library="eagle-ltspice" library_urn="urn:adsk.eagle:library:217" package="R1206" package3d_urn="urn:adsk.eagle:package:13301/1" value="" x="69.85" y="46.99" rot="R90">
<attribute name="SPICEMODEL" value="NONE" x="69.85" y="46.99" size="1.778" layer="27" rot="R90" display="off"/>
<attribute name="SPICEPREFIX" value="R" x="69.85" y="46.99" size="1.778" layer="27" rot="R90" display="off"/>
</element>
<element name="R2" library="eagle-ltspice" library_urn="urn:adsk.eagle:library:217" package="R1206" package3d_urn="urn:adsk.eagle:package:13301/1" value="" x="41.91" y="46.99" rot="R90">
<attribute name="SPICEMODEL" value="NONE" x="41.91" y="46.99" size="1.778" layer="27" rot="R90" display="off"/>
<attribute name="SPICEPREFIX" value="R" x="41.91" y="46.99" size="1.778" layer="27" rot="R90" display="off"/>
</element>
<element name="R3" library="eagle-ltspice" library_urn="urn:adsk.eagle:library:217" package="R1206" package3d_urn="urn:adsk.eagle:package:13301/1" value="" x="54.61" y="46.99" rot="R90">
<attribute name="SPICEMODEL" value="NONE" x="54.61" y="46.99" size="1.778" layer="27" rot="R90" display="off"/>
<attribute name="SPICEPREFIX" value="R" x="54.61" y="46.99" size="1.778" layer="27" rot="R90" display="off"/>
</element>
<element name="R4" library="eagle-ltspice" library_urn="urn:adsk.eagle:library:217" package="R1206" package3d_urn="urn:adsk.eagle:package:13301/1" value="" x="26.67" y="46.99" rot="R90">
<attribute name="SPICEMODEL" value="NONE" x="26.67" y="46.99" size="1.778" layer="27" rot="R90" display="off"/>
<attribute name="SPICEPREFIX" value="R" x="26.67" y="46.99" size="1.778" layer="27" rot="R90" display="off"/>
</element>
<element name="R5" library="eagle-ltspice" library_urn="urn:adsk.eagle:library:217" package="R1206" package3d_urn="urn:adsk.eagle:package:13301/1" value="" x="34.29" y="46.99" rot="R90">
<attribute name="SPICEMODEL" value="NONE" x="34.29" y="46.99" size="1.778" layer="27" rot="R90" display="off"/>
<attribute name="SPICEPREFIX" value="R" x="34.29" y="46.99" size="1.778" layer="27" rot="R90" display="off"/>
</element>
<element name="R6" library="eagle-ltspice" library_urn="urn:adsk.eagle:library:217" package="R1206" package3d_urn="urn:adsk.eagle:package:13301/1" value="" x="62.23" y="46.99" rot="R270">
<attribute name="SPICEMODEL" value="NONE" x="62.23" y="46.99" size="1.778" layer="27" rot="R270" display="off"/>
<attribute name="SPICEPREFIX" value="R" x="62.23" y="46.99" size="1.778" layer="27" rot="R270" display="off"/>
</element>
<element name="U$1" library="BMS" package="LM5111" value="LM5111" x="50.8" y="33.02"/>
<element name="U$2" library="BMS" package="TO200_NEW" value="TO-220-HEATSINK" x="43.18" y="54.61" rot="R90"/>
<element name="U$3" library="BMS" package="TO200_NEW" value="TO-220-HEATSINK" x="29.21" y="54.61" rot="R90"/>
<element name="U$4" library="BMS" package="TO200_NEW" value="TO-220-HEATSINK" x="71.12" y="54.61" rot="R90"/>
<element name="U$5" library="BMS" package="TO200_NEW" value="TO-220-HEATSINK" x="57.15" y="54.61" rot="R90"/>
<element name="U$6" library="BMS" package="MEGA-FIT-2" value="MEGA-FIT-2" x="82.55" y="57.15"/>
<element name="U$7" library="BMS" package="MEGA-FIT-2" value="MEGA-FIT-2" x="44.45" y="91.44" rot="R180"/>
<element name="U$8" library="BMS" package="PHOENIX-2PIN" value="PHOENIX-2PIN" x="94.615" y="57.15" rot="R90"/>
<element name="U$9" library="BMS" package="PHOENIX-2PIN" value="PHOENIX-2PIN" x="57.15" y="93.98"/>
<element name="C9" library="eagle-ltspice" library_urn="urn:adsk.eagle:library:217" package="C1206" package3d_urn="urn:adsk.eagle:package:13279/1" value="" x="59.69" y="78.105" rot="R180">
<attribute name="SPICEMODEL" value="NONE" x="59.69" y="78.105" size="1.778" layer="27" rot="R180" display="off"/>
<attribute name="SPICEPREFIX" value="C" x="59.69" y="78.105" size="1.778" layer="27" rot="R180" display="off"/>
</element>
<element name="C10" library="eagle-ltspice" library_urn="urn:adsk.eagle:library:217" package="C1206" package3d_urn="urn:adsk.eagle:package:13279/1" value="" x="59.69" y="81.28" rot="R180">
<attribute name="SPICEMODEL" value="NONE" x="64.77" y="87.63" size="1.778" layer="27" rot="R180" display="off"/>
<attribute name="SPICEPREFIX" value="C" x="64.77" y="87.63" size="1.778" layer="27" rot="R180" display="off"/>
</element>
<element name="C11" library="eagle-ltspice" library_urn="urn:adsk.eagle:library:217" package="C1206" package3d_urn="urn:adsk.eagle:package:13279/1" value="" x="59.69" y="84.455" rot="R180">
<attribute name="SPICEMODEL" value="NONE" x="59.69" y="90.805" size="1.778" layer="27" rot="R180" display="off"/>
<attribute name="SPICEPREFIX" value="C" x="59.69" y="90.805" size="1.778" layer="27" rot="R180" display="off"/>
</element>
<element name="C12" library="eagle-ltspice" library_urn="urn:adsk.eagle:library:217" package="C1206" package3d_urn="urn:adsk.eagle:package:13279/1" value="" x="59.69" y="87.63" rot="R180">
<attribute name="SPICEMODEL" value="NONE" x="64.77" y="100.33" size="1.778" layer="27" rot="R180" display="off"/>
<attribute name="SPICEPREFIX" value="C" x="64.77" y="100.33" size="1.778" layer="27" rot="R180" display="off"/>
</element>
<element name="LED1" library="led" library_urn="urn:adsk.eagle:library:259" package="1206" package3d_urn="urn:adsk.eagle:package:15796/1" value="" x="73.025" y="34.925"/>
<element name="R7" library="eagle-ltspice" library_urn="urn:adsk.eagle:library:217" package="R1206" package3d_urn="urn:adsk.eagle:package:13301/1" value="" x="80.01" y="34.925" rot="R180">
<attribute name="SPICEMODEL" value="NONE" x="80.01" y="34.925" size="6" layer="27" rot="R180" display="off"/>
<attribute name="SPICEPREFIX" value="R" x="80.01" y="34.925" size="6" layer="27" rot="R180" display="off"/>
</element>
<element name="LED2" library="led" library_urn="urn:adsk.eagle:library:259" package="1206" package3d_urn="urn:adsk.eagle:package:15796/1" value="" x="73.025" y="32.385"/>
<element name="R8" library="eagle-ltspice" library_urn="urn:adsk.eagle:library:217" package="R1206" package3d_urn="urn:adsk.eagle:package:13301/1" value="" x="80.01" y="32.385" rot="R180">
<attribute name="SPICEMODEL" value="NONE" x="80.01" y="32.385" size="6" layer="27" rot="R180" display="off"/>
<attribute name="SPICEPREFIX" value="R" x="80.01" y="32.385" size="6" layer="27" rot="R180" display="off"/>
</element>
<element name="LED3" library="led" library_urn="urn:adsk.eagle:library:259" package="1206" package3d_urn="urn:adsk.eagle:package:15796/1" value="" x="73.025" y="29.845"/>
<element name="R9" library="eagle-ltspice" library_urn="urn:adsk.eagle:library:217" package="R1206" package3d_urn="urn:adsk.eagle:package:13301/1" value="" x="80.01" y="29.845" rot="R180">
<attribute name="SPICEMODEL" value="NONE" x="80.01" y="29.845" size="6" layer="27" rot="R180" display="off"/>
<attribute name="SPICEPREFIX" value="R" x="80.01" y="29.845" size="6" layer="27" rot="R180" display="off"/>
</element>
</elements>
<signals>
<signal name="N$1">
<contactref element="U$1" pad="P$5"/>
<contactref element="R1" pad="1"/>
<contactref element="R6" pad="2"/>
<contactref element="R3" pad="1"/>
<wire x1="69.85" y1="45.568" x2="62.382" y2="45.568" width="0.3048" layer="1"/>
<wire x1="62.382" y1="45.568" x2="62.23" y2="45.72" width="0.3048" layer="1"/>
<wire x1="54.61" y1="45.568" x2="62.23" y2="45.568" width="0.6096" layer="1"/>
<wire x1="62.23" y1="45.568" x2="69.85" y2="45.568" width="0.6096" layer="1"/>
<wire x1="55.168" y1="38.058" x2="55.168" y2="45.01" width="0.6096" layer="1"/>
<wire x1="55.168" y1="45.01" x2="54.61" y2="45.568" width="0.6096" layer="1"/>
<contactref element="LED1" pad="A"/>
<wire x1="71.603" y1="34.925" x2="69.85" y2="36.678" width="1" layer="1"/>
<wire x1="69.85" y1="36.678" x2="69.85" y2="45.568" width="1" layer="1"/>
</signal>
<signal name="N$2">
<contactref element="U$1" pad="P$7"/>
<contactref element="R5" pad="1"/>
<contactref element="R2" pad="1"/>
<contactref element="R4" pad="1"/>
<wire x1="26.67" y1="45.568" x2="34.29" y2="45.568" width="0.6096" layer="1"/>
<wire x1="34.29" y1="45.568" x2="41.91" y2="45.568" width="0.6096" layer="1"/>
<wire x1="52.628" y1="38.058" x2="52.628" y2="40.082" width="0.6096" layer="1"/>
<wire x1="47.142" y1="45.568" x2="41.91" y2="45.568" width="0.6096" layer="1"/>
<wire x1="52.628" y1="40.082" x2="47.142" y2="45.568" width="0.6096" layer="1"/>
</signal>
<signal name="N$4">
<contactref element="R4" pad="2"/>
<contactref element="U$3" pad="1"/>
<wire x1="27.305" y1="57.15" x2="27.305" y2="49.047" width="0.6096" layer="1"/>
<wire x1="27.305" y1="49.047" x2="26.67" y2="48.412" width="0.6096" layer="1"/>
</signal>
<signal name="N$6">
<contactref element="U$5" pad="1"/>
<contactref element="R3" pad="2"/>
<wire x1="55.245" y1="57.15" x2="55.245" y2="49.047" width="0.6096" layer="1"/>
<wire x1="55.245" y1="49.047" x2="54.61" y2="48.412" width="0.6096" layer="1"/>
</signal>
<signal name="GND">
<contactref element="R6" pad="1"/>
<contactref element="R5" pad="2"/>
<contactref element="U$4" pad="3" route="any" routetag="G$1.S"/>
<contactref element="U$2" pad="3" route="any" routetag="G$1.S"/>
<contactref element="U$5" pad="3" route="any" routetag="G$1.S"/>
<contactref element="U$3" pad="3" route="any" routetag="G$1.S"/>
<contactref element="U$1" pad="P$6"/>
<contactref element="C2" pad="2"/>
<contactref element="C1" pad="2"/>
<contactref element="JP1" pad="2"/>
<contactref element="U$7" pad="P$2"/>
<contactref element="U$9" pad="P$2"/>
<contactref element="C3" pad="1"/>
<contactref element="C4" pad="1"/>
<contactref element="C5" pad="1"/>
<contactref element="C6" pad="1"/>
<contactref element="C7" pad="-"/>
<contactref element="C8" pad="-"/>
<wire x1="47.12" y1="35.56" x2="45.72" y2="36.96" width="0" layer="19" extent="1-16"/>
<wire x1="45.72" y1="36.96" x2="41.91" y2="36.96" width="0.6096" layer="1"/>
<wire x1="4.445" y1="57.02" x2="2.24" y2="57.02" width="1" layer="1"/>
<wire x1="4.445" y1="64.9" x2="2.24" y2="64.9" width="1" layer="1"/>
<polygon width="3" layer="1" isolate="0.5">
<vertex x="-2.54" y="104.14"/>
<vertex x="-2.54" y="0"/>
<vertex x="1.27" y="-3.81"/>
<vertex x="116.84" y="-3.81"/>
<vertex x="118.11" y="-2.54"/>
<vertex x="118.11" y="90.17"/>
<vertex x="101.6" y="106.68"/>
<vertex x="0" y="106.68"/>
</polygon>
<wire x1="62.15" y1="93.98" x2="65.325" y2="97.155" width="3" layer="1"/>
<wire x1="65.325" y1="97.155" x2="65.405" y2="97.155" width="3" layer="1"/>
<wire x1="62.15" y1="93.98" x2="60.325" y2="92.155" width="3" layer="1"/>
<wire x1="60.325" y1="92.155" x2="60.325" y2="90.805" width="3" layer="1"/>
<contactref element="C9" pad="1"/>
<contactref element="C10" pad="1"/>
<contactref element="C11" pad="1"/>
<contactref element="C12" pad="1"/>
<wire x1="61.09" y1="78.105" x2="61.09" y2="81.28" width="1" layer="1"/>
<wire x1="61.09" y1="81.28" x2="61.09" y2="84.455" width="1" layer="1"/>
<wire x1="61.09" y1="84.455" x2="61.09" y2="87.63" width="1" layer="1"/>
<wire x1="61.09" y1="87.63" x2="61.09" y2="92.92" width="1" layer="1"/>
<wire x1="61.09" y1="92.92" x2="62.15" y2="93.98" width="1" layer="1"/>
<wire x1="62.15" y1="93.98" x2="62.865" y2="93.265" width="3" layer="1"/>
<wire x1="62.865" y1="93.265" x2="62.865" y2="91.44" width="3" layer="1"/>
<wire x1="27.305" y1="62.23" x2="24.765" y2="62.23" width="2" layer="1"/>
<wire x1="24.765" y1="62.23" x2="24.13" y2="62.865" width="2" layer="1"/>
<wire x1="27.305" y1="62.23" x2="41.275" y2="62.23" width="2" layer="1"/>
<wire x1="41.275" y1="62.23" x2="55.245" y2="62.23" width="2" layer="1"/>
<wire x1="55.245" y1="62.23" x2="69.215" y2="62.23" width="2" layer="1"/>
<contactref element="R7" pad="1"/>
<contactref element="R8" pad="1"/>
<contactref element="R9" pad="1"/>
<wire x1="2.24" y1="64.9" x2="3.175" y2="66.17" width="1" layer="1"/>
<wire x1="3.175" y1="66.17" x2="3.175" y2="69.85" width="1" layer="1"/>
<wire x1="4.445" y1="57.02" x2="4.445" y2="53.975" width="1" layer="1"/>
<wire x1="62.23" y1="48.412" x2="62.23" y2="51.435" width="1" layer="1"/>
<wire x1="47.12" y1="35.56" x2="53.898" y2="38.058" width="0" layer="19" extent="1-1"/>
<wire x1="52.07" y1="25.4" x2="47.12" y2="35.56" width="0" layer="19" extent="1-1"/>
<wire x1="62.23" y1="48.412" x2="53.898" y2="38.058" width="0" layer="19" extent="1-1"/>
</signal>
<signal name="VCC">
<contactref element="C1" pad="1"/>
<contactref element="C2" pad="1"/>
<contactref element="U$1" pad="P$3"/>
<contactref element="JP1" pad="3"/>
<wire x1="45.72" y1="34.16" x2="41.91" y2="34.16" width="0.6096" layer="1"/>
<wire x1="49.53" y1="25.4" x2="45.72" y2="29.21" width="0.6096" layer="1"/>
<wire x1="45.72" y1="29.21" x2="45.72" y2="34.16" width="0.6096" layer="1"/>
<contactref element="LED2" pad="A"/>
<wire x1="71.603" y1="32.385" x2="69.85" y2="32.385" width="1" layer="1"/>
<wire x1="59.055" y1="21.59" x2="69.85" y2="32.385" width="1" layer="1"/>
<wire x1="49.53" y1="25.4" x2="49.53" y2="23.495" width="1" layer="1"/>
<wire x1="49.53" y1="23.495" x2="51.435" y2="21.59" width="1" layer="1"/>
<wire x1="51.435" y1="21.59" x2="59.055" y2="21.59" width="1" layer="1"/>
<wire x1="49.53" y1="25.4" x2="53.898" y2="31.858" width="0" layer="19" extent="1-1"/>
</signal>
<signal name="N$9">
<contactref element="U$1" pad="P$2"/>
<contactref element="U$1" pad="P$4"/>
<contactref element="JP1" pad="1"/>
<wire x1="55.168" y1="31.858" x2="55.168" y2="25.958" width="0.6096" layer="1"/>
<wire x1="55.168" y1="25.958" x2="54.61" y2="25.4" width="0.6096" layer="1"/>
<wire x1="52.628" y1="31.858" x2="52.628" y2="27.382" width="0.6096" layer="1"/>
<wire x1="52.628" y1="27.382" x2="54.61" y2="25.4" width="0.6096" layer="1"/>
</signal>
<signal name="N$8">
<contactref element="U$6" pad="P$2"/>
<contactref element="U$7" pad="P$1"/>
<contactref element="D7" pad="C"/>
<contactref element="C3" pad="2"/>
<contactref element="C4" pad="2"/>
<contactref element="C5" pad="2"/>
<contactref element="C6" pad="2"/>
<contactref element="C7" pad="+"/>
<contactref element="C8" pad="+"/>
<contactref element="U$8" pad="P$2"/>
<contactref element="U$9" pad="P$1"/>
<wire x1="2.24" y1="62.1" x2="4.445" y2="62.1" width="1" layer="1"/>
<wire x1="2.24" y1="59.82" x2="4.445" y2="59.82" width="1" layer="1"/>
<polygon width="3" layer="16" isolate="0.5">
<vertex x="-12.7" y="114.3"/>
<vertex x="-12.7" y="76.2"/>
<vertex x="-5.08" y="68.58"/>
<vertex x="121.92" y="68.58"/>
<vertex x="132.08" y="78.74"/>
<vertex x="132.08" y="102.87"/>
<vertex x="121.92" y="113.03"/>
<vertex x="120.65" y="114.3"/>
</polygon>
<wire x1="2.24" y1="62.1" x2="2.24" y2="59.82" width="1" layer="1"/>
<wire x1="94.615" y1="62.15" x2="95.25" y2="71.12" width="5" layer="16"/>
<wire x1="82.55" y1="62.85" x2="82.55" y2="69.85" width="5" layer="16"/>
<wire x1="57.15" y1="93.98" x2="57.15" y2="95.25" width="3" layer="16"/>
<wire x1="57.15" y1="95.25" x2="55.88" y2="96.52" width="3" layer="16"/>
<wire x1="44.45" y1="91.44" x2="43.18" y2="90.17" width="3" layer="16"/>
<contactref element="C9" pad="2"/>
<contactref element="C10" pad="2"/>
<contactref element="C11" pad="2"/>
<contactref element="C12" pad="2"/>
<wire x1="57.15" y1="93.98" x2="58.1726" y2="92.9574" width="1" layer="1"/>
<wire x1="58.1726" y1="89.91344375" x2="58.29" y2="89.79604375" width="1" layer="1"/>
<wire x1="58.29" y1="89.79604375" x2="58.29" y2="87.63" width="1" layer="1"/>
<wire x1="58.1726" y1="92.9574" x2="58.1726" y2="89.91344375" width="1" layer="1"/>
<wire x1="58.29" y1="87.63" x2="58.29" y2="84.455" width="1" layer="1"/>
<wire x1="58.29" y1="84.455" x2="58.29" y2="81.28" width="1" layer="1"/>
<wire x1="58.29" y1="81.28" x2="58.29" y2="78.105" width="1" layer="1"/>
<wire x1="44.45" y1="91.44" x2="44.45" y2="90.805" width="3" layer="16"/>
<wire x1="44.45" y1="90.805" x2="45.72" y2="89.535" width="3" layer="16"/>
<contactref element="LED3" pad="A"/>
<wire x1="71.603" y1="29.845" x2="68.93974375" y2="29.845" width="1" layer="1"/>
<wire x1="68.93974375" y1="29.845" x2="59.53234375" y2="20.4376" width="1" layer="1"/>
<wire x1="9.2536" y1="59.3264" x2="8.255" y2="60.325" width="1" layer="1"/>
<wire x1="9.2536" y1="57.83413125" x2="9.2536" y2="59.3264" width="1" layer="1"/>
<wire x1="59.53234375" y1="20.4376" x2="46.65013125" y2="20.4376" width="1" layer="1"/>
<wire x1="46.65013125" y1="20.4376" x2="9.2536" y2="57.83413125" width="1" layer="1"/>
<wire x1="8.255" y1="60.325" x2="6.3" y2="60.325" width="1" layer="1"/>
<wire x1="6.3" y1="60.325" x2="4.95" y2="60.325" width="1" layer="1"/>
<wire x1="4.95" y1="60.325" x2="4.445" y2="59.82" width="1" layer="1"/>
<wire x1="82.55" y1="76.2" x2="82.55" y2="62.85" width="5" layer="16"/>
<wire x1="7.62" y1="67.31" x2="7.62" y2="61.595" width="3" layer="1"/>
<wire x1="7.62" y1="61.595" x2="6.985" y2="60.96" width="3" layer="1"/>
<wire x1="6.985" y1="60.96" x2="2.516" y2="60.96" width="3" layer="1"/>
<wire x1="11.43" y1="60.96" x2="6.985" y2="60.96" width="3" layer="1"/>
<wire x1="17.78" y1="77.47" x2="7.62" y2="67.31" width="5" layer="1"/>
<wire x1="4.185" y1="59.82" x2="2.24" y2="59.82" width="0.5" layer="1"/>
<wire x1="11.43" y1="60.96" x2="5.585" y2="60.96" width="0.5" layer="1"/>
<wire x1="5.585" y1="60.96" x2="4.445" y2="62.1" width="0.5" layer="1"/>
</signal>
<signal name="N$10">
<contactref element="U$2" pad="1"/>
<contactref element="R2" pad="2"/>
<wire x1="41.275" y1="57.15" x2="41.275" y2="49.047" width="0.6096" layer="1"/>
<wire x1="41.275" y1="49.047" x2="41.91" y2="48.412" width="0.6096" layer="1"/>
</signal>
<signal name="N$3">
<contactref element="R1" pad="2"/>
<contactref element="U$4" pad="1"/>
<wire x1="69.215" y1="57.15" x2="69.215" y2="49.047" width="0.6096" layer="1"/>
<wire x1="69.215" y1="49.047" x2="69.85" y2="48.412" width="0.6096" layer="1"/>
</signal>
<signal name="N$11">
<contactref element="U$5" pad="2"/>
<contactref element="U$5" pad="P$1"/>
<contactref element="U$4" pad="2"/>
<contactref element="U$4" pad="P$1"/>
<contactref element="U$2" pad="2"/>
<contactref element="U$2" pad="P$1"/>
<contactref element="U$3" pad="2"/>
<contactref element="U$3" pad="P$1"/>
<contactref element="D7" pad="A1"/>
<contactref element="D7" pad="A2"/>
<contactref element="U$6" pad="P$1"/>
<contactref element="U$8" pad="P$1"/>
<wire x1="22.61" y1="59.71" x2="21.32" y2="58.42" width="3" layer="16"/>
<wire x1="21.32" y1="58.42" x2="11.43" y2="58.42" width="3" layer="16"/>
<wire x1="22.61" y1="59.71" x2="18.82" y2="63.5" width="3" layer="16"/>
<wire x1="18.82" y1="63.5" x2="11.43" y2="63.5" width="3" layer="16"/>
<wire x1="27.305" y1="59.69" x2="27.285" y2="59.71" width="3" layer="16"/>
<wire x1="27.285" y1="59.71" x2="22.61" y2="59.71" width="3" layer="16"/>
<wire x1="27.305" y1="59.69" x2="27.325" y2="59.71" width="3" layer="16"/>
<wire x1="27.325" y1="59.71" x2="36.58" y2="59.71" width="3" layer="16"/>
<wire x1="36.58" y1="59.71" x2="41.255" y2="59.71" width="3" layer="16"/>
<wire x1="41.255" y1="59.71" x2="41.275" y2="59.69" width="3" layer="16"/>
<wire x1="41.275" y1="59.69" x2="50.53" y2="59.69" width="3" layer="16"/>
<wire x1="50.53" y1="59.69" x2="50.55" y2="59.71" width="3" layer="16"/>
<wire x1="50.55" y1="59.71" x2="55.225" y2="59.71" width="3" layer="16"/>
<wire x1="55.225" y1="59.71" x2="55.245" y2="59.69" width="3" layer="16"/>
<wire x1="55.245" y1="59.69" x2="64.5" y2="59.69" width="3" layer="16"/>
<wire x1="64.5" y1="59.69" x2="64.52" y2="59.71" width="3" layer="16"/>
<wire x1="64.52" y1="59.71" x2="64.54" y2="59.69" width="3" layer="16"/>
<wire x1="64.54" y1="59.69" x2="69.215" y2="59.69" width="3" layer="16"/>
<wire x1="69.215" y1="59.69" x2="69.2644" y2="59.6406" width="3" layer="16"/>
<wire x1="69.2644" y1="59.6406" x2="71.08484375" y2="59.6406" width="3" layer="16"/>
<wire x1="73.57544375" y1="57.15" x2="82.55" y2="57.15" width="3" layer="16"/>
<wire x1="71.08484375" y1="59.6406" x2="73.57544375" y2="57.15" width="3" layer="16"/>
<wire x1="18.82" y1="63.5" x2="23.50745" y2="63.5" width="4" layer="16"/>
<wire x1="23.50745" y1="63.5" x2="25.22805" y2="65.2206" width="4" layer="16"/>
<wire x1="80.6229125" y1="58.1976" x2="81.5024" y2="58.1976" width="4" layer="16"/>
<wire x1="81.5024" y1="58.1976" x2="82.55" y2="57.15" width="4" layer="16"/>
<wire x1="25.22805" y1="65.2206" x2="34.925" y2="65.2206" width="4" layer="16"/>
<wire x1="34.925" y1="65.2206" x2="49.53" y2="65.2206" width="4" layer="16"/>
<wire x1="49.53" y1="65.2206" x2="63.5" y2="65.2206" width="4" layer="16"/>
<wire x1="63.5" y1="65.2206" x2="73.5999125" y2="65.2206" width="4" layer="16"/>
<wire x1="73.5999125" y1="65.2206" x2="80.6229125" y2="58.1976" width="4" layer="16"/>
<wire x1="63.5" y1="65.2206" x2="64.5" y2="64.2206" width="4" layer="16"/>
<wire x1="64.5" y1="64.2206" x2="64.5" y2="59.69" width="4" layer="16"/>
<wire x1="49.53" y1="65.2206" x2="50.53" y2="64.2206" width="4" layer="16"/>
<wire x1="50.53" y1="64.2206" x2="50.53" y2="59.69" width="4" layer="16"/>
<wire x1="34.925" y1="65.2206" x2="36.58" y2="63.5656" width="4" layer="16"/>
<wire x1="36.58" y1="63.5656" x2="36.58" y2="59.71" width="4" layer="16"/>
<wire x1="23.50745" y1="63.5" x2="22.61" y2="62.60255" width="4" layer="16"/>
<wire x1="22.61" y1="62.60255" x2="22.61" y2="59.71" width="4" layer="16"/>
<wire x1="23.4762" y1="55.91125" x2="25.22805" y2="54.1594" width="4" layer="16"/>
<wire x1="22.61" y1="59.71" x2="23.4762" y2="58.8438" width="4" layer="16"/>
<wire x1="74.28255" y1="57.15" x2="82.55" y2="57.15" width="4" layer="16"/>
<wire x1="23.4762" y1="58.8438" x2="23.4762" y2="55.91125" width="4" layer="16"/>
<wire x1="71.29195" y1="54.1594" x2="74.28255" y2="57.15" width="4" layer="16"/>
<wire x1="25.22805" y1="54.1594" x2="37.465" y2="54.1594" width="4" layer="16"/>
<wire x1="37.465" y1="54.1594" x2="50.8" y2="54.1594" width="4" layer="16"/>
<wire x1="50.8" y1="54.1594" x2="64.77" y2="54.1594" width="4" layer="16"/>
<wire x1="64.77" y1="54.1594" x2="71.29195" y2="54.1594" width="4" layer="16"/>
<wire x1="64.52" y1="59.71" x2="64.52" y2="54.4094" width="4" layer="16"/>
<wire x1="64.52" y1="54.4094" x2="64.77" y2="54.1594" width="4" layer="16"/>
<wire x1="50.55" y1="59.71" x2="50.55" y2="54.4094" width="4" layer="16"/>
<wire x1="50.55" y1="54.4094" x2="50.8" y2="54.1594" width="4" layer="16"/>
<wire x1="37.4462" y1="55.91125" x2="37.465" y2="55.89245" width="4" layer="16"/>
<wire x1="37.465" y1="55.89245" x2="37.465" y2="54.1594" width="4" layer="16"/>
<wire x1="36.58" y1="59.71" x2="37.4462" y2="58.8438" width="4" layer="16"/>
<wire x1="37.4462" y1="58.8438" x2="37.4462" y2="55.91125" width="4" layer="16"/>
<wire x1="82.55" y1="57.15" x2="83.22658125" y2="57.15" width="4" layer="16"/>
<wire x1="83.22658125" y1="57.15" x2="84.158290625" y2="58.081709375" width="4" layer="16"/>
<wire x1="94.615" y1="57.15" x2="91.44" y2="57.15" width="4" layer="16"/>
<wire x1="91.44" y1="57.15" x2="90.17" y2="58.42" width="4" layer="16"/>
<wire x1="90.17" y1="58.42" x2="85.09" y2="58.42" width="4" layer="16"/>
<wire x1="85.09" y1="58.42" x2="83.82" y2="57.15" width="1" layer="16"/>
<wire x1="83.82" y1="57.15" x2="82.55" y2="57.15" width="1" layer="16"/>
</signal>
<signal name="N$5">
<contactref element="LED1" pad="C"/>
<contactref element="R7" pad="2"/>
<wire x1="74.447" y1="34.925" x2="78.588" y2="34.925" width="1" layer="1"/>
</signal>
<signal name="N$7">
<contactref element="LED2" pad="C"/>
<contactref element="R8" pad="2"/>
<wire x1="74.447" y1="32.385" x2="78.588" y2="32.385" width="1" layer="1"/>
</signal>
<signal name="N$12">
<contactref element="LED3" pad="C"/>
<contactref element="R9" pad="2"/>
<wire x1="74.447" y1="29.845" x2="78.588" y2="29.845" width="1" layer="1"/>
</signal>
</signals>
</board>
</drawing>
<compatibility>
<note version="6.3" minversion="6.2.2" severity="warning">
Since Version 6.2.2 text objects can contain more than one line,
which will not be processed correctly with this version.
</note>
<note version="8.2" severity="warning">
Since Version 8.2, EAGLE supports online libraries. The ids
of those online libraries will not be understood (or retained)
with this version.
</note>
<note version="8.3" severity="warning">
Since Version 8.3, EAGLE supports URNs for individual library
assets (packages, symbols, and devices). The URNs of those assets
will not be understood (or retained) with this version.
</note>
<note version="8.3" severity="warning">
Since Version 8.3, EAGLE supports the association of 3D packages
with devices in libraries, schematics, and board files. Those 3D
packages will not be understood (or retained) with this version.
</note>
</compatibility>
</eagle>
