<?xml version="1.0" encoding="utf-8"?>
<!DOCTYPE eagle SYSTEM "eagle.dtd">
<eagle version="8.5.1">
<drawing>
<settings>
<setting alwaysvectorfont="no"/>
<setting verticaltext="up"/>
</settings>
<grid distance="0.635" unitdist="mm" unit="mm" style="lines" multiple="1" display="no" altdistance="5" altunitdist="mil" altunit="mil"/>
<layers>
<layer number="1" name="Top" color="4" fill="1" visible="yes" active="yes"/>
<layer number="2" name="Route2" color="1" fill="3" visible="no" active="no"/>
<layer number="3" name="Route3" color="4" fill="3" visible="no" active="no"/>
<layer number="4" name="Route4" color="1" fill="4" visible="no" active="no"/>
<layer number="5" name="Route5" color="4" fill="4" visible="no" active="no"/>
<layer number="6" name="Route6" color="1" fill="8" visible="no" active="no"/>
<layer number="7" name="Route7" color="4" fill="8" visible="no" active="no"/>
<layer number="8" name="Route8" color="1" fill="2" visible="no" active="no"/>
<layer number="9" name="Route9" color="4" fill="2" visible="no" active="no"/>
<layer number="10" name="Route10" color="1" fill="7" visible="no" active="no"/>
<layer number="11" name="Route11" color="4" fill="7" visible="no" active="no"/>
<layer number="12" name="Route12" color="1" fill="5" visible="no" active="no"/>
<layer number="13" name="Route13" color="4" fill="5" visible="no" active="no"/>
<layer number="14" name="Route14" color="1" fill="6" visible="no" active="no"/>
<layer number="15" name="Route15" color="4" fill="6" visible="no" active="no"/>
<layer number="16" name="Bottom" color="1" fill="1" visible="yes" active="yes"/>
<layer number="17" name="Pads" color="2" fill="1" visible="yes" active="yes"/>
<layer number="18" name="Vias" color="2" fill="1" visible="yes" active="yes"/>
<layer number="19" name="Unrouted" color="6" fill="1" visible="yes" active="yes"/>
<layer number="20" name="Dimension" color="24" fill="1" visible="yes" active="yes"/>
<layer number="21" name="tPlace" color="7" fill="1" visible="yes" active="yes"/>
<layer number="22" name="bPlace" color="7" fill="1" visible="yes" active="yes"/>
<layer number="23" name="tOrigins" color="15" fill="1" visible="yes" active="yes"/>
<layer number="24" name="bOrigins" color="15" fill="1" visible="yes" active="yes"/>
<layer number="25" name="tNames" color="7" fill="1" visible="yes" active="yes"/>
<layer number="26" name="bNames" color="7" fill="1" visible="yes" active="yes"/>
<layer number="27" name="tValues" color="7" fill="1" visible="yes" active="yes"/>
<layer number="28" name="bValues" color="7" fill="1" visible="yes" active="yes"/>
<layer number="29" name="tStop" color="7" fill="3" visible="yes" active="yes"/>
<layer number="30" name="bStop" color="7" fill="6" visible="yes" active="yes"/>
<layer number="31" name="tCream" color="7" fill="4" visible="no" active="yes"/>
<layer number="32" name="bCream" color="7" fill="5" visible="no" active="yes"/>
<layer number="33" name="tFinish" color="6" fill="3" visible="no" active="yes"/>
<layer number="34" name="bFinish" color="6" fill="6" visible="no" active="yes"/>
<layer number="35" name="tGlue" color="7" fill="4" visible="no" active="yes"/>
<layer number="36" name="bGlue" color="7" fill="5" visible="no" active="yes"/>
<layer number="37" name="tTest" color="7" fill="1" visible="no" active="yes"/>
<layer number="38" name="bTest" color="7" fill="1" visible="no" active="yes"/>
<layer number="39" name="tKeepout" color="4" fill="11" visible="yes" active="yes"/>
<layer number="40" name="bKeepout" color="1" fill="11" visible="yes" active="yes"/>
<layer number="41" name="tRestrict" color="4" fill="10" visible="yes" active="yes"/>
<layer number="42" name="bRestrict" color="1" fill="10" visible="yes" active="yes"/>
<layer number="43" name="vRestrict" color="2" fill="10" visible="yes" active="yes"/>
<layer number="44" name="Drills" color="7" fill="1" visible="no" active="yes"/>
<layer number="45" name="Holes" color="7" fill="1" visible="yes" active="yes"/>
<layer number="46" name="Milling" color="3" fill="1" visible="no" active="yes"/>
<layer number="47" name="Measures" color="7" fill="1" visible="no" active="yes"/>
<layer number="48" name="Document" color="7" fill="1" visible="yes" active="yes"/>
<layer number="49" name="Reference" color="7" fill="1" visible="yes" active="yes"/>
<layer number="51" name="tDocu" color="7" fill="1" visible="yes" active="yes"/>
<layer number="52" name="bDocu" color="7" fill="1" visible="yes" active="yes"/>
<layer number="88" name="SimResults" color="9" fill="1" visible="no" active="no"/>
<layer number="89" name="SimProbes" color="9" fill="1" visible="no" active="no"/>
<layer number="90" name="Modules" color="5" fill="1" visible="no" active="no"/>
<layer number="91" name="Nets" color="2" fill="1" visible="no" active="no"/>
<layer number="92" name="Busses" color="1" fill="1" visible="no" active="no"/>
<layer number="93" name="Pins" color="2" fill="1" visible="no" active="no"/>
<layer number="94" name="Symbols" color="4" fill="1" visible="no" active="no"/>
<layer number="95" name="Names" color="7" fill="1" visible="no" active="no"/>
<layer number="96" name="Values" color="7" fill="1" visible="no" active="no"/>
<layer number="97" name="Info" color="7" fill="1" visible="no" active="no"/>
<layer number="98" name="Guide" color="6" fill="1" visible="no" active="no"/>
<layer number="99" name="SpiceOrder" color="5" fill="1" visible="no" active="no"/>
</layers>
<board>
<plain>
<wire x1="0" y1="0" x2="100" y2="0" width="0" layer="20"/>
<wire x1="100" y1="0" x2="100" y2="80.315" width="0" layer="20"/>
<wire x1="100" y1="80.315" x2="0" y2="80.315" width="0" layer="20"/>
<wire x1="0" y1="80.315" x2="0" y2="0" width="0" layer="20"/>
<polygon width="1" layer="29">
<vertex x="99.06" y="56.515"/>
<vertex x="-1.27" y="56.515"/>
<vertex x="-1.27" y="26.67"/>
<vertex x="99.06" y="26.67"/>
</polygon>
<polygon width="1" layer="30">
<vertex x="99.06" y="65.405"/>
<vertex x="83.185" y="65.405"/>
<vertex x="83.185" y="2.54"/>
<vertex x="99.06" y="2.54"/>
</polygon>
<polygon width="0.5" layer="29">
<vertex x="17.78" y="24.13"/>
<vertex x="17.78" y="20.32"/>
<vertex x="1.27" y="20.32"/>
<vertex x="1.27" y="10.16"/>
<vertex x="99.06" y="10.16"/>
<vertex x="99.06" y="24.13"/>
<vertex x="81.28" y="24.13"/>
<vertex x="81.28" y="20.32"/>
<vertex x="74.295" y="20.32"/>
<vertex x="74.295" y="24.13"/>
<vertex x="68.58" y="24.13"/>
<vertex x="68.58" y="20.32"/>
<vertex x="61.595" y="20.32"/>
<vertex x="61.595" y="24.13"/>
<vertex x="55.88" y="24.13"/>
<vertex x="55.88" y="20.32"/>
<vertex x="48.895" y="20.32"/>
<vertex x="48.895" y="24.13"/>
<vertex x="43.18" y="24.13"/>
<vertex x="43.18" y="20.32"/>
<vertex x="36.195" y="20.32"/>
<vertex x="36.195" y="24.13"/>
<vertex x="30.48" y="24.13"/>
<vertex x="30.48" y="20.32"/>
<vertex x="23.495" y="20.32"/>
<vertex x="23.495" y="24.13"/>
</polygon>
<polygon width="2" layer="30">
<vertex x="1.27" y="73.66"/>
<vertex x="1.27" y="57.785"/>
<vertex x="99.06" y="57.785"/>
<vertex x="99.06" y="73.66"/>
</polygon>
<text x="65.405" y="75.565" size="1.5" layer="21">Work you stupid piece of shit</text>
<text x="19.05" y="1.905" size="1" layer="21">Logan Rosenmayer
Motor Controller 10.0
8-16-18
SEM
</text>
<text x="13.97" y="59.055" size="1.2" layer="21">Motor +</text>
<text x="88.265" y="26.035" size="1.2" layer="21">GND</text>
<text x="94.615" y="0.635" size="1.2" layer="21">VCC</text>
<text x="10.16" y="4.445" size="1" layer="21">12V</text>
<text x="12.7" y="4.445" size="1" layer="21">GND</text>
<text x="15.875" y="4.445" size="1" layer="21">PWM</text>
</plain>
<libraries>
<library name="eagle-ltspice" urn="urn:adsk.eagle:library:217">
<description>Default symbols for import LTspice schematics&lt;p&gt;
2012-10-29 alf@cadsoft.de&lt;br&gt;</description>
<packages>
<package name="C1206" urn="urn:adsk.eagle:footprint:13201/1" library_version="1">
<description>&lt;b&gt;CAPACITOR&lt;/b&gt;</description>
<wire x1="-2.473" y1="0.983" x2="2.473" y2="0.983" width="0.0508" layer="39"/>
<wire x1="2.473" y1="-0.983" x2="-2.473" y2="-0.983" width="0.0508" layer="39"/>
<wire x1="-2.473" y1="-0.983" x2="-2.473" y2="0.983" width="0.0508" layer="39"/>
<wire x1="2.473" y1="0.983" x2="2.473" y2="-0.983" width="0.0508" layer="39"/>
<wire x1="-0.965" y1="0.787" x2="0.965" y2="0.787" width="0.1016" layer="51"/>
<wire x1="-0.965" y1="-0.787" x2="0.965" y2="-0.787" width="0.1016" layer="51"/>
<rectangle x1="-1.7018" y1="-0.8509" x2="-0.9517" y2="0.8491" layer="51"/>
<rectangle x1="0.9517" y1="-0.8491" x2="1.7018" y2="0.8509" layer="51"/>
<rectangle x1="-0.1999" y1="-0.4001" x2="0.1999" y2="0.4001" layer="35"/>
<smd name="1" x="-1.4" y="0" dx="1.6" dy="1.8" layer="1"/>
<smd name="2" x="1.4" y="0" dx="1.6" dy="1.8" layer="1"/>
<text x="-1.27" y="1.27" size="1.27" layer="25">&gt;NAME</text>
<text x="-1.27" y="-2.54" size="1.27" layer="27">&gt;VALUE</text>
</package>
<package name="C1210" urn="urn:adsk.eagle:footprint:13202/1" library_version="1">
<description>&lt;b&gt;CAPACITOR&lt;/b&gt;</description>
<wire x1="-2.473" y1="1.483" x2="2.473" y2="1.483" width="0.0508" layer="39"/>
<wire x1="2.473" y1="-1.483" x2="-2.473" y2="-1.483" width="0.0508" layer="39"/>
<wire x1="-2.473" y1="-1.483" x2="-2.473" y2="1.483" width="0.0508" layer="39"/>
<wire x1="-0.9652" y1="1.2446" x2="0.9652" y2="1.2446" width="0.1016" layer="51"/>
<wire x1="-0.9652" y1="-1.2446" x2="0.9652" y2="-1.2446" width="0.1016" layer="51"/>
<wire x1="2.473" y1="1.483" x2="2.473" y2="-1.483" width="0.0508" layer="39"/>
<rectangle x1="-1.7018" y1="-1.2954" x2="-0.9517" y2="1.3045" layer="51"/>
<rectangle x1="0.9517" y1="-1.3045" x2="1.7018" y2="1.2954" layer="51"/>
<rectangle x1="-0.1999" y1="-0.4001" x2="0.1999" y2="0.4001" layer="35"/>
<smd name="1" x="-1.4" y="0" dx="1.6" dy="2.7" layer="1"/>
<smd name="2" x="1.4" y="0" dx="1.6" dy="2.7" layer="1"/>
<text x="-1.905" y="1.905" size="1.27" layer="25">&gt;NAME</text>
<text x="-1.905" y="-3.175" size="1.27" layer="27">&gt;VALUE</text>
</package>
<package name="R1206" urn="urn:adsk.eagle:footprint:13238/1" library_version="1">
<description>&lt;b&gt;RESISTOR&lt;/b&gt;</description>
<wire x1="0.9525" y1="-0.8128" x2="-0.9652" y2="-0.8128" width="0.1524" layer="51"/>
<wire x1="0.9525" y1="0.8128" x2="-0.9652" y2="0.8128" width="0.1524" layer="51"/>
<wire x1="-2.473" y1="0.983" x2="2.473" y2="0.983" width="0.0508" layer="39"/>
<wire x1="2.473" y1="0.983" x2="2.473" y2="-0.983" width="0.0508" layer="39"/>
<wire x1="2.473" y1="-0.983" x2="-2.473" y2="-0.983" width="0.0508" layer="39"/>
<wire x1="-2.473" y1="-0.983" x2="-2.473" y2="0.983" width="0.0508" layer="39"/>
<rectangle x1="-1.6891" y1="-0.8763" x2="-0.9525" y2="0.8763" layer="51"/>
<rectangle x1="0.9525" y1="-0.8763" x2="1.6891" y2="0.8763" layer="51"/>
<rectangle x1="-0.3" y1="-0.7" x2="0.3" y2="0.7" layer="35"/>
<smd name="1" x="-1.422" y="0" dx="1.6" dy="1.803" layer="1"/>
<smd name="2" x="1.422" y="0" dx="1.6" dy="1.803" layer="1"/>
<text x="-1.27" y="1.27" size="1.27" layer="25">&gt;NAME</text>
<text x="-1.27" y="-2.54" size="1.27" layer="27">&gt;VALUE</text>
</package>
</packages>
<packages3d>
<package3d name="C1206" urn="urn:adsk.eagle:package:13279/1" type="box" library_version="1">
<description>CAPACITOR</description>
</package3d>
<package3d name="C1210" urn="urn:adsk.eagle:package:13278/1" type="box" library_version="1">
<description>CAPACITOR</description>
</package3d>
<package3d name="R1206" urn="urn:adsk.eagle:package:13301/1" type="box" library_version="1">
<description>RESISTOR</description>
</package3d>
</packages3d>
</library>
<library name="diode" urn="urn:adsk.eagle:library:210">
<description>&lt;b&gt;Diodes&lt;/b&gt;&lt;p&gt;
Based on the following sources:
&lt;ul&gt;
&lt;li&gt;Motorola : www.onsemi.com
&lt;li&gt;Fairchild : www.fairchildsemi.com
&lt;li&gt;Philips : www.semiconductors.com
&lt;li&gt;Vishay : www.vishay.de
&lt;/ul&gt;
&lt;author&gt;Created by librarian@cadsoft.de&lt;/author&gt;</description>
<packages>
<package name="DO-214AC" urn="urn:adsk.eagle:footprint:43216/1" library_version="2">
<description>&lt;b&gt;SURFACE MOUNT GENERAL RECTIFIER&lt;/b&gt; JEDEC DO-214AC molded platic body&lt;p&gt;
Method 2026&lt;br&gt;
Source: http://www.kingtronics.com/SMD_M7/M7_SMD_4007.pdf</description>
<wire x1="-2.15" y1="1.3" x2="2.15" y2="1.3" width="0.2032" layer="51"/>
<wire x1="2.15" y1="1.3" x2="2.15" y2="-1.3" width="0.2032" layer="51"/>
<wire x1="2.15" y1="-1.3" x2="-2.15" y2="-1.3" width="0.2032" layer="51"/>
<wire x1="-2.15" y1="-1.3" x2="-2.15" y2="1.3" width="0.2032" layer="51"/>
<wire x1="-1.035" y1="1.3" x2="1.025" y2="1.3" width="0.2032" layer="21"/>
<wire x1="1.025" y1="-1.3" x2="-1.035" y2="-1.3" width="0.2032" layer="21"/>
<smd name="C" x="-2.025" y="0" dx="1.8" dy="2.4" layer="1"/>
<smd name="A" x="2.025" y="0" dx="1.8" dy="2.4" layer="1" rot="R180"/>
<text x="-2.54" y="1.905" size="1.27" layer="25">&gt;NAME</text>
<text x="-2.54" y="-3.175" size="1.27" layer="27">&gt;VALUE</text>
<rectangle x1="-2.825" y1="-1.1" x2="-2.175" y2="1.1" layer="51"/>
<rectangle x1="2.175" y1="-1.1" x2="2.825" y2="1.1" layer="51" rot="R180"/>
<rectangle x1="-1.065" y1="-1.225" x2="-0.39" y2="1.225" layer="21"/>
<rectangle x1="-1.75" y1="-1.225" x2="-1.075" y2="1.225" layer="51"/>
</package>
</packages>
<packages3d>
<package3d name="DO-214AC" urn="urn:adsk.eagle:package:43416/2" type="model" library_version="2">
<description>SURFACE MOUNT GENERAL RECTIFIER JEDEC DO-214AC molded platic body
Method 2026
Source: http://www.kingtronics.com/SMD_M7/M7_SMD_4007.pdf</description>
</package3d>
</packages3d>
</library>
<library name="pinhead" urn="urn:adsk.eagle:library:325">
<description>&lt;b&gt;Pin Header Connectors&lt;/b&gt;&lt;p&gt;
&lt;author&gt;Created by librarian@cadsoft.de&lt;/author&gt;</description>
<packages>
<package name="1X03" urn="urn:adsk.eagle:footprint:22340/1" library_version="3">
<description>&lt;b&gt;PIN HEADER&lt;/b&gt;</description>
<wire x1="-3.175" y1="1.27" x2="-1.905" y2="1.27" width="0.1524" layer="21"/>
<wire x1="-1.905" y1="1.27" x2="-1.27" y2="0.635" width="0.1524" layer="21"/>
<wire x1="-1.27" y1="0.635" x2="-1.27" y2="-0.635" width="0.1524" layer="21"/>
<wire x1="-1.27" y1="-0.635" x2="-1.905" y2="-1.27" width="0.1524" layer="21"/>
<wire x1="-1.27" y1="0.635" x2="-0.635" y2="1.27" width="0.1524" layer="21"/>
<wire x1="-0.635" y1="1.27" x2="0.635" y2="1.27" width="0.1524" layer="21"/>
<wire x1="0.635" y1="1.27" x2="1.27" y2="0.635" width="0.1524" layer="21"/>
<wire x1="1.27" y1="0.635" x2="1.27" y2="-0.635" width="0.1524" layer="21"/>
<wire x1="1.27" y1="-0.635" x2="0.635" y2="-1.27" width="0.1524" layer="21"/>
<wire x1="0.635" y1="-1.27" x2="-0.635" y2="-1.27" width="0.1524" layer="21"/>
<wire x1="-0.635" y1="-1.27" x2="-1.27" y2="-0.635" width="0.1524" layer="21"/>
<wire x1="-3.81" y1="0.635" x2="-3.81" y2="-0.635" width="0.1524" layer="21"/>
<wire x1="-3.175" y1="1.27" x2="-3.81" y2="0.635" width="0.1524" layer="21"/>
<wire x1="-3.81" y1="-0.635" x2="-3.175" y2="-1.27" width="0.1524" layer="21"/>
<wire x1="-1.905" y1="-1.27" x2="-3.175" y2="-1.27" width="0.1524" layer="21"/>
<wire x1="1.27" y1="0.635" x2="1.905" y2="1.27" width="0.1524" layer="21"/>
<wire x1="1.905" y1="1.27" x2="3.175" y2="1.27" width="0.1524" layer="21"/>
<wire x1="3.175" y1="1.27" x2="3.81" y2="0.635" width="0.1524" layer="21"/>
<wire x1="3.81" y1="0.635" x2="3.81" y2="-0.635" width="0.1524" layer="21"/>
<wire x1="3.81" y1="-0.635" x2="3.175" y2="-1.27" width="0.1524" layer="21"/>
<wire x1="3.175" y1="-1.27" x2="1.905" y2="-1.27" width="0.1524" layer="21"/>
<wire x1="1.905" y1="-1.27" x2="1.27" y2="-0.635" width="0.1524" layer="21"/>
<pad name="1" x="-2.54" y="0" drill="1.016" shape="long" rot="R90"/>
<pad name="2" x="0" y="0" drill="1.016" shape="long" rot="R90"/>
<pad name="3" x="2.54" y="0" drill="1.016" shape="long" rot="R90"/>
<text x="-3.8862" y="1.8288" size="1.27" layer="25" ratio="10">&gt;NAME</text>
<text x="-3.81" y="-3.175" size="1.27" layer="27">&gt;VALUE</text>
<rectangle x1="-0.254" y1="-0.254" x2="0.254" y2="0.254" layer="51"/>
<rectangle x1="-2.794" y1="-0.254" x2="-2.286" y2="0.254" layer="51"/>
<rectangle x1="2.286" y1="-0.254" x2="2.794" y2="0.254" layer="51"/>
</package>
</packages>
<packages3d>
<package3d name="1X03" urn="urn:adsk.eagle:package:22458/2" type="model" library_version="3">
<description>PIN HEADER</description>
</package3d>
</packages3d>
</library>
<library name="transistor-power" urn="urn:adsk.eagle:library:400">
<description>&lt;b&gt;Power Transistors&lt;/b&gt;&lt;p&gt;
&lt;author&gt;Created by librarian@cadsoft.de&lt;/author&gt;</description>
<packages>
<package name="D2PACK" urn="urn:adsk.eagle:footprint:29392/1" library_version="2">
<description>&lt;b&gt;D2PACK&lt;/b&gt;&lt;p&gt;
INTERNATIONAL RECTIFIER, irg4bc15ud-s.pdf</description>
<wire x1="-5.1308" y1="-4.0894" x2="5.1308" y2="-4.0894" width="0.254" layer="21"/>
<wire x1="5.1308" y1="-4.0894" x2="5.1308" y2="4.445" width="0.254" layer="51"/>
<wire x1="5.1308" y1="4.445" x2="3.1242" y2="5.8166" width="0.254" layer="51"/>
<wire x1="3.1242" y1="5.8166" x2="-3.3782" y2="5.8166" width="0.254" layer="51"/>
<wire x1="-3.3782" y1="5.8166" x2="-5.1308" y2="4.699" width="0.254" layer="51"/>
<wire x1="-5.1308" y1="4.699" x2="-5.1308" y2="4.445" width="0.254" layer="51"/>
<wire x1="-5.1308" y1="4.445" x2="-5.1308" y2="-4.0894" width="0.254" layer="51"/>
<wire x1="-5.1308" y1="4.445" x2="5.1308" y2="4.445" width="0.254" layer="51"/>
<wire x1="-5.1308" y1="-4.0894" x2="-5.1308" y2="-2.3114" width="0.254" layer="21"/>
<wire x1="5.1308" y1="-4.0894" x2="5.1308" y2="-2.3114" width="0.254" layer="21"/>
<smd name="1" x="-2.54" y="-8.89" dx="2.0828" dy="3.81" layer="1"/>
<smd name="3" x="2.54" y="-8.89" dx="2.0828" dy="3.81" layer="1"/>
<smd name="2" x="0" y="2.54" dx="11.43" dy="8.89" layer="1"/>
<text x="-5.588" y="7.239" size="1.27" layer="25">&gt;NAME</text>
<text x="-3.81" y="-3.429" size="1.27" layer="27">&gt;VALUE</text>
<rectangle x1="-3.0988" y1="-9.525" x2="-1.9812" y2="-8.1026" layer="51"/>
<rectangle x1="-3.2512" y1="-8.1534" x2="-1.8288" y2="-6.731" layer="51"/>
<rectangle x1="-3.2512" y1="-6.731" x2="-1.8288" y2="-4.2418" layer="21"/>
<rectangle x1="1.9812" y1="-9.525" x2="3.0988" y2="-8.1026" layer="51"/>
<rectangle x1="1.8288" y1="-8.1534" x2="3.2512" y2="-6.731" layer="51"/>
<rectangle x1="1.8288" y1="-6.731" x2="3.2512" y2="-4.2418" layer="21"/>
<rectangle x1="-0.7112" y1="-6.731" x2="0.7112" y2="-4.2418" layer="21"/>
</package>
</packages>
<packages3d>
<package3d name="D2PACK" urn="urn:adsk.eagle:package:29497/2" type="model" library_version="2">
<description>D2PACK
INTERNATIONAL RECTIFIER, irg4bc15ud-s.pdf</description>
</package3d>
</packages3d>
</library>
<library name="BMS">
<packages>
<package name="LM5111">
<wire x1="0" y1="0" x2="4.9" y2="0" width="0.127" layer="21"/>
<wire x1="4.9" y1="0" x2="4.9" y2="3.9" width="0.127" layer="21"/>
<wire x1="4.9" y1="3.9" x2="0" y2="3.9" width="0.127" layer="21"/>
<wire x1="0" y1="3.9" x2="0" y2="0" width="0.127" layer="21"/>
<wire x1="0.4" y1="0.2" x2="0.4" y2="0.5" width="0.127" layer="21" curve="-180"/>
<wire x1="0.45" y1="0.2" x2="0.45" y2="0.5" width="0.127" layer="21"/>
<smd name="P$1" x="0.558" y="-1.162" dx="2" dy="0.635" layer="1" rot="R270"/>
<smd name="P$2" x="1.828" y="-1.162" dx="2" dy="0.635" layer="1" rot="R270"/>
<smd name="P$3" x="3.098" y="-1.162" dx="2" dy="0.635" layer="1" rot="R270"/>
<smd name="P$4" x="4.368" y="-1.162" dx="2" dy="0.635" layer="1" rot="R270"/>
<smd name="P$5" x="4.368" y="5.038" dx="2" dy="0.635" layer="1" rot="R270"/>
<smd name="P$6" x="3.098" y="5.038" dx="2" dy="0.635" layer="1" rot="R270"/>
<smd name="P$7" x="1.828" y="5.038" dx="2" dy="0.635" layer="1" rot="R270"/>
<smd name="P$8" x="0.558" y="5.038" dx="2" dy="0.635" layer="1" rot="R270"/>
<text x="1" y="1.8" size="0.6096" layer="21">LM5111</text>
</package>
<package name="D2PACK">
<description>&lt;b&gt;D2PACK&lt;/b&gt;&lt;p&gt;
INTERNATIONAL RECTIFIER, irg4bc15ud-s.pdf</description>
<wire x1="-5.1308" y1="-4.0894" x2="5.1308" y2="-4.0894" width="0.254" layer="21"/>
<wire x1="5.1308" y1="-4.0894" x2="5.1308" y2="4.445" width="0.254" layer="51"/>
<wire x1="5.1308" y1="4.445" x2="3.1242" y2="5.8166" width="0.254" layer="51"/>
<wire x1="3.1242" y1="5.8166" x2="-3.3782" y2="5.8166" width="0.254" layer="51"/>
<wire x1="-3.3782" y1="5.8166" x2="-5.1308" y2="4.699" width="0.254" layer="51"/>
<wire x1="-5.1308" y1="4.699" x2="-5.1308" y2="4.445" width="0.254" layer="51"/>
<wire x1="-5.1308" y1="4.445" x2="-5.1308" y2="-4.0894" width="0.254" layer="51"/>
<wire x1="-5.1308" y1="4.445" x2="5.1308" y2="4.445" width="0.254" layer="51"/>
<wire x1="-5.1308" y1="-4.0894" x2="-5.1308" y2="-2.3114" width="0.254" layer="21"/>
<wire x1="5.1308" y1="-4.0894" x2="5.1308" y2="-2.3114" width="0.254" layer="21"/>
<smd name="1" x="-2.54" y="-8.89" dx="2.0828" dy="3.81" layer="1"/>
<smd name="3" x="2.54" y="-8.89" dx="2.0828" dy="3.81" layer="1"/>
<smd name="2" x="0" y="2.54" dx="11.43" dy="8.89" layer="1"/>
<text x="-5.588" y="7.239" size="1.27" layer="25">&gt;NAME</text>
<text x="-3.81" y="-3.429" size="1.27" layer="27">&gt;VALUE</text>
<rectangle x1="-3.0988" y1="-9.525" x2="-1.9812" y2="-8.1026" layer="51"/>
<rectangle x1="-3.2512" y1="-8.1534" x2="-1.8288" y2="-6.731" layer="51"/>
<rectangle x1="-3.2512" y1="-6.731" x2="-1.8288" y2="-4.2418" layer="21"/>
<rectangle x1="1.9812" y1="-9.525" x2="3.0988" y2="-8.1026" layer="51"/>
<rectangle x1="1.8288" y1="-8.1534" x2="3.2512" y2="-6.731" layer="51"/>
<rectangle x1="1.8288" y1="-6.731" x2="3.2512" y2="-4.2418" layer="21"/>
<rectangle x1="-0.7112" y1="-6.731" x2="0.7112" y2="-4.2418" layer="21"/>
</package>
<package name="KF7.62-2P">
<wire x1="0" y1="0" x2="7.62" y2="0" width="0.127" layer="21"/>
<wire x1="7.62" y1="0" x2="7.62" y2="12" width="0.127" layer="21"/>
<wire x1="7.62" y1="12" x2="0" y2="12" width="0.127" layer="21"/>
<wire x1="0" y1="12" x2="0" y2="0" width="0.127" layer="21"/>
<wire x1="0" y1="0" x2="-7.62" y2="0" width="0.127" layer="21"/>
<wire x1="-7.62" y1="0" x2="-7.62" y2="12" width="0.127" layer="21"/>
<wire x1="-7.62" y1="12" x2="0" y2="12" width="0.127" layer="21"/>
<pad name="P$1" x="3.81" y="2" drill="1.5" shape="octagon"/>
<pad name="P$2" x="-3.81" y="2" drill="1.5" shape="octagon"/>
</package>
</packages>
</library>
</libraries>
<attributes>
</attributes>
<variantdefs>
</variantdefs>
<classes>
<class number="0" name="default" width="0" drill="0">
</class>
</classes>
<designrules name="default">
<description language="de">&lt;b&gt;EAGLE Design Rules&lt;/b&gt;
&lt;p&gt;
Die Standard-Design-Rules sind so gewählt, dass sie für 
die meisten Anwendungen passen. Sollte ihre Platine 
besondere Anforderungen haben, treffen Sie die erforderlichen
Einstellungen hier und speichern die Design Rules unter 
einem neuen Namen ab.</description>
<description language="en">&lt;b&gt;EAGLE Design Rules&lt;/b&gt;
&lt;p&gt;
The default Design Rules have been set to cover
a wide range of applications. Your particular design
may have different requirements, so please make the
necessary adjustments and save your customized
design rules under a new name.</description>
<param name="layerSetup" value="(1*16)"/>
<param name="mtCopper" value="0.035mm 0.035mm 0.035mm 0.035mm 0.035mm 0.035mm 0.035mm 0.035mm 0.035mm 0.035mm 0.035mm 0.035mm 0.035mm 0.035mm 0.035mm 0.035mm"/>
<param name="mtIsolate" value="1.5mm 0.15mm 0.2mm 0.15mm 0.2mm 0.15mm 0.2mm 0.15mm 0.2mm 0.15mm 0.2mm 0.15mm 0.2mm 0.15mm 0.2mm"/>
<param name="mdWireWire" value="6mil"/>
<param name="mdWirePad" value="6mil"/>
<param name="mdWireVia" value="6mil"/>
<param name="mdPadPad" value="6mil"/>
<param name="mdPadVia" value="6mil"/>
<param name="mdViaVia" value="6mil"/>
<param name="mdSmdPad" value="6mil"/>
<param name="mdSmdVia" value="6mil"/>
<param name="mdSmdSmd" value="6mil"/>
<param name="mdViaViaSameLayer" value="6mil"/>
<param name="mnLayersViaInSmd" value="2"/>
<param name="mdCopperDimension" value="40mil"/>
<param name="mdDrill" value="6mil"/>
<param name="mdSmdStop" value="0mil"/>
<param name="msWidth" value="6mil"/>
<param name="msDrill" value="0.35mm"/>
<param name="msMicroVia" value="9.99mm"/>
<param name="msBlindViaRatio" value="0.5"/>
<param name="rvPadTop" value="0.25"/>
<param name="rvPadInner" value="0.25"/>
<param name="rvPadBottom" value="0.25"/>
<param name="rvViaOuter" value="0.25"/>
<param name="rvViaInner" value="0.25"/>
<param name="rvMicroViaOuter" value="0.25"/>
<param name="rvMicroViaInner" value="0.25"/>
<param name="rlMinPadTop" value="10mil"/>
<param name="rlMaxPadTop" value="20mil"/>
<param name="rlMinPadInner" value="10mil"/>
<param name="rlMaxPadInner" value="20mil"/>
<param name="rlMinPadBottom" value="10mil"/>
<param name="rlMaxPadBottom" value="20mil"/>
<param name="rlMinViaOuter" value="8mil"/>
<param name="rlMaxViaOuter" value="20mil"/>
<param name="rlMinViaInner" value="8mil"/>
<param name="rlMaxViaInner" value="20mil"/>
<param name="rlMinMicroViaOuter" value="4mil"/>
<param name="rlMaxMicroViaOuter" value="20mil"/>
<param name="rlMinMicroViaInner" value="4mil"/>
<param name="rlMaxMicroViaInner" value="20mil"/>
<param name="psTop" value="-1"/>
<param name="psBottom" value="-1"/>
<param name="psFirst" value="-1"/>
<param name="psElongationLong" value="100"/>
<param name="psElongationOffset" value="100"/>
<param name="mvStopFrame" value="1"/>
<param name="mvCreamFrame" value="0"/>
<param name="mlMinStopFrame" value="4mil"/>
<param name="mlMaxStopFrame" value="4mil"/>
<param name="mlMinCreamFrame" value="0mil"/>
<param name="mlMaxCreamFrame" value="0mil"/>
<param name="mlViaStopLimit" value="0mil"/>
<param name="srRoundness" value="0"/>
<param name="srMinRoundness" value="0mil"/>
<param name="srMaxRoundness" value="0mil"/>
<param name="slThermalIsolate" value="10mil"/>
<param name="slThermalsForVias" value="0"/>
<param name="dpMaxLengthDifference" value="10mm"/>
<param name="dpGapFactor" value="2.5"/>
<param name="checkAngle" value="0"/>
<param name="checkFont" value="1"/>
<param name="checkRestrict" value="1"/>
<param name="checkStop" value="0"/>
<param name="checkValues" value="0"/>
<param name="useDiameter" value="13"/>
<param name="maxErrors" value="50"/>
</designrules>
<autorouter>
<pass name="Default">
<param name="RoutingGrid" value="50mil"/>
<param name="AutoGrid" value="1"/>
<param name="Efforts" value="0"/>
<param name="TopRouterVariant" value="1"/>
<param name="tpViaShape" value="round"/>
<param name="PrefDir.1" value="a"/>
<param name="PrefDir.2" value="0"/>
<param name="PrefDir.3" value="0"/>
<param name="PrefDir.4" value="0"/>
<param name="PrefDir.5" value="0"/>
<param name="PrefDir.6" value="0"/>
<param name="PrefDir.7" value="0"/>
<param name="PrefDir.8" value="0"/>
<param name="PrefDir.9" value="0"/>
<param name="PrefDir.10" value="0"/>
<param name="PrefDir.11" value="0"/>
<param name="PrefDir.12" value="0"/>
<param name="PrefDir.13" value="0"/>
<param name="PrefDir.14" value="0"/>
<param name="PrefDir.15" value="0"/>
<param name="PrefDir.16" value="a"/>
<param name="cfVia" value="8"/>
<param name="cfNonPref" value="5"/>
<param name="cfChangeDir" value="2"/>
<param name="cfOrthStep" value="2"/>
<param name="cfDiagStep" value="3"/>
<param name="cfExtdStep" value="0"/>
<param name="cfBonusStep" value="1"/>
<param name="cfMalusStep" value="1"/>
<param name="cfPadImpact" value="4"/>
<param name="cfSmdImpact" value="4"/>
<param name="cfBusImpact" value="0"/>
<param name="cfHugging" value="3"/>
<param name="cfAvoid" value="4"/>
<param name="cfPolygon" value="10"/>
<param name="cfBase.1" value="0"/>
<param name="cfBase.2" value="1"/>
<param name="cfBase.3" value="1"/>
<param name="cfBase.4" value="1"/>
<param name="cfBase.5" value="1"/>
<param name="cfBase.6" value="1"/>
<param name="cfBase.7" value="1"/>
<param name="cfBase.8" value="1"/>
<param name="cfBase.9" value="1"/>
<param name="cfBase.10" value="1"/>
<param name="cfBase.11" value="1"/>
<param name="cfBase.12" value="1"/>
<param name="cfBase.13" value="1"/>
<param name="cfBase.14" value="1"/>
<param name="cfBase.15" value="1"/>
<param name="cfBase.16" value="0"/>
<param name="mnVias" value="20"/>
<param name="mnSegments" value="9999"/>
<param name="mnExtdSteps" value="9999"/>
<param name="mnRipupLevel" value="10"/>
<param name="mnRipupSteps" value="100"/>
<param name="mnRipupTotal" value="100"/>
</pass>
<pass name="Follow-me" refer="Default" active="yes">
</pass>
<pass name="Busses" refer="Default" active="yes">
<param name="cfNonPref" value="4"/>
<param name="cfBusImpact" value="4"/>
<param name="cfHugging" value="0"/>
<param name="mnVias" value="0"/>
</pass>
<pass name="Route" refer="Default" active="yes">
</pass>
<pass name="Optimize1" refer="Default" active="yes">
<param name="cfVia" value="99"/>
<param name="cfExtdStep" value="10"/>
<param name="cfHugging" value="1"/>
<param name="mnExtdSteps" value="1"/>
<param name="mnRipupLevel" value="0"/>
</pass>
<pass name="Optimize2" refer="Optimize1" active="yes">
<param name="cfNonPref" value="0"/>
<param name="cfChangeDir" value="6"/>
<param name="cfExtdStep" value="0"/>
<param name="cfBonusStep" value="2"/>
<param name="cfMalusStep" value="2"/>
<param name="cfPadImpact" value="2"/>
<param name="cfSmdImpact" value="2"/>
<param name="cfHugging" value="0"/>
</pass>
<pass name="Optimize3" refer="Optimize2" active="yes">
<param name="cfChangeDir" value="8"/>
<param name="cfPadImpact" value="0"/>
<param name="cfSmdImpact" value="0"/>
</pass>
<pass name="Optimize4" refer="Optimize3" active="yes">
<param name="cfChangeDir" value="25"/>
</pass>
</autorouter>
<elements>
<element name="C1" library="eagle-ltspice" library_urn="urn:adsk.eagle:library:217" package="C1206" package3d_urn="urn:adsk.eagle:package:13279/1" value="0.1uf" x="10.16" y="10.16" rot="MR90">
<attribute name="SPICEMODEL" value="NONE" x="10.16" y="10.16" size="1.778" layer="28" rot="MR90" display="off"/>
<attribute name="SPICEPREFIX" value="C" x="10.16" y="10.16" size="1.778" layer="28" rot="MR90" display="off"/>
</element>
<element name="C10" library="eagle-ltspice" library_urn="urn:adsk.eagle:library:217" package="C1210" package3d_urn="urn:adsk.eagle:package:13278/1" value="10uf" x="36.195" y="75.565" rot="R90">
<attribute name="SPICEMODEL" value="NONE" x="36.195" y="75.565" size="1.778" layer="27" rot="R90" display="off"/>
<attribute name="SPICEPREFIX" value="C" x="36.195" y="75.565" size="1.778" layer="27" rot="R90" display="off"/>
</element>
<element name="C11" library="eagle-ltspice" library_urn="urn:adsk.eagle:library:217" package="C1210" package3d_urn="urn:adsk.eagle:package:13278/1" value="10uf" x="31.115" y="75.565" rot="R90">
<attribute name="SPICEMODEL" value="NONE" x="31.115" y="75.565" size="1.778" layer="27" rot="R90" display="off"/>
<attribute name="SPICEPREFIX" value="C" x="31.115" y="75.565" size="1.778" layer="27" rot="R90" display="off"/>
</element>
<element name="C12" library="eagle-ltspice" library_urn="urn:adsk.eagle:library:217" package="C1210" package3d_urn="urn:adsk.eagle:package:13278/1" value="10uf" x="26.035" y="75.565" rot="R90">
<attribute name="SPICEMODEL" value="NONE" x="26.035" y="75.565" size="1.778" layer="27" rot="R90" display="off"/>
<attribute name="SPICEPREFIX" value="C" x="26.035" y="75.565" size="1.778" layer="27" rot="R90" display="off"/>
</element>
<element name="C2" library="eagle-ltspice" library_urn="urn:adsk.eagle:library:217" package="C1206" package3d_urn="urn:adsk.eagle:package:13279/1" value="1uf" x="7.62" y="10.16" rot="MR90">
<attribute name="SPICEMODEL" value="NONE" x="7.62" y="10.16" size="1.778" layer="28" rot="MR90" display="off"/>
<attribute name="SPICEPREFIX" value="C" x="7.62" y="10.16" size="1.778" layer="28" rot="MR90" display="off"/>
</element>
<element name="C3" library="eagle-ltspice" library_urn="urn:adsk.eagle:library:217" package="C1210" package3d_urn="urn:adsk.eagle:package:13278/1" value="10uf" x="20.955" y="75.565" rot="R90">
<attribute name="SPICEMODEL" value="NONE" x="20.955" y="75.565" size="1.778" layer="27" rot="R90" display="off"/>
<attribute name="SPICEPREFIX" value="C" x="20.955" y="75.565" size="1.778" layer="27" rot="R90" display="off"/>
</element>
<element name="C4" library="eagle-ltspice" library_urn="urn:adsk.eagle:library:217" package="C1210" package3d_urn="urn:adsk.eagle:package:13278/1" value="10uf" x="15.875" y="75.565" rot="R90">
<attribute name="SPICEMODEL" value="NONE" x="15.875" y="75.565" size="1.778" layer="27" rot="R90" display="off"/>
<attribute name="SPICEPREFIX" value="C" x="15.875" y="75.565" size="1.778" layer="27" rot="R90" display="off"/>
</element>
<element name="C5" library="eagle-ltspice" library_urn="urn:adsk.eagle:library:217" package="C1210" package3d_urn="urn:adsk.eagle:package:13278/1" value="10uf" x="61.595" y="75.565" rot="R90">
<attribute name="SPICEMODEL" value="NONE" x="61.595" y="75.565" size="1.778" layer="27" rot="R90" display="off"/>
<attribute name="SPICEPREFIX" value="C" x="61.595" y="75.565" size="1.778" layer="27" rot="R90" display="off"/>
</element>
<element name="C6" library="eagle-ltspice" library_urn="urn:adsk.eagle:library:217" package="C1210" package3d_urn="urn:adsk.eagle:package:13278/1" value="10uf" x="56.515" y="75.565" rot="R90">
<attribute name="SPICEMODEL" value="NONE" x="56.515" y="75.565" size="1.778" layer="27" rot="R90" display="off"/>
<attribute name="SPICEPREFIX" value="C" x="56.515" y="75.565" size="1.778" layer="27" rot="R90" display="off"/>
</element>
<element name="C7" library="eagle-ltspice" library_urn="urn:adsk.eagle:library:217" package="C1210" package3d_urn="urn:adsk.eagle:package:13278/1" value="10uf" x="51.435" y="75.565" rot="R90">
<attribute name="SPICEMODEL" value="NONE" x="51.435" y="75.565" size="1.778" layer="27" rot="R90" display="off"/>
<attribute name="SPICEPREFIX" value="C" x="51.435" y="75.565" size="1.778" layer="27" rot="R90" display="off"/>
</element>
<element name="C8" library="eagle-ltspice" library_urn="urn:adsk.eagle:library:217" package="C1210" package3d_urn="urn:adsk.eagle:package:13278/1" value="10uf" x="46.355" y="75.565" rot="R90">
<attribute name="SPICEMODEL" value="NONE" x="46.355" y="75.565" size="1.778" layer="27" rot="R90" display="off"/>
<attribute name="SPICEPREFIX" value="C" x="46.355" y="75.565" size="1.778" layer="27" rot="R90" display="off"/>
</element>
<element name="C9" library="eagle-ltspice" library_urn="urn:adsk.eagle:library:217" package="C1210" package3d_urn="urn:adsk.eagle:package:13278/1" value="10uf" x="41.275" y="75.565" rot="R90">
<attribute name="SPICEMODEL" value="NONE" x="41.275" y="75.565" size="1.778" layer="27" rot="R90" display="off"/>
<attribute name="SPICEPREFIX" value="C" x="41.275" y="75.565" size="1.778" layer="27" rot="R90" display="off"/>
</element>
<element name="D1" library="diode" library_urn="urn:adsk.eagle:library:210" package="DO-214AC" package3d_urn="urn:adsk.eagle:package:43416/2" value="" x="50.8" y="19.05" rot="MR90"/>
<element name="D2" library="diode" library_urn="urn:adsk.eagle:library:210" package="DO-214AC" package3d_urn="urn:adsk.eagle:package:43416/2" value="" x="38.1" y="19.05" rot="MR90"/>
<element name="D3" library="diode" library_urn="urn:adsk.eagle:library:210" package="DO-214AC" package3d_urn="urn:adsk.eagle:package:43416/2" value="" x="25.4" y="19.05" rot="MR90"/>
<element name="D4" library="diode" library_urn="urn:adsk.eagle:library:210" package="DO-214AC" package3d_urn="urn:adsk.eagle:package:43416/2" value="" x="76.2" y="19.05" rot="MR90"/>
<element name="D5" library="diode" library_urn="urn:adsk.eagle:library:210" package="DO-214AC" package3d_urn="urn:adsk.eagle:package:43416/2" value="" x="12.7" y="19.05" rot="MR90"/>
<element name="D6" library="diode" library_urn="urn:adsk.eagle:library:210" package="DO-214AC" package3d_urn="urn:adsk.eagle:package:43416/2" value="" x="63.5" y="19.05" rot="MR90"/>
<element name="JP1" library="pinhead" library_urn="urn:adsk.eagle:library:325" package="1X03" package3d_urn="urn:adsk.eagle:package:22458/2" value="" x="13.97" y="2.54" rot="R180"/>
<element name="Q1" library="transistor-power" library_urn="urn:adsk.eagle:library:400" package="D2PACK" package3d_urn="urn:adsk.eagle:package:29497/2" value="IRF3704S" x="81.28" y="31.75"/>
<element name="Q2" library="transistor-power" library_urn="urn:adsk.eagle:library:400" package="D2PACK" package3d_urn="urn:adsk.eagle:package:29497/2" value="IRF3704S" x="17.78" y="31.75"/>
<element name="Q3" library="transistor-power" library_urn="urn:adsk.eagle:library:400" package="D2PACK" package3d_urn="urn:adsk.eagle:package:29497/2" value="IRF3704S" x="68.58" y="31.75"/>
<element name="Q4" library="transistor-power" library_urn="urn:adsk.eagle:library:400" package="D2PACK" package3d_urn="urn:adsk.eagle:package:29497/2" value="IRF3704S" x="55.88" y="31.75"/>
<element name="Q5" library="transistor-power" library_urn="urn:adsk.eagle:library:400" package="D2PACK" package3d_urn="urn:adsk.eagle:package:29497/2" value="IRF3704S" x="43.18" y="31.75"/>
<element name="Q6" library="transistor-power" library_urn="urn:adsk.eagle:library:400" package="D2PACK" package3d_urn="urn:adsk.eagle:package:29497/2" value="IRF3704S" x="30.48" y="31.75"/>
<element name="R1" library="eagle-ltspice" library_urn="urn:adsk.eagle:library:217" package="R1206" package3d_urn="urn:adsk.eagle:package:13301/1" value="100" x="54.61" y="19.05" rot="MR90">
<attribute name="SPICEMODEL" value="NONE" x="54.61" y="19.05" size="1.778" layer="28" rot="MR90" display="off"/>
<attribute name="SPICEPREFIX" value="R" x="54.61" y="19.05" size="1.778" layer="28" rot="MR90" display="off"/>
</element>
<element name="R2" library="eagle-ltspice" library_urn="urn:adsk.eagle:library:217" package="R1206" package3d_urn="urn:adsk.eagle:package:13301/1" value="100" x="41.91" y="19.05" rot="MR90">
<attribute name="SPICEMODEL" value="NONE" x="41.91" y="19.05" size="1.778" layer="28" rot="MR90" display="off"/>
<attribute name="SPICEPREFIX" value="R" x="41.91" y="19.05" size="1.778" layer="28" rot="MR90" display="off"/>
</element>
<element name="R3" library="eagle-ltspice" library_urn="urn:adsk.eagle:library:217" package="R1206" package3d_urn="urn:adsk.eagle:package:13301/1" value="100" x="29.21" y="19.05" rot="MR90">
<attribute name="SPICEMODEL" value="NONE" x="29.21" y="19.05" size="1.778" layer="28" rot="MR90" display="off"/>
<attribute name="SPICEPREFIX" value="R" x="29.21" y="19.05" size="1.778" layer="28" rot="MR90" display="off"/>
</element>
<element name="R4" library="eagle-ltspice" library_urn="urn:adsk.eagle:library:217" package="R1206" package3d_urn="urn:adsk.eagle:package:13301/1" value="100" x="80.01" y="19.05" rot="MR90">
<attribute name="SPICEMODEL" value="NONE" x="80.01" y="19.05" size="1.778" layer="28" rot="MR90" display="off"/>
<attribute name="SPICEPREFIX" value="R" x="80.01" y="19.05" size="1.778" layer="28" rot="MR90" display="off"/>
</element>
<element name="R5" library="eagle-ltspice" library_urn="urn:adsk.eagle:library:217" package="R1206" package3d_urn="urn:adsk.eagle:package:13301/1" value="100" x="8.89" y="19.05" rot="MR90">
<attribute name="SPICEMODEL" value="NONE" x="8.89" y="19.05" size="1.778" layer="28" rot="MR90" display="off"/>
<attribute name="SPICEPREFIX" value="R" x="8.89" y="19.05" size="1.778" layer="28" rot="MR90" display="off"/>
</element>
<element name="R6" library="eagle-ltspice" library_urn="urn:adsk.eagle:library:217" package="R1206" package3d_urn="urn:adsk.eagle:package:13301/1" value="100" x="67.31" y="19.05" rot="MR90">
<attribute name="SPICEMODEL" value="NONE" x="67.31" y="19.05" size="1.778" layer="28" rot="MR90" display="off"/>
<attribute name="SPICEPREFIX" value="R" x="67.31" y="19.05" size="1.778" layer="28" rot="MR90" display="off"/>
</element>
<element name="U$1" library="BMS" package="LM5111" value="LM5111" x="17.78" y="8.89" rot="MR0"/>
<element name="U$2" library="BMS" package="D2PACK" value="DIODE_TO-263" x="34.925" y="62.865"/>
<element name="U$3" library="BMS" package="D2PACK" value="DIODE_TO-263" x="19.685" y="62.865"/>
<element name="U$4" library="BMS" package="KF7.62-2P" value="KF7.62-2P" x="99.06" y="11.43" rot="MR270"/>
<element name="U$5" library="BMS" package="KF7.62-2P" value="KF7.62-2P" x="12.7" y="56.515" rot="R90"/>
<element name="U$6" library="BMS" package="D2PACK" value="DIODE_TO-263" x="49.53" y="62.865"/>
<element name="U$7" library="BMS" package="D2PACK" value="DIODE_TO-263" x="63.5" y="62.865"/>
</elements>
<signals>
<signal name="N$7">
<contactref element="U$1" pad="P$2"/>
<contactref element="U$1" pad="P$4"/>
<contactref element="JP1" pad="1"/>
<wire x1="15.952" y1="7.728" x2="15.952" y2="4.368" width="0.5" layer="16"/>
<wire x1="15.952" y1="4.368" x2="16.51" y2="2.54" width="0.5" layer="16"/>
<wire x1="15.952" y1="7.728" x2="15.952" y2="9.448" width="0.5" layer="16"/>
<wire x1="15.24" y1="10.16" x2="15.952" y2="9.448" width="0.5" layer="16"/>
<wire x1="13.412" y1="7.728" x2="13.412" y2="9.602" width="0.5" layer="16"/>
<wire x1="13.412" y1="9.602" x2="13.97" y2="10.16" width="0.5" layer="16"/>
<wire x1="13.97" y1="10.16" x2="15.24" y2="10.16" width="0.5" layer="16"/>
</signal>
<signal name="GND">
<contactref element="U$1" pad="P$3"/>
<contactref element="JP1" pad="2"/>
<contactref element="C1" pad="2"/>
<contactref element="C2" pad="2"/>
<contactref element="Q1" pad="3"/>
<contactref element="Q2" pad="3"/>
<contactref element="Q3" pad="3"/>
<contactref element="Q4" pad="3"/>
<contactref element="Q5" pad="3"/>
<contactref element="Q6" pad="3"/>
<contactref element="C4" pad="2"/>
<contactref element="C3" pad="2"/>
<contactref element="C5" pad="2"/>
<contactref element="C7" pad="2"/>
<contactref element="C6" pad="2"/>
<contactref element="C8" pad="2"/>
<contactref element="C10" pad="2"/>
<contactref element="C9" pad="2"/>
<contactref element="C11" pad="2"/>
<contactref element="C12" pad="2"/>
<contactref element="U$4" pad="P$2"/>
<polygon width="1" layer="1" isolate="0.5">
<vertex x="105.41" y="2.54"/>
<vertex x="105.41" y="24.13"/>
<vertex x="1.27" y="24.13"/>
<vertex x="1.27" y="2.54"/>
</polygon>
<wire x1="20.32" y1="22.86" x2="20.32" y2="19.05" width="3" layer="1"/>
<wire x1="33.02" y1="22.86" x2="33.02" y2="19.05" width="3" layer="1"/>
<wire x1="45.72" y1="22.86" x2="45.72" y2="20.32" width="3" layer="1"/>
<wire x1="58.42" y1="22.86" x2="58.42" y2="17.78" width="3" layer="1"/>
<wire x1="71.12" y1="22.86" x2="71.12" y2="19.05" width="3" layer="1"/>
<wire x1="83.82" y1="22.86" x2="83.82" y2="20.32" width="3" layer="1"/>
<wire x1="14.682" y1="7.728" x2="14.682" y2="4.522" width="0.5" layer="16"/>
<wire x1="14.682" y1="4.522" x2="13.97" y2="2.54" width="0.5" layer="16"/>
<wire x1="7.62" y1="11.56" x2="10.16" y2="11.56" width="0.5" layer="16"/>
<wire x1="7.62" y1="11.56" x2="7.62" y2="13.97" width="0.5" layer="16"/>
<via x="7.62" y="13.97" extent="1-16" drill="0.35"/>
<wire x1="7.62" y1="13.97" x2="6.35" y2="15.24" width="2.54" layer="1"/>
<wire x1="6.35" y1="15.24" x2="3.175" y2="15.24" width="2.54" layer="1"/>
<wire x1="3.175" y1="15.24" x2="3.175" y2="67.945" width="2.54" layer="1"/>
<wire x1="12.195" y1="76.965" x2="15.875" y2="76.965" width="2.54" layer="1"/>
<wire x1="3.175" y1="67.945" x2="12.195" y2="76.965" width="2.54" layer="1"/>
<wire x1="20.955" y1="76.965" x2="21.085" y2="76.835" width="2.54" layer="1"/>
<wire x1="21.085" y1="76.835" x2="21.59" y2="76.835" width="2.54" layer="1"/>
<wire x1="15.875" y1="76.965" x2="61.595" y2="76.965" width="2.54" layer="1"/>
<wire x1="51.435" y1="76.965" x2="56.515" y2="76.965" width="0" layer="19" extent="1-1"/>
<wire x1="46.355" y1="76.965" x2="51.435" y2="76.965" width="0" layer="19" extent="1-1"/>
<wire x1="41.275" y1="76.965" x2="46.355" y2="76.965" width="0" layer="19" extent="1-1"/>
<wire x1="36.195" y1="76.965" x2="41.275" y2="76.965" width="0" layer="19" extent="1-1"/>
<wire x1="31.115" y1="76.965" x2="36.195" y2="76.965" width="0" layer="19" extent="1-1"/>
<wire x1="26.035" y1="76.965" x2="31.115" y2="76.965" width="0" layer="19" extent="1-1"/>
<wire x1="21.59" y1="76.835" x2="26.035" y2="76.965" width="0" layer="19" extent="1-1"/>
<wire x1="61.595" y1="76.965" x2="56.515" y2="76.965" width="0" layer="19" extent="1-1"/>
</signal>
<signal name="N$1">
<contactref element="D1" pad="A"/>
<contactref element="R1" pad="2"/>
<contactref element="Q4" pad="1"/>
<wire x1="53.34" y1="22.86" x2="50.8" y2="22.86" width="1" layer="1"/>
<via x="50.8" y="22.86" extent="1-16" drill="0.35"/>
<wire x1="50.8" y1="21.075" x2="54.61" y2="21.075" width="1" layer="16"/>
<wire x1="54.61" y1="21.075" x2="54.61" y2="20.472" width="1" layer="16"/>
<wire x1="50.8" y1="22.86" x2="50.8" y2="21.075" width="1" layer="16"/>
</signal>
<signal name="N$2">
<contactref element="D1" pad="C"/>
<contactref element="R1" pad="1"/>
<contactref element="D3" pad="C"/>
<contactref element="R3" pad="1"/>
<contactref element="R2" pad="1"/>
<contactref element="D2" pad="C"/>
<contactref element="U$1" pad="P$5"/>
<wire x1="25.4" y1="17.025" x2="26.003" y2="17.628" width="0.5" layer="16"/>
<wire x1="26.003" y1="17.628" x2="29.21" y2="17.628" width="0.5" layer="16"/>
<wire x1="29.21" y1="17.628" x2="37.497" y2="17.628" width="0.5" layer="16"/>
<wire x1="37.497" y1="17.628" x2="38.1" y2="17.025" width="0.5" layer="16"/>
<wire x1="38.1" y1="17.025" x2="41.307" y2="17.025" width="0.5" layer="16"/>
<wire x1="41.307" y1="17.025" x2="41.91" y2="17.628" width="0.5" layer="16"/>
<wire x1="41.91" y1="17.628" x2="50.197" y2="17.628" width="0.5" layer="16"/>
<wire x1="50.197" y1="17.628" x2="50.8" y2="17.025" width="0.5" layer="16"/>
<wire x1="50.8" y1="17.025" x2="54.007" y2="17.025" width="0.5" layer="16"/>
<wire x1="54.007" y1="17.025" x2="54.61" y2="17.628" width="0.5" layer="16"/>
<wire x1="25.4" y1="17.025" x2="23.375" y2="19.05" width="0.5" layer="16"/>
<wire x1="23.375" y1="19.05" x2="6.35" y2="19.05" width="0.5" layer="16"/>
<wire x1="6.35" y1="19.05" x2="5.08" y2="17.78" width="0.5" layer="16"/>
<wire x1="5.08" y1="17.78" x2="5.08" y2="16.51" width="0.5" layer="16"/>
<wire x1="6.35" y1="15.24" x2="5.08" y2="16.51" width="0.5" layer="16"/>
<wire x1="13.412" y1="13.928" x2="12.1" y2="15.24" width="0.5" layer="16"/>
<wire x1="12.1" y1="15.24" x2="6.35" y2="15.24" width="0.5" layer="16"/>
</signal>
<signal name="N$10">
<contactref element="D2" pad="A"/>
<contactref element="R2" pad="2"/>
<contactref element="Q5" pad="1"/>
<wire x1="40.64" y1="22.86" x2="38.1" y2="22.86" width="1" layer="1"/>
<via x="38.1" y="22.86" extent="1-16" drill="0.35"/>
<wire x1="38.1" y1="21.075" x2="41.91" y2="21.075" width="1" layer="16"/>
<wire x1="41.91" y1="21.075" x2="41.91" y2="20.472" width="1" layer="16"/>
<wire x1="38.1" y1="22.86" x2="38.1" y2="21.075" width="1" layer="16"/>
</signal>
<signal name="N$11">
<contactref element="D3" pad="A"/>
<contactref element="R3" pad="2"/>
<contactref element="Q6" pad="1"/>
<wire x1="27.94" y1="22.86" x2="25.4" y2="22.86" width="1" layer="1"/>
<via x="25.4" y="22.86" extent="1-16" drill="0.35"/>
<wire x1="25.4" y1="21.075" x2="29.21" y2="21.075" width="1" layer="16"/>
<wire x1="29.21" y1="21.075" x2="29.21" y2="20.472" width="1" layer="16"/>
<wire x1="25.4" y1="22.86" x2="25.4" y2="21.075" width="1" layer="16"/>
</signal>
<signal name="N$13">
<contactref element="D4" pad="A"/>
<contactref element="R4" pad="2"/>
<contactref element="Q1" pad="1"/>
<wire x1="78.74" y1="22.86" x2="76.2" y2="22.86" width="1" layer="1"/>
<via x="76.2" y="22.86" extent="1-16" drill="0.35"/>
<wire x1="76.2" y1="21.075" x2="80.01" y2="21.075" width="1" layer="16"/>
<wire x1="80.01" y1="21.075" x2="80.01" y2="20.472" width="1" layer="16"/>
<wire x1="76.2" y1="22.86" x2="76.2" y2="21.075" width="1" layer="16"/>
</signal>
<signal name="N$14">
<contactref element="D4" pad="C"/>
<contactref element="R4" pad="1"/>
<contactref element="R5" pad="1"/>
<contactref element="D5" pad="C"/>
<contactref element="D6" pad="C"/>
<contactref element="R6" pad="1"/>
<contactref element="U$1" pad="P$7"/>
<wire x1="63.5" y1="17.025" x2="66.707" y2="17.025" width="0.5" layer="16"/>
<wire x1="66.707" y1="17.025" x2="67.31" y2="17.628" width="0.5" layer="16"/>
<wire x1="67.31" y1="17.628" x2="75.597" y2="17.628" width="0.5" layer="16"/>
<wire x1="75.597" y1="17.628" x2="76.2" y2="17.025" width="0.5" layer="16"/>
<wire x1="76.2" y1="17.025" x2="79.407" y2="17.025" width="0.5" layer="16"/>
<wire x1="79.407" y1="17.025" x2="80.01" y2="17.628" width="0.5" layer="16"/>
<wire x1="63.5" y1="17.025" x2="56.27758125" y2="17.025" width="0.5" layer="16"/>
<wire x1="56.27758125" y1="17.025" x2="54.97518125" y2="15.7226" width="0.5" layer="16"/>
<wire x1="54.97518125" y1="15.7226" x2="24.6126" y2="15.7226" width="0.5" layer="16"/>
<wire x1="20.32" y1="11.43" x2="24.6126" y2="15.7226" width="0.5" layer="16"/>
<wire x1="15.952" y1="13.928" x2="15.952" y2="11.988" width="0.5" layer="16"/>
<wire x1="15.952" y1="11.988" x2="16.51" y2="11.43" width="0.5" layer="16"/>
<wire x1="16.51" y1="11.43" x2="20.32" y2="11.43" width="0.5" layer="16"/>
<wire x1="8.89" y1="17.628" x2="12.097" y2="17.628" width="0.5" layer="16"/>
<wire x1="12.097" y1="17.628" x2="12.7" y2="17.025" width="0.5" layer="16"/>
<wire x1="15.952" y1="13.928" x2="15.952" y2="15.798" width="0.5" layer="16"/>
<wire x1="14.725" y1="17.025" x2="12.7" y2="17.025" width="0.5" layer="16"/>
<wire x1="15.952" y1="15.798" x2="14.725" y2="17.025" width="0.5" layer="16"/>
</signal>
<signal name="N$16">
<contactref element="D5" pad="A"/>
<contactref element="R5" pad="2"/>
<contactref element="Q2" pad="1"/>
<wire x1="15.24" y1="22.86" x2="12.7" y2="22.86" width="1" layer="1"/>
<via x="12.7" y="22.86" extent="1-16" drill="0.35"/>
<wire x1="8.89" y1="20.472" x2="8.89" y2="21.075" width="1" layer="16"/>
<wire x1="8.89" y1="21.075" x2="12.7" y2="21.075" width="1" layer="16"/>
<wire x1="12.7" y1="22.86" x2="12.7" y2="21.075" width="1" layer="16"/>
</signal>
<signal name="N$17">
<contactref element="D6" pad="A"/>
<contactref element="R6" pad="2"/>
<contactref element="Q3" pad="1"/>
<wire x1="66.04" y1="22.86" x2="63.5" y2="22.86" width="1" layer="1"/>
<via x="63.5" y="22.86" extent="1-16" drill="0.35"/>
<wire x1="63.5" y1="21.075" x2="67.31" y2="21.075" width="1" layer="16"/>
<wire x1="67.31" y1="21.075" x2="67.31" y2="20.472" width="1" layer="16"/>
<wire x1="63.5" y1="22.86" x2="63.5" y2="21.075" width="1" layer="16"/>
</signal>
<signal name="N$19">
<contactref element="C2" pad="1"/>
<contactref element="C1" pad="1"/>
<contactref element="U$1" pad="P$6"/>
<contactref element="JP1" pad="3"/>
<wire x1="14.682" y1="13.928" x2="14.682" y2="12.142" width="0.5" layer="16"/>
<wire x1="11.43" y1="8.89" x2="11.43" y2="2.54" width="0.5" layer="16"/>
<wire x1="14.682" y1="12.142" x2="11.43" y2="8.89" width="0.5" layer="16"/>
<wire x1="11.43" y1="8.89" x2="10.29" y2="8.89" width="0.5" layer="16"/>
<wire x1="10.29" y1="8.89" x2="10.16" y2="8.76" width="0.5" layer="16"/>
<wire x1="10.16" y1="8.76" x2="7.62" y2="8.76" width="0.5" layer="16"/>
</signal>
<signal name="VCC">
<contactref element="C4" pad="1"/>
<contactref element="C3" pad="1"/>
<contactref element="C5" pad="1"/>
<contactref element="C7" pad="1"/>
<contactref element="C6" pad="1"/>
<contactref element="C8" pad="1"/>
<contactref element="C10" pad="1"/>
<contactref element="C9" pad="1"/>
<contactref element="C11" pad="1"/>
<contactref element="C12" pad="1"/>
<contactref element="U$3" pad="2"/>
<contactref element="U$2" pad="2"/>
<contactref element="U$4" pad="P$1"/>
<contactref element="U$5" pad="P$1"/>
<polygon width="1.27" layer="1" isolate="0.5">
<vertex x="-1.27" y="57.785"/>
<vertex x="-1.27" y="80.01"/>
<vertex x="106.68" y="80.01"/>
<vertex x="106.68" y="57.785"/>
</polygon>
<via x="95.25" y="57.785" extent="1-16" drill="0.35"/>
<wire x1="97.06" y1="7.62" x2="97.06" y2="12.726375" width="1" layer="16"/>
<wire x1="97.06" y1="12.726375" x2="95.2826" y2="14.503775" width="1" layer="16"/>
<wire x1="95.2826" y1="57.7524" x2="95.25" y2="57.785" width="1" layer="16"/>
<wire x1="95.2826" y1="14.503775" x2="95.2826" y2="57.7524" width="1" layer="16"/>
<wire x1="95.25" y1="57.785" x2="93.98" y2="57.785" width="1" layer="1"/>
<via x="93.98" y="57.785" extent="1-16" drill="0.35"/>
<wire x1="93.98" y1="57.785" x2="92.71" y2="57.785" width="1" layer="16"/>
<via x="92.71" y="57.785" extent="1-16" drill="0.35"/>
<wire x1="92.71" y1="57.785" x2="91.44" y2="57.785" width="1" layer="1"/>
<via x="91.44" y="57.785" extent="1-16" drill="0.35"/>
<wire x1="91.44" y1="57.785" x2="90.17" y2="57.785" width="1" layer="16"/>
<via x="90.17" y="57.785" extent="1-16" drill="0.35"/>
<wire x1="90.17" y1="57.785" x2="88.9" y2="57.785" width="1" layer="1"/>
<via x="88.9" y="57.785" extent="1-16" drill="0.35"/>
<wire x1="88.9" y1="57.785" x2="87.63" y2="57.785" width="1" layer="16"/>
<via x="87.63" y="57.785" extent="1-16" drill="0.35"/>
<wire x1="87.63" y1="57.785" x2="86.36" y2="57.785" width="1" layer="1"/>
<via x="86.36" y="57.785" extent="1-16" drill="0.35"/>
<wire x1="86.36" y1="57.785" x2="85.09" y2="57.785" width="1" layer="16"/>
<via x="85.09" y="57.785" extent="1-16" drill="0.35"/>
<wire x1="85.09" y1="57.785" x2="83.82" y2="57.785" width="1" layer="1"/>
<via x="83.82" y="57.785" extent="1-16" drill="0.35"/>
<wire x1="83.82" y1="57.785" x2="83.82" y2="59.055" width="1" layer="16"/>
<via x="83.82" y="59.055" extent="1-16" drill="0.35"/>
<wire x1="83.82" y1="59.055" x2="85.09" y2="59.055" width="1" layer="1"/>
<via x="85.09" y="59.055" extent="1-16" drill="0.35"/>
<wire x1="85.09" y1="59.055" x2="86.36" y2="59.055" width="1" layer="16"/>
<via x="86.36" y="59.055" extent="1-16" drill="0.35"/>
<wire x1="86.36" y1="59.055" x2="87.63" y2="59.055" width="1" layer="1"/>
<via x="87.63" y="59.055" extent="1-16" drill="0.35"/>
<wire x1="87.63" y1="59.055" x2="88.9" y2="59.055" width="1" layer="16"/>
<via x="88.9" y="59.055" extent="1-16" drill="0.35"/>
<wire x1="88.9" y1="59.055" x2="90.17" y2="59.055" width="1" layer="1"/>
<via x="90.17" y="59.055" extent="1-16" drill="0.35"/>
<wire x1="90.17" y1="59.055" x2="91.44" y2="59.055" width="1" layer="16"/>
<via x="91.44" y="59.055" extent="1-16" drill="0.35"/>
<wire x1="91.44" y1="59.055" x2="92.71" y2="59.055" width="1" layer="1"/>
<via x="92.71" y="59.055" extent="1-16" drill="0.35"/>
<wire x1="92.71" y1="59.055" x2="93.98" y2="59.055" width="1" layer="16"/>
<via x="93.98" y="59.055" extent="1-16" drill="0.35"/>
<wire x1="93.98" y1="59.055" x2="95.25" y2="59.055" width="1" layer="1"/>
<via x="95.25" y="59.055" extent="1-16" drill="0.35"/>
<polygon width="1" layer="16">
<vertex x="100.33" y="2.54"/>
<vertex x="100.33" y="80.01"/>
<vertex x="0" y="80.01"/>
<vertex x="0" y="2.54"/>
</polygon>
<wire x1="96.52" y1="8.89" x2="96.52" y2="6.35" width="1" layer="16"/>
<wire x1="96.52" y1="6.35" x2="95.25" y2="6.35" width="1" layer="16"/>
<wire x1="95.25" y1="6.35" x2="95.25" y2="8.89" width="1" layer="16"/>
<wire x1="97.06" y1="7.62" x2="97.06" y2="8.89" width="2" layer="16"/>
<wire x1="97.06" y1="8.89" x2="96.52" y2="8.89" width="2" layer="16"/>
<wire x1="97.06" y1="7.62" x2="97.06" y2="10.16" width="2" layer="16"/>
<wire x1="97.06" y1="10.16" x2="96.52" y2="10.16" width="2" layer="16"/>
<wire x1="95.25" y1="10.16" x2="96.52" y2="10.16" width="2" layer="16"/>
<wire x1="96.52" y1="10.16" x2="96.52" y2="5.08" width="2" layer="16"/>
<wire x1="96.52" y1="5.08" x2="97.79" y2="5.08" width="2" layer="16"/>
<wire x1="97.79" y1="5.08" x2="97.79" y2="10.16" width="2" layer="16"/>
<wire x1="95.25" y1="59.055" x2="96.52" y2="59.055" width="1" layer="16"/>
<via x="96.52" y="59.055" extent="1-16" drill="0.35"/>
<wire x1="96.52" y1="59.055" x2="97.79" y2="59.055" width="1" layer="1"/>
<via x="97.79" y="59.055" extent="1-16" drill="0.35"/>
<wire x1="97.79" y1="59.055" x2="97.79" y2="57.785" width="1" layer="16"/>
<via x="97.79" y="57.785" extent="1-16" drill="0.35"/>
<wire x1="97.79" y1="57.785" x2="96.52" y2="57.785" width="1" layer="1"/>
<via x="96.52" y="57.785" extent="1-16" drill="0.35"/>
<contactref element="U$6" pad="2"/>
<contactref element="U$7" pad="2"/>
</signal>
<signal name="N$3">
<via x="3.81" y="3.81" extent="1-16" drill="3"/>
</signal>
<signal name="N$4">
<via x="96.52" y="76.835" extent="1-16" drill="3"/>
</signal>
<signal name="N$6">
<via x="3.81" y="76.835" extent="1-16" drill="3"/>
</signal>
<signal name="N$8">
<contactref element="U$7" pad="1"/>
<contactref element="U$7" pad="3"/>
<contactref element="U$6" pad="1"/>
<contactref element="U$6" pad="3"/>
<contactref element="Q4" pad="2"/>
<contactref element="Q5" pad="2"/>
<contactref element="Q6" pad="2"/>
<contactref element="U$2" pad="1"/>
<contactref element="U$2" pad="3"/>
<contactref element="Q1" pad="2"/>
<contactref element="Q2" pad="2"/>
<contactref element="Q3" pad="2"/>
<contactref element="U$3" pad="1"/>
<contactref element="U$3" pad="3"/>
<contactref element="U$5" pad="P$2"/>
<polygon width="1" layer="1">
<vertex x="-1.27" y="29.21"/>
<vertex x="-1.27" y="55.245"/>
<vertex x="101.6" y="55.245"/>
<vertex x="101.6" y="29.21"/>
</polygon>
</signal>
</signals>
</board>
</drawing>
<compatibility>
<note version="6.3" minversion="6.2.2" severity="warning">
Since Version 6.2.2 text objects can contain more than one line,
which will not be processed correctly with this version.
</note>
<note version="8.2" severity="warning">
Since Version 8.2, EAGLE supports online libraries. The ids
of those online libraries will not be understood (or retained)
with this version.
</note>
<note version="8.3" severity="warning">
Since Version 8.3, EAGLE supports URNs for individual library
assets (packages, symbols, and devices). The URNs of those assets
will not be understood (or retained) with this version.
</note>
<note version="8.3" severity="warning">
Since Version 8.3, EAGLE supports the association of 3D packages
with devices in libraries, schematics, and board files. Those 3D
packages will not be understood (or retained) with this version.
</note>
</compatibility>
</eagle>
