<?xml version="1.0" encoding="utf-8"?>
<!DOCTYPE eagle SYSTEM "eagle.dtd">
<eagle version="8.5.1">
<drawing>
<settings>
<setting alwaysvectorfont="no"/>
<setting verticaltext="up"/>
</settings>
<grid distance="0.025" unitdist="inch" unit="inch" style="lines" multiple="1" display="no" altdistance="0.01" altunitdist="inch" altunit="inch"/>
<layers>
<layer number="88" name="SimResults" color="9" fill="1" visible="yes" active="yes"/>
<layer number="89" name="SimProbes" color="9" fill="1" visible="yes" active="yes"/>
<layer number="90" name="Modules" color="5" fill="1" visible="yes" active="yes"/>
<layer number="91" name="Nets" color="2" fill="1" visible="yes" active="yes"/>
<layer number="92" name="Busses" color="1" fill="1" visible="yes" active="yes"/>
<layer number="93" name="Pins" color="2" fill="1" visible="no" active="yes"/>
<layer number="94" name="Symbols" color="4" fill="1" visible="yes" active="yes"/>
<layer number="95" name="Names" color="7" fill="1" visible="yes" active="yes"/>
<layer number="96" name="Values" color="7" fill="1" visible="yes" active="yes"/>
<layer number="97" name="Info" color="7" fill="1" visible="yes" active="yes"/>
<layer number="98" name="Guide" color="6" fill="1" visible="yes" active="yes"/>
</layers>
<schematic xreflabel="%F%N/%S.%C%R" xrefpart="/%S.%C%R">
<libraries>
</libraries>
<attributes>
</attributes>
<variantdefs>
</variantdefs>
<classes>
<class number="0" name="default" width="0" drill="0">
</class>
</classes>
<parts>
</parts>
<sheets>
<sheet>
<plain>
<text x="193.675" y="175.895" size="3.556" layer="95">+</text>
<wire x1="193.04" y1="184.785" x2="193.04" y2="169.545" width="0.1524" layer="94"/>
<wire x1="193.04" y1="169.545" x2="198.12" y2="172.085" width="0.1524" layer="94"/>
<wire x1="198.12" y1="172.085" x2="198.12" y2="182.245" width="0.1524" layer="94"/>
<wire x1="198.12" y1="182.245" x2="193.04" y2="184.785" width="0.1524" layer="94"/>
<wire x1="207.01" y1="175.895" x2="207.01" y2="169.545" width="0.1524" layer="94"/>
<wire x1="207.01" y1="169.545" x2="219.71" y2="169.545" width="0.1524" layer="94"/>
<wire x1="219.71" y1="169.545" x2="219.71" y2="175.895" width="0.1524" layer="94"/>
<wire x1="219.71" y1="175.895" x2="207.01" y2="175.895" width="0.1524" layer="94"/>
<text x="210.82" y="172.085" size="1.778" layer="95">ADJ6</text>
<wire x1="232.41" y1="174.625" x2="232.41" y2="169.545" width="0.1524" layer="94"/>
<wire x1="232.41" y1="169.545" x2="237.49" y2="169.545" width="0.1524" layer="94"/>
<wire x1="237.49" y1="169.545" x2="237.49" y2="174.625" width="0.1524" layer="94"/>
<wire x1="237.49" y1="174.625" x2="232.41" y2="174.625" width="0.1524" layer="94"/>
<text x="234.95" y="172.085" size="1.778" layer="95" align="center">PC</text>
<wire x1="7.62" y1="68.58" x2="7.62" y2="27.94" width="0.1524" layer="94"/>
<wire x1="7.62" y1="27.94" x2="33.02" y2="27.94" width="0.1524" layer="94"/>
<wire x1="33.02" y1="27.94" x2="33.02" y2="68.58" width="0.1524" layer="94"/>
<wire x1="33.02" y1="68.58" x2="7.62" y2="68.58" width="0.1524" layer="94"/>
<text x="20.32" y="48.26" size="2.54" layer="95" align="center">Valid bit
array</text>
<wire x1="40.64" y1="68.58" x2="40.64" y2="27.94" width="0.1524" layer="94"/>
<wire x1="40.64" y1="27.94" x2="66.04" y2="27.94" width="0.1524" layer="94"/>
<wire x1="66.04" y1="27.94" x2="66.04" y2="68.58" width="0.1524" layer="94"/>
<wire x1="66.04" y1="68.58" x2="40.64" y2="68.58" width="0.1524" layer="94"/>
<text x="53.34" y="48.26" size="2.54" layer="95" align="center">Dirty bit
array</text>
<wire x1="73.66" y1="68.58" x2="73.66" y2="27.94" width="0.1524" layer="94"/>
<wire x1="73.66" y1="27.94" x2="99.06" y2="27.94" width="0.1524" layer="94"/>
<wire x1="99.06" y1="27.94" x2="99.06" y2="68.58" width="0.1524" layer="94"/>
<wire x1="99.06" y1="68.58" x2="73.66" y2="68.58" width="0.1524" layer="94"/>
<text x="86.36" y="48.26" size="2.54" layer="95" align="center">Tag</text>
<text x="87.63" y="76.2" size="1.778" layer="95" align="center">ADDR[6:4]</text>
<text x="86.36" y="6.35" size="2.54" layer="95" align="center">=</text>
<circle x="86.36" y="6.35" radius="5.23634375" width="0.1524" layer="94"/>
<text x="73.66" y="7.62" size="1.778" layer="95" rot="R90" align="center">ADDR[15:7]</text>
<text x="54.61" y="76.2" size="1.778" layer="95" align="center">ADDR[6:4]</text>
<text x="21.59" y="76.2" size="1.778" layer="95" align="center">ADDR[6:4]</text>
<wire x1="57.15" y1="-34.29" x2="52.07" y2="-34.29" width="0.1524" layer="94" curve="-180"/>
<wire x1="52.07" y1="-34.29" x2="52.07" y2="-30.48" width="0.1524" layer="94"/>
<wire x1="52.07" y1="-30.48" x2="57.15" y2="-30.48" width="0.1524" layer="94"/>
<wire x1="57.15" y1="-30.48" x2="57.15" y2="-34.29" width="0.1524" layer="94"/>
<wire x1="107.95" y1="68.58" x2="107.95" y2="27.94" width="0.1524" layer="94"/>
<wire x1="107.95" y1="27.94" x2="133.35" y2="27.94" width="0.1524" layer="94"/>
<wire x1="133.35" y1="27.94" x2="133.35" y2="68.58" width="0.1524" layer="94"/>
<wire x1="133.35" y1="68.58" x2="107.95" y2="68.58" width="0.1524" layer="94"/>
<text x="120.65" y="48.26" size="2.54" layer="95" align="center">Data</text>
<text x="121.92" y="76.2" size="1.778" layer="95" align="center">ADDR[6:4]</text>
<wire x1="189.23" y1="68.58" x2="189.23" y2="27.94" width="0.1524" layer="94"/>
<wire x1="189.23" y1="27.94" x2="214.63" y2="27.94" width="0.1524" layer="94"/>
<wire x1="214.63" y1="27.94" x2="214.63" y2="68.58" width="0.1524" layer="94"/>
<wire x1="214.63" y1="68.58" x2="189.23" y2="68.58" width="0.1524" layer="94"/>
<text x="201.93" y="48.26" size="2.54" layer="95" align="center">Valid bit
array</text>
<wire x1="222.25" y1="68.58" x2="222.25" y2="27.94" width="0.1524" layer="94"/>
<wire x1="222.25" y1="27.94" x2="247.65" y2="27.94" width="0.1524" layer="94"/>
<wire x1="247.65" y1="27.94" x2="247.65" y2="68.58" width="0.1524" layer="94"/>
<wire x1="247.65" y1="68.58" x2="222.25" y2="68.58" width="0.1524" layer="94"/>
<text x="234.95" y="48.26" size="2.54" layer="95" align="center">Dirty bit
array</text>
<wire x1="255.27" y1="68.58" x2="255.27" y2="27.94" width="0.1524" layer="94"/>
<wire x1="255.27" y1="27.94" x2="280.67" y2="27.94" width="0.1524" layer="94"/>
<wire x1="280.67" y1="27.94" x2="280.67" y2="68.58" width="0.1524" layer="94"/>
<wire x1="280.67" y1="68.58" x2="255.27" y2="68.58" width="0.1524" layer="94"/>
<text x="267.97" y="48.26" size="2.54" layer="95" align="center">Tag</text>
<text x="269.24" y="76.2" size="1.778" layer="95" align="center">ADDR[6:4]</text>
<text x="267.97" y="6.35" size="2.54" layer="95" align="center">=</text>
<circle x="267.97" y="6.35" radius="5.23634375" width="0.1524" layer="94"/>
<text x="255.27" y="7.62" size="1.778" layer="95" rot="R90" align="center">ADDR[15:7]</text>
<text x="236.22" y="76.2" size="1.778" layer="95" align="center">ADDR[6:4]</text>
<text x="203.2" y="76.2" size="1.778" layer="95" align="center">ADDR[6:4]</text>
<wire x1="238.76" y1="-34.29" x2="233.68" y2="-34.29" width="0.1524" layer="94" curve="-180"/>
<wire x1="233.68" y1="-34.29" x2="233.68" y2="-30.48" width="0.1524" layer="94"/>
<wire x1="233.68" y1="-30.48" x2="238.76" y2="-30.48" width="0.1524" layer="94"/>
<wire x1="238.76" y1="-30.48" x2="238.76" y2="-34.29" width="0.1524" layer="94"/>
<wire x1="288.29" y1="68.58" x2="288.29" y2="27.94" width="0.1524" layer="94"/>
<wire x1="288.29" y1="27.94" x2="313.69" y2="27.94" width="0.1524" layer="94"/>
<wire x1="313.69" y1="27.94" x2="313.69" y2="68.58" width="0.1524" layer="94"/>
<wire x1="313.69" y1="68.58" x2="288.29" y2="68.58" width="0.1524" layer="94"/>
<text x="300.99" y="48.26" size="2.54" layer="95" align="center">Data</text>
<text x="302.26" y="76.2" size="1.778" layer="95" align="center">ADDR[6:4]</text>
<wire x1="143.51" y1="-62.23" x2="139.7" y2="-62.23" width="0.1524" layer="94" curve="-180"/>
<wire x1="141.605" y1="-68.58" x2="139.7" y2="-66.675" width="0.1524" layer="94" curve="-90"/>
<wire x1="139.7" y1="-66.675" x2="139.7" y2="-62.23" width="0.1524" layer="94"/>
<wire x1="141.605" y1="-68.58" x2="143.51" y2="-66.675" width="0.1524" layer="94" curve="90"/>
<wire x1="143.51" y1="-66.675" x2="143.51" y2="-62.23" width="0.1524" layer="94"/>
<wire x1="243.84" y1="-95.885" x2="229.235" y2="-95.885" width="0.1524" layer="94"/>
<wire x1="229.235" y1="-95.885" x2="231.775" y2="-100.965" width="0.1524" layer="94"/>
<wire x1="231.775" y1="-100.965" x2="241.3" y2="-100.965" width="0.1524" layer="94"/>
<wire x1="241.3" y1="-100.965" x2="243.84" y2="-95.885" width="0.1524" layer="94"/>
<text x="140.335" y="-90.17" size="1.778" layer="95" align="center">mem_resp</text>
<wire x1="180.34" y1="179.07" x2="165.1" y2="179.07" width="0.1524" layer="94"/>
<wire x1="165.1" y1="179.07" x2="167.64" y2="173.99" width="0.1524" layer="94"/>
<wire x1="167.64" y1="173.99" x2="177.8" y2="173.99" width="0.1524" layer="94"/>
<wire x1="177.8" y1="173.99" x2="180.34" y2="179.07" width="0.1524" layer="94"/>
<text x="236.22" y="-107.95" size="1.778" layer="95" align="center">wbmem.DAT_M,wbcpu.DAT_S</text>
<wire x1="316.23" y1="-11.43" x2="316.23" y2="-52.07" width="0.1524" layer="94"/>
<wire x1="316.23" y1="-52.07" x2="341.63" y2="-52.07" width="0.1524" layer="94"/>
<wire x1="341.63" y1="-52.07" x2="341.63" y2="-11.43" width="0.1524" layer="94"/>
<wire x1="341.63" y1="-11.43" x2="316.23" y2="-11.43" width="0.1524" layer="94"/>
<text x="328.93" y="-31.75" size="2.54" layer="95" align="center">LRU</text>
<text x="330.2" y="-3.81" size="1.778" layer="95" align="center">ADDR[6:4]</text>
<wire x1="260.985" y1="177.165" x2="255.905" y2="177.165" width="0.1524" layer="94" curve="-180"/>
<wire x1="255.905" y1="177.165" x2="255.905" y2="180.975" width="0.1524" layer="94"/>
<wire x1="255.905" y1="180.975" x2="260.985" y2="180.975" width="0.1524" layer="94"/>
<wire x1="260.985" y1="180.975" x2="260.985" y2="177.165" width="0.1524" layer="94"/>
<wire x1="269.875" y1="180.975" x2="266.065" y2="180.975" width="0.1524" layer="94" curve="-180"/>
<wire x1="267.97" y1="174.625" x2="266.065" y2="176.53" width="0.1524" layer="94" curve="-90"/>
<wire x1="266.065" y1="176.53" x2="266.065" y2="180.975" width="0.1524" layer="94"/>
<wire x1="267.97" y1="174.625" x2="269.875" y2="176.53" width="0.1524" layer="94" curve="90"/>
<wire x1="269.875" y1="176.53" x2="269.875" y2="180.975" width="0.1524" layer="94"/>
<wire x1="248.285" y1="180.975" x2="249.555" y2="179.07" width="0.1524" layer="94"/>
<wire x1="249.555" y1="179.07" x2="250.825" y2="180.975" width="0.1524" layer="94"/>
<wire x1="250.825" y1="180.975" x2="248.285" y2="180.975" width="0.1524" layer="94"/>
<circle x="249.555" y="178.435" radius="0.635" width="0.1524" layer="94"/>
<wire x1="334.645" y1="-60.325" x2="335.915" y2="-62.23" width="0.1524" layer="94"/>
<wire x1="335.915" y1="-62.23" x2="337.185" y2="-60.325" width="0.1524" layer="94"/>
<wire x1="337.185" y1="-60.325" x2="334.645" y2="-60.325" width="0.1524" layer="94"/>
<circle x="335.915" y="-62.865" radius="0.635" width="0.1524" layer="94"/>
<wire x1="325.755" y1="-69.215" x2="320.675" y2="-69.215" width="0.1524" layer="94" curve="-180"/>
<wire x1="320.675" y1="-69.215" x2="320.675" y2="-65.405" width="0.1524" layer="94"/>
<wire x1="320.675" y1="-65.405" x2="325.755" y2="-65.405" width="0.1524" layer="94"/>
<wire x1="325.755" y1="-65.405" x2="325.755" y2="-69.215" width="0.1524" layer="94"/>
<wire x1="339.725" y1="-69.215" x2="334.645" y2="-69.215" width="0.1524" layer="94" curve="-180"/>
<wire x1="334.645" y1="-69.215" x2="334.645" y2="-65.405" width="0.1524" layer="94"/>
<wire x1="334.645" y1="-65.405" x2="339.725" y2="-65.405" width="0.1524" layer="94"/>
<wire x1="339.725" y1="-65.405" x2="339.725" y2="-69.215" width="0.1524" layer="94"/>
<wire x1="332.105" y1="-78.74" x2="328.295" y2="-78.74" width="0.1524" layer="94" curve="-180"/>
<wire x1="330.2" y1="-85.09" x2="328.295" y2="-83.185" width="0.1524" layer="94" curve="-90"/>
<wire x1="328.295" y1="-83.185" x2="328.295" y2="-78.74" width="0.1524" layer="94"/>
<wire x1="330.2" y1="-85.09" x2="332.105" y2="-83.185" width="0.1524" layer="94" curve="90"/>
<wire x1="332.105" y1="-83.185" x2="332.105" y2="-78.74" width="0.1524" layer="94"/>
<text x="52.705" y="20.32" size="1.778" layer="95" align="center">Dout1</text>
<text x="235.585" y="20.32" size="1.778" layer="95" align="center">Dout2</text>
<text x="340.36" y="-57.785" size="1.778" layer="95" rot="R180" align="center">Dout2</text>
<text x="326.39" y="-57.785" size="1.778" layer="95" rot="R180" align="center">Dout1</text>
<text x="330.2" y="-89.535" size="1.778" layer="95" align="center">Eviction_needed</text>
<text x="151.765" y="81.28" size="1.778" layer="95" align="center">cache_control_load1[8:0]</text>
<text x="332.105" y="81.28" size="1.778" layer="95" align="center">cache_control_load1[8:0]</text>
<wire x1="142.875" y1="-81.28" x2="137.795" y2="-81.28" width="0.1524" layer="94" curve="-180"/>
<wire x1="137.795" y1="-81.28" x2="137.795" y2="-77.47" width="0.1524" layer="94"/>
<wire x1="137.795" y1="-77.47" x2="142.875" y2="-77.47" width="0.1524" layer="94"/>
<wire x1="142.875" y1="-77.47" x2="142.875" y2="-81.28" width="0.1524" layer="94"/>
<text x="128.905" y="-73.66" size="1.778" layer="95" align="center">mem_controller_ACK</text>
<text x="76.835" y="85.725" size="1.778" layer="95" align="center">cache_control_load_tag1</text>
<text x="258.445" y="85.725" size="1.778" layer="95" align="center">cache_control_load_tag2</text>
<text x="43.815" y="84.455" size="1.778" layer="95" align="center">cache_control_load_dirty1</text>
<text x="367.665" y="-43.815" size="1.778" layer="95" align="center">LRU_to_controller</text>
<polygon width="0.1524" layer="94">
<vertex x="53.34" y="-30.48"/>
<vertex x="54.61" y="-29.21"/>
<vertex x="52.07" y="-29.21"/>
</polygon>
<polygon width="0.1524" layer="94">
<vertex x="55.88" y="-30.48"/>
<vertex x="57.15" y="-29.21"/>
<vertex x="54.61" y="-29.21"/>
</polygon>
<polygon width="0.1524" layer="94">
<vertex x="20.32" y="68.58"/>
<vertex x="21.59" y="69.85"/>
<vertex x="19.05" y="69.85"/>
</polygon>
<polygon width="0.1524" layer="94">
<vertex x="53.34" y="68.58"/>
<vertex x="54.61" y="69.85"/>
<vertex x="52.07" y="69.85"/>
</polygon>
<polygon width="0.1524" layer="94">
<vertex x="43.18" y="68.58"/>
<vertex x="44.45" y="69.85"/>
<vertex x="41.91" y="69.85"/>
</polygon>
<polygon width="0.1524" layer="94">
<vertex x="86.36" y="68.58"/>
<vertex x="87.63" y="69.85"/>
<vertex x="85.09" y="69.85"/>
</polygon>
<polygon width="0.1524" layer="94">
<vertex x="76.835" y="68.58"/>
<vertex x="78.105" y="69.85"/>
<vertex x="75.565" y="69.85"/>
</polygon>
<polygon width="0.1524" layer="94">
<vertex x="120.65" y="68.58"/>
<vertex x="121.92" y="69.85"/>
<vertex x="119.38" y="69.85"/>
</polygon>
<polygon width="0.1524" layer="94">
<vertex x="233.68" y="-95.885"/>
<vertex x="234.95" y="-94.615"/>
<vertex x="232.41" y="-94.615"/>
</polygon>
<polygon width="0.1524" layer="94">
<vertex x="239.395" y="-95.885"/>
<vertex x="240.665" y="-94.615"/>
<vertex x="238.125" y="-94.615"/>
</polygon>
<polygon width="0.1524" layer="94">
<vertex x="242.57" y="-98.425"/>
<vertex x="243.84" y="-99.695"/>
<vertex x="243.84" y="-97.155"/>
</polygon>
<polygon width="0.1524" layer="94">
<vertex x="267.97" y="11.43"/>
<vertex x="269.24" y="12.7"/>
<vertex x="266.7" y="12.7"/>
</polygon>
<polygon width="0.1524" layer="94">
<vertex x="262.89" y="6.35"/>
<vertex x="261.62" y="7.62"/>
<vertex x="261.62" y="5.08"/>
</polygon>
<polygon width="0.1524" layer="94">
<vertex x="255.27" y="36.83"/>
<vertex x="254" y="38.1"/>
<vertex x="254" y="35.56"/>
</polygon>
<polygon width="0.1524" layer="94">
<vertex x="258.445" y="68.58"/>
<vertex x="259.715" y="69.85"/>
<vertex x="257.175" y="69.85"/>
</polygon>
<polygon width="0.1524" layer="94">
<vertex x="267.97" y="68.58"/>
<vertex x="269.24" y="69.85"/>
<vertex x="266.7" y="69.85"/>
</polygon>
<polygon width="0.1524" layer="94">
<vertex x="300.99" y="68.58"/>
<vertex x="302.26" y="69.85"/>
<vertex x="299.72" y="69.85"/>
</polygon>
<polygon width="0.1524" layer="94">
<vertex x="234.95" y="68.58"/>
<vertex x="236.22" y="69.85"/>
<vertex x="233.68" y="69.85"/>
</polygon>
<polygon width="0.1524" layer="94">
<vertex x="201.93" y="68.58"/>
<vertex x="203.2" y="69.85"/>
<vertex x="200.66" y="69.85"/>
</polygon>
<polygon width="0.1524" layer="94">
<vertex x="313.69" y="63.5"/>
<vertex x="314.96" y="62.23"/>
<vertex x="314.96" y="64.77"/>
</polygon>
<polygon width="0.1524" layer="94">
<vertex x="86.36" y="11.43"/>
<vertex x="87.63" y="12.7"/>
<vertex x="85.09" y="12.7"/>
</polygon>
<polygon width="0.1524" layer="94">
<vertex x="81.28" y="6.35"/>
<vertex x="80.01" y="7.62"/>
<vertex x="80.01" y="5.08"/>
</polygon>
<polygon width="0.1524" layer="94">
<vertex x="73.66" y="39.37"/>
<vertex x="72.39" y="40.64"/>
<vertex x="72.39" y="38.1"/>
</polygon>
<polygon width="0.1524" layer="94">
<vertex x="133.35" y="63.5"/>
<vertex x="134.62" y="62.23"/>
<vertex x="134.62" y="64.77"/>
</polygon>
<polygon width="0.1524" layer="94">
<vertex x="367.665" y="-45.72"/>
<vertex x="366.395" y="-46.99"/>
<vertex x="368.935" y="-46.99"/>
</polygon>
<polygon width="0.1524" layer="94">
<vertex x="330.2" y="-88.9"/>
<vertex x="331.47" y="-87.63"/>
<vertex x="328.93" y="-87.63"/>
</polygon>
<polygon width="0.1524" layer="94">
<vertex x="328.93" y="-11.43"/>
<vertex x="330.2" y="-10.16"/>
<vertex x="327.66" y="-10.16"/>
</polygon>
<polygon width="0.1524" layer="94">
<vertex x="52.705" y="21.59"/>
<vertex x="53.975" y="22.86"/>
<vertex x="51.435" y="22.86"/>
</polygon>
<polygon width="0.1524" layer="94">
<vertex x="235.585" y="21.59"/>
<vertex x="236.855" y="22.86"/>
<vertex x="234.315" y="22.86"/>
</polygon>
<text x="227.33" y="84.455" size="1.778" layer="95" align="center">cache_control_load_dirty2</text>
<polygon width="0.1524" layer="94">
<vertex x="226.695" y="68.58"/>
<vertex x="227.965" y="69.85"/>
<vertex x="225.425" y="69.85"/>
</polygon>
<polygon width="0.1524" layer="94">
<vertex x="40.64" y="59.69"/>
<vertex x="39.37" y="60.96"/>
<vertex x="39.37" y="58.42"/>
</polygon>
<text x="36.83" y="75.565" size="1.778" layer="95" align="center">dirty_in</text>
<polygon width="0.1524" layer="94">
<vertex x="222.25" y="59.69"/>
<vertex x="220.98" y="60.96"/>
<vertex x="220.98" y="58.42"/>
</polygon>
<text x="218.44" y="75.565" size="1.778" layer="95" align="center">dirty_in</text>
<text x="8.255" y="84.455" size="1.778" layer="95" align="center">cache_control_load_valid_bit1</text>
<polygon width="0.1524" layer="94">
<vertex x="11.43" y="68.58"/>
<vertex x="12.7" y="69.85"/>
<vertex x="10.16" y="69.85"/>
</polygon>
<text x="189.865" y="84.455" size="1.778" layer="95" align="center">cache_control_load_valid_bit2</text>
<polygon width="0.1524" layer="94">
<vertex x="193.04" y="68.58"/>
<vertex x="194.31" y="69.85"/>
<vertex x="191.77" y="69.85"/>
</polygon>
<text x="65.405" y="-89.535" size="1.778" layer="95" align="center">{wbcpu.ADR[15:4],0000}</text>
<wire x1="84.455" y1="-96.52" x2="69.215" y2="-96.52" width="0.1524" layer="94"/>
<wire x1="69.215" y1="-96.52" x2="71.755" y2="-101.6" width="0.1524" layer="94"/>
<wire x1="71.755" y1="-101.6" x2="81.915" y2="-101.6" width="0.1524" layer="94"/>
<wire x1="81.915" y1="-101.6" x2="84.455" y2="-96.52" width="0.1524" layer="94"/>
<polygon width="0.1524" layer="94">
<vertex x="74.295" y="-96.52"/>
<vertex x="75.565" y="-95.25"/>
<vertex x="73.025" y="-95.25"/>
</polygon>
<polygon width="0.1524" layer="94">
<vertex x="79.375" y="-96.52"/>
<vertex x="80.645" y="-95.25"/>
<vertex x="78.105" y="-95.25"/>
</polygon>
<polygon width="0.1524" layer="94">
<vertex x="76.835" y="-107.95"/>
<vertex x="78.105" y="-106.68"/>
<vertex x="75.565" y="-106.68"/>
</polygon>
<text x="61.595" y="-72.39" size="1.778" layer="95" align="center">{TAG_OUT1,ADDR[6:4],0000}</text>
<text x="97.155" y="-72.39" size="1.778" layer="95" align="center">{TAG_OUT2,ADDR[6:4],0000}</text>
<wire x1="86.995" y1="-80.01" x2="71.755" y2="-80.01" width="0.1524" layer="94"/>
<wire x1="71.755" y1="-80.01" x2="74.295" y2="-85.09" width="0.1524" layer="94"/>
<wire x1="74.295" y1="-85.09" x2="84.455" y2="-85.09" width="0.1524" layer="94"/>
<wire x1="84.455" y1="-85.09" x2="86.995" y2="-80.01" width="0.1524" layer="94"/>
<polygon width="0.1524" layer="94">
<vertex x="76.835" y="-80.01"/>
<vertex x="78.105" y="-78.74"/>
<vertex x="75.565" y="-78.74"/>
</polygon>
<polygon width="0.1524" layer="94">
<vertex x="81.915" y="-80.01"/>
<vertex x="83.185" y="-78.74"/>
<vertex x="80.645" y="-78.74"/>
</polygon>
<text x="105.41" y="-99.06" size="1.778" layer="95" align="center">controller_address_selector</text>
<text x="103.505" y="-82.55" size="1.778" layer="95" align="center">LRU_to_controller</text>
<text x="76.835" y="-109.855" size="1.778" layer="95" align="center">pmem_address</text>
<polygon width="0.1524" layer="94">
<vertex x="341.63" y="-17.78"/>
<vertex x="342.9" y="-19.05"/>
<vertex x="342.9" y="-16.51"/>
</polygon>
<polygon width="0.1524" layer="94">
<vertex x="341.63" y="-24.765"/>
<vertex x="342.9" y="-26.035"/>
<vertex x="342.9" y="-23.495"/>
</polygon>
<text x="365.76" y="-17.78" size="1.778" layer="95" align="center">Load_LRU</text>
<text x="365.76" y="-24.765" size="1.778" layer="95" align="center">LRU_in_bit</text>
<text x="93.345" y="20.955" size="1.778" layer="95" align="center">TAG_OUT1</text>
<text x="275.59" y="20.32" size="1.778" layer="95" align="center">TAG_OUT2</text>
<polygon width="0.1524" layer="94">
<vertex x="140.335" y="-88.9"/>
<vertex x="141.605" y="-87.63"/>
<vertex x="139.065" y="-87.63"/>
</polygon>
<wire x1="107.95" y1="84.455" x2="132.715" y2="84.455" width="0.1524" layer="94"/>
<wire x1="132.715" y1="84.455" x2="132.715" y2="95.25" width="0.1524" layer="94"/>
<wire x1="132.715" y1="95.25" x2="107.95" y2="95.25" width="0.1524" layer="94"/>
<wire x1="107.95" y1="95.25" x2="107.95" y2="84.455" width="0.1524" layer="94"/>
<text x="120.015" y="90.17" size="1.778" layer="95" align="center">muxmadness1</text>
<polygon width="0.1524" layer="94">
<vertex x="111.125" y="68.58"/>
<vertex x="112.395" y="69.85"/>
<vertex x="109.855" y="69.85"/>
</polygon>
<polygon width="0.1524" layer="94">
<vertex x="293.37" y="68.58"/>
<vertex x="294.64" y="69.85"/>
<vertex x="292.1" y="69.85"/>
</polygon>
<polygon width="0.1524" layer="94">
<vertex x="112.395" y="95.25"/>
<vertex x="113.665" y="96.52"/>
<vertex x="111.125" y="96.52"/>
</polygon>
<polygon width="0.1524" layer="94">
<vertex x="121.285" y="95.25"/>
<vertex x="122.555" y="96.52"/>
<vertex x="120.015" y="96.52"/>
</polygon>
<polygon width="0.1524" layer="94">
<vertex x="128.905" y="95.25"/>
<vertex x="130.175" y="96.52"/>
<vertex x="127.635" y="96.52"/>
</polygon>
<text x="125.095" y="104.14" size="1.778" layer="95">wbcpu.SEL &amp; control_sel_bits</text>
<wire x1="128.905" y1="116.205" x2="114.3" y2="116.205" width="0.1524" layer="94"/>
<wire x1="114.3" y1="116.205" x2="116.84" y2="111.125" width="0.1524" layer="94"/>
<wire x1="116.84" y1="111.125" x2="126.365" y2="111.125" width="0.1524" layer="94"/>
<wire x1="126.365" y1="111.125" x2="128.905" y2="116.205" width="0.1524" layer="94"/>
<polygon width="0.1524" layer="94">
<vertex x="118.745" y="116.205"/>
<vertex x="120.015" y="117.475"/>
<vertex x="117.475" y="117.475"/>
</polygon>
<polygon width="0.1524" layer="94">
<vertex x="124.46" y="116.205"/>
<vertex x="125.73" y="117.475"/>
<vertex x="123.19" y="117.475"/>
</polygon>
<polygon width="0.1524" layer="94">
<vertex x="127.635" y="113.665"/>
<vertex x="128.905" y="112.395"/>
<vertex x="128.905" y="114.935"/>
</polygon>
<text x="133.35" y="113.03" size="1.778" layer="95">memdmux_sel</text>
<text x="120.015" y="126.365" size="1.778" layer="95">wbmem.DAT_S</text>
<text x="14.605" y="19.685" size="1.778" layer="95" align="center">Vout1</text>
<text x="196.215" y="20.32" size="1.778" layer="95" align="center">Vout2</text>
<text x="120.65" y="106.68" size="1.778" layer="95" rot="R180">wbcpu.DAT_M</text>
<text x="128.905" y="20.955" size="1.778" layer="95" align="center">Data_OUT1</text>
<text x="308.61" y="20.955" size="1.778" layer="95" align="center">Data_OUT2</text>
<wire x1="290.195" y1="84.455" x2="314.96" y2="84.455" width="0.1524" layer="94"/>
<wire x1="314.96" y1="84.455" x2="314.96" y2="95.25" width="0.1524" layer="94"/>
<wire x1="314.96" y1="95.25" x2="290.195" y2="95.25" width="0.1524" layer="94"/>
<wire x1="290.195" y1="95.25" x2="290.195" y2="84.455" width="0.1524" layer="94"/>
<text x="302.26" y="90.17" size="1.778" layer="95" align="center">muxmadness2</text>
<polygon width="0.1524" layer="94">
<vertex x="294.64" y="95.25"/>
<vertex x="295.91" y="96.52"/>
<vertex x="293.37" y="96.52"/>
</polygon>
<polygon width="0.1524" layer="94">
<vertex x="303.53" y="95.25"/>
<vertex x="304.8" y="96.52"/>
<vertex x="302.26" y="96.52"/>
</polygon>
<polygon width="0.1524" layer="94">
<vertex x="311.15" y="95.25"/>
<vertex x="312.42" y="96.52"/>
<vertex x="309.88" y="96.52"/>
</polygon>
<text x="307.34" y="104.14" size="1.778" layer="95">wbcpu.SEL</text>
<wire x1="311.15" y1="116.205" x2="296.545" y2="116.205" width="0.1524" layer="94"/>
<wire x1="296.545" y1="116.205" x2="299.085" y2="111.125" width="0.1524" layer="94"/>
<wire x1="299.085" y1="111.125" x2="308.61" y2="111.125" width="0.1524" layer="94"/>
<wire x1="308.61" y1="111.125" x2="311.15" y2="116.205" width="0.1524" layer="94"/>
<polygon width="0.1524" layer="94">
<vertex x="300.99" y="116.205"/>
<vertex x="302.26" y="117.475"/>
<vertex x="299.72" y="117.475"/>
</polygon>
<polygon width="0.1524" layer="94">
<vertex x="306.705" y="116.205"/>
<vertex x="307.975" y="117.475"/>
<vertex x="305.435" y="117.475"/>
</polygon>
<polygon width="0.1524" layer="94">
<vertex x="309.88" y="113.665"/>
<vertex x="311.15" y="112.395"/>
<vertex x="311.15" y="114.935"/>
</polygon>
<text x="315.595" y="113.03" size="1.778" layer="95">memdmux_sel</text>
<text x="302.26" y="126.365" size="1.778" layer="95">wbmem.DAT_S</text>
<text x="302.895" y="106.68" size="1.778" layer="95" rot="R180">wbcpu.DAT_M</text>
<text x="307.34" y="104.14" size="1.778" layer="95">wbcpu.SEL &amp; control_sel_bits</text>
<polygon width="0.1524" layer="94">
<vertex x="89.535" y="-82.55"/>
<vertex x="90.805" y="-83.82"/>
<vertex x="90.805" y="-81.28"/>
</polygon>
<circle x="88.9" y="-82.55" radius="0.635" width="0.1524" layer="94"/>
<polygon width="0.1524" layer="94">
<vertex x="236.22" y="-106.045"/>
<vertex x="237.49" y="-104.775"/>
<vertex x="234.95" y="-104.775"/>
</polygon>
</plain>
<instances>
</instances>
<busses>
</busses>
<nets>
<net name="N$5" class="0">
<segment>
<wire x1="193.04" y1="179.705" x2="187.96" y2="179.705" width="0.1524" layer="91"/>
</segment>
</net>
<net name="N$6" class="0">
<segment>
<wire x1="193.04" y1="174.625" x2="187.96" y2="174.625" width="0.1524" layer="91"/>
</segment>
</net>
<net name="N$7" class="0">
<segment>
<wire x1="198.12" y1="177.165" x2="203.2" y2="177.165" width="0.1524" layer="91"/>
</segment>
</net>
<net name="N$35" class="0">
<segment>
<wire x1="234.95" y1="174.625" x2="234.95" y2="178.435" width="0.1524" layer="91"/>
</segment>
</net>
<net name="N$8" class="0">
<segment>
<wire x1="20.32" y1="68.58" x2="20.32" y2="73.66" width="0.1524" layer="91"/>
</segment>
</net>
<net name="N$9" class="0">
<segment>
<wire x1="53.34" y1="68.58" x2="53.34" y2="73.66" width="0.1524" layer="91"/>
</segment>
</net>
<net name="N$10" class="0">
<segment>
<wire x1="86.36" y1="68.58" x2="86.36" y2="73.66" width="0.1524" layer="91"/>
</segment>
</net>
<net name="N$11" class="0">
<segment>
<wire x1="86.36" y1="11.43" x2="86.36" y2="27.94" width="0.1524" layer="91"/>
</segment>
</net>
<net name="N$12" class="0">
<segment>
<wire x1="81.28" y1="6.35" x2="79.375" y2="6.35" width="0.1524" layer="91"/>
<wire x1="79.375" y1="6.35" x2="74.93" y2="6.35" width="0.1524" layer="91"/>
<wire x1="73.66" y1="39.37" x2="69.85" y2="39.37" width="0.1524" layer="91"/>
<wire x1="69.85" y1="39.37" x2="69.85" y2="24.13" width="0.1524" layer="91"/>
<wire x1="69.85" y1="24.13" x2="79.375" y2="24.13" width="0.1524" layer="91"/>
<wire x1="79.375" y1="24.13" x2="79.375" y2="6.35" width="0.1524" layer="91"/>
<junction x="79.375" y="6.35"/>
</segment>
</net>
<net name="N$13" class="0">
<segment>
<wire x1="55.88" y1="-30.48" x2="55.88" y2="-27.94" width="0.1524" layer="91"/>
<wire x1="55.88" y1="-27.94" x2="86.36" y2="-27.94" width="0.1524" layer="91"/>
<wire x1="86.36" y1="-27.94" x2="86.36" y2="1.27" width="0.1524" layer="91"/>
</segment>
</net>
<net name="N$14" class="0">
<segment>
<wire x1="20.32" y1="27.94" x2="20.32" y2="-27.94" width="0.1524" layer="91"/>
<wire x1="20.32" y1="-27.94" x2="53.34" y2="-27.94" width="0.1524" layer="91"/>
<wire x1="53.34" y1="-27.94" x2="53.34" y2="-30.48" width="0.1524" layer="91"/>
</segment>
</net>
<net name="N$15" class="0">
<segment>
<wire x1="120.65" y1="68.58" x2="120.65" y2="73.66" width="0.1524" layer="91"/>
</segment>
</net>
<net name="N$16" class="0">
<segment>
<wire x1="201.93" y1="68.58" x2="201.93" y2="73.66" width="0.1524" layer="91"/>
</segment>
</net>
<net name="N$17" class="0">
<segment>
<wire x1="234.95" y1="68.58" x2="234.95" y2="73.66" width="0.1524" layer="91"/>
</segment>
</net>
<net name="N$18" class="0">
<segment>
<wire x1="267.97" y1="68.58" x2="267.97" y2="73.66" width="0.1524" layer="91"/>
</segment>
</net>
<net name="N$19" class="0">
<segment>
<wire x1="267.97" y1="11.43" x2="267.97" y2="27.94" width="0.1524" layer="91"/>
</segment>
</net>
<net name="N$20" class="0">
<segment>
<wire x1="262.89" y1="6.35" x2="259.715" y2="6.35" width="0.1524" layer="91"/>
<wire x1="259.715" y1="6.35" x2="256.54" y2="6.35" width="0.1524" layer="91"/>
<wire x1="255.27" y1="37.465" x2="255.27" y2="36.83" width="0.1524" layer="91"/>
<wire x1="255.27" y1="36.83" x2="252.73" y2="36.83" width="0.1524" layer="91"/>
<wire x1="252.73" y1="36.83" x2="252.73" y2="17.78" width="0.1524" layer="91"/>
<wire x1="252.73" y1="17.78" x2="259.715" y2="17.78" width="0.1524" layer="91"/>
<wire x1="259.715" y1="17.78" x2="259.715" y2="6.35" width="0.1524" layer="91"/>
<junction x="259.715" y="6.35"/>
</segment>
</net>
<net name="N$21" class="0">
<segment>
<wire x1="237.49" y1="-30.48" x2="237.49" y2="-27.94" width="0.1524" layer="91"/>
<wire x1="237.49" y1="-27.94" x2="267.97" y2="-27.94" width="0.1524" layer="91"/>
<wire x1="267.97" y1="-27.94" x2="267.97" y2="1.27" width="0.1524" layer="91"/>
</segment>
</net>
<net name="N$22" class="0">
<segment>
<wire x1="201.93" y1="27.94" x2="201.93" y2="-27.94" width="0.1524" layer="91"/>
<wire x1="201.93" y1="-27.94" x2="234.95" y2="-27.94" width="0.1524" layer="91"/>
<wire x1="234.95" y1="-27.94" x2="234.95" y2="-30.48" width="0.1524" layer="91"/>
</segment>
</net>
<net name="N$23" class="0">
<segment>
<wire x1="300.99" y1="68.58" x2="300.99" y2="73.66" width="0.1524" layer="91"/>
</segment>
</net>
<net name="N$41" class="0">
<segment>
<wire x1="140.335" y1="-63.5" x2="140.335" y2="-60.96" width="0.1524" layer="91"/>
<wire x1="140.335" y1="-60.96" x2="54.61" y2="-60.96" width="0.1524" layer="91"/>
<wire x1="54.61" y1="-60.96" x2="54.61" y2="-36.83" width="0.1524" layer="91"/>
</segment>
</net>
<net name="N$44" class="0">
<segment>
<wire x1="242.57" y1="-98.425" x2="247.65" y2="-98.425" width="0.1524" layer="91"/>
<wire x1="142.875" y1="-63.5" x2="142.875" y2="-60.96" width="0.1524" layer="91"/>
<wire x1="142.875" y1="-60.96" x2="236.22" y2="-60.96" width="0.1524" layer="91"/>
<wire x1="236.22" y1="-60.96" x2="236.22" y2="-36.83" width="0.1524" layer="91"/>
<wire x1="247.65" y1="-98.425" x2="247.65" y2="-60.96" width="0.1524" layer="91"/>
<wire x1="247.65" y1="-60.96" x2="236.22" y2="-60.96" width="0.1524" layer="91"/>
<junction x="236.22" y="-60.96"/>
</segment>
</net>
<net name="N$48" class="0">
<segment>
<wire x1="233.68" y1="-95.885" x2="233.68" y2="-50.165" width="0.1524" layer="91"/>
<wire x1="233.68" y1="-50.165" x2="120.65" y2="-50.165" width="0.1524" layer="91"/>
<wire x1="120.65" y1="-50.165" x2="120.65" y2="17.145" width="0.1524" layer="91"/>
<wire x1="120.65" y1="17.145" x2="120.65" y2="27.94" width="0.1524" layer="91"/>
<wire x1="120.65" y1="17.145" x2="104.14" y2="17.145" width="0.1524" layer="91"/>
<wire x1="104.14" y1="17.145" x2="104.14" y2="123.825" width="0.1524" layer="91"/>
<junction x="120.65" y="17.145"/>
<wire x1="104.14" y1="123.825" x2="118.745" y2="123.825" width="0.1524" layer="91"/>
<wire x1="118.745" y1="123.825" x2="118.745" y2="116.205" width="0.1524" layer="91"/>
</segment>
</net>
<net name="N$3" class="0">
<segment>
<wire x1="141.605" y1="-68.58" x2="141.605" y2="-74.93" width="0.1524" layer="91"/>
</segment>
</net>
<net name="N$30" class="0">
<segment>
<wire x1="175.26" y1="179.07" x2="175.26" y2="184.15" width="0.1524" layer="91"/>
</segment>
</net>
<net name="N$45" class="0">
<segment>
<wire x1="170.18" y1="179.07" x2="170.18" y2="184.15" width="0.1524" layer="91"/>
</segment>
</net>
<net name="N$46" class="0">
<segment>
<wire x1="172.72" y1="173.99" x2="172.72" y2="168.91" width="0.1524" layer="91"/>
</segment>
</net>
<net name="N$42" class="0">
<segment>
<wire x1="328.93" y1="-11.43" x2="328.93" y2="-6.35" width="0.1524" layer="91"/>
</segment>
</net>
<net name="N$47" class="0">
<segment>
<wire x1="266.7" y1="179.705" x2="266.7" y2="182.245" width="0.1524" layer="91"/>
</segment>
</net>
<net name="N$49" class="0">
<segment>
<wire x1="269.24" y1="179.705" x2="269.24" y2="182.245" width="0.1524" layer="91"/>
</segment>
</net>
<net name="N$50" class="0">
<segment>
<wire x1="257.175" y1="180.975" x2="257.175" y2="183.515" width="0.1524" layer="91"/>
</segment>
</net>
<net name="N$52" class="0">
<segment>
<wire x1="259.715" y1="180.975" x2="259.715" y2="183.515" width="0.1524" layer="91"/>
</segment>
</net>
<net name="N$53" class="0">
<segment>
<wire x1="249.555" y1="180.975" x2="249.555" y2="184.785" width="0.1524" layer="91"/>
</segment>
</net>
<net name="N$54" class="0">
<segment>
<wire x1="249.555" y1="177.8" x2="249.555" y2="174.625" width="0.1524" layer="91"/>
</segment>
</net>
<net name="N$55" class="0">
<segment>
<wire x1="321.945" y1="-55.245" x2="328.93" y2="-55.245" width="0.1524" layer="91"/>
<wire x1="328.93" y1="-55.245" x2="328.93" y2="-52.07" width="0.1524" layer="91"/>
<junction x="328.93" y="-55.245"/>
<wire x1="328.93" y1="-55.245" x2="335.915" y2="-55.245" width="0.1524" layer="91"/>
<wire x1="335.915" y1="-55.245" x2="367.665" y2="-55.245" width="0.1524" layer="91"/>
<wire x1="367.665" y1="-55.245" x2="367.665" y2="-46.355" width="0.1524" layer="91"/>
<wire x1="321.945" y1="-65.405" x2="321.945" y2="-55.245" width="0.1524" layer="91"/>
<wire x1="335.915" y1="-60.325" x2="335.915" y2="-55.245" width="0.1524" layer="91"/>
<junction x="335.915" y="-55.245"/>
</segment>
</net>
<net name="N$57" class="0">
<segment>
<wire x1="328.93" y1="-80.01" x2="328.93" y2="-77.47" width="0.1524" layer="91"/>
<wire x1="323.215" y1="-71.755" x2="323.215" y2="-77.47" width="0.1524" layer="91"/>
<wire x1="323.215" y1="-77.47" x2="328.93" y2="-77.47" width="0.1524" layer="91"/>
</segment>
</net>
<net name="N$58" class="0">
<segment>
<wire x1="331.47" y1="-80.01" x2="331.47" y2="-77.47" width="0.1524" layer="91"/>
<wire x1="331.47" y1="-77.47" x2="337.185" y2="-77.47" width="0.1524" layer="91"/>
<wire x1="337.185" y1="-77.47" x2="337.185" y2="-71.755" width="0.1524" layer="91"/>
</segment>
</net>
<net name="N$59" class="0">
<segment>
<wire x1="52.705" y1="27.94" x2="52.705" y2="21.59" width="0.1524" layer="91"/>
</segment>
</net>
<net name="N$60" class="0">
<segment>
<wire x1="235.585" y1="27.94" x2="235.585" y2="21.59" width="0.1524" layer="91"/>
</segment>
</net>
<net name="N$61" class="0">
<segment>
<wire x1="338.455" y1="-65.405" x2="338.455" y2="-59.055" width="0.1524" layer="91"/>
</segment>
</net>
<net name="N$62" class="0">
<segment>
<wire x1="324.485" y1="-65.405" x2="324.485" y2="-59.055" width="0.1524" layer="91"/>
</segment>
</net>
<net name="N$63" class="0">
<segment>
<wire x1="330.2" y1="-85.09" x2="330.2" y2="-88.265" width="0.1524" layer="91"/>
</segment>
</net>
<net name="N$70" class="0">
<segment>
<wire x1="133.35" y1="63.5" x2="151.765" y2="63.5" width="0.1524" layer="91"/>
<wire x1="151.765" y1="63.5" x2="151.765" y2="79.375" width="0.1524" layer="91"/>
</segment>
</net>
<net name="N$73" class="0">
<segment>
<wire x1="313.69" y1="63.5" x2="332.105" y2="63.5" width="0.1524" layer="91"/>
<wire x1="332.105" y1="63.5" x2="332.105" y2="79.375" width="0.1524" layer="91"/>
</segment>
</net>
<net name="N$74" class="0">
<segment>
<wire x1="139.065" y1="-77.47" x2="139.065" y2="-74.93" width="0.1524" layer="91"/>
</segment>
</net>
<net name="N$75" class="0">
<segment>
<wire x1="141.605" y1="-77.47" x2="141.605" y2="-74.93" width="0.1524" layer="91"/>
</segment>
</net>
<net name="N$43" class="0">
<segment>
<wire x1="236.22" y1="-100.965" x2="236.22" y2="-106.045" width="0.1524" layer="91"/>
</segment>
</net>
<net name="N$79" class="0">
<segment>
<wire x1="76.835" y1="68.58" x2="76.835" y2="83.82" width="0.1524" layer="91"/>
</segment>
</net>
<net name="N$80" class="0">
<segment>
<wire x1="258.445" y1="68.58" x2="258.445" y2="83.82" width="0.1524" layer="91"/>
</segment>
</net>
<net name="N$81" class="0">
<segment>
<wire x1="43.18" y1="68.58" x2="43.18" y2="82.55" width="0.1524" layer="91"/>
</segment>
</net>
<net name="N$56" class="0">
<segment>
<wire x1="335.915" y1="-65.405" x2="335.915" y2="-63.5" width="0.1524" layer="91"/>
</segment>
</net>
<net name="N$82" class="0">
<segment>
<wire x1="226.695" y1="68.58" x2="226.695" y2="82.55" width="0.1524" layer="91"/>
</segment>
</net>
<net name="N$83" class="0">
<segment>
<wire x1="39.37" y1="59.69" x2="37.465" y2="59.69" width="0.1524" layer="91"/>
<wire x1="37.465" y1="59.69" x2="37.465" y2="73.66" width="0.1524" layer="91"/>
</segment>
</net>
<net name="N$84" class="0">
<segment>
<wire x1="220.98" y1="59.69" x2="219.075" y2="59.69" width="0.1524" layer="91"/>
<wire x1="219.075" y1="59.69" x2="219.075" y2="73.66" width="0.1524" layer="91"/>
</segment>
</net>
<net name="N$85" class="0">
<segment>
<wire x1="11.43" y1="68.58" x2="11.43" y2="82.55" width="0.1524" layer="91"/>
</segment>
</net>
<net name="N$86" class="0">
<segment>
<wire x1="193.04" y1="68.58" x2="193.04" y2="82.55" width="0.1524" layer="91"/>
</segment>
</net>
<net name="N$88" class="0">
<segment>
<wire x1="74.295" y1="-96.52" x2="74.295" y2="-91.44" width="0.1524" layer="91"/>
</segment>
</net>
<net name="N$89" class="0">
<segment>
<wire x1="76.835" y1="-101.6" x2="76.835" y2="-106.68" width="0.1524" layer="91"/>
</segment>
</net>
<net name="N$90" class="0">
<segment>
<wire x1="81.915" y1="-80.01" x2="81.915" y2="-74.93" width="0.1524" layer="91"/>
</segment>
</net>
<net name="N$91" class="0">
<segment>
<wire x1="76.835" y1="-80.01" x2="76.835" y2="-74.93" width="0.1524" layer="91"/>
</segment>
</net>
<net name="N$92" class="0">
<segment>
<wire x1="79.375" y1="-85.09" x2="79.375" y2="-96.52" width="0.1524" layer="91"/>
</segment>
</net>
<net name="N$94" class="0">
<segment>
<wire x1="83.185" y1="-99.06" x2="90.17" y2="-99.06" width="0.1524" layer="91"/>
</segment>
</net>
<net name="N$87" class="0">
<segment>
<wire x1="341.63" y1="-17.78" x2="358.14" y2="-17.78" width="0.1524" layer="91"/>
</segment>
</net>
<net name="N$95" class="0">
<segment>
<wire x1="341.63" y1="-24.765" x2="358.14" y2="-24.765" width="0.1524" layer="91"/>
</segment>
</net>
<net name="N$1" class="0">
<segment>
<wire x1="111.125" y1="84.455" x2="111.125" y2="68.58" width="0.1524" layer="91"/>
</segment>
</net>
<net name="N$4" class="0">
<segment>
<wire x1="121.285" y1="95.25" x2="121.285" y2="106.68" width="0.1524" layer="91"/>
</segment>
</net>
<net name="N$25" class="0">
<segment>
<wire x1="127.635" y1="113.665" x2="132.715" y2="113.665" width="0.1524" layer="91"/>
</segment>
</net>
<net name="N$28" class="0">
<segment>
<wire x1="121.285" y1="111.125" x2="121.285" y2="106.045" width="0.1524" layer="91"/>
</segment>
</net>
<net name="N$24" class="0">
<segment>
<wire x1="128.905" y1="95.25" x2="128.905" y2="103.505" width="0.1524" layer="91"/>
</segment>
</net>
<net name="N$26" class="0">
<segment>
<wire x1="124.46" y1="116.84" x2="124.46" y2="125.73" width="0.1524" layer="91"/>
</segment>
</net>
<net name="N$27" class="0">
<segment>
<wire x1="112.395" y1="95.25" x2="112.395" y2="103.505" width="0.1524" layer="91"/>
</segment>
</net>
<net name="N$2" class="0">
<segment>
<wire x1="286.385" y1="17.145" x2="286.385" y2="123.825" width="0.1524" layer="91"/>
<wire x1="286.385" y1="123.825" x2="300.99" y2="123.825" width="0.1524" layer="91"/>
<wire x1="300.99" y1="123.825" x2="300.99" y2="116.205" width="0.1524" layer="91"/>
<wire x1="239.395" y1="-95.885" x2="239.395" y2="-50.165" width="0.1524" layer="91"/>
<wire x1="239.395" y1="-50.165" x2="300.99" y2="-50.165" width="0.1524" layer="91"/>
<wire x1="300.99" y1="-50.165" x2="300.99" y2="17.145" width="0.1524" layer="91"/>
<wire x1="300.99" y1="17.145" x2="300.99" y2="27.94" width="0.1524" layer="91"/>
<wire x1="286.385" y1="17.145" x2="300.99" y2="17.145" width="0.1524" layer="91"/>
<junction x="300.99" y="17.145"/>
</segment>
</net>
<net name="N$29" class="0">
<segment>
<wire x1="293.37" y1="84.455" x2="293.37" y2="68.58" width="0.1524" layer="91"/>
</segment>
</net>
<net name="N$31" class="0">
<segment>
<wire x1="303.53" y1="95.25" x2="303.53" y2="106.68" width="0.1524" layer="91"/>
</segment>
</net>
<net name="N$32" class="0">
<segment>
<wire x1="309.88" y1="113.665" x2="314.96" y2="113.665" width="0.1524" layer="91"/>
</segment>
</net>
<net name="N$33" class="0">
<segment>
<wire x1="303.53" y1="111.125" x2="303.53" y2="106.045" width="0.1524" layer="91"/>
</segment>
</net>
<net name="N$34" class="0">
<segment>
<wire x1="311.15" y1="95.25" x2="311.15" y2="103.505" width="0.1524" layer="91"/>
</segment>
</net>
<net name="N$36" class="0">
<segment>
<wire x1="306.705" y1="116.84" x2="306.705" y2="125.73" width="0.1524" layer="91"/>
</segment>
</net>
<net name="N$37" class="0">
<segment>
<wire x1="294.64" y1="95.25" x2="294.64" y2="103.505" width="0.1524" layer="91"/>
</segment>
</net>
<net name="N$38" class="0">
<segment>
<wire x1="88.265" y1="-82.55" x2="85.725" y2="-82.55" width="0.1524" layer="91"/>
</segment>
</net>
<net name="N$39" class="0">
<segment>
<wire x1="90.805" y1="-82.55" x2="93.345" y2="-82.55" width="0.1524" layer="91"/>
</segment>
</net>
<net name="N$40" class="0">
<segment>
<wire x1="140.335" y1="-87.63" x2="140.335" y2="-83.82" width="0.1524" layer="91"/>
</segment>
</net>
</nets>
</sheet>
<sheet>
<plain>
<text x="33.02" y="71.12" size="1.524" layer="95" align="center">Hit_write/Hit_read/Idle
(On hit handle read writes with CPU)</text>
<circle x="33.02" y="71.12" radius="17.78" width="0.1524" layer="94"/>
<text x="33.02" y="15.24" size="1.524" layer="95" align="center">Evict
(Write current data back to mem)</text>
<circle x="33.02" y="15.24" radius="17.78" width="0.1524" layer="94"/>
<text x="91.44" y="43.18" size="1.778" layer="95" align="center">Load_from_mem
(Load data from mem)</text>
<circle x="91.44" y="43.18" radius="17.78" width="0.1524" layer="94"/>
<wire x1="33.02" y1="53.34" x2="33.02" y2="33.02" width="0.1524" layer="94"/>
<wire x1="38.1" y1="38.1" x2="33.02" y2="33.02" width="0.1524" layer="94"/>
<wire x1="33.02" y1="33.02" x2="27.94" y2="38.1" width="0.1524" layer="94"/>
<wire x1="46.99" y1="59.69" x2="74.93" y2="49.53" width="0.1524" layer="94"/>
<wire x1="73.66" y1="53.34" x2="74.93" y2="49.53" width="0.1524" layer="94"/>
<text x="34.29" y="43.18" size="1.778" layer="95" align="center">miss &amp; line_dirty</text>
<text x="60.96" y="31.75" size="1.778" layer="95" align="center">pmem_resp=1</text>
<text x="58.42" y="52.07" size="1.778" layer="95" rot="R180" align="center">Not_line_Dirty &amp; miss</text>
<text x="66.04" y="63.5" size="1.778" layer="95" align="center">pmem_resp=1</text>
<text x="60.96" y="93.98" size="3.81" layer="95" align="center">Assume stays in current state if no transition is indicated</text>
<wire x1="76.2" y1="34.29" x2="74.93" y2="29.21" width="0.1524" layer="94"/>
<wire x1="76.2" y1="34.29" x2="71.12" y2="35.56" width="0.1524" layer="94"/>
<wire x1="76.2" y1="34.29" x2="49.53" y2="21.59" width="0.1524" layer="94"/>
<wire x1="78.74" y1="55.88" x2="49.53" y2="64.77" width="0.1524" layer="94"/>
<wire x1="49.53" y1="64.77" x2="50.8" y2="60.96" width="0.1524" layer="94"/>
<wire x1="49.53" y1="64.77" x2="53.34" y2="66.04" width="0.1524" layer="94"/>
<wire x1="74.93" y1="49.53" x2="71.12" y2="48.26" width="0.1524" layer="94"/>
</plain>
<instances>
</instances>
<busses>
</busses>
<nets>
</nets>
</sheet>
</sheets>
</schematic>
</drawing>
<compatibility>
<note version="6.3" minversion="6.2.2" severity="warning">
Since Version 6.2.2 text objects can contain more than one line,
which will not be processed correctly with this version.
</note>
</compatibility>
</eagle>
