G04 EAGLE Gerber X2 export*
%TF.Part,Single*%
%TF.FileFunction,Soldermask,Top,1*%
%TF.FilePolarity,Negative*%
%TF.GenerationSoftware,Autodesk,EAGLE,9.1.3*%
%TF.CreationDate,2018-10-15T03:53:06Z*%
G75*
%MOMM*%
%FSLAX34Y34*%
%LPD*%
%AMOC8*
5,1,8,0,0,1.08239X$1,22.5*%
G01*
%ADD10C,3.203200*%
%ADD11R,2.703200X4.503200*%
%ADD12R,2.903200X1.803200*%
%ADD13R,2.003200X1.803200*%
%ADD14R,4.503200X2.703200*%
%ADD15R,1.803200X2.003200*%
%ADD16C,1.727200*%
%ADD17R,0.903200X1.353200*%
%ADD18R,0.803200X1.103200*%
%ADD19R,4.403200X4.903200*%
%ADD20R,0.453200X1.803200*%
%ADD21R,3.403200X2.003200*%
%ADD22R,1.803200X2.006200*%
%ADD23R,2.403200X0.453200*%
%ADD24R,3.103200X4.703200*%
%ADD25R,2.753200X2.753200*%
%ADD26C,0.959600*%


D10*
X25400Y25400D03*
X25400Y889000D03*
X971550Y889000D03*
X971550Y25400D03*
D11*
X508000Y790800D03*
X508000Y707800D03*
D12*
X152400Y763300D03*
X152400Y735300D03*
D13*
X584200Y430500D03*
X584200Y458500D03*
D14*
X676500Y355600D03*
X593500Y355600D03*
D13*
X177800Y151100D03*
X177800Y179100D03*
X609600Y151100D03*
X609600Y179100D03*
X711200Y367000D03*
X711200Y395000D03*
X584200Y494000D03*
X584200Y522000D03*
D15*
X735300Y419100D03*
X763300Y419100D03*
D13*
X812800Y395000D03*
X812800Y367000D03*
X635000Y151100D03*
X635000Y179100D03*
D11*
X76200Y790800D03*
X76200Y707800D03*
D13*
X203200Y151100D03*
X203200Y179100D03*
D11*
X76200Y123600D03*
X76200Y206600D03*
X508000Y123600D03*
X508000Y206600D03*
D13*
X736600Y367000D03*
X736600Y395000D03*
D15*
X814100Y419100D03*
X786100Y419100D03*
D13*
X762000Y367000D03*
X762000Y395000D03*
X203200Y763300D03*
X203200Y735300D03*
X635000Y763300D03*
X635000Y735300D03*
D12*
X584200Y763300D03*
X584200Y735300D03*
X584200Y151100D03*
X584200Y179100D03*
D13*
X177800Y763300D03*
X177800Y735300D03*
X609600Y763300D03*
X609600Y735300D03*
D12*
X152400Y151100D03*
X152400Y179100D03*
D16*
X957580Y533400D02*
X972820Y533400D01*
X972820Y508000D02*
X957580Y508000D01*
X957580Y482600D02*
X972820Y482600D01*
X972820Y457200D02*
X957580Y457200D01*
X957580Y431800D02*
X972820Y431800D01*
X972820Y406400D02*
X957580Y406400D01*
X957580Y660400D02*
X972820Y660400D01*
X972820Y635000D02*
X957580Y635000D01*
X957580Y609600D02*
X972820Y609600D01*
X972820Y584200D02*
X957580Y584200D01*
X957580Y558800D02*
X972820Y558800D01*
D17*
X336550Y157200D03*
X323850Y157200D03*
X311150Y157200D03*
X298450Y157200D03*
D18*
X336550Y97000D03*
X323850Y97000D03*
X311150Y97000D03*
X298450Y97000D03*
D19*
X317500Y114500D03*
D20*
X339750Y99000D03*
X295250Y99000D03*
D17*
X234950Y757200D03*
X247650Y757200D03*
X260350Y757200D03*
X273050Y757200D03*
D18*
X234950Y817400D03*
X247650Y817400D03*
X260350Y817400D03*
X273050Y817400D03*
D19*
X254000Y799900D03*
D20*
X231750Y815400D03*
X276250Y815400D03*
D17*
X298450Y668300D03*
X311150Y668300D03*
X323850Y668300D03*
X336550Y668300D03*
D18*
X298450Y728500D03*
X311150Y728500D03*
X323850Y728500D03*
X336550Y728500D03*
D19*
X317500Y711000D03*
D20*
X295250Y726500D03*
X339750Y726500D03*
D17*
X298450Y757200D03*
X311150Y757200D03*
X323850Y757200D03*
X336550Y757200D03*
D18*
X298450Y817400D03*
X311150Y817400D03*
X323850Y817400D03*
X336550Y817400D03*
D19*
X317500Y799900D03*
D20*
X295250Y815400D03*
X339750Y815400D03*
D17*
X730250Y668300D03*
X742950Y668300D03*
X755650Y668300D03*
X768350Y668300D03*
D18*
X730250Y728500D03*
X742950Y728500D03*
X755650Y728500D03*
X768350Y728500D03*
D19*
X749300Y711000D03*
D20*
X727050Y726500D03*
X771550Y726500D03*
D17*
X666750Y757200D03*
X679450Y757200D03*
X692150Y757200D03*
X704850Y757200D03*
D18*
X666750Y817400D03*
X679450Y817400D03*
X692150Y817400D03*
X704850Y817400D03*
D19*
X685800Y799900D03*
D20*
X663550Y815400D03*
X708050Y815400D03*
D17*
X666750Y668300D03*
X679450Y668300D03*
X692150Y668300D03*
X704850Y668300D03*
D18*
X666750Y728500D03*
X679450Y728500D03*
X692150Y728500D03*
X704850Y728500D03*
D19*
X685800Y711000D03*
D20*
X663550Y726500D03*
X708050Y726500D03*
D17*
X730250Y757200D03*
X742950Y757200D03*
X755650Y757200D03*
X768350Y757200D03*
D18*
X730250Y817400D03*
X742950Y817400D03*
X755650Y817400D03*
X768350Y817400D03*
D19*
X749300Y799900D03*
D20*
X727050Y815400D03*
X771550Y815400D03*
D17*
X273050Y246100D03*
X260350Y246100D03*
X247650Y246100D03*
X234950Y246100D03*
D18*
X273050Y185900D03*
X260350Y185900D03*
X247650Y185900D03*
X234950Y185900D03*
D19*
X254000Y203400D03*
D20*
X276250Y187900D03*
X231750Y187900D03*
D17*
X273050Y157200D03*
X260350Y157200D03*
X247650Y157200D03*
X234950Y157200D03*
D18*
X273050Y97000D03*
X260350Y97000D03*
X247650Y97000D03*
X234950Y97000D03*
D19*
X254000Y114500D03*
D20*
X276250Y99000D03*
X231750Y99000D03*
D17*
X704850Y246100D03*
X692150Y246100D03*
X679450Y246100D03*
X666750Y246100D03*
D18*
X704850Y185900D03*
X692150Y185900D03*
X679450Y185900D03*
X666750Y185900D03*
D19*
X685800Y203400D03*
D20*
X708050Y187900D03*
X663550Y187900D03*
D17*
X704850Y157200D03*
X692150Y157200D03*
X679450Y157200D03*
X666750Y157200D03*
D18*
X704850Y97000D03*
X692150Y97000D03*
X679450Y97000D03*
X666750Y97000D03*
D19*
X685800Y114500D03*
D20*
X708050Y99000D03*
X663550Y99000D03*
D17*
X336550Y246100D03*
X323850Y246100D03*
X311150Y246100D03*
X298450Y246100D03*
D18*
X336550Y185900D03*
X323850Y185900D03*
X311150Y185900D03*
X298450Y185900D03*
D19*
X317500Y203400D03*
D20*
X339750Y187900D03*
X295250Y187900D03*
D17*
X768350Y246100D03*
X755650Y246100D03*
X742950Y246100D03*
X730250Y246100D03*
D18*
X768350Y185900D03*
X755650Y185900D03*
X742950Y185900D03*
X730250Y185900D03*
D19*
X749300Y203400D03*
D20*
X771550Y187900D03*
X727050Y187900D03*
D17*
X768350Y157200D03*
X755650Y157200D03*
X742950Y157200D03*
X730250Y157200D03*
D18*
X768350Y97000D03*
X755650Y97000D03*
X742950Y97000D03*
X730250Y97000D03*
D19*
X749300Y114500D03*
D20*
X771550Y99000D03*
X727050Y99000D03*
D17*
X234950Y668300D03*
X247650Y668300D03*
X260350Y668300D03*
X273050Y668300D03*
D18*
X234950Y728500D03*
X247650Y728500D03*
X260350Y728500D03*
X273050Y728500D03*
D19*
X254000Y711000D03*
D20*
X231750Y726500D03*
X276250Y726500D03*
D21*
X406400Y358200D03*
X406400Y302200D03*
X444500Y358200D03*
X444500Y302200D03*
X444500Y568900D03*
X444500Y624900D03*
X406400Y568900D03*
X406400Y624900D03*
D22*
X531880Y495300D03*
X560320Y495300D03*
X531880Y520700D03*
X560320Y520700D03*
X531880Y431800D03*
X560320Y431800D03*
X531880Y457200D03*
X560320Y457200D03*
D23*
X703100Y435800D03*
X703100Y440800D03*
X703100Y445800D03*
X703100Y450800D03*
X703100Y455800D03*
X703100Y460800D03*
X703100Y465800D03*
X703100Y470800D03*
X703100Y475800D03*
X703100Y480800D03*
X703100Y485800D03*
X703100Y490800D03*
X703100Y495800D03*
X703100Y500800D03*
X703100Y505800D03*
X703100Y510800D03*
X703100Y515800D03*
X703100Y520800D03*
X703100Y525800D03*
X643100Y525800D03*
X643100Y520800D03*
X643100Y515800D03*
X643100Y510800D03*
X643100Y505800D03*
X643100Y500800D03*
X643100Y495800D03*
X643100Y490800D03*
X643100Y485800D03*
X643100Y480800D03*
X643100Y475800D03*
X643100Y470800D03*
X643100Y465800D03*
X643100Y460800D03*
X643100Y455800D03*
X643100Y450800D03*
X643100Y445800D03*
X643100Y440800D03*
X643100Y435800D03*
D24*
X673100Y479800D03*
D25*
X546100Y838200D03*
X546100Y888200D03*
X476100Y838200D03*
X476100Y888200D03*
X393700Y431800D03*
X443700Y431800D03*
X393700Y501800D03*
X443700Y501800D03*
X800100Y698500D03*
X850100Y698500D03*
X800100Y768500D03*
X850100Y768500D03*
X368300Y698500D03*
X418300Y698500D03*
X368300Y768500D03*
X418300Y768500D03*
X368300Y139700D03*
X418300Y139700D03*
X368300Y209700D03*
X418300Y209700D03*
X800100Y139700D03*
X850100Y139700D03*
X800100Y209700D03*
X850100Y209700D03*
X546100Y25400D03*
X546100Y75400D03*
X476100Y25400D03*
X476100Y75400D03*
D26*
X317500Y215900D03*
X558800Y381000D03*
X241300Y215900D03*
X254000Y215900D03*
X266700Y215900D03*
X266700Y203200D03*
X254000Y203200D03*
X241300Y203200D03*
X241300Y190500D03*
X254000Y190500D03*
X266700Y190500D03*
X304800Y215900D03*
X317500Y215900D03*
X330200Y215900D03*
X330200Y203200D03*
X317500Y203200D03*
X304800Y203200D03*
X304800Y190500D03*
X317500Y190500D03*
X330200Y190500D03*
X673100Y444500D03*
X673100Y381000D03*
X241300Y127000D03*
X254000Y127000D03*
X266700Y127000D03*
X266700Y114300D03*
X254000Y114300D03*
X241300Y114300D03*
X241300Y101600D03*
X254000Y101600D03*
X266700Y101600D03*
X304800Y127000D03*
X317500Y127000D03*
X330200Y127000D03*
X330200Y114300D03*
X317500Y114300D03*
X304800Y114300D03*
X304800Y101600D03*
X317500Y101600D03*
X330200Y101600D03*
X673100Y127000D03*
X685800Y127000D03*
X698500Y127000D03*
X698500Y114300D03*
X685800Y114300D03*
X673100Y114300D03*
X673100Y101600D03*
X685800Y101600D03*
X698500Y101600D03*
X736600Y127000D03*
X749300Y127000D03*
X762000Y127000D03*
X762000Y114300D03*
X749300Y114300D03*
X736600Y114300D03*
X736600Y101600D03*
X749300Y101600D03*
X762000Y101600D03*
X304800Y812800D03*
X317500Y812800D03*
X330200Y812800D03*
X330200Y800100D03*
X317500Y800100D03*
X304800Y800100D03*
X304800Y787400D03*
X317500Y787400D03*
X330200Y787400D03*
X241300Y812800D03*
X254000Y812800D03*
X266700Y812800D03*
X266700Y800100D03*
X254000Y800100D03*
X241300Y800100D03*
X241300Y787400D03*
X254000Y787400D03*
X266700Y787400D03*
X673100Y812800D03*
X685800Y812800D03*
X698500Y812800D03*
X698500Y800100D03*
X685800Y800100D03*
X673100Y800100D03*
X673100Y787400D03*
X685800Y787400D03*
X698500Y787400D03*
X736600Y812800D03*
X749300Y812800D03*
X762000Y812800D03*
X762000Y800100D03*
X749300Y800100D03*
X736600Y800100D03*
X736600Y787400D03*
X749300Y787400D03*
X762000Y787400D03*
X566625Y392225D03*
X222250Y152400D03*
X603250Y438150D03*
X285750Y234950D03*
X654050Y158750D03*
X611102Y472376D03*
X742950Y171450D03*
X622300Y477376D03*
X673100Y215900D03*
X673100Y215900D03*
X685800Y215900D03*
X698500Y215900D03*
X698500Y203200D03*
X685800Y203200D03*
X673100Y203200D03*
X673100Y190500D03*
X685800Y190500D03*
X698500Y190500D03*
X736600Y215900D03*
X749300Y215900D03*
X762000Y215900D03*
X762000Y203200D03*
X749300Y203200D03*
X736600Y203200D03*
X736600Y190500D03*
X749300Y190500D03*
X762000Y190500D03*
X603250Y467376D03*
X654050Y247650D03*
X285750Y768350D03*
X609600Y488950D03*
X598506Y494732D03*
X285750Y679450D03*
X317500Y742950D03*
X600512Y485644D03*
X254000Y698500D03*
X241300Y723900D03*
X254000Y723900D03*
X266700Y723900D03*
X266700Y711200D03*
X254000Y711200D03*
X241300Y711200D03*
X241300Y698500D03*
X254000Y698500D03*
X266700Y698500D03*
X304800Y723900D03*
X317500Y723900D03*
X330200Y723900D03*
X330200Y711200D03*
X317500Y711200D03*
X304800Y711200D03*
X304800Y698500D03*
X317500Y698500D03*
X330200Y698500D03*
X603250Y558800D03*
X717550Y768350D03*
X596900Y539750D03*
X717550Y679450D03*
X749300Y742950D03*
X609826Y571500D03*
X673100Y711200D03*
X673100Y723900D03*
X685800Y723900D03*
X698500Y723900D03*
X698500Y711200D03*
X685800Y711200D03*
X673100Y711200D03*
X673100Y698500D03*
X685800Y698500D03*
X698500Y698500D03*
X736600Y723900D03*
X749300Y723900D03*
X762000Y723900D03*
X762000Y711200D03*
X749300Y711200D03*
X736600Y711200D03*
X736600Y698500D03*
X749300Y698500D03*
X762000Y698500D03*
X292100Y260350D03*
X704850Y260350D03*
X234950Y654050D03*
X666750Y654050D03*
M02*
