<?xml version="1.0" encoding="utf-8"?>
<!DOCTYPE eagle SYSTEM "eagle.dtd">
<eagle version="8.5.1">
<drawing>
<settings>
<setting alwaysvectorfont="no"/>
<setting verticaltext="up"/>
</settings>
<grid distance="0.025" unitdist="inch" unit="inch" style="lines" multiple="1" display="no" altdistance="0.01" altunitdist="inch" altunit="inch"/>
<layers>
<layer number="1" name="Top" color="4" fill="1" visible="no" active="no"/>
<layer number="2" name="Route2" color="1" fill="3" visible="no" active="no"/>
<layer number="3" name="Route3" color="4" fill="3" visible="no" active="no"/>
<layer number="4" name="Route4" color="1" fill="4" visible="no" active="no"/>
<layer number="5" name="Route5" color="4" fill="4" visible="no" active="no"/>
<layer number="6" name="Route6" color="1" fill="8" visible="no" active="no"/>
<layer number="7" name="Route7" color="4" fill="8" visible="no" active="no"/>
<layer number="8" name="Route8" color="1" fill="2" visible="no" active="no"/>
<layer number="9" name="Route9" color="4" fill="2" visible="no" active="no"/>
<layer number="10" name="Route10" color="1" fill="7" visible="no" active="no"/>
<layer number="11" name="Route11" color="4" fill="7" visible="no" active="no"/>
<layer number="12" name="Route12" color="1" fill="5" visible="no" active="no"/>
<layer number="13" name="Route13" color="4" fill="5" visible="no" active="no"/>
<layer number="14" name="Route14" color="1" fill="6" visible="no" active="no"/>
<layer number="15" name="Route15" color="4" fill="6" visible="no" active="no"/>
<layer number="16" name="Bottom" color="1" fill="1" visible="no" active="no"/>
<layer number="17" name="Pads" color="2" fill="1" visible="no" active="no"/>
<layer number="18" name="Vias" color="2" fill="1" visible="no" active="no"/>
<layer number="19" name="Unrouted" color="6" fill="1" visible="no" active="no"/>
<layer number="20" name="Dimension" color="15" fill="1" visible="no" active="no"/>
<layer number="21" name="tPlace" color="7" fill="1" visible="no" active="no"/>
<layer number="22" name="bPlace" color="7" fill="1" visible="no" active="no"/>
<layer number="23" name="tOrigins" color="15" fill="1" visible="no" active="no"/>
<layer number="24" name="bOrigins" color="15" fill="1" visible="no" active="no"/>
<layer number="25" name="tNames" color="7" fill="1" visible="no" active="no"/>
<layer number="26" name="bNames" color="7" fill="1" visible="no" active="no"/>
<layer number="27" name="tValues" color="7" fill="1" visible="no" active="no"/>
<layer number="28" name="bValues" color="7" fill="1" visible="no" active="no"/>
<layer number="29" name="tStop" color="7" fill="3" visible="no" active="no"/>
<layer number="30" name="bStop" color="7" fill="6" visible="no" active="no"/>
<layer number="31" name="tCream" color="7" fill="4" visible="no" active="no"/>
<layer number="32" name="bCream" color="7" fill="5" visible="no" active="no"/>
<layer number="33" name="tFinish" color="6" fill="3" visible="no" active="no"/>
<layer number="34" name="bFinish" color="6" fill="6" visible="no" active="no"/>
<layer number="35" name="tGlue" color="7" fill="4" visible="no" active="no"/>
<layer number="36" name="bGlue" color="7" fill="5" visible="no" active="no"/>
<layer number="37" name="tTest" color="7" fill="1" visible="no" active="no"/>
<layer number="38" name="bTest" color="7" fill="1" visible="no" active="no"/>
<layer number="39" name="tKeepout" color="4" fill="11" visible="no" active="no"/>
<layer number="40" name="bKeepout" color="1" fill="11" visible="no" active="no"/>
<layer number="41" name="tRestrict" color="4" fill="10" visible="no" active="no"/>
<layer number="42" name="bRestrict" color="1" fill="10" visible="no" active="no"/>
<layer number="43" name="vRestrict" color="2" fill="10" visible="no" active="no"/>
<layer number="44" name="Drills" color="7" fill="1" visible="no" active="no"/>
<layer number="45" name="Holes" color="7" fill="1" visible="no" active="no"/>
<layer number="46" name="Milling" color="3" fill="1" visible="no" active="no"/>
<layer number="47" name="Measures" color="7" fill="1" visible="no" active="no"/>
<layer number="48" name="Document" color="7" fill="1" visible="no" active="no"/>
<layer number="49" name="Reference" color="7" fill="1" visible="no" active="no"/>
<layer number="51" name="tDocu" color="7" fill="1" visible="no" active="no"/>
<layer number="52" name="bDocu" color="7" fill="1" visible="no" active="no"/>
<layer number="88" name="SimResults" color="9" fill="1" visible="yes" active="yes"/>
<layer number="89" name="SimProbes" color="9" fill="1" visible="yes" active="yes"/>
<layer number="90" name="Modules" color="5" fill="1" visible="yes" active="yes"/>
<layer number="91" name="Nets" color="2" fill="1" visible="yes" active="yes"/>
<layer number="92" name="Busses" color="1" fill="1" visible="yes" active="yes"/>
<layer number="93" name="Pins" color="2" fill="1" visible="no" active="yes"/>
<layer number="94" name="Symbols" color="4" fill="1" visible="yes" active="yes"/>
<layer number="95" name="Names" color="7" fill="1" visible="yes" active="yes"/>
<layer number="96" name="Values" color="7" fill="1" visible="yes" active="yes"/>
<layer number="97" name="Info" color="7" fill="1" visible="yes" active="yes"/>
<layer number="98" name="Guide" color="6" fill="1" visible="yes" active="yes"/>
</layers>
<schematic xreflabel="%F%N/%S.%C%R" xrefpart="/%S.%C%R">
<libraries>
<library name="special" urn="urn:adsk.eagle:library:367">
<description>&lt;b&gt;Special Devices&lt;/b&gt;&lt;p&gt;
7-segment displays, switches, heatsinks, crystals, transformers, etc.&lt;p&gt;
&lt;author&gt;Created by librarian@cadsoft.de&lt;/author&gt;</description>
<packages>
<package name="FUSE" urn="urn:adsk.eagle:footprint:26551/1" library_version="2">
<description>&lt;B&gt;FUSE&lt;/B&gt;&lt;p&gt;
5 x 20 mm</description>
<wire x1="-11.43" y1="1.905" x2="-12.7" y2="1.905" width="0.1524" layer="21"/>
<wire x1="-12.7" y1="-1.905" x2="-12.7" y2="1.905" width="0.1524" layer="21"/>
<wire x1="-12.7" y1="-1.905" x2="-11.43" y2="-1.905" width="0.1524" layer="21"/>
<wire x1="-10.795" y1="2.54" x2="-10.795" y2="3.81" width="0.1524" layer="21"/>
<wire x1="-10.795" y1="3.81" x2="-6.985" y2="3.81" width="0.1524" layer="21"/>
<wire x1="-6.985" y1="2.54" x2="-6.985" y2="3.81" width="0.1524" layer="21"/>
<wire x1="-10.795" y1="-2.54" x2="-10.795" y2="-3.81" width="0.1524" layer="21"/>
<wire x1="-6.985" y1="-3.81" x2="-10.795" y2="-3.81" width="0.1524" layer="21"/>
<wire x1="-6.985" y1="-3.81" x2="-6.985" y2="-2.54" width="0.1524" layer="21"/>
<wire x1="-6.35" y1="1.905" x2="-5.08" y2="1.905" width="0.1524" layer="21"/>
<wire x1="-5.08" y1="1.905" x2="-5.08" y2="1.524" width="0.1524" layer="21"/>
<wire x1="-5.08" y1="-1.905" x2="-6.35" y2="-1.905" width="0.1524" layer="21"/>
<wire x1="6.35" y1="1.905" x2="5.08" y2="1.905" width="0.1524" layer="21"/>
<wire x1="5.08" y1="-1.905" x2="5.08" y2="-1.524" width="0.1524" layer="21"/>
<wire x1="5.08" y1="-1.905" x2="6.35" y2="-1.905" width="0.1524" layer="21"/>
<wire x1="6.985" y1="2.54" x2="6.985" y2="3.81" width="0.1524" layer="21"/>
<wire x1="6.985" y1="3.81" x2="10.795" y2="3.81" width="0.1524" layer="21"/>
<wire x1="10.795" y1="2.54" x2="10.795" y2="3.81" width="0.1524" layer="21"/>
<wire x1="6.985" y1="-2.54" x2="6.985" y2="-3.81" width="0.1524" layer="21"/>
<wire x1="10.795" y1="-3.81" x2="6.985" y2="-3.81" width="0.1524" layer="21"/>
<wire x1="10.795" y1="-3.81" x2="10.795" y2="-2.54" width="0.1524" layer="21"/>
<wire x1="11.43" y1="1.905" x2="12.7" y2="1.905" width="0.1524" layer="21"/>
<wire x1="12.7" y1="1.905" x2="12.7" y2="-1.905" width="0.1524" layer="21"/>
<wire x1="12.7" y1="-1.905" x2="11.43" y2="-1.905" width="0.1524" layer="21"/>
<wire x1="-5.715" y1="2.794" x2="5.715" y2="2.794" width="0.1524" layer="21"/>
<wire x1="-5.715" y1="-2.794" x2="5.715" y2="-2.794" width="0.1524" layer="21"/>
<wire x1="-5.08" y1="1.524" x2="5.08" y2="-1.524" width="0.1524" layer="21"/>
<wire x1="-5.08" y1="1.524" x2="-5.08" y2="-1.905" width="0.1524" layer="21"/>
<wire x1="5.08" y1="-1.524" x2="5.08" y2="1.905" width="0.1524" layer="21"/>
<circle x="0" y="0" radius="0.127" width="0.1524" layer="21"/>
<pad name="1" x="-11.43" y="0" drill="1.3208" shape="long"/>
<pad name="2" x="11.43" y="0" drill="1.3208" shape="long"/>
<text x="-5.08" y="3.302" size="1.778" layer="25" ratio="10">&gt;NAME</text>
<text x="-5.08" y="-5.08" size="1.778" layer="27" ratio="10">&gt;VALUE</text>
<rectangle x1="-12.065" y1="1.905" x2="-10.795" y2="3.175" layer="21"/>
<rectangle x1="-12.065" y1="-3.175" x2="-10.795" y2="-1.905" layer="21"/>
<rectangle x1="-11.43" y1="-2.54" x2="-10.795" y2="2.54" layer="51"/>
<rectangle x1="-6.985" y1="1.905" x2="-5.715" y2="3.175" layer="21"/>
<rectangle x1="-6.985" y1="-3.175" x2="-5.715" y2="-1.905" layer="21"/>
<rectangle x1="-6.985" y1="-2.54" x2="-6.35" y2="2.54" layer="21"/>
<rectangle x1="-10.795" y1="0.762" x2="-6.985" y2="2.54" layer="21"/>
<rectangle x1="-10.795" y1="-2.54" x2="-6.985" y2="-0.762" layer="21"/>
<rectangle x1="5.715" y1="1.905" x2="6.985" y2="3.175" layer="21"/>
<rectangle x1="5.715" y1="-3.175" x2="6.985" y2="-1.905" layer="21"/>
<rectangle x1="6.35" y1="-2.54" x2="6.985" y2="2.54" layer="21"/>
<rectangle x1="10.795" y1="1.905" x2="12.065" y2="3.175" layer="21"/>
<rectangle x1="10.795" y1="-3.175" x2="12.065" y2="-1.905" layer="21"/>
<rectangle x1="10.795" y1="-2.54" x2="11.43" y2="2.54" layer="51"/>
<rectangle x1="6.985" y1="0.762" x2="10.795" y2="2.54" layer="21"/>
<rectangle x1="6.985" y1="-2.54" x2="10.795" y2="-0.762" layer="21"/>
</package>
</packages>
<packages3d>
<package3d name="FUSE" urn="urn:adsk.eagle:package:26650/1" type="box" library_version="2">
<description>FUSE
5 x 20 mm</description>
</package3d>
</packages3d>
<symbols>
<symbol name="FUSE" urn="urn:adsk.eagle:symbol:26550/1" library_version="2">
<wire x1="-5.08" y1="0" x2="-3.556" y2="1.524" width="0.254" layer="94"/>
<wire x1="0" y1="-1.524" x2="-2.54" y2="1.524" width="0.254" layer="94"/>
<wire x1="0.889" y1="-1.4986" x2="2.4892" y2="0" width="0.254" layer="94"/>
<wire x1="-3.5992" y1="1.4912" x2="-3.048" y2="1.7272" width="0.254" layer="94" curve="-46.337037" cap="flat"/>
<wire x1="-3.048" y1="1.7272" x2="-2.496" y2="1.491" width="0.254" layer="94" curve="-46.403624" cap="flat"/>
<wire x1="0.4572" y1="-1.778" x2="0.8965" y2="-1.4765" width="0.254" layer="94" curve="63.169357" cap="flat"/>
<wire x1="-0.0178" y1="-1.508" x2="0.4572" y2="-1.7778" width="0.254" layer="94" curve="64.986119" cap="flat"/>
<text x="-5.08" y="2.54" size="1.778" layer="95">&gt;NAME</text>
<text x="-5.08" y="-3.81" size="1.778" layer="96">&gt;VALUE</text>
<pin name="1" x="-7.62" y="0" visible="off" length="short" direction="pas" function="dot" swaplevel="1"/>
<pin name="2" x="5.08" y="0" visible="off" length="short" direction="pas" function="dot" swaplevel="1" rot="R180"/>
</symbol>
</symbols>
<devicesets>
<deviceset name="FUSE" urn="urn:adsk.eagle:component:26684/1" prefix="F" uservalue="yes" library_version="2">
<description>&lt;B&gt;FUSE&lt;/B&gt;&lt;p&gt;
5 x 20 mm</description>
<gates>
<gate name="G$1" symbol="FUSE" x="12.7" y="0"/>
</gates>
<devices>
<device name="" package="FUSE">
<connects>
<connect gate="G$1" pin="1" pad="1"/>
<connect gate="G$1" pin="2" pad="2"/>
</connects>
<package3dinstances>
<package3dinstance package3d_urn="urn:adsk.eagle:package:26650/1"/>
</package3dinstances>
<technologies>
<technology name=""/>
</technologies>
</device>
</devices>
</deviceset>
</devicesets>
</library>
</libraries>
<attributes>
</attributes>
<variantdefs>
</variantdefs>
<classes>
<class number="0" name="default" width="0" drill="0">
</class>
</classes>
<parts>
<part name="F1" library="special" library_urn="urn:adsk.eagle:library:367" deviceset="FUSE" device="" package3d_urn="urn:adsk.eagle:package:26650/1"/>
<part name="F2" library="special" library_urn="urn:adsk.eagle:library:367" deviceset="FUSE" device="" package3d_urn="urn:adsk.eagle:package:26650/1"/>
<part name="F4" library="special" library_urn="urn:adsk.eagle:library:367" deviceset="FUSE" device="" package3d_urn="urn:adsk.eagle:package:26650/1"/>
</parts>
<sheets>
<sheet>
<plain>
<wire x1="3.81" y1="-19.05" x2="3.81" y2="-8.89" width="0.1524" layer="94"/>
<wire x1="3.81" y1="-8.89" x2="10.16" y2="-8.89" width="0.1524" layer="94"/>
<wire x1="10.16" y1="-8.89" x2="10.16" y2="-19.05" width="0.1524" layer="94"/>
<wire x1="10.16" y1="-19.05" x2="3.81" y2="-19.05" width="0.1524" layer="94"/>
<text x="7.62" y="-17.78" size="1.778" layer="94" rot="R90">Battery</text>
<wire x1="-22.86" y1="0" x2="-22.86" y2="10.16" width="0.1524" layer="94"/>
<wire x1="-22.86" y1="10.16" x2="-7.62" y2="10.16" width="0.1524" layer="94"/>
<wire x1="-7.62" y1="10.16" x2="-7.62" y2="0" width="0.1524" layer="94"/>
<wire x1="-7.62" y1="0" x2="-22.86" y2="0" width="0.1524" layer="94"/>
<text x="-15.24" y="5.08" size="1.778" layer="94" align="center">Motor
Controller</text>
<wire x1="20.32" y1="0" x2="20.32" y2="10.16" width="0.1524" layer="94"/>
<wire x1="20.32" y1="10.16" x2="35.56" y2="10.16" width="0.1524" layer="94"/>
<wire x1="35.56" y1="10.16" x2="35.56" y2="0" width="0.1524" layer="94"/>
<wire x1="35.56" y1="0" x2="20.32" y2="0" width="0.1524" layer="94"/>
<text x="27.94" y="5.08" size="1.778" layer="94" align="center">Motor
Controller</text>
<wire x1="13.335" y1="19.685" x2="0.635" y2="19.685" width="0.1524" layer="94"/>
<wire x1="0.635" y1="19.685" x2="0.635" y2="13.97" width="0.1524" layer="94"/>
<wire x1="0.635" y1="13.97" x2="13.335" y2="13.97" width="0.1524" layer="94"/>
<wire x1="13.335" y1="13.97" x2="13.335" y2="19.685" width="0.1524" layer="94"/>
<text x="3.175" y="15.875" size="1.778" layer="94">Relays</text>
<wire x1="14.605" y1="-19.05" x2="14.605" y2="-8.89" width="0.1524" layer="94"/>
<wire x1="20.955" y1="-8.89" x2="20.955" y2="-19.05" width="0.1524" layer="94"/>
<wire x1="20.955" y1="-19.05" x2="14.605" y2="-19.05" width="0.1524" layer="94"/>
<text x="17.145" y="-13.97" size="1.778" layer="94" rot="R90" align="top-center">BMS
</text>
<wire x1="14.605" y1="-8.89" x2="20.955" y2="-8.89" width="0.1524" layer="94"/>
<wire x1="-1.27" y1="59.69" x2="-1.27" y2="69.85" width="0.1524" layer="94"/>
<wire x1="-1.27" y1="69.85" x2="13.97" y2="69.85" width="0.1524" layer="94"/>
<wire x1="13.97" y1="69.85" x2="13.97" y2="59.69" width="0.1524" layer="94"/>
<wire x1="13.97" y1="59.69" x2="-1.27" y2="59.69" width="0.1524" layer="94"/>
<text x="6.35" y="64.77" size="1.778" layer="94" align="center">Dashboard
+
Brake Pedal</text>
<wire x1="-1.27" y1="74.93" x2="-1.27" y2="81.28" width="0.1524" layer="94"/>
<wire x1="-1.27" y1="81.28" x2="6.35" y2="81.28" width="0.1524" layer="94"/>
<wire x1="6.35" y1="81.28" x2="6.35" y2="74.93" width="0.1524" layer="94"/>
<wire x1="6.35" y1="74.93" x2="-1.27" y2="74.93" width="0.1524" layer="94"/>
<text x="2.54" y="78.105" size="1.778" layer="94" align="center">Horn</text>
<wire x1="-11.43" y1="40.005" x2="-11.43" y2="50.165" width="0.1524" layer="94"/>
<wire x1="-11.43" y1="50.165" x2="-3.81" y2="50.165" width="0.1524" layer="94"/>
<wire x1="-3.81" y1="50.165" x2="-3.81" y2="40.005" width="0.1524" layer="94"/>
<wire x1="-3.81" y1="40.005" x2="-11.43" y2="40.005" width="0.1524" layer="94"/>
<text x="-7.62" y="45.085" size="1.016" layer="94" align="center">Emergency
Stop</text>
<wire x1="25.4" y1="25.4" x2="35.56" y2="25.4" width="0.1524" layer="94"/>
<wire x1="35.56" y1="25.4" x2="35.56" y2="17.78" width="0.1524" layer="94"/>
<wire x1="35.56" y1="17.78" x2="25.4" y2="17.78" width="0.1524" layer="94"/>
<wire x1="25.4" y1="17.78" x2="25.4" y2="25.4" width="0.1524" layer="94"/>
<text x="30.48" y="21.59" size="1.016" layer="94" rot="R270" align="center">Emergency
Stop</text>
<text x="-10.795" y="18.415" size="1.778" layer="97">20A</text>
<text x="19.685" y="18.415" size="1.778" layer="97">20A</text>
<text x="-15.24" y="18.415" size="1.778" layer="97">48V</text>
<text x="15.24" y="18.415" size="1.778" layer="97">48V</text>
<wire x1="12.7" y1="54.61" x2="0" y2="54.61" width="0.1524" layer="94"/>
<wire x1="0" y1="54.61" x2="0" y2="48.26" width="0.1524" layer="94"/>
<wire x1="0" y1="48.26" x2="12.7" y2="48.26" width="0.1524" layer="94"/>
<wire x1="12.7" y1="48.26" x2="12.7" y2="54.61" width="0.1524" layer="94"/>
<text x="1.27" y="49.53" size="1.778" layer="94">DC/DC
Converter</text>
<text x="3.81" y="33.02" size="1.778" layer="97" rot="R90">48V</text>
<text x="14.605" y="-12.065" size="1.778" layer="97" rot="R180">48V</text>
<wire x1="16.51" y1="59.69" x2="16.51" y2="69.85" width="0.1524" layer="94"/>
<wire x1="16.51" y1="69.85" x2="31.75" y2="69.85" width="0.1524" layer="94"/>
<wire x1="31.75" y1="69.85" x2="31.75" y2="59.69" width="0.1524" layer="94"/>
<wire x1="31.75" y1="59.69" x2="16.51" y2="59.69" width="0.1524" layer="94"/>
<text x="24.13" y="64.77" size="1.778" layer="94" align="center">Headlights
Breaklights</text>
<text x="3.81" y="27.94" size="1.778" layer="97" rot="R90">15A</text>
<text x="19.05" y="53.975" size="1.778" layer="97" rot="R180">5V</text>
<text x="-24.765" y="86.995" size="5.08" layer="97">High Level Overview</text>
<wire x1="13.335" y1="10.795" x2="0.635" y2="10.795" width="0.1524" layer="94"/>
<wire x1="0.635" y1="10.795" x2="0.635" y2="1.905" width="0.1524" layer="94"/>
<wire x1="0.635" y1="1.905" x2="13.335" y2="1.905" width="0.1524" layer="94"/>
<wire x1="13.335" y1="1.905" x2="13.335" y2="10.795" width="0.1524" layer="94"/>
<text x="4.445" y="4.445" size="1.778" layer="94">Joule
Meter</text>
<text x="-15.875" y="11.43" size="1.778" layer="97" rot="R90">48V</text>
<text x="-6.35" y="64.77" size="1.778" layer="97" rot="R90">12V</text>
<text x="15.875" y="-5.715" size="1.778" layer="97" rot="R90">5V</text>
</plain>
<instances>
<instance part="F1" gate="G$1" x="-8.89" y="15.875" rot="R180"/>
<instance part="F2" gate="G$1" x="19.685" y="15.875" rot="R180"/>
<instance part="F4" gate="G$1" x="6.35" y="29.845" rot="R270"/>
</instances>
<busses>
</busses>
<nets>
<net name="N$2" class="0">
<segment>
<wire x1="-15.24" y1="15.875" x2="-15.24" y2="10.16" width="0.1524" layer="91"/>
<pinref part="F1" gate="G$1" pin="2"/>
<wire x1="-13.97" y1="15.875" x2="-15.24" y2="15.875" width="0.1524" layer="91"/>
</segment>
</net>
<net name="N$3" class="0">
<segment>
<wire x1="27.94" y1="15.875" x2="27.94" y2="10.16" width="0.1524" layer="91"/>
<pinref part="F2" gate="G$1" pin="1"/>
<wire x1="27.305" y1="15.875" x2="27.94" y2="15.875" width="0.1524" layer="91"/>
</segment>
</net>
<net name="N$5" class="0">
<segment>
<wire x1="14.605" y1="-13.97" x2="10.16" y2="-13.97" width="0.1524" layer="91"/>
</segment>
</net>
<net name="N$6" class="0">
<segment>
<wire x1="2.54" y1="74.93" x2="2.54" y2="69.85" width="0.1524" layer="91"/>
</segment>
</net>
<net name="N$8" class="0">
<segment>
<wire x1="-7.62" y1="40.005" x2="-7.62" y2="21.59" width="0.1524" layer="91"/>
<wire x1="-7.62" y1="21.59" x2="-26.67" y2="21.59" width="0.1524" layer="91"/>
<wire x1="-26.67" y1="21.59" x2="-26.67" y2="-31.115" width="0.1524" layer="91"/>
<wire x1="-26.67" y1="-31.115" x2="22.86" y2="-31.115" width="0.1524" layer="91"/>
<wire x1="19.05" y1="-8.89" x2="19.05" y2="-6.35" width="0.1524" layer="91"/>
<wire x1="35.56" y1="20.32" x2="44.45" y2="20.32" width="0.1524" layer="91"/>
<wire x1="44.45" y1="20.32" x2="44.45" y2="-6.35" width="0.1524" layer="91"/>
<wire x1="44.45" y1="-6.35" x2="22.86" y2="-6.35" width="0.1524" layer="91"/>
<wire x1="22.86" y1="-6.35" x2="19.05" y2="-6.35" width="0.1524" layer="91"/>
<wire x1="22.86" y1="-31.115" x2="22.86" y2="-6.35" width="0.1524" layer="91"/>
<junction x="22.86" y="-6.35"/>
<wire x1="19.05" y1="-6.35" x2="19.05" y2="12.7" width="0.1524" layer="91"/>
<wire x1="19.05" y1="12.7" x2="11.43" y2="12.7" width="0.1524" layer="91"/>
<junction x="19.05" y="-6.35"/>
<wire x1="11.43" y1="12.7" x2="11.43" y2="13.97" width="0.1524" layer="91"/>
</segment>
</net>
<net name="N$11" class="0">
<segment>
<pinref part="F4" gate="G$1" pin="1"/>
<wire x1="6.35" y1="37.465" x2="6.35" y2="48.26" width="0.1524" layer="91"/>
</segment>
</net>
<net name="N$15" class="0">
<segment>
<wire x1="6.35" y1="54.61" x2="6.35" y2="59.69" width="0.1524" layer="91"/>
</segment>
</net>
<net name="N$14" class="0">
<segment>
<wire x1="12.7" y1="51.435" x2="24.13" y2="51.435" width="0.1524" layer="91"/>
<wire x1="24.13" y1="51.435" x2="24.13" y2="59.69" width="0.1524" layer="91"/>
</segment>
</net>
<net name="N$4" class="0">
<segment>
<wire x1="13.97" y1="64.77" x2="16.51" y2="64.77" width="0.1524" layer="91"/>
</segment>
</net>
<net name="N$9" class="0">
<segment>
<wire x1="0" y1="52.07" x2="-5.715" y2="52.07" width="0.1524" layer="91"/>
<wire x1="-5.715" y1="52.07" x2="-5.715" y2="78.105" width="0.1524" layer="91"/>
<wire x1="-5.715" y1="78.105" x2="-1.27" y2="78.105" width="0.1524" layer="91"/>
</segment>
</net>
<net name="N$1" class="0">
<segment>
<pinref part="F1" gate="G$1" pin="1"/>
<wire x1="-1.27" y1="15.875" x2="0.635" y2="15.875" width="0.1524" layer="91"/>
</segment>
</net>
<net name="N$7" class="0">
<segment>
<pinref part="F2" gate="G$1" pin="2"/>
<wire x1="14.605" y1="15.875" x2="13.335" y2="15.875" width="0.1524" layer="91"/>
</segment>
</net>
<net name="N$10" class="0">
<segment>
<pinref part="F4" gate="G$1" pin="2"/>
<wire x1="6.35" y1="24.765" x2="6.35" y2="19.685" width="0.1524" layer="91"/>
</segment>
</net>
<net name="N$12" class="0">
<segment>
<wire x1="6.985" y1="13.97" x2="6.985" y2="10.795" width="0.1524" layer="91"/>
</segment>
</net>
<net name="N$13" class="0">
<segment>
<wire x1="6.985" y1="-8.89" x2="6.985" y2="1.905" width="0.1524" layer="91"/>
</segment>
</net>
<net name="N$16" class="0">
<segment>
<wire x1="9.525" y1="13.97" x2="9.525" y2="11.43" width="0.1524" layer="91"/>
<wire x1="9.525" y1="11.43" x2="16.51" y2="11.43" width="0.1524" layer="91"/>
<wire x1="16.51" y1="11.43" x2="16.51" y2="-8.89" width="0.1524" layer="91"/>
</segment>
</net>
</nets>
</sheet>
<sheet>
<plain>
</plain>
<instances>
</instances>
<busses>
</busses>
<nets>
</nets>
</sheet>
</sheets>
</schematic>
</drawing>
<compatibility>
<note version="6.3" minversion="6.2.2" severity="warning">
Since Version 6.2.2 text objects can contain more than one line,
which will not be processed correctly with this version.
</note>
<note version="8.2" severity="warning">
Since Version 8.2, EAGLE supports online libraries. The ids
of those online libraries will not be understood (or retained)
with this version.
</note>
<note version="8.3" severity="warning">
Since Version 8.3, EAGLE supports URNs for individual library
assets (packages, symbols, and devices). The URNs of those assets
will not be understood (or retained) with this version.
</note>
<note version="8.3" severity="warning">
Since Version 8.3, EAGLE supports the association of 3D packages
with devices in libraries, schematics, and board files. Those 3D
packages will not be understood (or retained) with this version.
</note>
</compatibility>
</eagle>
