G04 EAGLE Gerber X2 export*
%TF.Part,Single*%
%TF.FileFunction,Soldermask,Bot,1*%
%TF.FilePolarity,Negative*%
%TF.GenerationSoftware,Autodesk,EAGLE,9.1.3*%
%TF.CreationDate,2018-10-11T18:05:31Z*%
G75*
%MOMM*%
%FSLAX34Y34*%
%LPD*%
%AMOC8*
5,1,8,0,0,1.08239X$1,22.5*%
G01*
%ADD10R,2.703200X4.503200*%
%ADD11R,2.003200X1.803200*%
%ADD12R,1.803200X2.003200*%
%ADD13R,2.003200X2.603200*%
%ADD14C,1.727200*%
%ADD15R,1.803200X2.006200*%
%ADD16R,2.203200X0.853200*%
%ADD17R,2.753200X2.753200*%
%ADD18P,1.869504X8X22.500000*%
%ADD19C,0.959600*%


D10*
X381000Y359000D03*
X381000Y276000D03*
D11*
X469900Y191800D03*
X469900Y163800D03*
D12*
X24100Y152400D03*
X52100Y152400D03*
D11*
X152400Y204500D03*
X152400Y176500D03*
D10*
X711200Y359000D03*
X711200Y276000D03*
D11*
X622300Y217200D03*
X622300Y189200D03*
D10*
X50800Y359000D03*
X50800Y276000D03*
D11*
X800100Y204500D03*
X800100Y176500D03*
X292100Y179100D03*
X292100Y151100D03*
D13*
X426650Y127000D03*
X386150Y127000D03*
X121850Y139700D03*
X81350Y139700D03*
X756850Y139700D03*
X716350Y139700D03*
D14*
X337820Y203200D02*
X322580Y203200D01*
X322580Y177800D02*
X337820Y177800D01*
X33020Y215900D02*
X17780Y215900D01*
X17780Y190500D02*
X33020Y190500D01*
X652780Y215900D02*
X668020Y215900D01*
X668020Y190500D02*
X652780Y190500D01*
X58420Y63500D02*
X43180Y63500D01*
X43180Y88900D02*
X58420Y88900D01*
D15*
X877820Y190500D03*
X849380Y190500D03*
X547620Y317500D03*
X519180Y317500D03*
X519180Y342900D03*
X547620Y342900D03*
X547620Y190500D03*
X519180Y190500D03*
X519180Y215900D03*
X547620Y215900D03*
X849380Y317500D03*
X877820Y317500D03*
X328680Y127000D03*
X357120Y127000D03*
X23880Y127000D03*
X52320Y127000D03*
X849380Y215900D03*
X877820Y215900D03*
X217420Y317500D03*
X188980Y317500D03*
X658880Y139700D03*
X687320Y139700D03*
X188980Y342900D03*
X217420Y342900D03*
X217420Y190500D03*
X188980Y190500D03*
X877820Y342900D03*
X849380Y342900D03*
X188980Y215900D03*
X217420Y215900D03*
D16*
X698500Y177800D03*
X698500Y190500D03*
X698500Y203200D03*
X698500Y215900D03*
X754500Y215900D03*
X754500Y203200D03*
X754500Y190500D03*
X754500Y177800D03*
D17*
X254000Y254000D03*
X304000Y254000D03*
X254000Y324000D03*
X304000Y324000D03*
X584200Y254000D03*
X634200Y254000D03*
X584200Y324000D03*
X634200Y324000D03*
D16*
X368300Y165100D03*
X368300Y177800D03*
X368300Y190500D03*
X368300Y203200D03*
X424300Y203200D03*
X424300Y190500D03*
X424300Y177800D03*
X424300Y165100D03*
X63500Y177800D03*
X63500Y190500D03*
X63500Y203200D03*
X63500Y215900D03*
X119500Y215900D03*
X119500Y203200D03*
X119500Y190500D03*
X119500Y177800D03*
D17*
X914400Y254000D03*
X964400Y254000D03*
X914400Y324000D03*
X964400Y324000D03*
X508000Y31750D03*
X508000Y81750D03*
X438000Y31750D03*
X438000Y81750D03*
X533400Y431800D03*
X533400Y481800D03*
X463400Y431800D03*
X463400Y481800D03*
D18*
X952500Y406400D03*
X622300Y406400D03*
X292100Y406400D03*
D19*
X266700Y152400D03*
X603250Y152400D03*
X831850Y311150D03*
X895350Y361950D03*
X88900Y368300D03*
X419100Y361950D03*
X749300Y349250D03*
X749300Y268250D03*
X890016Y246888D03*
X895350Y234950D03*
X234950Y361950D03*
X88900Y268250D03*
X202692Y225552D03*
X234950Y234950D03*
X565150Y361950D03*
X419100Y268250D03*
X460248Y216408D03*
X565150Y234950D03*
X501650Y323850D03*
X171450Y323850D03*
M02*
