G04 #@! TF.GenerationSoftware,KiCad,Pcbnew,(5.1.0)-1*
G04 #@! TF.CreationDate,2019-04-28T11:42:01-05:00*
G04 #@! TF.ProjectId,Motor Controller 2.0,4d6f746f-7220-4436-9f6e-74726f6c6c65,rev?*
G04 #@! TF.SameCoordinates,Original*
G04 #@! TF.FileFunction,Paste,Top*
G04 #@! TF.FilePolarity,Positive*
%FSLAX46Y46*%
G04 Gerber Fmt 4.6, Leading zero omitted, Abs format (unit mm)*
G04 Created by KiCad (PCBNEW (5.1.0)-1) date 2019-04-28 11:42:01*
%MOMM*%
%LPD*%
G04 APERTURE LIST*
%ADD10R,0.800000X0.700000*%
%ADD11R,1.600000X1.550000*%
%ADD12R,1.200000X1.550000*%
%ADD13C,0.100000*%
%ADD14C,1.800000*%
%ADD15C,1.250000*%
%ADD16R,2.500000X1.800000*%
%ADD17R,5.330000X5.590000*%
%ADD18R,5.280000X6.350000*%
%ADD19R,4.200000X7.600000*%
G04 APERTURE END LIST*
D10*
X107486000Y-114168000D03*
D11*
X108986000Y-113718000D03*
D12*
X110986000Y-113718000D03*
X110986000Y-115898000D03*
D10*
X112986000Y-112898000D03*
X107486000Y-115448000D03*
X107486000Y-116718000D03*
X112986000Y-114168000D03*
D11*
X108986000Y-115898000D03*
D10*
X112986000Y-115448000D03*
X112986000Y-116718000D03*
X107486000Y-112898000D03*
D13*
G36*
X95184504Y-100173204D02*
G01*
X95208773Y-100176804D01*
X95232571Y-100182765D01*
X95255671Y-100191030D01*
X95277849Y-100201520D01*
X95298893Y-100214133D01*
X95318598Y-100228747D01*
X95336777Y-100245223D01*
X95353253Y-100263402D01*
X95367867Y-100283107D01*
X95380480Y-100304151D01*
X95390970Y-100326329D01*
X95399235Y-100349429D01*
X95405196Y-100373227D01*
X95408796Y-100397496D01*
X95410000Y-100422000D01*
X95410000Y-101722000D01*
X95408796Y-101746504D01*
X95405196Y-101770773D01*
X95399235Y-101794571D01*
X95390970Y-101817671D01*
X95380480Y-101839849D01*
X95367867Y-101860893D01*
X95353253Y-101880598D01*
X95336777Y-101898777D01*
X95318598Y-101915253D01*
X95298893Y-101929867D01*
X95277849Y-101942480D01*
X95255671Y-101952970D01*
X95232571Y-101961235D01*
X95208773Y-101967196D01*
X95184504Y-101970796D01*
X95160000Y-101972000D01*
X90260000Y-101972000D01*
X90235496Y-101970796D01*
X90211227Y-101967196D01*
X90187429Y-101961235D01*
X90164329Y-101952970D01*
X90142151Y-101942480D01*
X90121107Y-101929867D01*
X90101402Y-101915253D01*
X90083223Y-101898777D01*
X90066747Y-101880598D01*
X90052133Y-101860893D01*
X90039520Y-101839849D01*
X90029030Y-101817671D01*
X90020765Y-101794571D01*
X90014804Y-101770773D01*
X90011204Y-101746504D01*
X90010000Y-101722000D01*
X90010000Y-100422000D01*
X90011204Y-100397496D01*
X90014804Y-100373227D01*
X90020765Y-100349429D01*
X90029030Y-100326329D01*
X90039520Y-100304151D01*
X90052133Y-100283107D01*
X90066747Y-100263402D01*
X90083223Y-100245223D01*
X90101402Y-100228747D01*
X90121107Y-100214133D01*
X90142151Y-100201520D01*
X90164329Y-100191030D01*
X90187429Y-100182765D01*
X90211227Y-100176804D01*
X90235496Y-100173204D01*
X90260000Y-100172000D01*
X95160000Y-100172000D01*
X95184504Y-100173204D01*
X95184504Y-100173204D01*
G37*
D14*
X92710000Y-101072000D03*
D13*
G36*
X95184504Y-105273204D02*
G01*
X95208773Y-105276804D01*
X95232571Y-105282765D01*
X95255671Y-105291030D01*
X95277849Y-105301520D01*
X95298893Y-105314133D01*
X95318598Y-105328747D01*
X95336777Y-105345223D01*
X95353253Y-105363402D01*
X95367867Y-105383107D01*
X95380480Y-105404151D01*
X95390970Y-105426329D01*
X95399235Y-105449429D01*
X95405196Y-105473227D01*
X95408796Y-105497496D01*
X95410000Y-105522000D01*
X95410000Y-106822000D01*
X95408796Y-106846504D01*
X95405196Y-106870773D01*
X95399235Y-106894571D01*
X95390970Y-106917671D01*
X95380480Y-106939849D01*
X95367867Y-106960893D01*
X95353253Y-106980598D01*
X95336777Y-106998777D01*
X95318598Y-107015253D01*
X95298893Y-107029867D01*
X95277849Y-107042480D01*
X95255671Y-107052970D01*
X95232571Y-107061235D01*
X95208773Y-107067196D01*
X95184504Y-107070796D01*
X95160000Y-107072000D01*
X90260000Y-107072000D01*
X90235496Y-107070796D01*
X90211227Y-107067196D01*
X90187429Y-107061235D01*
X90164329Y-107052970D01*
X90142151Y-107042480D01*
X90121107Y-107029867D01*
X90101402Y-107015253D01*
X90083223Y-106998777D01*
X90066747Y-106980598D01*
X90052133Y-106960893D01*
X90039520Y-106939849D01*
X90029030Y-106917671D01*
X90020765Y-106894571D01*
X90014804Y-106870773D01*
X90011204Y-106846504D01*
X90010000Y-106822000D01*
X90010000Y-105522000D01*
X90011204Y-105497496D01*
X90014804Y-105473227D01*
X90020765Y-105449429D01*
X90029030Y-105426329D01*
X90039520Y-105404151D01*
X90052133Y-105383107D01*
X90066747Y-105363402D01*
X90083223Y-105345223D01*
X90101402Y-105328747D01*
X90121107Y-105314133D01*
X90142151Y-105301520D01*
X90164329Y-105291030D01*
X90187429Y-105282765D01*
X90211227Y-105276804D01*
X90235496Y-105273204D01*
X90260000Y-105272000D01*
X95160000Y-105272000D01*
X95184504Y-105273204D01*
X95184504Y-105273204D01*
G37*
D14*
X92710000Y-106172000D03*
D13*
G36*
X101280504Y-105273204D02*
G01*
X101304773Y-105276804D01*
X101328571Y-105282765D01*
X101351671Y-105291030D01*
X101373849Y-105301520D01*
X101394893Y-105314133D01*
X101414598Y-105328747D01*
X101432777Y-105345223D01*
X101449253Y-105363402D01*
X101463867Y-105383107D01*
X101476480Y-105404151D01*
X101486970Y-105426329D01*
X101495235Y-105449429D01*
X101501196Y-105473227D01*
X101504796Y-105497496D01*
X101506000Y-105522000D01*
X101506000Y-106822000D01*
X101504796Y-106846504D01*
X101501196Y-106870773D01*
X101495235Y-106894571D01*
X101486970Y-106917671D01*
X101476480Y-106939849D01*
X101463867Y-106960893D01*
X101449253Y-106980598D01*
X101432777Y-106998777D01*
X101414598Y-107015253D01*
X101394893Y-107029867D01*
X101373849Y-107042480D01*
X101351671Y-107052970D01*
X101328571Y-107061235D01*
X101304773Y-107067196D01*
X101280504Y-107070796D01*
X101256000Y-107072000D01*
X96356000Y-107072000D01*
X96331496Y-107070796D01*
X96307227Y-107067196D01*
X96283429Y-107061235D01*
X96260329Y-107052970D01*
X96238151Y-107042480D01*
X96217107Y-107029867D01*
X96197402Y-107015253D01*
X96179223Y-106998777D01*
X96162747Y-106980598D01*
X96148133Y-106960893D01*
X96135520Y-106939849D01*
X96125030Y-106917671D01*
X96116765Y-106894571D01*
X96110804Y-106870773D01*
X96107204Y-106846504D01*
X96106000Y-106822000D01*
X96106000Y-105522000D01*
X96107204Y-105497496D01*
X96110804Y-105473227D01*
X96116765Y-105449429D01*
X96125030Y-105426329D01*
X96135520Y-105404151D01*
X96148133Y-105383107D01*
X96162747Y-105363402D01*
X96179223Y-105345223D01*
X96197402Y-105328747D01*
X96217107Y-105314133D01*
X96238151Y-105301520D01*
X96260329Y-105291030D01*
X96283429Y-105282765D01*
X96307227Y-105276804D01*
X96331496Y-105273204D01*
X96356000Y-105272000D01*
X101256000Y-105272000D01*
X101280504Y-105273204D01*
X101280504Y-105273204D01*
G37*
D14*
X98806000Y-106172000D03*
D13*
G36*
X101280504Y-100173204D02*
G01*
X101304773Y-100176804D01*
X101328571Y-100182765D01*
X101351671Y-100191030D01*
X101373849Y-100201520D01*
X101394893Y-100214133D01*
X101414598Y-100228747D01*
X101432777Y-100245223D01*
X101449253Y-100263402D01*
X101463867Y-100283107D01*
X101476480Y-100304151D01*
X101486970Y-100326329D01*
X101495235Y-100349429D01*
X101501196Y-100373227D01*
X101504796Y-100397496D01*
X101506000Y-100422000D01*
X101506000Y-101722000D01*
X101504796Y-101746504D01*
X101501196Y-101770773D01*
X101495235Y-101794571D01*
X101486970Y-101817671D01*
X101476480Y-101839849D01*
X101463867Y-101860893D01*
X101449253Y-101880598D01*
X101432777Y-101898777D01*
X101414598Y-101915253D01*
X101394893Y-101929867D01*
X101373849Y-101942480D01*
X101351671Y-101952970D01*
X101328571Y-101961235D01*
X101304773Y-101967196D01*
X101280504Y-101970796D01*
X101256000Y-101972000D01*
X96356000Y-101972000D01*
X96331496Y-101970796D01*
X96307227Y-101967196D01*
X96283429Y-101961235D01*
X96260329Y-101952970D01*
X96238151Y-101942480D01*
X96217107Y-101929867D01*
X96197402Y-101915253D01*
X96179223Y-101898777D01*
X96162747Y-101880598D01*
X96148133Y-101860893D01*
X96135520Y-101839849D01*
X96125030Y-101817671D01*
X96116765Y-101794571D01*
X96110804Y-101770773D01*
X96107204Y-101746504D01*
X96106000Y-101722000D01*
X96106000Y-100422000D01*
X96107204Y-100397496D01*
X96110804Y-100373227D01*
X96116765Y-100349429D01*
X96125030Y-100326329D01*
X96135520Y-100304151D01*
X96148133Y-100283107D01*
X96162747Y-100263402D01*
X96179223Y-100245223D01*
X96197402Y-100228747D01*
X96217107Y-100214133D01*
X96238151Y-100201520D01*
X96260329Y-100191030D01*
X96283429Y-100182765D01*
X96307227Y-100176804D01*
X96331496Y-100173204D01*
X96356000Y-100172000D01*
X101256000Y-100172000D01*
X101280504Y-100173204D01*
X101280504Y-100173204D01*
G37*
D14*
X98806000Y-101072000D03*
D13*
G36*
X103519504Y-104408204D02*
G01*
X103543773Y-104411804D01*
X103567571Y-104417765D01*
X103590671Y-104426030D01*
X103612849Y-104436520D01*
X103633893Y-104449133D01*
X103653598Y-104463747D01*
X103671777Y-104480223D01*
X103688253Y-104498402D01*
X103702867Y-104518107D01*
X103715480Y-104539151D01*
X103725970Y-104561329D01*
X103734235Y-104584429D01*
X103740196Y-104608227D01*
X103743796Y-104632496D01*
X103745000Y-104657000D01*
X103745000Y-105407000D01*
X103743796Y-105431504D01*
X103740196Y-105455773D01*
X103734235Y-105479571D01*
X103725970Y-105502671D01*
X103715480Y-105524849D01*
X103702867Y-105545893D01*
X103688253Y-105565598D01*
X103671777Y-105583777D01*
X103653598Y-105600253D01*
X103633893Y-105614867D01*
X103612849Y-105627480D01*
X103590671Y-105637970D01*
X103567571Y-105646235D01*
X103543773Y-105652196D01*
X103519504Y-105655796D01*
X103495000Y-105657000D01*
X102245000Y-105657000D01*
X102220496Y-105655796D01*
X102196227Y-105652196D01*
X102172429Y-105646235D01*
X102149329Y-105637970D01*
X102127151Y-105627480D01*
X102106107Y-105614867D01*
X102086402Y-105600253D01*
X102068223Y-105583777D01*
X102051747Y-105565598D01*
X102037133Y-105545893D01*
X102024520Y-105524849D01*
X102014030Y-105502671D01*
X102005765Y-105479571D01*
X101999804Y-105455773D01*
X101996204Y-105431504D01*
X101995000Y-105407000D01*
X101995000Y-104657000D01*
X101996204Y-104632496D01*
X101999804Y-104608227D01*
X102005765Y-104584429D01*
X102014030Y-104561329D01*
X102024520Y-104539151D01*
X102037133Y-104518107D01*
X102051747Y-104498402D01*
X102068223Y-104480223D01*
X102086402Y-104463747D01*
X102106107Y-104449133D01*
X102127151Y-104436520D01*
X102149329Y-104426030D01*
X102172429Y-104417765D01*
X102196227Y-104411804D01*
X102220496Y-104408204D01*
X102245000Y-104407000D01*
X103495000Y-104407000D01*
X103519504Y-104408204D01*
X103519504Y-104408204D01*
G37*
D15*
X102870000Y-105032000D03*
D13*
G36*
X103519504Y-101608204D02*
G01*
X103543773Y-101611804D01*
X103567571Y-101617765D01*
X103590671Y-101626030D01*
X103612849Y-101636520D01*
X103633893Y-101649133D01*
X103653598Y-101663747D01*
X103671777Y-101680223D01*
X103688253Y-101698402D01*
X103702867Y-101718107D01*
X103715480Y-101739151D01*
X103725970Y-101761329D01*
X103734235Y-101784429D01*
X103740196Y-101808227D01*
X103743796Y-101832496D01*
X103745000Y-101857000D01*
X103745000Y-102607000D01*
X103743796Y-102631504D01*
X103740196Y-102655773D01*
X103734235Y-102679571D01*
X103725970Y-102702671D01*
X103715480Y-102724849D01*
X103702867Y-102745893D01*
X103688253Y-102765598D01*
X103671777Y-102783777D01*
X103653598Y-102800253D01*
X103633893Y-102814867D01*
X103612849Y-102827480D01*
X103590671Y-102837970D01*
X103567571Y-102846235D01*
X103543773Y-102852196D01*
X103519504Y-102855796D01*
X103495000Y-102857000D01*
X102245000Y-102857000D01*
X102220496Y-102855796D01*
X102196227Y-102852196D01*
X102172429Y-102846235D01*
X102149329Y-102837970D01*
X102127151Y-102827480D01*
X102106107Y-102814867D01*
X102086402Y-102800253D01*
X102068223Y-102783777D01*
X102051747Y-102765598D01*
X102037133Y-102745893D01*
X102024520Y-102724849D01*
X102014030Y-102702671D01*
X102005765Y-102679571D01*
X101999804Y-102655773D01*
X101996204Y-102631504D01*
X101995000Y-102607000D01*
X101995000Y-101857000D01*
X101996204Y-101832496D01*
X101999804Y-101808227D01*
X102005765Y-101784429D01*
X102014030Y-101761329D01*
X102024520Y-101739151D01*
X102037133Y-101718107D01*
X102051747Y-101698402D01*
X102068223Y-101680223D01*
X102086402Y-101663747D01*
X102106107Y-101649133D01*
X102127151Y-101636520D01*
X102149329Y-101626030D01*
X102172429Y-101617765D01*
X102196227Y-101611804D01*
X102220496Y-101608204D01*
X102245000Y-101607000D01*
X103495000Y-101607000D01*
X103519504Y-101608204D01*
X103519504Y-101608204D01*
G37*
D15*
X102870000Y-102232000D03*
D13*
G36*
X105805504Y-104408204D02*
G01*
X105829773Y-104411804D01*
X105853571Y-104417765D01*
X105876671Y-104426030D01*
X105898849Y-104436520D01*
X105919893Y-104449133D01*
X105939598Y-104463747D01*
X105957777Y-104480223D01*
X105974253Y-104498402D01*
X105988867Y-104518107D01*
X106001480Y-104539151D01*
X106011970Y-104561329D01*
X106020235Y-104584429D01*
X106026196Y-104608227D01*
X106029796Y-104632496D01*
X106031000Y-104657000D01*
X106031000Y-105407000D01*
X106029796Y-105431504D01*
X106026196Y-105455773D01*
X106020235Y-105479571D01*
X106011970Y-105502671D01*
X106001480Y-105524849D01*
X105988867Y-105545893D01*
X105974253Y-105565598D01*
X105957777Y-105583777D01*
X105939598Y-105600253D01*
X105919893Y-105614867D01*
X105898849Y-105627480D01*
X105876671Y-105637970D01*
X105853571Y-105646235D01*
X105829773Y-105652196D01*
X105805504Y-105655796D01*
X105781000Y-105657000D01*
X104531000Y-105657000D01*
X104506496Y-105655796D01*
X104482227Y-105652196D01*
X104458429Y-105646235D01*
X104435329Y-105637970D01*
X104413151Y-105627480D01*
X104392107Y-105614867D01*
X104372402Y-105600253D01*
X104354223Y-105583777D01*
X104337747Y-105565598D01*
X104323133Y-105545893D01*
X104310520Y-105524849D01*
X104300030Y-105502671D01*
X104291765Y-105479571D01*
X104285804Y-105455773D01*
X104282204Y-105431504D01*
X104281000Y-105407000D01*
X104281000Y-104657000D01*
X104282204Y-104632496D01*
X104285804Y-104608227D01*
X104291765Y-104584429D01*
X104300030Y-104561329D01*
X104310520Y-104539151D01*
X104323133Y-104518107D01*
X104337747Y-104498402D01*
X104354223Y-104480223D01*
X104372402Y-104463747D01*
X104392107Y-104449133D01*
X104413151Y-104436520D01*
X104435329Y-104426030D01*
X104458429Y-104417765D01*
X104482227Y-104411804D01*
X104506496Y-104408204D01*
X104531000Y-104407000D01*
X105781000Y-104407000D01*
X105805504Y-104408204D01*
X105805504Y-104408204D01*
G37*
D15*
X105156000Y-105032000D03*
D13*
G36*
X105805504Y-101608204D02*
G01*
X105829773Y-101611804D01*
X105853571Y-101617765D01*
X105876671Y-101626030D01*
X105898849Y-101636520D01*
X105919893Y-101649133D01*
X105939598Y-101663747D01*
X105957777Y-101680223D01*
X105974253Y-101698402D01*
X105988867Y-101718107D01*
X106001480Y-101739151D01*
X106011970Y-101761329D01*
X106020235Y-101784429D01*
X106026196Y-101808227D01*
X106029796Y-101832496D01*
X106031000Y-101857000D01*
X106031000Y-102607000D01*
X106029796Y-102631504D01*
X106026196Y-102655773D01*
X106020235Y-102679571D01*
X106011970Y-102702671D01*
X106001480Y-102724849D01*
X105988867Y-102745893D01*
X105974253Y-102765598D01*
X105957777Y-102783777D01*
X105939598Y-102800253D01*
X105919893Y-102814867D01*
X105898849Y-102827480D01*
X105876671Y-102837970D01*
X105853571Y-102846235D01*
X105829773Y-102852196D01*
X105805504Y-102855796D01*
X105781000Y-102857000D01*
X104531000Y-102857000D01*
X104506496Y-102855796D01*
X104482227Y-102852196D01*
X104458429Y-102846235D01*
X104435329Y-102837970D01*
X104413151Y-102827480D01*
X104392107Y-102814867D01*
X104372402Y-102800253D01*
X104354223Y-102783777D01*
X104337747Y-102765598D01*
X104323133Y-102745893D01*
X104310520Y-102724849D01*
X104300030Y-102702671D01*
X104291765Y-102679571D01*
X104285804Y-102655773D01*
X104282204Y-102631504D01*
X104281000Y-102607000D01*
X104281000Y-101857000D01*
X104282204Y-101832496D01*
X104285804Y-101808227D01*
X104291765Y-101784429D01*
X104300030Y-101761329D01*
X104310520Y-101739151D01*
X104323133Y-101718107D01*
X104337747Y-101698402D01*
X104354223Y-101680223D01*
X104372402Y-101663747D01*
X104392107Y-101649133D01*
X104413151Y-101636520D01*
X104435329Y-101626030D01*
X104458429Y-101617765D01*
X104482227Y-101611804D01*
X104506496Y-101608204D01*
X104531000Y-101607000D01*
X105781000Y-101607000D01*
X105805504Y-101608204D01*
X105805504Y-101608204D01*
G37*
D15*
X105156000Y-102232000D03*
D13*
G36*
X95184504Y-119507204D02*
G01*
X95208773Y-119510804D01*
X95232571Y-119516765D01*
X95255671Y-119525030D01*
X95277849Y-119535520D01*
X95298893Y-119548133D01*
X95318598Y-119562747D01*
X95336777Y-119579223D01*
X95353253Y-119597402D01*
X95367867Y-119617107D01*
X95380480Y-119638151D01*
X95390970Y-119660329D01*
X95399235Y-119683429D01*
X95405196Y-119707227D01*
X95408796Y-119731496D01*
X95410000Y-119756000D01*
X95410000Y-121056000D01*
X95408796Y-121080504D01*
X95405196Y-121104773D01*
X95399235Y-121128571D01*
X95390970Y-121151671D01*
X95380480Y-121173849D01*
X95367867Y-121194893D01*
X95353253Y-121214598D01*
X95336777Y-121232777D01*
X95318598Y-121249253D01*
X95298893Y-121263867D01*
X95277849Y-121276480D01*
X95255671Y-121286970D01*
X95232571Y-121295235D01*
X95208773Y-121301196D01*
X95184504Y-121304796D01*
X95160000Y-121306000D01*
X90260000Y-121306000D01*
X90235496Y-121304796D01*
X90211227Y-121301196D01*
X90187429Y-121295235D01*
X90164329Y-121286970D01*
X90142151Y-121276480D01*
X90121107Y-121263867D01*
X90101402Y-121249253D01*
X90083223Y-121232777D01*
X90066747Y-121214598D01*
X90052133Y-121194893D01*
X90039520Y-121173849D01*
X90029030Y-121151671D01*
X90020765Y-121128571D01*
X90014804Y-121104773D01*
X90011204Y-121080504D01*
X90010000Y-121056000D01*
X90010000Y-119756000D01*
X90011204Y-119731496D01*
X90014804Y-119707227D01*
X90020765Y-119683429D01*
X90029030Y-119660329D01*
X90039520Y-119638151D01*
X90052133Y-119617107D01*
X90066747Y-119597402D01*
X90083223Y-119579223D01*
X90101402Y-119562747D01*
X90121107Y-119548133D01*
X90142151Y-119535520D01*
X90164329Y-119525030D01*
X90187429Y-119516765D01*
X90211227Y-119510804D01*
X90235496Y-119507204D01*
X90260000Y-119506000D01*
X95160000Y-119506000D01*
X95184504Y-119507204D01*
X95184504Y-119507204D01*
G37*
D14*
X92710000Y-120406000D03*
D13*
G36*
X95184504Y-114407204D02*
G01*
X95208773Y-114410804D01*
X95232571Y-114416765D01*
X95255671Y-114425030D01*
X95277849Y-114435520D01*
X95298893Y-114448133D01*
X95318598Y-114462747D01*
X95336777Y-114479223D01*
X95353253Y-114497402D01*
X95367867Y-114517107D01*
X95380480Y-114538151D01*
X95390970Y-114560329D01*
X95399235Y-114583429D01*
X95405196Y-114607227D01*
X95408796Y-114631496D01*
X95410000Y-114656000D01*
X95410000Y-115956000D01*
X95408796Y-115980504D01*
X95405196Y-116004773D01*
X95399235Y-116028571D01*
X95390970Y-116051671D01*
X95380480Y-116073849D01*
X95367867Y-116094893D01*
X95353253Y-116114598D01*
X95336777Y-116132777D01*
X95318598Y-116149253D01*
X95298893Y-116163867D01*
X95277849Y-116176480D01*
X95255671Y-116186970D01*
X95232571Y-116195235D01*
X95208773Y-116201196D01*
X95184504Y-116204796D01*
X95160000Y-116206000D01*
X90260000Y-116206000D01*
X90235496Y-116204796D01*
X90211227Y-116201196D01*
X90187429Y-116195235D01*
X90164329Y-116186970D01*
X90142151Y-116176480D01*
X90121107Y-116163867D01*
X90101402Y-116149253D01*
X90083223Y-116132777D01*
X90066747Y-116114598D01*
X90052133Y-116094893D01*
X90039520Y-116073849D01*
X90029030Y-116051671D01*
X90020765Y-116028571D01*
X90014804Y-116004773D01*
X90011204Y-115980504D01*
X90010000Y-115956000D01*
X90010000Y-114656000D01*
X90011204Y-114631496D01*
X90014804Y-114607227D01*
X90020765Y-114583429D01*
X90029030Y-114560329D01*
X90039520Y-114538151D01*
X90052133Y-114517107D01*
X90066747Y-114497402D01*
X90083223Y-114479223D01*
X90101402Y-114462747D01*
X90121107Y-114448133D01*
X90142151Y-114435520D01*
X90164329Y-114425030D01*
X90187429Y-114416765D01*
X90211227Y-114410804D01*
X90235496Y-114407204D01*
X90260000Y-114406000D01*
X95160000Y-114406000D01*
X95184504Y-114407204D01*
X95184504Y-114407204D01*
G37*
D14*
X92710000Y-115306000D03*
D13*
G36*
X101280504Y-114407204D02*
G01*
X101304773Y-114410804D01*
X101328571Y-114416765D01*
X101351671Y-114425030D01*
X101373849Y-114435520D01*
X101394893Y-114448133D01*
X101414598Y-114462747D01*
X101432777Y-114479223D01*
X101449253Y-114497402D01*
X101463867Y-114517107D01*
X101476480Y-114538151D01*
X101486970Y-114560329D01*
X101495235Y-114583429D01*
X101501196Y-114607227D01*
X101504796Y-114631496D01*
X101506000Y-114656000D01*
X101506000Y-115956000D01*
X101504796Y-115980504D01*
X101501196Y-116004773D01*
X101495235Y-116028571D01*
X101486970Y-116051671D01*
X101476480Y-116073849D01*
X101463867Y-116094893D01*
X101449253Y-116114598D01*
X101432777Y-116132777D01*
X101414598Y-116149253D01*
X101394893Y-116163867D01*
X101373849Y-116176480D01*
X101351671Y-116186970D01*
X101328571Y-116195235D01*
X101304773Y-116201196D01*
X101280504Y-116204796D01*
X101256000Y-116206000D01*
X96356000Y-116206000D01*
X96331496Y-116204796D01*
X96307227Y-116201196D01*
X96283429Y-116195235D01*
X96260329Y-116186970D01*
X96238151Y-116176480D01*
X96217107Y-116163867D01*
X96197402Y-116149253D01*
X96179223Y-116132777D01*
X96162747Y-116114598D01*
X96148133Y-116094893D01*
X96135520Y-116073849D01*
X96125030Y-116051671D01*
X96116765Y-116028571D01*
X96110804Y-116004773D01*
X96107204Y-115980504D01*
X96106000Y-115956000D01*
X96106000Y-114656000D01*
X96107204Y-114631496D01*
X96110804Y-114607227D01*
X96116765Y-114583429D01*
X96125030Y-114560329D01*
X96135520Y-114538151D01*
X96148133Y-114517107D01*
X96162747Y-114497402D01*
X96179223Y-114479223D01*
X96197402Y-114462747D01*
X96217107Y-114448133D01*
X96238151Y-114435520D01*
X96260329Y-114425030D01*
X96283429Y-114416765D01*
X96307227Y-114410804D01*
X96331496Y-114407204D01*
X96356000Y-114406000D01*
X101256000Y-114406000D01*
X101280504Y-114407204D01*
X101280504Y-114407204D01*
G37*
D14*
X98806000Y-115306000D03*
D13*
G36*
X101280504Y-119507204D02*
G01*
X101304773Y-119510804D01*
X101328571Y-119516765D01*
X101351671Y-119525030D01*
X101373849Y-119535520D01*
X101394893Y-119548133D01*
X101414598Y-119562747D01*
X101432777Y-119579223D01*
X101449253Y-119597402D01*
X101463867Y-119617107D01*
X101476480Y-119638151D01*
X101486970Y-119660329D01*
X101495235Y-119683429D01*
X101501196Y-119707227D01*
X101504796Y-119731496D01*
X101506000Y-119756000D01*
X101506000Y-121056000D01*
X101504796Y-121080504D01*
X101501196Y-121104773D01*
X101495235Y-121128571D01*
X101486970Y-121151671D01*
X101476480Y-121173849D01*
X101463867Y-121194893D01*
X101449253Y-121214598D01*
X101432777Y-121232777D01*
X101414598Y-121249253D01*
X101394893Y-121263867D01*
X101373849Y-121276480D01*
X101351671Y-121286970D01*
X101328571Y-121295235D01*
X101304773Y-121301196D01*
X101280504Y-121304796D01*
X101256000Y-121306000D01*
X96356000Y-121306000D01*
X96331496Y-121304796D01*
X96307227Y-121301196D01*
X96283429Y-121295235D01*
X96260329Y-121286970D01*
X96238151Y-121276480D01*
X96217107Y-121263867D01*
X96197402Y-121249253D01*
X96179223Y-121232777D01*
X96162747Y-121214598D01*
X96148133Y-121194893D01*
X96135520Y-121173849D01*
X96125030Y-121151671D01*
X96116765Y-121128571D01*
X96110804Y-121104773D01*
X96107204Y-121080504D01*
X96106000Y-121056000D01*
X96106000Y-119756000D01*
X96107204Y-119731496D01*
X96110804Y-119707227D01*
X96116765Y-119683429D01*
X96125030Y-119660329D01*
X96135520Y-119638151D01*
X96148133Y-119617107D01*
X96162747Y-119597402D01*
X96179223Y-119579223D01*
X96197402Y-119562747D01*
X96217107Y-119548133D01*
X96238151Y-119535520D01*
X96260329Y-119525030D01*
X96283429Y-119516765D01*
X96307227Y-119510804D01*
X96331496Y-119507204D01*
X96356000Y-119506000D01*
X101256000Y-119506000D01*
X101280504Y-119507204D01*
X101280504Y-119507204D01*
G37*
D14*
X98806000Y-120406000D03*
D13*
G36*
X103519504Y-118756204D02*
G01*
X103543773Y-118759804D01*
X103567571Y-118765765D01*
X103590671Y-118774030D01*
X103612849Y-118784520D01*
X103633893Y-118797133D01*
X103653598Y-118811747D01*
X103671777Y-118828223D01*
X103688253Y-118846402D01*
X103702867Y-118866107D01*
X103715480Y-118887151D01*
X103725970Y-118909329D01*
X103734235Y-118932429D01*
X103740196Y-118956227D01*
X103743796Y-118980496D01*
X103745000Y-119005000D01*
X103745000Y-119755000D01*
X103743796Y-119779504D01*
X103740196Y-119803773D01*
X103734235Y-119827571D01*
X103725970Y-119850671D01*
X103715480Y-119872849D01*
X103702867Y-119893893D01*
X103688253Y-119913598D01*
X103671777Y-119931777D01*
X103653598Y-119948253D01*
X103633893Y-119962867D01*
X103612849Y-119975480D01*
X103590671Y-119985970D01*
X103567571Y-119994235D01*
X103543773Y-120000196D01*
X103519504Y-120003796D01*
X103495000Y-120005000D01*
X102245000Y-120005000D01*
X102220496Y-120003796D01*
X102196227Y-120000196D01*
X102172429Y-119994235D01*
X102149329Y-119985970D01*
X102127151Y-119975480D01*
X102106107Y-119962867D01*
X102086402Y-119948253D01*
X102068223Y-119931777D01*
X102051747Y-119913598D01*
X102037133Y-119893893D01*
X102024520Y-119872849D01*
X102014030Y-119850671D01*
X102005765Y-119827571D01*
X101999804Y-119803773D01*
X101996204Y-119779504D01*
X101995000Y-119755000D01*
X101995000Y-119005000D01*
X101996204Y-118980496D01*
X101999804Y-118956227D01*
X102005765Y-118932429D01*
X102014030Y-118909329D01*
X102024520Y-118887151D01*
X102037133Y-118866107D01*
X102051747Y-118846402D01*
X102068223Y-118828223D01*
X102086402Y-118811747D01*
X102106107Y-118797133D01*
X102127151Y-118784520D01*
X102149329Y-118774030D01*
X102172429Y-118765765D01*
X102196227Y-118759804D01*
X102220496Y-118756204D01*
X102245000Y-118755000D01*
X103495000Y-118755000D01*
X103519504Y-118756204D01*
X103519504Y-118756204D01*
G37*
D15*
X102870000Y-119380000D03*
D13*
G36*
X103519504Y-115956204D02*
G01*
X103543773Y-115959804D01*
X103567571Y-115965765D01*
X103590671Y-115974030D01*
X103612849Y-115984520D01*
X103633893Y-115997133D01*
X103653598Y-116011747D01*
X103671777Y-116028223D01*
X103688253Y-116046402D01*
X103702867Y-116066107D01*
X103715480Y-116087151D01*
X103725970Y-116109329D01*
X103734235Y-116132429D01*
X103740196Y-116156227D01*
X103743796Y-116180496D01*
X103745000Y-116205000D01*
X103745000Y-116955000D01*
X103743796Y-116979504D01*
X103740196Y-117003773D01*
X103734235Y-117027571D01*
X103725970Y-117050671D01*
X103715480Y-117072849D01*
X103702867Y-117093893D01*
X103688253Y-117113598D01*
X103671777Y-117131777D01*
X103653598Y-117148253D01*
X103633893Y-117162867D01*
X103612849Y-117175480D01*
X103590671Y-117185970D01*
X103567571Y-117194235D01*
X103543773Y-117200196D01*
X103519504Y-117203796D01*
X103495000Y-117205000D01*
X102245000Y-117205000D01*
X102220496Y-117203796D01*
X102196227Y-117200196D01*
X102172429Y-117194235D01*
X102149329Y-117185970D01*
X102127151Y-117175480D01*
X102106107Y-117162867D01*
X102086402Y-117148253D01*
X102068223Y-117131777D01*
X102051747Y-117113598D01*
X102037133Y-117093893D01*
X102024520Y-117072849D01*
X102014030Y-117050671D01*
X102005765Y-117027571D01*
X101999804Y-117003773D01*
X101996204Y-116979504D01*
X101995000Y-116955000D01*
X101995000Y-116205000D01*
X101996204Y-116180496D01*
X101999804Y-116156227D01*
X102005765Y-116132429D01*
X102014030Y-116109329D01*
X102024520Y-116087151D01*
X102037133Y-116066107D01*
X102051747Y-116046402D01*
X102068223Y-116028223D01*
X102086402Y-116011747D01*
X102106107Y-115997133D01*
X102127151Y-115984520D01*
X102149329Y-115974030D01*
X102172429Y-115965765D01*
X102196227Y-115959804D01*
X102220496Y-115956204D01*
X102245000Y-115955000D01*
X103495000Y-115955000D01*
X103519504Y-115956204D01*
X103519504Y-115956204D01*
G37*
D15*
X102870000Y-116580000D03*
D13*
G36*
X105805504Y-115956204D02*
G01*
X105829773Y-115959804D01*
X105853571Y-115965765D01*
X105876671Y-115974030D01*
X105898849Y-115984520D01*
X105919893Y-115997133D01*
X105939598Y-116011747D01*
X105957777Y-116028223D01*
X105974253Y-116046402D01*
X105988867Y-116066107D01*
X106001480Y-116087151D01*
X106011970Y-116109329D01*
X106020235Y-116132429D01*
X106026196Y-116156227D01*
X106029796Y-116180496D01*
X106031000Y-116205000D01*
X106031000Y-116955000D01*
X106029796Y-116979504D01*
X106026196Y-117003773D01*
X106020235Y-117027571D01*
X106011970Y-117050671D01*
X106001480Y-117072849D01*
X105988867Y-117093893D01*
X105974253Y-117113598D01*
X105957777Y-117131777D01*
X105939598Y-117148253D01*
X105919893Y-117162867D01*
X105898849Y-117175480D01*
X105876671Y-117185970D01*
X105853571Y-117194235D01*
X105829773Y-117200196D01*
X105805504Y-117203796D01*
X105781000Y-117205000D01*
X104531000Y-117205000D01*
X104506496Y-117203796D01*
X104482227Y-117200196D01*
X104458429Y-117194235D01*
X104435329Y-117185970D01*
X104413151Y-117175480D01*
X104392107Y-117162867D01*
X104372402Y-117148253D01*
X104354223Y-117131777D01*
X104337747Y-117113598D01*
X104323133Y-117093893D01*
X104310520Y-117072849D01*
X104300030Y-117050671D01*
X104291765Y-117027571D01*
X104285804Y-117003773D01*
X104282204Y-116979504D01*
X104281000Y-116955000D01*
X104281000Y-116205000D01*
X104282204Y-116180496D01*
X104285804Y-116156227D01*
X104291765Y-116132429D01*
X104300030Y-116109329D01*
X104310520Y-116087151D01*
X104323133Y-116066107D01*
X104337747Y-116046402D01*
X104354223Y-116028223D01*
X104372402Y-116011747D01*
X104392107Y-115997133D01*
X104413151Y-115984520D01*
X104435329Y-115974030D01*
X104458429Y-115965765D01*
X104482227Y-115959804D01*
X104506496Y-115956204D01*
X104531000Y-115955000D01*
X105781000Y-115955000D01*
X105805504Y-115956204D01*
X105805504Y-115956204D01*
G37*
D15*
X105156000Y-116580000D03*
D13*
G36*
X105805504Y-118756204D02*
G01*
X105829773Y-118759804D01*
X105853571Y-118765765D01*
X105876671Y-118774030D01*
X105898849Y-118784520D01*
X105919893Y-118797133D01*
X105939598Y-118811747D01*
X105957777Y-118828223D01*
X105974253Y-118846402D01*
X105988867Y-118866107D01*
X106001480Y-118887151D01*
X106011970Y-118909329D01*
X106020235Y-118932429D01*
X106026196Y-118956227D01*
X106029796Y-118980496D01*
X106031000Y-119005000D01*
X106031000Y-119755000D01*
X106029796Y-119779504D01*
X106026196Y-119803773D01*
X106020235Y-119827571D01*
X106011970Y-119850671D01*
X106001480Y-119872849D01*
X105988867Y-119893893D01*
X105974253Y-119913598D01*
X105957777Y-119931777D01*
X105939598Y-119948253D01*
X105919893Y-119962867D01*
X105898849Y-119975480D01*
X105876671Y-119985970D01*
X105853571Y-119994235D01*
X105829773Y-120000196D01*
X105805504Y-120003796D01*
X105781000Y-120005000D01*
X104531000Y-120005000D01*
X104506496Y-120003796D01*
X104482227Y-120000196D01*
X104458429Y-119994235D01*
X104435329Y-119985970D01*
X104413151Y-119975480D01*
X104392107Y-119962867D01*
X104372402Y-119948253D01*
X104354223Y-119931777D01*
X104337747Y-119913598D01*
X104323133Y-119893893D01*
X104310520Y-119872849D01*
X104300030Y-119850671D01*
X104291765Y-119827571D01*
X104285804Y-119803773D01*
X104282204Y-119779504D01*
X104281000Y-119755000D01*
X104281000Y-119005000D01*
X104282204Y-118980496D01*
X104285804Y-118956227D01*
X104291765Y-118932429D01*
X104300030Y-118909329D01*
X104310520Y-118887151D01*
X104323133Y-118866107D01*
X104337747Y-118846402D01*
X104354223Y-118828223D01*
X104372402Y-118811747D01*
X104392107Y-118797133D01*
X104413151Y-118784520D01*
X104435329Y-118774030D01*
X104458429Y-118765765D01*
X104482227Y-118759804D01*
X104506496Y-118756204D01*
X104531000Y-118755000D01*
X105781000Y-118755000D01*
X105805504Y-118756204D01*
X105805504Y-118756204D01*
G37*
D15*
X105156000Y-119380000D03*
D13*
G36*
X95184504Y-128367204D02*
G01*
X95208773Y-128370804D01*
X95232571Y-128376765D01*
X95255671Y-128385030D01*
X95277849Y-128395520D01*
X95298893Y-128408133D01*
X95318598Y-128422747D01*
X95336777Y-128439223D01*
X95353253Y-128457402D01*
X95367867Y-128477107D01*
X95380480Y-128498151D01*
X95390970Y-128520329D01*
X95399235Y-128543429D01*
X95405196Y-128567227D01*
X95408796Y-128591496D01*
X95410000Y-128616000D01*
X95410000Y-129916000D01*
X95408796Y-129940504D01*
X95405196Y-129964773D01*
X95399235Y-129988571D01*
X95390970Y-130011671D01*
X95380480Y-130033849D01*
X95367867Y-130054893D01*
X95353253Y-130074598D01*
X95336777Y-130092777D01*
X95318598Y-130109253D01*
X95298893Y-130123867D01*
X95277849Y-130136480D01*
X95255671Y-130146970D01*
X95232571Y-130155235D01*
X95208773Y-130161196D01*
X95184504Y-130164796D01*
X95160000Y-130166000D01*
X90260000Y-130166000D01*
X90235496Y-130164796D01*
X90211227Y-130161196D01*
X90187429Y-130155235D01*
X90164329Y-130146970D01*
X90142151Y-130136480D01*
X90121107Y-130123867D01*
X90101402Y-130109253D01*
X90083223Y-130092777D01*
X90066747Y-130074598D01*
X90052133Y-130054893D01*
X90039520Y-130033849D01*
X90029030Y-130011671D01*
X90020765Y-129988571D01*
X90014804Y-129964773D01*
X90011204Y-129940504D01*
X90010000Y-129916000D01*
X90010000Y-128616000D01*
X90011204Y-128591496D01*
X90014804Y-128567227D01*
X90020765Y-128543429D01*
X90029030Y-128520329D01*
X90039520Y-128498151D01*
X90052133Y-128477107D01*
X90066747Y-128457402D01*
X90083223Y-128439223D01*
X90101402Y-128422747D01*
X90121107Y-128408133D01*
X90142151Y-128395520D01*
X90164329Y-128385030D01*
X90187429Y-128376765D01*
X90211227Y-128370804D01*
X90235496Y-128367204D01*
X90260000Y-128366000D01*
X95160000Y-128366000D01*
X95184504Y-128367204D01*
X95184504Y-128367204D01*
G37*
D14*
X92710000Y-129266000D03*
D13*
G36*
X95184504Y-133467204D02*
G01*
X95208773Y-133470804D01*
X95232571Y-133476765D01*
X95255671Y-133485030D01*
X95277849Y-133495520D01*
X95298893Y-133508133D01*
X95318598Y-133522747D01*
X95336777Y-133539223D01*
X95353253Y-133557402D01*
X95367867Y-133577107D01*
X95380480Y-133598151D01*
X95390970Y-133620329D01*
X95399235Y-133643429D01*
X95405196Y-133667227D01*
X95408796Y-133691496D01*
X95410000Y-133716000D01*
X95410000Y-135016000D01*
X95408796Y-135040504D01*
X95405196Y-135064773D01*
X95399235Y-135088571D01*
X95390970Y-135111671D01*
X95380480Y-135133849D01*
X95367867Y-135154893D01*
X95353253Y-135174598D01*
X95336777Y-135192777D01*
X95318598Y-135209253D01*
X95298893Y-135223867D01*
X95277849Y-135236480D01*
X95255671Y-135246970D01*
X95232571Y-135255235D01*
X95208773Y-135261196D01*
X95184504Y-135264796D01*
X95160000Y-135266000D01*
X90260000Y-135266000D01*
X90235496Y-135264796D01*
X90211227Y-135261196D01*
X90187429Y-135255235D01*
X90164329Y-135246970D01*
X90142151Y-135236480D01*
X90121107Y-135223867D01*
X90101402Y-135209253D01*
X90083223Y-135192777D01*
X90066747Y-135174598D01*
X90052133Y-135154893D01*
X90039520Y-135133849D01*
X90029030Y-135111671D01*
X90020765Y-135088571D01*
X90014804Y-135064773D01*
X90011204Y-135040504D01*
X90010000Y-135016000D01*
X90010000Y-133716000D01*
X90011204Y-133691496D01*
X90014804Y-133667227D01*
X90020765Y-133643429D01*
X90029030Y-133620329D01*
X90039520Y-133598151D01*
X90052133Y-133577107D01*
X90066747Y-133557402D01*
X90083223Y-133539223D01*
X90101402Y-133522747D01*
X90121107Y-133508133D01*
X90142151Y-133495520D01*
X90164329Y-133485030D01*
X90187429Y-133476765D01*
X90211227Y-133470804D01*
X90235496Y-133467204D01*
X90260000Y-133466000D01*
X95160000Y-133466000D01*
X95184504Y-133467204D01*
X95184504Y-133467204D01*
G37*
D14*
X92710000Y-134366000D03*
D13*
G36*
X101280504Y-133467204D02*
G01*
X101304773Y-133470804D01*
X101328571Y-133476765D01*
X101351671Y-133485030D01*
X101373849Y-133495520D01*
X101394893Y-133508133D01*
X101414598Y-133522747D01*
X101432777Y-133539223D01*
X101449253Y-133557402D01*
X101463867Y-133577107D01*
X101476480Y-133598151D01*
X101486970Y-133620329D01*
X101495235Y-133643429D01*
X101501196Y-133667227D01*
X101504796Y-133691496D01*
X101506000Y-133716000D01*
X101506000Y-135016000D01*
X101504796Y-135040504D01*
X101501196Y-135064773D01*
X101495235Y-135088571D01*
X101486970Y-135111671D01*
X101476480Y-135133849D01*
X101463867Y-135154893D01*
X101449253Y-135174598D01*
X101432777Y-135192777D01*
X101414598Y-135209253D01*
X101394893Y-135223867D01*
X101373849Y-135236480D01*
X101351671Y-135246970D01*
X101328571Y-135255235D01*
X101304773Y-135261196D01*
X101280504Y-135264796D01*
X101256000Y-135266000D01*
X96356000Y-135266000D01*
X96331496Y-135264796D01*
X96307227Y-135261196D01*
X96283429Y-135255235D01*
X96260329Y-135246970D01*
X96238151Y-135236480D01*
X96217107Y-135223867D01*
X96197402Y-135209253D01*
X96179223Y-135192777D01*
X96162747Y-135174598D01*
X96148133Y-135154893D01*
X96135520Y-135133849D01*
X96125030Y-135111671D01*
X96116765Y-135088571D01*
X96110804Y-135064773D01*
X96107204Y-135040504D01*
X96106000Y-135016000D01*
X96106000Y-133716000D01*
X96107204Y-133691496D01*
X96110804Y-133667227D01*
X96116765Y-133643429D01*
X96125030Y-133620329D01*
X96135520Y-133598151D01*
X96148133Y-133577107D01*
X96162747Y-133557402D01*
X96179223Y-133539223D01*
X96197402Y-133522747D01*
X96217107Y-133508133D01*
X96238151Y-133495520D01*
X96260329Y-133485030D01*
X96283429Y-133476765D01*
X96307227Y-133470804D01*
X96331496Y-133467204D01*
X96356000Y-133466000D01*
X101256000Y-133466000D01*
X101280504Y-133467204D01*
X101280504Y-133467204D01*
G37*
D14*
X98806000Y-134366000D03*
D13*
G36*
X101280504Y-128367204D02*
G01*
X101304773Y-128370804D01*
X101328571Y-128376765D01*
X101351671Y-128385030D01*
X101373849Y-128395520D01*
X101394893Y-128408133D01*
X101414598Y-128422747D01*
X101432777Y-128439223D01*
X101449253Y-128457402D01*
X101463867Y-128477107D01*
X101476480Y-128498151D01*
X101486970Y-128520329D01*
X101495235Y-128543429D01*
X101501196Y-128567227D01*
X101504796Y-128591496D01*
X101506000Y-128616000D01*
X101506000Y-129916000D01*
X101504796Y-129940504D01*
X101501196Y-129964773D01*
X101495235Y-129988571D01*
X101486970Y-130011671D01*
X101476480Y-130033849D01*
X101463867Y-130054893D01*
X101449253Y-130074598D01*
X101432777Y-130092777D01*
X101414598Y-130109253D01*
X101394893Y-130123867D01*
X101373849Y-130136480D01*
X101351671Y-130146970D01*
X101328571Y-130155235D01*
X101304773Y-130161196D01*
X101280504Y-130164796D01*
X101256000Y-130166000D01*
X96356000Y-130166000D01*
X96331496Y-130164796D01*
X96307227Y-130161196D01*
X96283429Y-130155235D01*
X96260329Y-130146970D01*
X96238151Y-130136480D01*
X96217107Y-130123867D01*
X96197402Y-130109253D01*
X96179223Y-130092777D01*
X96162747Y-130074598D01*
X96148133Y-130054893D01*
X96135520Y-130033849D01*
X96125030Y-130011671D01*
X96116765Y-129988571D01*
X96110804Y-129964773D01*
X96107204Y-129940504D01*
X96106000Y-129916000D01*
X96106000Y-128616000D01*
X96107204Y-128591496D01*
X96110804Y-128567227D01*
X96116765Y-128543429D01*
X96125030Y-128520329D01*
X96135520Y-128498151D01*
X96148133Y-128477107D01*
X96162747Y-128457402D01*
X96179223Y-128439223D01*
X96197402Y-128422747D01*
X96217107Y-128408133D01*
X96238151Y-128395520D01*
X96260329Y-128385030D01*
X96283429Y-128376765D01*
X96307227Y-128370804D01*
X96331496Y-128367204D01*
X96356000Y-128366000D01*
X101256000Y-128366000D01*
X101280504Y-128367204D01*
X101280504Y-128367204D01*
G37*
D14*
X98806000Y-129266000D03*
D13*
G36*
X103519504Y-129802204D02*
G01*
X103543773Y-129805804D01*
X103567571Y-129811765D01*
X103590671Y-129820030D01*
X103612849Y-129830520D01*
X103633893Y-129843133D01*
X103653598Y-129857747D01*
X103671777Y-129874223D01*
X103688253Y-129892402D01*
X103702867Y-129912107D01*
X103715480Y-129933151D01*
X103725970Y-129955329D01*
X103734235Y-129978429D01*
X103740196Y-130002227D01*
X103743796Y-130026496D01*
X103745000Y-130051000D01*
X103745000Y-130801000D01*
X103743796Y-130825504D01*
X103740196Y-130849773D01*
X103734235Y-130873571D01*
X103725970Y-130896671D01*
X103715480Y-130918849D01*
X103702867Y-130939893D01*
X103688253Y-130959598D01*
X103671777Y-130977777D01*
X103653598Y-130994253D01*
X103633893Y-131008867D01*
X103612849Y-131021480D01*
X103590671Y-131031970D01*
X103567571Y-131040235D01*
X103543773Y-131046196D01*
X103519504Y-131049796D01*
X103495000Y-131051000D01*
X102245000Y-131051000D01*
X102220496Y-131049796D01*
X102196227Y-131046196D01*
X102172429Y-131040235D01*
X102149329Y-131031970D01*
X102127151Y-131021480D01*
X102106107Y-131008867D01*
X102086402Y-130994253D01*
X102068223Y-130977777D01*
X102051747Y-130959598D01*
X102037133Y-130939893D01*
X102024520Y-130918849D01*
X102014030Y-130896671D01*
X102005765Y-130873571D01*
X101999804Y-130849773D01*
X101996204Y-130825504D01*
X101995000Y-130801000D01*
X101995000Y-130051000D01*
X101996204Y-130026496D01*
X101999804Y-130002227D01*
X102005765Y-129978429D01*
X102014030Y-129955329D01*
X102024520Y-129933151D01*
X102037133Y-129912107D01*
X102051747Y-129892402D01*
X102068223Y-129874223D01*
X102086402Y-129857747D01*
X102106107Y-129843133D01*
X102127151Y-129830520D01*
X102149329Y-129820030D01*
X102172429Y-129811765D01*
X102196227Y-129805804D01*
X102220496Y-129802204D01*
X102245000Y-129801000D01*
X103495000Y-129801000D01*
X103519504Y-129802204D01*
X103519504Y-129802204D01*
G37*
D15*
X102870000Y-130426000D03*
D13*
G36*
X103519504Y-132602204D02*
G01*
X103543773Y-132605804D01*
X103567571Y-132611765D01*
X103590671Y-132620030D01*
X103612849Y-132630520D01*
X103633893Y-132643133D01*
X103653598Y-132657747D01*
X103671777Y-132674223D01*
X103688253Y-132692402D01*
X103702867Y-132712107D01*
X103715480Y-132733151D01*
X103725970Y-132755329D01*
X103734235Y-132778429D01*
X103740196Y-132802227D01*
X103743796Y-132826496D01*
X103745000Y-132851000D01*
X103745000Y-133601000D01*
X103743796Y-133625504D01*
X103740196Y-133649773D01*
X103734235Y-133673571D01*
X103725970Y-133696671D01*
X103715480Y-133718849D01*
X103702867Y-133739893D01*
X103688253Y-133759598D01*
X103671777Y-133777777D01*
X103653598Y-133794253D01*
X103633893Y-133808867D01*
X103612849Y-133821480D01*
X103590671Y-133831970D01*
X103567571Y-133840235D01*
X103543773Y-133846196D01*
X103519504Y-133849796D01*
X103495000Y-133851000D01*
X102245000Y-133851000D01*
X102220496Y-133849796D01*
X102196227Y-133846196D01*
X102172429Y-133840235D01*
X102149329Y-133831970D01*
X102127151Y-133821480D01*
X102106107Y-133808867D01*
X102086402Y-133794253D01*
X102068223Y-133777777D01*
X102051747Y-133759598D01*
X102037133Y-133739893D01*
X102024520Y-133718849D01*
X102014030Y-133696671D01*
X102005765Y-133673571D01*
X101999804Y-133649773D01*
X101996204Y-133625504D01*
X101995000Y-133601000D01*
X101995000Y-132851000D01*
X101996204Y-132826496D01*
X101999804Y-132802227D01*
X102005765Y-132778429D01*
X102014030Y-132755329D01*
X102024520Y-132733151D01*
X102037133Y-132712107D01*
X102051747Y-132692402D01*
X102068223Y-132674223D01*
X102086402Y-132657747D01*
X102106107Y-132643133D01*
X102127151Y-132630520D01*
X102149329Y-132620030D01*
X102172429Y-132611765D01*
X102196227Y-132605804D01*
X102220496Y-132602204D01*
X102245000Y-132601000D01*
X103495000Y-132601000D01*
X103519504Y-132602204D01*
X103519504Y-132602204D01*
G37*
D15*
X102870000Y-133226000D03*
D13*
G36*
X105805504Y-132602204D02*
G01*
X105829773Y-132605804D01*
X105853571Y-132611765D01*
X105876671Y-132620030D01*
X105898849Y-132630520D01*
X105919893Y-132643133D01*
X105939598Y-132657747D01*
X105957777Y-132674223D01*
X105974253Y-132692402D01*
X105988867Y-132712107D01*
X106001480Y-132733151D01*
X106011970Y-132755329D01*
X106020235Y-132778429D01*
X106026196Y-132802227D01*
X106029796Y-132826496D01*
X106031000Y-132851000D01*
X106031000Y-133601000D01*
X106029796Y-133625504D01*
X106026196Y-133649773D01*
X106020235Y-133673571D01*
X106011970Y-133696671D01*
X106001480Y-133718849D01*
X105988867Y-133739893D01*
X105974253Y-133759598D01*
X105957777Y-133777777D01*
X105939598Y-133794253D01*
X105919893Y-133808867D01*
X105898849Y-133821480D01*
X105876671Y-133831970D01*
X105853571Y-133840235D01*
X105829773Y-133846196D01*
X105805504Y-133849796D01*
X105781000Y-133851000D01*
X104531000Y-133851000D01*
X104506496Y-133849796D01*
X104482227Y-133846196D01*
X104458429Y-133840235D01*
X104435329Y-133831970D01*
X104413151Y-133821480D01*
X104392107Y-133808867D01*
X104372402Y-133794253D01*
X104354223Y-133777777D01*
X104337747Y-133759598D01*
X104323133Y-133739893D01*
X104310520Y-133718849D01*
X104300030Y-133696671D01*
X104291765Y-133673571D01*
X104285804Y-133649773D01*
X104282204Y-133625504D01*
X104281000Y-133601000D01*
X104281000Y-132851000D01*
X104282204Y-132826496D01*
X104285804Y-132802227D01*
X104291765Y-132778429D01*
X104300030Y-132755329D01*
X104310520Y-132733151D01*
X104323133Y-132712107D01*
X104337747Y-132692402D01*
X104354223Y-132674223D01*
X104372402Y-132657747D01*
X104392107Y-132643133D01*
X104413151Y-132630520D01*
X104435329Y-132620030D01*
X104458429Y-132611765D01*
X104482227Y-132605804D01*
X104506496Y-132602204D01*
X104531000Y-132601000D01*
X105781000Y-132601000D01*
X105805504Y-132602204D01*
X105805504Y-132602204D01*
G37*
D15*
X105156000Y-133226000D03*
D13*
G36*
X105805504Y-129802204D02*
G01*
X105829773Y-129805804D01*
X105853571Y-129811765D01*
X105876671Y-129820030D01*
X105898849Y-129830520D01*
X105919893Y-129843133D01*
X105939598Y-129857747D01*
X105957777Y-129874223D01*
X105974253Y-129892402D01*
X105988867Y-129912107D01*
X106001480Y-129933151D01*
X106011970Y-129955329D01*
X106020235Y-129978429D01*
X106026196Y-130002227D01*
X106029796Y-130026496D01*
X106031000Y-130051000D01*
X106031000Y-130801000D01*
X106029796Y-130825504D01*
X106026196Y-130849773D01*
X106020235Y-130873571D01*
X106011970Y-130896671D01*
X106001480Y-130918849D01*
X105988867Y-130939893D01*
X105974253Y-130959598D01*
X105957777Y-130977777D01*
X105939598Y-130994253D01*
X105919893Y-131008867D01*
X105898849Y-131021480D01*
X105876671Y-131031970D01*
X105853571Y-131040235D01*
X105829773Y-131046196D01*
X105805504Y-131049796D01*
X105781000Y-131051000D01*
X104531000Y-131051000D01*
X104506496Y-131049796D01*
X104482227Y-131046196D01*
X104458429Y-131040235D01*
X104435329Y-131031970D01*
X104413151Y-131021480D01*
X104392107Y-131008867D01*
X104372402Y-130994253D01*
X104354223Y-130977777D01*
X104337747Y-130959598D01*
X104323133Y-130939893D01*
X104310520Y-130918849D01*
X104300030Y-130896671D01*
X104291765Y-130873571D01*
X104285804Y-130849773D01*
X104282204Y-130825504D01*
X104281000Y-130801000D01*
X104281000Y-130051000D01*
X104282204Y-130026496D01*
X104285804Y-130002227D01*
X104291765Y-129978429D01*
X104300030Y-129955329D01*
X104310520Y-129933151D01*
X104323133Y-129912107D01*
X104337747Y-129892402D01*
X104354223Y-129874223D01*
X104372402Y-129857747D01*
X104392107Y-129843133D01*
X104413151Y-129830520D01*
X104435329Y-129820030D01*
X104458429Y-129811765D01*
X104482227Y-129805804D01*
X104506496Y-129802204D01*
X104531000Y-129801000D01*
X105781000Y-129801000D01*
X105805504Y-129802204D01*
X105805504Y-129802204D01*
G37*
D15*
X105156000Y-130426000D03*
D16*
X115570000Y-98044000D03*
X119570000Y-98044000D03*
X104838000Y-109474000D03*
X100838000Y-109474000D03*
X115570000Y-112268000D03*
X119570000Y-112268000D03*
X104838000Y-123698000D03*
X100838000Y-123698000D03*
X115602000Y-125984000D03*
X119602000Y-125984000D03*
X104838000Y-137668000D03*
X100838000Y-137668000D03*
D17*
X83443000Y-150119000D03*
X83443000Y-160269000D03*
D18*
X61368000Y-155194000D03*
X133196000Y-155448000D03*
D17*
X111121000Y-150373000D03*
X111121000Y-160523000D03*
D10*
X107478000Y-99944000D03*
D11*
X108978000Y-99494000D03*
D12*
X110978000Y-99494000D03*
X110978000Y-101674000D03*
D10*
X112978000Y-98674000D03*
X107478000Y-101224000D03*
X107478000Y-102494000D03*
X112978000Y-99944000D03*
D11*
X108978000Y-101674000D03*
D10*
X112978000Y-101224000D03*
X112978000Y-102494000D03*
X107478000Y-98674000D03*
X112986000Y-108844000D03*
X107486000Y-105024000D03*
X107486000Y-106294000D03*
D11*
X111486000Y-105844000D03*
D10*
X107486000Y-107574000D03*
X112986000Y-105024000D03*
X112986000Y-106294000D03*
X107486000Y-108844000D03*
D12*
X109486000Y-105844000D03*
X109486000Y-108024000D03*
D11*
X111486000Y-108024000D03*
D10*
X112986000Y-107574000D03*
X112986000Y-123068000D03*
X107486000Y-119248000D03*
X107486000Y-120518000D03*
D11*
X111486000Y-120068000D03*
D10*
X107486000Y-121798000D03*
X112986000Y-119248000D03*
X112986000Y-120518000D03*
X107486000Y-123068000D03*
D12*
X109486000Y-120068000D03*
X109486000Y-122248000D03*
D11*
X111486000Y-122248000D03*
D10*
X112986000Y-121798000D03*
X107486000Y-126868000D03*
X112986000Y-130688000D03*
X112986000Y-129418000D03*
D11*
X108986000Y-129868000D03*
D10*
X112986000Y-128138000D03*
X107486000Y-130688000D03*
X107486000Y-129418000D03*
X112986000Y-126868000D03*
D12*
X110986000Y-129868000D03*
X110986000Y-127688000D03*
D11*
X108986000Y-127688000D03*
D10*
X107486000Y-128138000D03*
X112986000Y-135768000D03*
D11*
X111486000Y-136218000D03*
D12*
X109486000Y-136218000D03*
X109486000Y-134038000D03*
D10*
X107486000Y-137038000D03*
X112986000Y-134488000D03*
X112986000Y-133218000D03*
X107486000Y-135768000D03*
D11*
X111486000Y-134038000D03*
D10*
X107486000Y-134488000D03*
X107486000Y-133218000D03*
X112986000Y-137038000D03*
D19*
X128524000Y-103886000D03*
X116524000Y-103886000D03*
X116524000Y-118110000D03*
X128524000Y-118110000D03*
X128586000Y-131826000D03*
X116586000Y-131826000D03*
M02*
