(export (version D)
  (design
    (source "C:\\Users\\stayo\\Documents\\eagle\\Electric Car\\KiCad\\Motor Controller\\Motor Controller.sch")
    (date "4/25/2019 11:25:04 AM")
    (tool "Eeschema (5.1.0)-1")
    (sheet (number 1) (name /) (tstamps /)
      (title_block
        (title)
        (company)
        (rev)
        (date)
        (source "Motor Controller.sch")
        (comment (number 1) (value ""))
        (comment (number 2) (value ""))
        (comment (number 3) (value ""))
        (comment (number 4) (value "")))))
  (components
    (comp (ref L1)
      (value 12.5uH)
      (footprint EVCONCEPT:7443641000)
      (datasheet https://katalog.we-online.de/pbs/datasheet/7443641000.pdf)
      (libsource (lib pspice) (part INDUCTOR) (description "Capacitor symbol for simulation only"))
      (sheetpath (names /) (tstamps /))
      (tstamp 5CBE21C1))
    (comp (ref C1)
      (value 10uF)
      (footprint Capacitor_SMD:C_2220_5650Metric)
      (datasheet https://datasheet.lcsc.com/szlcsc/1903041502_Murata-Electronics-KRM55QR71J106KH01L_C363968.pdf)
      (libsource (lib pspice) (part C) (description "Capacitor symbol for simulation only"))
      (sheetpath (names /) (tstamps /))
      (tstamp 5CBE2AC3))
    (comp (ref C2)
      (value 10uF)
      (footprint Capacitor_SMD:C_2220_5650Metric)
      (datasheet https://datasheet.lcsc.com/szlcsc/1903041502_Murata-Electronics-KRM55QR71J106KH01L_C363968.pdf)
      (libsource (lib pspice) (part C) (description "Capacitor symbol for simulation only"))
      (sheetpath (names /) (tstamps /))
      (tstamp 5CBE4182))
    (comp (ref C3)
      (value 1uF)
      (footprint Capacitor_SMD:C_1206_3216Metric)
      (datasheet ~)
      (libsource (lib pspice) (part C) (description "Capacitor symbol for simulation only"))
      (sheetpath (names /) (tstamps /))
      (tstamp 5CBE4761))
    (comp (ref C4)
      (value 0.1uF)
      (footprint Capacitor_SMD:C_1206_3216Metric)
      (datasheet ~)
      (libsource (lib pspice) (part C) (description "Capacitor symbol for simulation only"))
      (sheetpath (names /) (tstamps /))
      (tstamp 5CBE48D5))
    (comp (ref C5)
      (value 10uF)
      (footprint Capacitor_SMD:C_2220_5650Metric)
      (datasheet https://datasheet.lcsc.com/szlcsc/1903041502_Murata-Electronics-KRM55QR71J106KH01L_C363968.pdf)
      (libsource (lib pspice) (part C) (description "Capacitor symbol for simulation only"))
      (sheetpath (names /) (tstamps /))
      (tstamp 5CBF2BD9))
    (comp (ref C6)
      (value 10uF)
      (footprint Capacitor_SMD:C_2220_5650Metric)
      (datasheet https://datasheet.lcsc.com/szlcsc/1903041502_Murata-Electronics-KRM55QR71J106KH01L_C363968.pdf)
      (libsource (lib pspice) (part C) (description "Capacitor symbol for simulation only"))
      (sheetpath (names /) (tstamps /))
      (tstamp 5CBF2BDF))
    (comp (ref C7)
      (value 1uF)
      (footprint Capacitor_SMD:C_1206_3216Metric)
      (datasheet ~)
      (libsource (lib pspice) (part C) (description "Capacitor symbol for simulation only"))
      (sheetpath (names /) (tstamps /))
      (tstamp 5CBF2BE5))
    (comp (ref C11)
      (value 0.1uF)
      (footprint Capacitor_SMD:C_1206_3216Metric)
      (datasheet ~)
      (libsource (lib pspice) (part C) (description "Capacitor symbol for simulation only"))
      (sheetpath (names /) (tstamps /))
      (tstamp 5CBF2BEB))
    (comp (ref C14)
      (value 10uF)
      (footprint Capacitor_SMD:C_2220_5650Metric)
      (datasheet https://datasheet.lcsc.com/szlcsc/1903041502_Murata-Electronics-KRM55QR71J106KH01L_C363968.pdf)
      (libsource (lib pspice) (part C) (description "Capacitor symbol for simulation only"))
      (sheetpath (names /) (tstamps /))
      (tstamp 5CBF845F))
    (comp (ref C15)
      (value 10uF)
      (footprint Capacitor_SMD:C_2220_5650Metric)
      (datasheet https://datasheet.lcsc.com/szlcsc/1903041502_Murata-Electronics-KRM55QR71J106KH01L_C363968.pdf)
      (libsource (lib pspice) (part C) (description "Capacitor symbol for simulation only"))
      (sheetpath (names /) (tstamps /))
      (tstamp 5CBF8465))
    (comp (ref C16)
      (value 1uF)
      (footprint Capacitor_SMD:C_1206_3216Metric)
      (datasheet ~)
      (libsource (lib pspice) (part C) (description "Capacitor symbol for simulation only"))
      (sheetpath (names /) (tstamps /))
      (tstamp 5CBF846B))
    (comp (ref C17)
      (value 0.1uF)
      (footprint Capacitor_SMD:C_1206_3216Metric)
      (datasheet ~)
      (libsource (lib pspice) (part C) (description "Capacitor symbol for simulation only"))
      (sheetpath (names /) (tstamps /))
      (tstamp 5CBF8471))
    (comp (ref L2)
      (value 12.5uH)
      (footprint EVCONCEPT:7443641000)
      (datasheet https://katalog.we-online.de/pbs/datasheet/7443641000.pdf)
      (libsource (lib pspice) (part INDUCTOR) (description "Capacitor symbol for simulation only"))
      (sheetpath (names /) (tstamps /))
      (tstamp 5CBFB7B2))
    (comp (ref J1)
      (value Screw_Terminal_01x02)
      (footprint EVCONCEPT:Super_Sabre_2PIN)
      (datasheet ~)
      (libsource (lib Connector) (part Screw_Terminal_01x02) (description "Generic screw terminal, single row, 01x02, script generated (kicad-library-utils/schlib/autogen/connector/)"))
      (sheetpath (names /) (tstamps /))
      (tstamp 5CC0D20C))
    (comp (ref Q1)
      (value CSD19534Q5A)
      (footprint EVCONCEPT:SON5x6)
      (datasheet http://www.ti.com/lit/gpn/csd19534q5a)
      (libsource (lib Transistor_FET) (part CSD19534Q5A) (description "50A Id, 100V Vds, NexFET N-Channel Power MOSFET, 15.1mOhm Ron, 17nC Qg(typ), SON8 5x6mm"))
      (sheetpath (names /) (tstamps /))
      (tstamp 5CC2D219))
    (comp (ref Q2)
      (value CSD19534Q5A)
      (footprint EVCONCEPT:SON5x6)
      (datasheet http://www.ti.com/lit/gpn/csd19534q5a)
      (libsource (lib Transistor_FET) (part CSD19534Q5A) (description "50A Id, 100V Vds, NexFET N-Channel Power MOSFET, 15.1mOhm Ron, 17nC Qg(typ), SON8 5x6mm"))
      (sheetpath (names /) (tstamps /))
      (tstamp 5CC383F2))
    (comp (ref D1)
      (value D_TVS)
      (footprint Diode_SMD:D_SMA)
      (datasheet https://datasheet.lcsc.com/szlcsc/Diodes-Incorporated-SMBJ16CA-13-F_C71870.pdf)
      (libsource (lib Device) (part D_TVS) (description "Bidirectional transient-voltage-suppression diode"))
      (sheetpath (names /) (tstamps /))
      (tstamp 5CC49CEF))
    (comp (ref D2)
      (value D_TVS)
      (footprint Diode_SMD:D_SMA)
      (datasheet https://datasheet.lcsc.com/szlcsc/Diodes-Incorporated-SMBJ16CA-13-F_C71870.pdf)
      (libsource (lib Device) (part D_TVS) (description "Bidirectional transient-voltage-suppression diode"))
      (sheetpath (names /) (tstamps /))
      (tstamp 5CC4A669))
    (comp (ref Q3)
      (value CSD19534Q5A)
      (footprint EVCONCEPT:SON5x6)
      (datasheet http://www.ti.com/lit/gpn/csd19534q5a)
      (libsource (lib Transistor_FET) (part CSD19534Q5A) (description "50A Id, 100V Vds, NexFET N-Channel Power MOSFET, 15.1mOhm Ron, 17nC Qg(typ), SON8 5x6mm"))
      (sheetpath (names /) (tstamps /))
      (tstamp 5CC67E32))
    (comp (ref Q4)
      (value CSD19534Q5A)
      (footprint EVCONCEPT:SON5x6)
      (datasheet http://www.ti.com/lit/gpn/csd19534q5a)
      (libsource (lib Transistor_FET) (part CSD19534Q5A) (description "50A Id, 100V Vds, NexFET N-Channel Power MOSFET, 15.1mOhm Ron, 17nC Qg(typ), SON8 5x6mm"))
      (sheetpath (names /) (tstamps /))
      (tstamp 5CC67E38))
    (comp (ref D3)
      (value D_TVS)
      (footprint Diode_SMD:D_SMA)
      (datasheet https://datasheet.lcsc.com/szlcsc/Diodes-Incorporated-SMBJ16CA-13-F_C71870.pdf)
      (libsource (lib Device) (part D_TVS) (description "Bidirectional transient-voltage-suppression diode"))
      (sheetpath (names /) (tstamps /))
      (tstamp 5CC67E4B))
    (comp (ref D4)
      (value D_TVS)
      (footprint Diode_SMD:D_SMA)
      (datasheet https://datasheet.lcsc.com/szlcsc/Diodes-Incorporated-SMBJ16CA-13-F_C71870.pdf)
      (libsource (lib Device) (part D_TVS) (description "Bidirectional transient-voltage-suppression diode"))
      (sheetpath (names /) (tstamps /))
      (tstamp 5CC67E51))
    (comp (ref Q5)
      (value CSD19534Q5A)
      (footprint EVCONCEPT:SON5x6)
      (datasheet http://www.ti.com/lit/gpn/csd19534q5a)
      (libsource (lib Transistor_FET) (part CSD19534Q5A) (description "50A Id, 100V Vds, NexFET N-Channel Power MOSFET, 15.1mOhm Ron, 17nC Qg(typ), SON8 5x6mm"))
      (sheetpath (names /) (tstamps /))
      (tstamp 5CC855DC))
    (comp (ref Q6)
      (value CSD19534Q5A)
      (footprint EVCONCEPT:SON5x6)
      (datasheet http://www.ti.com/lit/gpn/csd19534q5a)
      (libsource (lib Transistor_FET) (part CSD19534Q5A) (description "50A Id, 100V Vds, NexFET N-Channel Power MOSFET, 15.1mOhm Ron, 17nC Qg(typ), SON8 5x6mm"))
      (sheetpath (names /) (tstamps /))
      (tstamp 5CC855E2))
    (comp (ref D5)
      (value D_TVS)
      (footprint Diode_SMD:D_SMA)
      (datasheet https://datasheet.lcsc.com/szlcsc/Diodes-Incorporated-SMBJ16CA-13-F_C71870.pdf)
      (libsource (lib Device) (part D_TVS) (description "Bidirectional transient-voltage-suppression diode"))
      (sheetpath (names /) (tstamps /))
      (tstamp 5CC855F5))
    (comp (ref D6)
      (value D_TVS)
      (footprint Diode_SMD:D_SMA)
      (datasheet https://datasheet.lcsc.com/szlcsc/Diodes-Incorporated-SMBJ16CA-13-F_C71870.pdf)
      (libsource (lib Device) (part D_TVS) (description "Bidirectional transient-voltage-suppression diode"))
      (sheetpath (names /) (tstamps /))
      (tstamp 5CC855FB))
    (comp (ref C19)
      (value 10uF)
      (footprint Capacitor_SMD:C_2220_5650Metric)
      (datasheet https://datasheet.lcsc.com/szlcsc/1903041502_Murata-Electronics-KRM55QR71J106KH01L_C363968.pdf)
      (libsource (lib pspice) (part C) (description "Capacitor symbol for simulation only"))
      (sheetpath (names /) (tstamps /))
      (tstamp 5CC8A017))
    (comp (ref C20)
      (value 1uF)
      (footprint Capacitor_SMD:C_1206_3216Metric)
      (datasheet ~)
      (libsource (lib pspice) (part C) (description "Capacitor symbol for simulation only"))
      (sheetpath (names /) (tstamps /))
      (tstamp 5CC8A01D))
    (comp (ref C21)
      (value 0.1uF)
      (footprint Capacitor_SMD:C_1206_3216Metric)
      (datasheet ~)
      (libsource (lib pspice) (part C) (description "Capacitor symbol for simulation only"))
      (sheetpath (names /) (tstamps /))
      (tstamp 5CC8A023))
    (comp (ref U2)
      (value DRV8350RS)
      (footprint Package_DFN_QFN:Texas_S-PVQFN-N48_EP5.15x5.15mm_ThermalVias)
      (datasheet http://www.ti.com/lit/ds/symlink/drv8353.pdf)
      (libsource (lib drv8350rs) (part DRV8350RS) (description "Brushless DC motor controller, closed loop, hall sensor inputs, current limiting, SPI interface"))
      (sheetpath (names /) (tstamps /))
      (tstamp 5CCF742A))
    (comp (ref C22)
      (value 1uF)
      (footprint Capacitor_SMD:C_1206_3216Metric)
      (datasheet ~)
      (libsource (lib pspice) (part C) (description "Capacitor symbol for simulation only"))
      (sheetpath (names /) (tstamps /))
      (tstamp 5CDB912C))
    (comp (ref C24)
      (value 0.1uF)
      (footprint Capacitor_SMD:C_1206_3216Metric)
      (datasheet ~)
      (libsource (lib pspice) (part C) (description "Capacitor symbol for simulation only"))
      (sheetpath (names /) (tstamps /))
      (tstamp 5CDB9135))
    (comp (ref U5)
      (value INA240A1D)
      (footprint Package_SO:SOIC-8_3.9x4.9mm_P1.27mm)
      (datasheet http://www.ti.com/lit/ds/symlink/ina240.pdf)
      (libsource (lib Amplifier_Current) (part INA240A1D) (description "High- and Low-Side, Bidirectional, Zero-Drift, Current-Sense Amplifier With Enhanced PWM Rejection, 20V/V, SOIC-8"))
      (sheetpath (names /) (tstamps /))
      (tstamp 5CE62E47))
    (comp (ref R8)
      (value 10kΩ)
      (footprint Resistor_SMD:R_0603_1608Metric)
      (datasheet ~)
      (libsource (lib pspice) (part R) (description "Resistor symbol for simulation only"))
      (sheetpath (names /) (tstamps /))
      (tstamp 5CE8ECA2))
    (comp (ref R9)
      (value 10kΩ)
      (footprint Resistor_SMD:R_0603_1608Metric)
      (datasheet ~)
      (libsource (lib pspice) (part R) (description "Resistor symbol for simulation only"))
      (sheetpath (names /) (tstamps /))
      (tstamp 5CE93B0B))
    (comp (ref R1)
      (value 750uΩ)
      (footprint "EVCONCEPT:Shunt 7.6x15mm")
      (datasheet https://datasheet.lcsc.com/szlcsc/1812111932_ResistorToday-EWSL5930FL750S9_C349174.pdf)
      (libsource (lib pspice) (part R) (description "Resistor symbol for simulation only"))
      (sheetpath (names /) (tstamps /))
      (tstamp 5CE03702))
    (comp (ref R2)
      (value 750uΩ)
      (footprint "EVCONCEPT:Shunt 7.6x15mm")
      (datasheet https://datasheet.lcsc.com/szlcsc/1812111932_ResistorToday-EWSL5930FL750S9_C349174.pdf)
      (libsource (lib pspice) (part R) (description "Resistor symbol for simulation only"))
      (sheetpath (names /) (tstamps /))
      (tstamp 5CDFEBD6))
    (comp (ref R3)
      (value 750uΩ)
      (footprint "EVCONCEPT:Shunt 7.6x15mm")
      (datasheet https://datasheet.lcsc.com/szlcsc/1812111932_ResistorToday-EWSL5930FL750S9_C349174.pdf)
      (libsource (lib pspice) (part R) (description "Resistor symbol for simulation only"))
      (sheetpath (names /) (tstamps /))
      (tstamp 5CDFE22D))
    (comp (ref U6)
      (value INA240A1D)
      (footprint Package_SO:SOIC-8_3.9x4.9mm_P1.27mm)
      (datasheet http://www.ti.com/lit/ds/symlink/ina240.pdf)
      (libsource (lib Amplifier_Current) (part INA240A1D) (description "High- and Low-Side, Bidirectional, Zero-Drift, Current-Sense Amplifier With Enhanced PWM Rejection, 20V/V, SOIC-8"))
      (sheetpath (names /) (tstamps /))
      (tstamp 5CF2361B))
    (comp (ref R12)
      (value 10kΩ)
      (footprint Resistor_SMD:R_0603_1608Metric)
      (datasheet ~)
      (libsource (lib pspice) (part R) (description "Resistor symbol for simulation only"))
      (sheetpath (names /) (tstamps /))
      (tstamp 5CF2362F))
    (comp (ref R13)
      (value 10kΩ)
      (footprint Resistor_SMD:R_0603_1608Metric)
      (datasheet ~)
      (libsource (lib pspice) (part R) (description "Resistor symbol for simulation only"))
      (sheetpath (names /) (tstamps /))
      (tstamp 5CF23635))
    (comp (ref U8)
      (value INA240A1D)
      (footprint Package_SO:SOIC-8_3.9x4.9mm_P1.27mm)
      (datasheet http://www.ti.com/lit/ds/symlink/ina240.pdf)
      (libsource (lib Amplifier_Current) (part INA240A1D) (description "High- and Low-Side, Bidirectional, Zero-Drift, Current-Sense Amplifier With Enhanced PWM Rejection, 20V/V, SOIC-8"))
      (sheetpath (names /) (tstamps /))
      (tstamp 5CF2A767))
    (comp (ref R14)
      (value 10kΩ)
      (footprint Resistor_SMD:R_0603_1608Metric)
      (datasheet ~)
      (libsource (lib pspice) (part R) (description "Resistor symbol for simulation only"))
      (sheetpath (names /) (tstamps /))
      (tstamp 5CF2A77B))
    (comp (ref R15)
      (value 10kΩ)
      (footprint Resistor_SMD:R_0603_1608Metric)
      (datasheet ~)
      (libsource (lib pspice) (part R) (description "Resistor symbol for simulation only"))
      (sheetpath (names /) (tstamps /))
      (tstamp 5CF2A781))
    (comp (ref J4)
      (value Screw_Terminal_01x03)
      (footprint EVCONCEPT:Super_Sabre_3PIN)
      (datasheet ~)
      (libsource (lib Connector) (part Screw_Terminal_01x03) (description "Generic screw terminal, single row, 01x03, script generated (kicad-library-utils/schlib/autogen/connector/)"))
      (sheetpath (names /) (tstamps /))
      (tstamp 5CCB4964))
    (comp (ref C27)
      (value 0.1uF)
      (footprint Capacitor_SMD:C_1206_3216Metric)
      (datasheet ~)
      (libsource (lib pspice) (part C) (description "Capacitor symbol for simulation only"))
      (sheetpath (names /) (tstamps /))
      (tstamp 5CF9F0F5))
    (comp (ref C28)
      (value 0.1uF)
      (footprint Capacitor_SMD:C_1206_3216Metric)
      (datasheet ~)
      (libsource (lib pspice) (part C) (description "Capacitor symbol for simulation only"))
      (sheetpath (names /) (tstamps /))
      (tstamp 5CFA40E3))
    (comp (ref C29)
      (value 0.1uF)
      (footprint Capacitor_SMD:C_1206_3216Metric)
      (datasheet ~)
      (libsource (lib pspice) (part C) (description "Capacitor symbol for simulation only"))
      (sheetpath (names /) (tstamps /))
      (tstamp 5CFA9004))
    (comp (ref C8)
      (value 0.1uF)
      (footprint Capacitor_SMD:C_1206_3216Metric)
      (datasheet ~)
      (libsource (lib pspice) (part C) (description "Capacitor symbol for simulation only"))
      (sheetpath (names /) (tstamps /))
      (tstamp 5CFC0CF8))
    (comp (ref C12)
      (value 1uF)
      (footprint Capacitor_SMD:C_1206_3216Metric)
      (datasheet ~)
      (libsource (lib pspice) (part C) (description "Capacitor symbol for simulation only"))
      (sheetpath (names /) (tstamps /))
      (tstamp 5CFC8F56))
    (comp (ref C9)
      (value 1uF)
      (footprint Capacitor_SMD:C_1206_3216Metric)
      (datasheet ~)
      (libsource (lib pspice) (part C) (description "Capacitor symbol for simulation only"))
      (sheetpath (names /) (tstamps /))
      (tstamp 5CFD63F2))
    (comp (ref C13)
      (value 0.47uF)
      (footprint Capacitor_SMD:C_1206_3216Metric)
      (datasheet ~)
      (libsource (lib pspice) (part C) (description "Capacitor symbol for simulation only"))
      (sheetpath (names /) (tstamps /))
      (tstamp 5CFE21A9))
    (comp (ref C10)
      (value 0.01uF)
      (footprint Capacitor_SMD:C_1206_3216Metric)
      (datasheet ~)
      (libsource (lib pspice) (part C) (description "Capacitor symbol for simulation only"))
      (sheetpath (names /) (tstamps /))
      (tstamp 5CFE895E))
    (comp (ref R4)
      (value 232kΩ)
      (footprint Resistor_SMD:R_0603_1608Metric)
      (datasheet ~)
      (libsource (lib pspice) (part R) (description "Resistor symbol for simulation only"))
      (sheetpath (names /) (tstamps /))
      (tstamp 5CFF510C))
    (comp (ref R7)
      (value 10kΩ)
      (footprint Resistor_SMD:R_0603_1608Metric)
      (datasheet ~)
      (libsource (lib pspice) (part R) (description "Resistor symbol for simulation only"))
      (sheetpath (names /) (tstamps /))
      (tstamp 5CFFA624))
    (comp (ref D7)
      (value DIODE)
      (footprint Diode_SMD:D_SMA)
      (datasheet ~)
      (libsource (lib pspice) (part DIODE) (description "Diode symbol for simulation only. Pin order incompatible with official kicad footprints"))
      (sheetpath (names /) (tstamps /))
      (tstamp 5D0254A5))
    (comp (ref R10)
      (value 50kΩ)
      (footprint Resistor_SMD:R_0603_1608Metric)
      (datasheet ~)
      (libsource (lib pspice) (part R) (description "Resistor symbol for simulation only"))
      (sheetpath (names /) (tstamps /))
      (tstamp 5D02CCAD))
    (comp (ref R11)
      (value 50kΩ)
      (footprint Resistor_SMD:R_0603_1608Metric)
      (datasheet ~)
      (libsource (lib pspice) (part R) (description "Resistor symbol for simulation only"))
      (sheetpath (names /) (tstamps /))
      (tstamp 5D06C0BF))
    (comp (ref C23)
      (value 100uF)
      (footprint Capacitor_SMD:C_1206_3216Metric)
      (datasheet ~)
      (libsource (lib pspice) (part C) (description "Capacitor symbol for simulation only"))
      (sheetpath (names /) (tstamps /))
      (tstamp 5D083574))
    (comp (ref C25)
      (value 100uF)
      (footprint Capacitor_SMD:C_1206_3216Metric)
      (datasheet ~)
      (libsource (lib pspice) (part C) (description "Capacitor symbol for simulation only"))
      (sheetpath (names /) (tstamps /))
      (tstamp 5D08357A))
    (comp (ref C26)
      (value 100uF)
      (footprint Capacitor_SMD:C_1206_3216Metric)
      (datasheet ~)
      (libsource (lib pspice) (part C) (description "Capacitor symbol for simulation only"))
      (sheetpath (names /) (tstamps /))
      (tstamp 5D083580))
    (comp (ref R6)
      (value 10kΩ)
      (footprint Resistor_SMD:R_0603_1608Metric)
      (datasheet ~)
      (libsource (lib pspice) (part R) (description "Resistor symbol for simulation only"))
      (sheetpath (names /) (tstamps /))
      (tstamp 5D0CA69E))
    (comp (ref R5)
      (value 1kΩ)
      (footprint Resistor_SMD:R_0603_1608Metric)
      (datasheet ~)
      (libsource (lib pspice) (part R) (description "Resistor symbol for simulation only"))
      (sheetpath (names /) (tstamps /))
      (tstamp 5D0D07FB))
    (comp (ref J2)
      (value Conn_01x08_MountingPin)
      (footprint Connector_PinHeader_1.27mm:PinHeader_1x08_P1.27mm_Vertical)
      (datasheet ~)
      (libsource (lib Connector_Generic_MountingPin) (part Conn_01x08_MountingPin) (description "Generic connectable mounting pin connector, single row, 01x08, script generated (kicad-library-utils/schlib/autogen/connector/)"))
      (sheetpath (names /) (tstamps /))
      (tstamp 5CC0EB35))
    (comp (ref J3)
      (value Conn_01x08_MountingPin)
      (footprint Connector_PinHeader_1.27mm:PinHeader_1x08_P1.27mm_Vertical)
      (datasheet ~)
      (libsource (lib Connector_Generic_MountingPin) (part Conn_01x08_MountingPin) (description "Generic connectable mounting pin connector, single row, 01x08, script generated (kicad-library-utils/schlib/autogen/connector/)"))
      (sheetpath (names /) (tstamps /))
      (tstamp 5CC254E5))
    (comp (ref U1)
      (value ISO7762)
      (footprint Package_SO:SSOP-16_3.9x4.9mm_P0.635mm)
      (datasheet http://www.ti.com/product/ISO7760/datasheet?keyMatch=iso7760&tisearch=Search-EN-Everything)
      (libsource (lib Motor-Controller-rescue) (part ISO7762-EVCONCEPT) (description ""))
      (sheetpath (names /) (tstamps /))
      (tstamp 5CC72B88))
    (comp (ref U3)
      (value ISO7760)
      (footprint Package_SO:SSOP-16_3.9x4.9mm_P0.635mm)
      (datasheet http://www.ti.com/product/ISO7760/datasheet?keyMatch=iso7760&tisearch=Search-EN-Everything)
      (libsource (lib Motor-Controller-rescue) (part ISO7760-EVCONCEPT) (description ""))
      (sheetpath (names /) (tstamps /))
      (tstamp 5CC7432C))
    (comp (ref U4)
      (value ADS131M04)
      (footprint Package_SO:TSSOP-20_4.4x6.5mm_P0.65mm)
      (datasheet http://www.ti.com/lit/ds/symlink/ads131m04.pdf)
      (libsource (lib Motor-Controller-rescue) (part ADS131M04-EVCONCEPT) (description ""))
      (sheetpath (names /) (tstamps /))
      (tstamp 5CC890FB))
    (comp (ref J5)
      (value Conn_01x08_MountingPin)
      (footprint Connector_PinHeader_1.27mm:PinHeader_1x08_P1.27mm_Vertical)
      (datasheet ~)
      (libsource (lib Connector_Generic_MountingPin) (part Conn_01x08_MountingPin) (description "Generic connectable mounting pin connector, single row, 01x08, script generated (kicad-library-utils/schlib/autogen/connector/)"))
      (sheetpath (names /) (tstamps /))
      (tstamp 5CD2AF19))
    (comp (ref U7)
      (value ISO7762)
      (footprint Package_SO:SSOP-16_3.9x4.9mm_P0.635mm)
      (datasheet http://www.ti.com/product/ISO7760/datasheet?keyMatch=iso7760&tisearch=Search-EN-Everything)
      (libsource (lib Motor-Controller-rescue) (part ISO7762-EVCONCEPT) (description ""))
      (sheetpath (names /) (tstamps /))
      (tstamp 5CD2AF2C))
    (comp (ref C18)
      (value 0.01uF)
      (footprint Capacitor_SMD:C_1206_3216Metric)
      (datasheet ~)
      (libsource (lib pspice) (part C) (description "Capacitor symbol for simulation only"))
      (sheetpath (names /) (tstamps /))
      (tstamp 5CD32E4B))
    (comp (ref C33)
      (value 0.1uF)
      (footprint Capacitor_SMD:C_1206_3216Metric)
      (datasheet ~)
      (libsource (lib pspice) (part C) (description "Capacitor symbol for simulation only"))
      (sheetpath (names /) (tstamps /))
      (tstamp 5CE77F42))
    (comp (ref C30)
      (value 0.1uF)
      (footprint Capacitor_SMD:C_1206_3216Metric)
      (datasheet ~)
      (libsource (lib pspice) (part C) (description "Capacitor symbol for simulation only"))
      (sheetpath (names /) (tstamps /))
      (tstamp 5CE90A92))
    (comp (ref C31)
      (value 0.1uF)
      (footprint Capacitor_SMD:C_1206_3216Metric)
      (datasheet ~)
      (libsource (lib pspice) (part C) (description "Capacitor symbol for simulation only"))
      (sheetpath (names /) (tstamps /))
      (tstamp 5CE90A98))
    (comp (ref C32)
      (value 0.1uF)
      (footprint Capacitor_SMD:C_1206_3216Metric)
      (datasheet ~)
      (libsource (lib pspice) (part C) (description "Capacitor symbol for simulation only"))
      (sheetpath (names /) (tstamps /))
      (tstamp 5CE90A9E))
    (comp (ref J6)
      (value Conn_01x05_Female)
      (footprint Connector_PinHeader_1.27mm:PinHeader_1x05_P1.27mm_Vertical)
      (datasheet ~)
      (libsource (lib Connector) (part Conn_01x05_Female) (description "Generic connector, single row, 01x05, script generated (kicad-library-utils/schlib/autogen/connector/)"))
      (sheetpath (names /) (tstamps /))
      (tstamp 5CC1ED39))
    (comp (ref U9)
      (value TLV75533PDBV)
      (footprint Package_TO_SOT_SMD:SOT-23-5)
      (datasheet http://www.ti.com/lit/ds/symlink/tlv755p.pdf)
      (libsource (lib Regulator_Linear) (part TLV75533PDBV) (description "500mA Low Dropout Voltage Regulator, Fixed Output 3.3V, SOT-23-5"))
      (sheetpath (names /) (tstamps /))
      (tstamp 5CC42260))
    (comp (ref C34)
      (value 1uF)
      (footprint Capacitor_SMD:C_1206_3216Metric)
      (datasheet ~)
      (libsource (lib pspice) (part C) (description "Capacitor symbol for simulation only"))
      (sheetpath (names /) (tstamps /))
      (tstamp 5CC4EFF0))
    (comp (ref L3)
      (value 47uH)
      (footprint Inductor_SMD:L_10.4x10.4_H4.8)
      (datasheet https://katalog.we-online.de/pbs/datasheet/7443641000.pdf)
      (libsource (lib pspice) (part INDUCTOR) (description "Capacitor symbol for simulation only"))
      (sheetpath (names /) (tstamps /))
      (tstamp 5CC26A5B)))
  (libparts
    (libpart (lib Amplifier_Current) (part INA240A1D)
      (aliases
        (alias INA240A2D)
        (alias INA240A3D)
        (alias INA240A4D))
      (description "High- and Low-Side, Bidirectional, Zero-Drift, Current-Sense Amplifier With Enhanced PWM Rejection, 20V/V, SOIC-8")
      (docs http://www.ti.com/lit/ds/symlink/ina240.pdf)
      (footprints
        (fp SOIC*3.9x4.9mm*P1.27mm*))
      (fields
        (field (name Reference) U)
        (field (name Value) INA240A1D)
        (field (name Footprint) Package_SO:SOIC-8_3.9x4.9mm_P1.27mm))
      (pins
        (pin (num 1) (name -) (type input))
        (pin (num 2) (name GND) (type power_in))
        (pin (num 3) (name REF2) (type passive))
        (pin (num 4) (name GND) (type passive))
        (pin (num 5) (name ~) (type output))
        (pin (num 6) (name V+) (type power_in))
        (pin (num 7) (name REF1) (type passive))
        (pin (num 8) (name +) (type input))))
    (libpart (lib Connector) (part Conn_01x05_Female)
      (description "Generic connector, single row, 01x05, script generated (kicad-library-utils/schlib/autogen/connector/)")
      (docs ~)
      (footprints
        (fp Connector*:*_1x??_*))
      (fields
        (field (name Reference) J)
        (field (name Value) Conn_01x05_Female))
      (pins
        (pin (num 1) (name Pin_1) (type passive))
        (pin (num 2) (name Pin_2) (type passive))
        (pin (num 3) (name Pin_3) (type passive))
        (pin (num 4) (name Pin_4) (type passive))
        (pin (num 5) (name Pin_5) (type passive))))
    (libpart (lib Connector) (part Screw_Terminal_01x02)
      (description "Generic screw terminal, single row, 01x02, script generated (kicad-library-utils/schlib/autogen/connector/)")
      (docs ~)
      (footprints
        (fp TerminalBlock*:*))
      (fields
        (field (name Reference) J)
        (field (name Value) Screw_Terminal_01x02))
      (pins
        (pin (num 1) (name Pin_1) (type passive))
        (pin (num 2) (name Pin_2) (type passive))))
    (libpart (lib Connector) (part Screw_Terminal_01x03)
      (description "Generic screw terminal, single row, 01x03, script generated (kicad-library-utils/schlib/autogen/connector/)")
      (docs ~)
      (footprints
        (fp TerminalBlock*:*))
      (fields
        (field (name Reference) J)
        (field (name Value) Screw_Terminal_01x03))
      (pins
        (pin (num 1) (name Pin_1) (type passive))
        (pin (num 2) (name Pin_2) (type passive))
        (pin (num 3) (name Pin_3) (type passive))))
    (libpart (lib Connector_Generic_MountingPin) (part Conn_01x08_MountingPin)
      (description "Generic connectable mounting pin connector, single row, 01x08, script generated (kicad-library-utils/schlib/autogen/connector/)")
      (docs ~)
      (footprints
        (fp Connector*:*_1x??-1MP*))
      (fields
        (field (name Reference) J)
        (field (name Value) Conn_01x08_MountingPin))
      (pins
        (pin (num 1) (name Pin_1) (type passive))
        (pin (num 2) (name Pin_2) (type passive))
        (pin (num 3) (name Pin_3) (type passive))
        (pin (num 4) (name Pin_4) (type passive))
        (pin (num 5) (name Pin_5) (type passive))
        (pin (num 6) (name Pin_6) (type passive))
        (pin (num 7) (name Pin_7) (type passive))
        (pin (num 8) (name Pin_8) (type passive))
        (pin (num MP) (name MountPin) (type passive))))
    (libpart (lib Device) (part D_TVS)
      (description "Bidirectional transient-voltage-suppression diode")
      (docs ~)
      (footprints
        (fp TO-???*)
        (fp *_Diode_*)
        (fp *SingleDiode*)
        (fp D_*))
      (fields
        (field (name Reference) D)
        (field (name Value) D_TVS))
      (pins
        (pin (num 1) (name A1) (type passive))
        (pin (num 2) (name A2) (type passive))))
    (libpart (lib Motor-Controller-rescue) (part ADS131M04-EVCONCEPT)
      (fields
        (field (name Reference) U)
        (field (name Value) ADS131M04-EVCONCEPT))
      (pins
        (pin (num 1) (name AVDD) (type input))
        (pin (num 2) (name AGND) (type input))
        (pin (num 3) (name AIN0P) (type input))
        (pin (num 4) (name AIN0N) (type input))
        (pin (num 5) (name AIN1P) (type input))
        (pin (num 6) (name AIN1N) (type input))
        (pin (num 7) (name AIN2P) (type input))
        (pin (num 8) (name AIN2N) (type input))
        (pin (num 9) (name AIN3P) (type input))
        (pin (num 10) (name AIN3N) (type input))
        (pin (num 11) (name nSYNC/nRESET) (type input))
        (pin (num 12) (name nCS) (type input))
        (pin (num 13) (name nDRDY) (type input))
        (pin (num 14) (name SCLK) (type input))
        (pin (num 15) (name DOUT) (type input))
        (pin (num 16) (name DIN) (type input))
        (pin (num 17) (name CLKIN) (type input))
        (pin (num 18) (name CAP) (type input))
        (pin (num 19) (name DGND) (type input))
        (pin (num 20) (name DVDD) (type input))))
    (libpart (lib Motor-Controller-rescue) (part ISO7760-EVCONCEPT)
      (fields
        (field (name Reference) U)
        (field (name Value) ISO7760-EVCONCEPT))
      (pins
        (pin (num 1) (name Vcc1) (type input))
        (pin (num 2) (name INA) (type input))
        (pin (num 3) (name INB) (type input))
        (pin (num 4) (name INC) (type input))
        (pin (num 5) (name IND) (type input))
        (pin (num 6) (name INE) (type input))
        (pin (num 7) (name INF) (type input))
        (pin (num 8) (name GND1) (type input))
        (pin (num 9) (name GND2) (type input))
        (pin (num 10) (name OUTF) (type input))
        (pin (num 11) (name OUTE) (type input))
        (pin (num 12) (name OUTD) (type input))
        (pin (num 13) (name OUTC) (type input))
        (pin (num 14) (name OUTB) (type input))
        (pin (num 15) (name OUTA) (type input))
        (pin (num 16) (name Vcc2) (type input))))
    (libpart (lib Motor-Controller-rescue) (part ISO7762-EVCONCEPT)
      (fields
        (field (name Reference) U)
        (field (name Value) ISO7762-EVCONCEPT))
      (pins
        (pin (num 1) (name Vcc1) (type input))
        (pin (num 2) (name INA) (type input))
        (pin (num 3) (name INB) (type input))
        (pin (num 4) (name INC) (type input))
        (pin (num 5) (name IND) (type input))
        (pin (num 6) (name OUTE) (type input))
        (pin (num 7) (name OUTF) (type input))
        (pin (num 8) (name GND1) (type input))
        (pin (num 9) (name GND2) (type input))
        (pin (num 10) (name INF) (type input))
        (pin (num 11) (name INE) (type input))
        (pin (num 12) (name OUTD) (type input))
        (pin (num 13) (name OUTC) (type input))
        (pin (num 14) (name OUTB) (type input))
        (pin (num 15) (name OUTA) (type input))
        (pin (num 16) (name Vcc2) (type input))))
    (libpart (lib Regulator_Linear) (part TLV71209_SOT23-5)
      (aliases
        (alias TLV71210_SOT23-5)
        (alias TLV71211_SOT23-5)
        (alias TLV71310PDBV)
        (alias TLV71311PDBV)
        (alias TLV71312PDBV)
        (alias TLV71315PDBV)
        (alias TLV71318PDBV)
        (alias TLV713185PDBV)
        (alias TLV71325PDBV)
        (alias TLV71328PDBV)
        (alias TLV713285PDBV)
        (alias TLV71330PDBV)
        (alias TLV71333PDBV)
        (alias TLV75509PDBV)
        (alias TLV75510PDBV)
        (alias TLV75512PDBV)
        (alias TLV75515PDBV)
        (alias TLV75518PDBV)
        (alias TLV75519PDBV)
        (alias TLV75525PDBV)
        (alias TLV75528PDBV)
        (alias TLV75529PDBV)
        (alias TLV75530PDBV)
        (alias TLV75533PDBV))
      (description "300mA Low Dropout Voltage Regulator, Fixed Output 0.9V, SOT-23-5")
      (docs http://www.ti.com/lit/ds/symlink/tlv712.pdf)
      (footprints
        (fp SOT?23*))
      (fields
        (field (name Reference) U)
        (field (name Value) TLV71209_SOT23-5)
        (field (name Footprint) Package_TO_SOT_SMD:SOT-23-5))
      (pins
        (pin (num 1) (name IN) (type power_in))
        (pin (num 2) (name GND) (type power_in))
        (pin (num 3) (name EN) (type input))
        (pin (num 4) (name NC) (type NotConnected))
        (pin (num 5) (name OUT) (type power_out))))
    (libpart (lib Transistor_FET) (part CSD17578Q5A)
      (aliases
        (alias CSD17579Q5A)
        (alias CSD16570Q5B)
        (alias CSD17577Q5A)
        (alias CSD18509Q5B)
        (alias CSD18540Q5B)
        (alias CSD17573Q5B)
        (alias CSD17576Q5B)
        (alias CSD19534Q5A)
        (alias CSD17570Q5B)
        (alias CSD19533Q5A)
        (alias CSD19502Q5B)
        (alias CSD19532Q5B)
        (alias CSD19531Q5A)
        (alias CSD18563Q5A)
        (alias CSD18537NQ5A)
        (alias CSD18532NQ5B)
        (alias CSD17556Q5B)
        (alias CSD18502Q5B)
        (alias CSD18532Q5B)
        (alias CSD17552Q5A)
        (alias CSD17559Q5)
        (alias CSD18534Q5A)
        (alias CSD18533Q5A)
        (alias CSD17555Q5A)
        (alias CSD17551Q5A)
        (alias CSD18501Q5A)
        (alias CSD18503Q5A)
        (alias CSD18504Q5A)
        (alias CSD18531Q5A)
        (alias CSD17553Q5A)
        (alias CSD16342Q5A)
        (alias CSD17322Q5A)
        (alias CSD17327Q5A)
        (alias CSD17522Q5A)
        (alias CSD17527Q5A)
        (alias CSD17501Q5A)
        (alias CSD17506Q5A)
        (alias CSD17505Q5A)
        (alias CSD17507Q5A)
        (alias CSD17510Q5A)
        (alias CSD17311Q5)
        (alias CSD17312Q5)
        (alias CSD17303Q5)
        (alias CSD16415Q5)
        (alias CSD17302Q5A)
        (alias CSD17305Q5A)
        (alias CSD17306Q5A)
        (alias CSD17307Q5A)
        (alias CSD17310Q5A)
        (alias CSD17301Q5A)
        (alias CSD16408Q5)
        (alias CSD16322Q5)
        (alias CSD16325Q5)
        (alias CSD16321Q5)
        (alias CSD16414Q5)
        (alias CSD16401Q5)
        (alias CSD16403Q5A)
        (alias CSD16404Q5A)
        (alias CSD16407Q5)
        (alias CSD16410Q5A)
        (alias CSD16412Q5A)
        (alias CSD16413Q5A)
        (alias BSC026N08NS5)
        (alias BSC030N08NS5)
        (alias BSC035N10NS5)
        (alias BSC037N08NS5)
        (alias BSC040N10NS5)
        (alias BSC040N08NS5)
        (alias BSC046N10NS3G)
        (alias BSC047N08NS3G)
        (alias BSC052N08NS5)
        (alias BSC057N08NS3G)
        (alias BSC060N10NS3G)
        (alias BSC061N08NS5)
        (alias BSC070N10NS3G)
        (alias BSC070N10NS5)
        (alias BSC072N08NS5)
        (alias BSC079N10NSG)
        (alias BSC082N10LSG)
        (alias BSC098N10NS5)
        (alias BSC100N10NSFG)
        (alias BSC105N10LSFG)
        (alias BSC109N10NS3G)
        (alias BSC117N08NS5)
        (alias BSC118N10NSG)
        (alias BSC123N08NS3G)
        (alias BSC123N10LSG)
        (alias BSC159N10LSFG)
        (alias BSC160N10NS3G)
        (alias BSC196N10NSG)
        (alias BSC252N10NSFG)
        (alias BSC265N10LSFG)
        (alias BSC340N08NS3G)
        (alias BSC440N10NS3G)
        (alias BSC028N06LS3)
        (alias FDMS8350LET40)
        (alias FDMT80060DC)
        (alias FDMT80080DC)
        (alias FDMT800120DC)
        (alias FDMT800100DC)
        (alias FDMT800150DC)
        (alias FDMT800152DC)
        (alias FDMS8050ET30)
        (alias FDMS86202ET120)
        (alias FDMS86150ET100)
        (alias FDMS86255ET150)
        (alias FDMS86350ET80)
        (alias FDMS86550ET60)
        (alias FDMS8050)
        (alias FDMS8350L)
        (alias FDMS86255)
        (alias FDMS86550)
        (alias FDMS86202)
        (alias FDMS86350)
        (alias FDMS86152)
        (alias FDMS86150))
      (description "25A Id, 30V Vds, NexFET N-Channel Power MOSFET, 6.9mOhm Ron, Qg (typ) 7.9nC, SON8 5x6mm")
      (docs http://www.ti.com/lit/gpn/csd17578q5a)
      (footprints
        (fp TDSON*))
      (fields
        (field (name Reference) Q)
        (field (name Value) CSD17578Q5A)
        (field (name Footprint) Package_TO_SOT_SMD:TDSON-8-1))
      (pins
        (pin (num 1) (name S) (type passive))
        (pin (num 2) (name S) (type passive))
        (pin (num 3) (name S) (type passive))
        (pin (num 4) (name G) (type passive))
        (pin (num 5) (name D) (type passive))))
    (libpart (lib drv8350rs) (part DRV8350RS)
      (description "Brushless DC motor controller, closed loop, hall sensor inputs, current limiting, SPI interface")
      (docs http://www.ti.com/lit/ds/symlink/drv8353.pdf)
      (footprints
        (fp PQFP))
      (fields
        (field (name Reference) U)
        (field (name Value) DRV8350RS)
        (field (name Footprint) Package_DFN_QFN:Texas_S-PVQFN-N48_EP5.15x5.15mm_ThermalVias))
      (pins
        (pin (num 1) (name GND) (type input))
        (pin (num 2) (name VGLS) (type input))
        (pin (num 3) (name CPL) (type input))
        (pin (num 4) (name CPH) (type input))
        (pin (num 5) (name VM) (type input))
        (pin (num 6) (name VDRAIN) (type input))
        (pin (num 7) (name VCP) (type input))
        (pin (num 8) (name GHA) (type input))
        (pin (num 9) (name SHA) (type input))
        (pin (num 10) (name GLA) (type input))
        (pin (num 11) (name SLA) (type input))
        (pin (num 14) (name SLB) (type input))
        (pin (num 15) (name GLB) (type input))
        (pin (num 16) (name SHB) (type input))
        (pin (num 17) (name GHB) (type input))
        (pin (num 18) (name GHC) (type input))
        (pin (num 19) (name SHC) (type input))
        (pin (num 20) (name GLC) (type input))
        (pin (num 21) (name SLC) (type input))
        (pin (num 27) (name AGND) (type input))
        (pin (num 28) (name NFault) (type input))
        (pin (num 29) (name SDO) (type input))
        (pin (num 30) (name SDI) (type input))
        (pin (num 31) (name SCLK) (type input))
        (pin (num 32) (name NSCS) (type input))
        (pin (num 33) (name ENABLE) (type input))
        (pin (num 34) (name INHA) (type input))
        (pin (num 35) (name INLA) (type input))
        (pin (num 36) (name INHB) (type input))
        (pin (num 37) (name INLB) (type input))
        (pin (num 38) (name INHC) (type input))
        (pin (num 39) (name INLC) (type input))
        (pin (num 40) (name DVDD) (type input))
        (pin (num 41) (name DGND) (type input))
        (pin (num 42) (name SW) (type input))
        (pin (num 43) (name VIN) (type input))
        (pin (num 44) (name VCC) (type input))
        (pin (num 45) (name BST) (type input))
        (pin (num 46) (name RCL) (type input))
        (pin (num 47) (name RT/SD) (type input))
        (pin (num 48) (name FB) (type input))
        (pin (num 49) (name PAD) (type input))))
    (libpart (lib pspice) (part CAP)
      (aliases
        (alias C))
      (description "Capacitor symbol for simulation only")
      (docs ~)
      (fields
        (field (name Reference) C)
        (field (name Value) CAP))
      (pins
        (pin (num 1) (name ~) (type passive))
        (pin (num 2) (name ~) (type passive))))
    (libpart (lib pspice) (part DIODE)
      (description "Diode symbol for simulation only. Pin order incompatible with official kicad footprints")
      (docs ~)
      (fields
        (field (name Reference) D)
        (field (name Value) DIODE))
      (pins
        (pin (num 1) (name K) (type input))
        (pin (num 2) (name A) (type input))))
    (libpart (lib pspice) (part INDUCTOR)
      (description "Capacitor symbol for simulation only")
      (docs ~)
      (fields
        (field (name Reference) L)
        (field (name Value) INDUCTOR))
      (pins
        (pin (num 1) (name 1) (type input))
        (pin (num 2) (name 2) (type input))))
    (libpart (lib pspice) (part R)
      (description "Resistor symbol for simulation only")
      (docs ~)
      (fields
        (field (name Reference) R)
        (field (name Value) R))
      (pins
        (pin (num 1) (name ~) (type passive))
        (pin (num 2) (name ~) (type passive)))))
  (libraries
    (library (logical Amplifier_Current)
      (uri "C:\\Program Files\\KiCad\\share\\kicad\\library/Amplifier_Current.lib"))
    (library (logical Connector)
      (uri "C:\\Program Files\\KiCad\\share\\kicad\\library/Connector.lib"))
    (library (logical Connector_Generic_MountingPin)
      (uri "C:\\Program Files\\KiCad\\share\\kicad\\library/Connector_Generic_MountingPin.lib"))
    (library (logical Device)
      (uri "C:\\Program Files\\KiCad\\share\\kicad\\library/Device.lib"))
    (library (logical Motor-Controller-rescue)
      (uri "C:\\Users\\stayo\\Documents\\eagle\\Electric Car\\KiCad\\Motor Controller/Motor Controller-rescue.lib"))
    (library (logical Regulator_Linear)
      (uri "C:\\Program Files\\KiCad\\share\\kicad\\library/Regulator_Linear.lib"))
    (library (logical Transistor_FET)
      (uri "C:\\Program Files\\KiCad\\share\\kicad\\library/Transistor_FET.lib"))
    (library (logical drv8350rs)
      (uri "C:/Users/stayo/Documents/eagle/Electric Car/KiCad/Motor Controller/drv8350rs.lib"))
    (library (logical pspice)
      (uri "C:\\Program Files\\KiCad\\share\\kicad\\library/pspice.lib")))
  (nets
    (net (code 1) (name VCC)
      (node (ref C24) (pin 1))
      (node (ref C22) (pin 1))
      (node (ref C17) (pin 1))
      (node (ref C16) (pin 1))
      (node (ref C15) (pin 1))
      (node (ref C14) (pin 1))
      (node (ref R5) (pin 1))
      (node (ref Q1) (pin 5))
      (node (ref U2) (pin 6))
      (node (ref U2) (pin 5))
      (node (ref U2) (pin 44))
      (node (ref C8) (pin 1))
      (node (ref Q5) (pin 5))
      (node (ref C7) (pin 1))
      (node (ref C6) (pin 1))
      (node (ref C5) (pin 1))
      (node (ref C11) (pin 1))
      (node (ref C21) (pin 1))
      (node (ref C19) (pin 1))
      (node (ref C20) (pin 1))
      (node (ref Q3) (pin 5))
      (node (ref C3) (pin 1))
      (node (ref C4) (pin 1))
      (node (ref C2) (pin 1))
      (node (ref C1) (pin 1))
      (node (ref R6) (pin 1))
      (node (ref R4) (pin 1))
      (node (ref L1) (pin 1))
      (node (ref C13) (pin 1)))
    (net (code 2) (name GND)
      (node (ref C14) (pin 2))
      (node (ref J6) (pin 4))
      (node (ref C15) (pin 2))
      (node (ref C3) (pin 2))
      (node (ref U9) (pin 2))
      (node (ref Q2) (pin 3))
      (node (ref Q2) (pin 2))
      (node (ref Q2) (pin 1))
      (node (ref R7) (pin 2))
      (node (ref U3) (pin 9))
      (node (ref L2) (pin 2))
      (node (ref C4) (pin 2))
      (node (ref C34) (pin 2))
      (node (ref C18) (pin 2))
      (node (ref C22) (pin 2))
      (node (ref C16) (pin 2))
      (node (ref C17) (pin 2))
      (node (ref Q6) (pin 3))
      (node (ref D4) (pin 2))
      (node (ref Q4) (pin 1))
      (node (ref Q6) (pin 1))
      (node (ref Q6) (pin 2))
      (node (ref Q4) (pin 3))
      (node (ref Q4) (pin 2))
      (node (ref C23) (pin 2))
      (node (ref D7) (pin 1))
      (node (ref C19) (pin 2))
      (node (ref C20) (pin 2))
      (node (ref D2) (pin 2))
      (node (ref R11) (pin 1))
      (node (ref C21) (pin 2))
      (node (ref C11) (pin 2))
      (node (ref U1) (pin 9))
      (node (ref C1) (pin 2))
      (node (ref C13) (pin 2))
      (node (ref C2) (pin 2))
      (node (ref C7) (pin 2))
      (node (ref C6) (pin 2))
      (node (ref C5) (pin 2))
      (node (ref U4) (pin 19))
      (node (ref U4) (pin 2))
      (node (ref C26) (pin 2))
      (node (ref D6) (pin 2))
      (node (ref C25) (pin 2))
      (node (ref U2) (pin 41))
      (node (ref U2) (pin 21))
      (node (ref U6) (pin 2))
      (node (ref C24) (pin 2))
      (node (ref C9) (pin 2))
      (node (ref C33) (pin 2))
      (node (ref C12) (pin 2))
      (node (ref U8) (pin 4))
      (node (ref U8) (pin 2))
      (node (ref R13) (pin 1))
      (node (ref R9) (pin 1))
      (node (ref U2) (pin 27))
      (node (ref R15) (pin 1))
      (node (ref U6) (pin 4))
      (node (ref C30) (pin 2))
      (node (ref C31) (pin 2))
      (node (ref C32) (pin 2))
      (node (ref U7) (pin 9))
      (node (ref U2) (pin 14))
      (node (ref U2) (pin 11))
      (node (ref U2) (pin 1))
      (node (ref U2) (pin 49))
      (node (ref C28) (pin 2))
      (node (ref U5) (pin 4))
      (node (ref C27) (pin 2))
      (node (ref U5) (pin 2))
      (node (ref C29) (pin 2)))
    (net (code 3) (name FB)
      (node (ref R11) (pin 2))
      (node (ref R10) (pin 2))
      (node (ref U2) (pin 48)))
    (net (code 4) (name 5V)
      (node (ref C23) (pin 1))
      (node (ref L3) (pin 2))
      (node (ref J6) (pin 5))
      (node (ref C25) (pin 1))
      (node (ref C26) (pin 1))
      (node (ref U9) (pin 1))
      (node (ref R10) (pin 1))
      (node (ref U9) (pin 3)))
    (net (code 5) (name BST)
      (node (ref U2) (pin 45))
      (node (ref C10) (pin 1)))
    (net (code 6) (name SW)
      (node (ref C10) (pin 2))
      (node (ref L3) (pin 1))
      (node (ref D7) (pin 2))
      (node (ref U2) (pin 42)))
    (net (code 7) (name RTSD)
      (node (ref R4) (pin 2))
      (node (ref U2) (pin 47)))
    (net (code 8) (name RCL)
      (node (ref U2) (pin 46))
      (node (ref R7) (pin 1)))
    (net (code 9) (name "Net-(J2-Pad7)")
      (node (ref J2) (pin 7))
      (node (ref U1) (pin 2)))
    (net (code 10) (name "Net-(J2-Pad8)")
      (node (ref J2) (pin 8))
      (node (ref U1) (pin 1)))
    (net (code 11) (name "Net-(J2-PadMP)")
      (node (ref J2) (pin MP)))
    (net (code 12) (name "Net-(J2-Pad6)")
      (node (ref U1) (pin 3))
      (node (ref J2) (pin 6)))
    (net (code 13) (name "Net-(J3-Pad1)")
      (node (ref J3) (pin 1))
      (node (ref U3) (pin 8)))
    (net (code 14) (name "Net-(J3-Pad2)")
      (node (ref J3) (pin 2))
      (node (ref U3) (pin 7)))
    (net (code 15) (name "Net-(J3-Pad3)")
      (node (ref J3) (pin 3))
      (node (ref U3) (pin 6)))
    (net (code 16) (name "Net-(J3-Pad4)")
      (node (ref U3) (pin 5))
      (node (ref J3) (pin 4)))
    (net (code 17) (name "Net-(J3-Pad5)")
      (node (ref J3) (pin 5))
      (node (ref U3) (pin 4)))
    (net (code 18) (name "Net-(J3-Pad6)")
      (node (ref U3) (pin 3))
      (node (ref J3) (pin 6)))
    (net (code 19) (name "Net-(J3-Pad7)")
      (node (ref U3) (pin 2))
      (node (ref J3) (pin 7)))
    (net (code 20) (name "Net-(J3-Pad8)")
      (node (ref U3) (pin 1))
      (node (ref J3) (pin 8)))
    (net (code 21) (name "Net-(J3-PadMP)")
      (node (ref J3) (pin MP)))
    (net (code 22) (name nFault)
      (node (ref U2) (pin 28))
      (node (ref R6) (pin 2)))
    (net (code 23) (name "Net-(J2-Pad1)")
      (node (ref U1) (pin 8))
      (node (ref J2) (pin 1)))
    (net (code 24) (name "Net-(J2-Pad2)")
      (node (ref U1) (pin 7))
      (node (ref J2) (pin 2)))
    (net (code 25) (name "Net-(J2-Pad3)")
      (node (ref U1) (pin 6))
      (node (ref J2) (pin 3)))
    (net (code 26) (name "Net-(J2-Pad4)")
      (node (ref U1) (pin 5))
      (node (ref J2) (pin 4)))
    (net (code 27) (name "Net-(J2-Pad5)")
      (node (ref U1) (pin 4))
      (node (ref J2) (pin 5)))
    (net (code 28) (name Phase_C)
      (node (ref Q5) (pin 2))
      (node (ref Q5) (pin 1))
      (node (ref U8) (pin 1))
      (node (ref R3) (pin 2))
      (node (ref D5) (pin 1))
      (node (ref Q5) (pin 3))
      (node (ref U2) (pin 19))
      (node (ref Q6) (pin 5)))
    (net (code 29) (name CurrentC+)
      (node (ref U4) (pin 7))
      (node (ref U8) (pin 5)))
    (net (code 30) (name CSENSE+)
      (node (ref J4) (pin 1))
      (node (ref R3) (pin 1))
      (node (ref U8) (pin 8)))
    (net (code 31) (name Phase_B)
      (node (ref U2) (pin 16))
      (node (ref Q3) (pin 3))
      (node (ref Q3) (pin 2))
      (node (ref Q3) (pin 1))
      (node (ref Q4) (pin 5))
      (node (ref D3) (pin 1))
      (node (ref R2) (pin 2))
      (node (ref U6) (pin 1)))
    (net (code 32) (name CurrentB+)
      (node (ref U4) (pin 5))
      (node (ref U6) (pin 5)))
    (net (code 33) (name BSENSE+)
      (node (ref U6) (pin 8))
      (node (ref J4) (pin 2))
      (node (ref R2) (pin 1)))
    (net (code 34) (name VCP)
      (node (ref C8) (pin 2))
      (node (ref U2) (pin 7)))
    (net (code 35) (name VGLS)
      (node (ref C12) (pin 1))
      (node (ref U2) (pin 2)))
    (net (code 36) (name DVDD)
      (node (ref C9) (pin 1))
      (node (ref U2) (pin 40)))
    (net (code 37) (name "Net-(U4-Pad14)")
      (node (ref U7) (pin 13))
      (node (ref U4) (pin 14)))
    (net (code 38) (name "Net-(U4-Pad12)")
      (node (ref U7) (pin 12))
      (node (ref U4) (pin 12)))
    (net (code 39) (name "Net-(U4-Pad11)")
      (node (ref U4) (pin 11))
      (node (ref U7) (pin 11)))
    (net (code 40) (name "Net-(U4-Pad16)")
      (node (ref U4) (pin 16))
      (node (ref U7) (pin 14)))
    (net (code 41) (name "Net-(U4-Pad17)")
      (node (ref U7) (pin 15))
      (node (ref U4) (pin 17)))
    (net (code 42) (name "Net-(J5-Pad2)")
      (node (ref U7) (pin 2))
      (node (ref J5) (pin 2)))
    (net (code 43) (name "Net-(J5-Pad3)")
      (node (ref U7) (pin 3))
      (node (ref J5) (pin 3)))
    (net (code 44) (name "Net-(J5-Pad4)")
      (node (ref U7) (pin 4))
      (node (ref J5) (pin 4)))
    (net (code 45) (name "Net-(J5-Pad5)")
      (node (ref J5) (pin 5))
      (node (ref U7) (pin 5)))
    (net (code 46) (name "Net-(J5-Pad6)")
      (node (ref J5) (pin 6))
      (node (ref U7) (pin 6)))
    (net (code 47) (name "Net-(J5-Pad7)")
      (node (ref J5) (pin 7))
      (node (ref U7) (pin 7)))
    (net (code 48) (name "Net-(J5-Pad8)")
      (node (ref J5) (pin 8))
      (node (ref U7) (pin 8)))
    (net (code 49) (name "Net-(C18-Pad1)")
      (node (ref C18) (pin 1))
      (node (ref U4) (pin 18)))
    (net (code 50) (name "Net-(U4-Pad15)")
      (node (ref U4) (pin 15))
      (node (ref U7) (pin 10)))
    (net (code 51) (name "Net-(U9-Pad4)")
      (node (ref U9) (pin 4)))
    (net (code 52) (name INLB)
      (node (ref U3) (pin 12))
      (node (ref U2) (pin 37))
      (node (ref J6) (pin 1)))
    (net (code 53) (name INHB)
      (node (ref U3) (pin 13))
      (node (ref U2) (pin 36))
      (node (ref J6) (pin 2)))
    (net (code 54) (name INLA)
      (node (ref U3) (pin 14))
      (node (ref U2) (pin 35))
      (node (ref J6) (pin 3)))
    (net (code 55) (name INLC)
      (node (ref U3) (pin 10))
      (node (ref U2) (pin 39)))
    (net (code 56) (name INHC)
      (node (ref U2) (pin 38))
      (node (ref U3) (pin 11)))
    (net (code 57) (name INHA)
      (node (ref U3) (pin 15))
      (node (ref U2) (pin 34)))
    (net (code 58) (name "Net-(U4-Pad10)")
      (node (ref U4) (pin 10))
      (node (ref U4) (pin 9)))
    (net (code 59) (name "Net-(U4-Pad13)")
      (node (ref U4) (pin 13)))
    (net (code 60) (name SCLK)
      (node (ref U1) (pin 14))
      (node (ref U2) (pin 31)))
    (net (code 61) (name NFault)
      (node (ref U1) (pin 10)))
    (net (code 62) (name SDO)
      (node (ref R5) (pin 2))
      (node (ref U2) (pin 29))
      (node (ref U1) (pin 11)))
    (net (code 63) (name ENABLE)
      (node (ref U1) (pin 12))
      (node (ref U2) (pin 33)))
    (net (code 64) (name NSCS)
      (node (ref U1) (pin 13)))
    (net (code 65) (name SDI)
      (node (ref U1) (pin 15))
      (node (ref U2) (pin 30)))
    (net (code 66) (name 3.3V)
      (node (ref U6) (pin 6))
      (node (ref C32) (pin 1))
      (node (ref C31) (pin 1))
      (node (ref C30) (pin 1))
      (node (ref C27) (pin 1))
      (node (ref C33) (pin 1))
      (node (ref R14) (pin 1))
      (node (ref R8) (pin 1))
      (node (ref U4) (pin 20))
      (node (ref U5) (pin 6))
      (node (ref C29) (pin 1))
      (node (ref C28) (pin 1))
      (node (ref U9) (pin 5))
      (node (ref U4) (pin 1))
      (node (ref U8) (pin 6))
      (node (ref U3) (pin 16))
      (node (ref R12) (pin 1))
      (node (ref C34) (pin 1))
      (node (ref U1) (pin 16))
      (node (ref U7) (pin 16)))
    (net (code 67) (name "Net-(J5-Pad1)")
      (node (ref U7) (pin 1))
      (node (ref J5) (pin 1)))
    (net (code 68) (name "Net-(J5-PadMP)")
      (node (ref J5) (pin MP)))
    (net (code 69) (name CurrentA-)
      (node (ref R9) (pin 2))
      (node (ref R8) (pin 2))
      (node (ref U4) (pin 4))
      (node (ref U5) (pin 7))
      (node (ref U5) (pin 3)))
    (net (code 70) (name CurrentB-)
      (node (ref U4) (pin 6))
      (node (ref U6) (pin 3))
      (node (ref R13) (pin 2))
      (node (ref R12) (pin 2))
      (node (ref U6) (pin 7)))
    (net (code 71) (name CurrentC-)
      (node (ref U8) (pin 7))
      (node (ref U4) (pin 8))
      (node (ref U8) (pin 3))
      (node (ref R14) (pin 2))
      (node (ref R15) (pin 2)))
    (net (code 72) (name GHB)
      (node (ref U2) (pin 17))
      (node (ref Q3) (pin 4))
      (node (ref D3) (pin 2)))
    (net (code 73) (name GLB)
      (node (ref Q4) (pin 4))
      (node (ref U2) (pin 15))
      (node (ref D4) (pin 1)))
    (net (code 74) (name GHA)
      (node (ref Q1) (pin 4))
      (node (ref U2) (pin 8))
      (node (ref D1) (pin 2)))
    (net (code 75) (name GLA)
      (node (ref Q2) (pin 4))
      (node (ref U2) (pin 10))
      (node (ref D2) (pin 1)))
    (net (code 76) (name GHC)
      (node (ref Q5) (pin 4))
      (node (ref D5) (pin 2))
      (node (ref U2) (pin 18)))
    (net (code 77) (name GLC)
      (node (ref D6) (pin 1))
      (node (ref U2) (pin 20))
      (node (ref Q6) (pin 4)))
    (net (code 78) (name "Net-(J1-Pad2)")
      (node (ref J1) (pin 2))
      (node (ref L1) (pin 2)))
    (net (code 79) (name "Net-(J1-Pad1)")
      (node (ref L2) (pin 1))
      (node (ref J1) (pin 1)))
    (net (code 80) (name nSCS)
      (node (ref U2) (pin 32)))
    (net (code 81) (name VIN)
      (node (ref U2) (pin 43)))
    (net (code 82) (name CurrentA+)
      (node (ref U5) (pin 5))
      (node (ref U4) (pin 3)))
    (net (code 83) (name ASENSE+)
      (node (ref J4) (pin 3))
      (node (ref R1) (pin 1))
      (node (ref U5) (pin 8)))
    (net (code 84) (name Phase_A)
      (node (ref U5) (pin 1))
      (node (ref D1) (pin 1))
      (node (ref U2) (pin 9))
      (node (ref Q1) (pin 2))
      (node (ref Q1) (pin 1))
      (node (ref Q2) (pin 5))
      (node (ref R1) (pin 2))
      (node (ref Q1) (pin 3)))
    (net (code 85) (name CPH)
      (node (ref U2) (pin 4)))
    (net (code 86) (name CPL)
      (node (ref U2) (pin 3)))))