EESchema Schematic File Version 4
LIBS:Motor Controller-cache
EELAYER 29 0
EELAYER END
$Descr A4 11693 8268
encoding utf-8
Sheet 1 1
Title ""
Date ""
Rev ""
Comp ""
Comment1 ""
Comment2 ""
Comment3 ""
Comment4 ""
$EndDescr
$Comp
L pspice:INDUCTOR L1
U 1 1 5CBE21C1
P 1850 1250
F 0 "L1" H 1850 1465 50  0000 C CNN
F 1 "12.5uH" H 1850 1374 50  0000 C CNN
F 2 "EVCONCEPT:7443641000" H 1850 1250 50  0001 C CNN
F 3 "https://katalog.we-online.de/pbs/datasheet/7443641000.pdf" H 1850 1250 50  0001 C CNN
	1    1850 1250
	-1   0    0    1   
$EndComp
$Comp
L pspice:C C1
U 1 1 5CBE2AC3
P 2500 1450
F 0 "C1" H 2678 1496 50  0000 L CNN
F 1 "10uF" H 2678 1405 50  0000 L CNN
F 2 "Capacitor_SMD:C_2220_5650Metric" H 2500 1450 50  0001 C CNN
F 3 "https://datasheet.lcsc.com/szlcsc/1903041502_Murata-Electronics-KRM55QR71J106KH01L_C363968.pdf" H 2500 1450 50  0001 C CNN
	1    2500 1450
	1    0    0    -1  
$EndComp
$Comp
L pspice:C C2
U 1 1 5CBE4182
P 2850 1450
F 0 "C2" H 3028 1496 50  0000 L CNN
F 1 "10uF" H 3028 1405 50  0000 L CNN
F 2 "Capacitor_SMD:C_2220_5650Metric" H 2850 1450 50  0001 C CNN
F 3 "https://datasheet.lcsc.com/szlcsc/1903041502_Murata-Electronics-KRM55QR71J106KH01L_C363968.pdf" H 2850 1450 50  0001 C CNN
	1    2850 1450
	1    0    0    -1  
$EndComp
$Comp
L pspice:C C3
U 1 1 5CBE4761
P 3200 1450
F 0 "C3" H 3378 1496 50  0000 L CNN
F 1 "1uF" H 3378 1405 50  0000 L CNN
F 2 "Capacitor_SMD:C_1206_3216Metric" H 3200 1450 50  0001 C CNN
F 3 "~" H 3200 1450 50  0001 C CNN
	1    3200 1450
	1    0    0    -1  
$EndComp
$Comp
L pspice:C C4
U 1 1 5CBE48D5
P 3550 1450
F 0 "C4" H 3728 1496 50  0000 L CNN
F 1 "0.1uF" H 3728 1405 50  0000 L CNN
F 2 "Capacitor_SMD:C_1206_3216Metric" H 3550 1450 50  0001 C CNN
F 3 "~" H 3550 1450 50  0001 C CNN
	1    3550 1450
	1    0    0    -1  
$EndComp
Connection ~ 2850 1200
Wire Wire Line
	2850 1200 2500 1200
Connection ~ 3200 1200
Wire Wire Line
	3200 1200 3050 1200
Wire Wire Line
	3550 1200 3200 1200
Wire Wire Line
	2500 1700 2850 1700
Connection ~ 2850 1700
Connection ~ 3200 1700
Wire Wire Line
	3200 1700 3550 1700
$Comp
L power:VCC #PWR0101
U 1 1 5CBEC387
P 3050 1200
F 0 "#PWR0101" H 3050 1050 50  0001 C CNN
F 1 "VCC" H 3067 1373 50  0000 C CNN
F 2 "" H 3050 1200 50  0001 C CNN
F 3 "" H 3050 1200 50  0001 C CNN
	1    3050 1200
	1    0    0    -1  
$EndComp
$Comp
L power:VCC #PWR0102
U 1 1 5CBECA45
P 2100 1250
F 0 "#PWR0102" H 2100 1100 50  0001 C CNN
F 1 "VCC" H 2117 1423 50  0000 C CNN
F 2 "" H 2100 1250 50  0001 C CNN
F 3 "" H 2100 1250 50  0001 C CNN
	1    2100 1250
	1    0    0    -1  
$EndComp
Wire Wire Line
	2850 1700 3050 1700
$Comp
L power:GND #PWR0103
U 1 1 5CBED45A
P 3050 1700
F 0 "#PWR0103" H 3050 1450 50  0001 C CNN
F 1 "GND" H 3055 1527 50  0000 C CNN
F 2 "" H 3050 1700 50  0001 C CNN
F 3 "" H 3050 1700 50  0001 C CNN
	1    3050 1700
	1    0    0    -1  
$EndComp
Text Notes 2600 950  0    50   ~ 0
Bipass Caps Phase A
$Comp
L pspice:C C5
U 1 1 5CBF2BD9
P 4000 1450
F 0 "C5" H 4178 1496 50  0000 L CNN
F 1 "10uF" H 4178 1405 50  0000 L CNN
F 2 "Capacitor_SMD:C_2220_5650Metric" H 4000 1450 50  0001 C CNN
F 3 "https://datasheet.lcsc.com/szlcsc/1903041502_Murata-Electronics-KRM55QR71J106KH01L_C363968.pdf" H 4000 1450 50  0001 C CNN
	1    4000 1450
	1    0    0    -1  
$EndComp
$Comp
L pspice:C C6
U 1 1 5CBF2BDF
P 4350 1450
F 0 "C6" H 4528 1496 50  0000 L CNN
F 1 "10uF" H 4528 1405 50  0000 L CNN
F 2 "Capacitor_SMD:C_2220_5650Metric" H 4350 1450 50  0001 C CNN
F 3 "https://datasheet.lcsc.com/szlcsc/1903041502_Murata-Electronics-KRM55QR71J106KH01L_C363968.pdf" H 4350 1450 50  0001 C CNN
	1    4350 1450
	1    0    0    -1  
$EndComp
$Comp
L pspice:C C7
U 1 1 5CBF2BE5
P 4700 1450
F 0 "C7" H 4878 1496 50  0000 L CNN
F 1 "1uF" H 4878 1405 50  0000 L CNN
F 2 "Capacitor_SMD:C_1206_3216Metric" H 4700 1450 50  0001 C CNN
F 3 "~" H 4700 1450 50  0001 C CNN
	1    4700 1450
	1    0    0    -1  
$EndComp
$Comp
L pspice:C C11
U 1 1 5CBF2BEB
P 5050 1450
F 0 "C11" H 5228 1496 50  0000 L CNN
F 1 "0.1uF" H 5228 1405 50  0000 L CNN
F 2 "Capacitor_SMD:C_1206_3216Metric" H 5050 1450 50  0001 C CNN
F 3 "~" H 5050 1450 50  0001 C CNN
	1    5050 1450
	1    0    0    -1  
$EndComp
Connection ~ 4350 1200
Wire Wire Line
	4350 1200 4000 1200
Connection ~ 4700 1200
Wire Wire Line
	4700 1200 4550 1200
Wire Wire Line
	5050 1200 4700 1200
Wire Wire Line
	4000 1700 4350 1700
Connection ~ 4350 1700
Connection ~ 4700 1700
Wire Wire Line
	4700 1700 5050 1700
$Comp
L power:VCC #PWR0104
U 1 1 5CBF2BFA
P 4550 1200
F 0 "#PWR0104" H 4550 1050 50  0001 C CNN
F 1 "VCC" H 4567 1373 50  0000 C CNN
F 2 "" H 4550 1200 50  0001 C CNN
F 3 "" H 4550 1200 50  0001 C CNN
	1    4550 1200
	1    0    0    -1  
$EndComp
Wire Wire Line
	4350 1700 4550 1700
$Comp
L power:GND #PWR0105
U 1 1 5CBF2C02
P 4550 1700
F 0 "#PWR0105" H 4550 1450 50  0001 C CNN
F 1 "GND" H 4555 1527 50  0000 C CNN
F 2 "" H 4550 1700 50  0001 C CNN
F 3 "" H 4550 1700 50  0001 C CNN
	1    4550 1700
	1    0    0    -1  
$EndComp
Text Notes 4100 950  0    50   ~ 0
Bipass Caps Phase B
$Comp
L pspice:C C14
U 1 1 5CBF845F
P 5600 1450
F 0 "C14" H 5778 1496 50  0000 L CNN
F 1 "10uF" H 5778 1405 50  0000 L CNN
F 2 "Capacitor_SMD:C_2220_5650Metric" H 5600 1450 50  0001 C CNN
F 3 "https://datasheet.lcsc.com/szlcsc/1903041502_Murata-Electronics-KRM55QR71J106KH01L_C363968.pdf" H 5600 1450 50  0001 C CNN
	1    5600 1450
	1    0    0    -1  
$EndComp
$Comp
L pspice:C C15
U 1 1 5CBF8465
P 5950 1450
F 0 "C15" H 6128 1496 50  0000 L CNN
F 1 "10uF" H 6128 1405 50  0000 L CNN
F 2 "Capacitor_SMD:C_2220_5650Metric" H 5950 1450 50  0001 C CNN
F 3 "https://datasheet.lcsc.com/szlcsc/1903041502_Murata-Electronics-KRM55QR71J106KH01L_C363968.pdf" H 5950 1450 50  0001 C CNN
	1    5950 1450
	1    0    0    -1  
$EndComp
$Comp
L pspice:C C16
U 1 1 5CBF846B
P 6300 1450
F 0 "C16" H 6478 1496 50  0000 L CNN
F 1 "1uF" H 6478 1405 50  0000 L CNN
F 2 "Capacitor_SMD:C_1206_3216Metric" H 6300 1450 50  0001 C CNN
F 3 "~" H 6300 1450 50  0001 C CNN
	1    6300 1450
	1    0    0    -1  
$EndComp
$Comp
L pspice:C C17
U 1 1 5CBF8471
P 6650 1450
F 0 "C17" H 6828 1496 50  0000 L CNN
F 1 "0.1uF" H 6828 1405 50  0000 L CNN
F 2 "Capacitor_SMD:C_1206_3216Metric" H 6650 1450 50  0001 C CNN
F 3 "~" H 6650 1450 50  0001 C CNN
	1    6650 1450
	1    0    0    -1  
$EndComp
Connection ~ 5950 1200
Wire Wire Line
	5950 1200 5600 1200
Connection ~ 6300 1200
Wire Wire Line
	6300 1200 6150 1200
Wire Wire Line
	6650 1200 6300 1200
Wire Wire Line
	5600 1700 5950 1700
Connection ~ 5950 1700
Connection ~ 6300 1700
Wire Wire Line
	6300 1700 6650 1700
$Comp
L power:VCC #PWR0106
U 1 1 5CBF8480
P 6150 1200
F 0 "#PWR0106" H 6150 1050 50  0001 C CNN
F 1 "VCC" H 6167 1373 50  0000 C CNN
F 2 "" H 6150 1200 50  0001 C CNN
F 3 "" H 6150 1200 50  0001 C CNN
	1    6150 1200
	1    0    0    -1  
$EndComp
Wire Wire Line
	5950 1700 6150 1700
$Comp
L power:GND #PWR0107
U 1 1 5CBF8488
P 6150 1700
F 0 "#PWR0107" H 6150 1450 50  0001 C CNN
F 1 "GND" H 6155 1527 50  0000 C CNN
F 2 "" H 6150 1700 50  0001 C CNN
F 3 "" H 6150 1700 50  0001 C CNN
	1    6150 1700
	1    0    0    -1  
$EndComp
Text Notes 5700 950  0    50   ~ 0
Bipass Caps Phase C
$Comp
L pspice:INDUCTOR L2
U 1 1 5CBFB7B2
P 1850 1650
F 0 "L2" H 1850 1865 50  0000 C CNN
F 1 "12.5uH" H 1850 1774 50  0000 C CNN
F 2 "EVCONCEPT:7443641000" H 1850 1650 50  0001 C CNN
F 3 "https://katalog.we-online.de/pbs/datasheet/7443641000.pdf" H 1850 1650 50  0001 C CNN
	1    1850 1650
	1    0    0    -1  
$EndComp
$Comp
L power:GND #PWR0108
U 1 1 5CBFBE23
P 2100 1650
F 0 "#PWR0108" H 2100 1400 50  0001 C CNN
F 1 "GND" H 2105 1477 50  0000 C CNN
F 2 "" H 2100 1650 50  0001 C CNN
F 3 "" H 2100 1650 50  0001 C CNN
	1    2100 1650
	1    0    0    -1  
$EndComp
Text Notes 1350 950  0    50   ~ 0
Input Filter
$Comp
L Connector:Screw_Terminal_01x02 J1
U 1 1 5CC0D20C
P 1050 1500
F 0 "J1" H 968 1175 50  0000 C CNN
F 1 "Screw_Terminal_01x02" H 968 1266 50  0000 C CNN
F 2 "EVCONCEPT:Super_Sabre_2PIN" H 1050 1500 50  0001 C CNN
F 3 "~" H 1050 1500 50  0001 C CNN
	1    1050 1500
	-1   0    0    1   
$EndComp
Wire Wire Line
	1600 1650 1250 1650
Wire Wire Line
	1250 1650 1250 1500
Wire Wire Line
	1250 1250 1250 1400
Wire Wire Line
	1250 1250 1600 1250
$Comp
L Transistor_FET:CSD19534Q5A Q1
U 1 1 5CC2D219
P 1200 6700
F 0 "Q1" H 1406 6746 50  0000 L CNN
F 1 "CSD19534Q5A" H 1406 6655 50  0000 L CNN
F 2 "EVCONCEPT:SON5x6" H 1400 6625 50  0001 L CIN
F 3 "http://www.ti.com/lit/gpn/csd19534q5a" V 1200 6700 50  0001 L CNN
	1    1200 6700
	1    0    0    -1  
$EndComp
$Comp
L Transistor_FET:CSD19534Q5A Q2
U 1 1 5CC383F2
P 1200 7250
F 0 "Q2" H 1406 7296 50  0000 L CNN
F 1 "CSD19534Q5A" H 1406 7205 50  0000 L CNN
F 2 "EVCONCEPT:SON5x6" H 1400 7175 50  0001 L CIN
F 3 "http://www.ti.com/lit/gpn/csd19534q5a" V 1200 7250 50  0001 L CNN
	1    1200 7250
	1    0    0    -1  
$EndComp
Wire Wire Line
	1300 6900 1300 7000
$Comp
L power:GND #PWR0109
U 1 1 5CC3C167
P 1300 7550
F 0 "#PWR0109" H 1300 7300 50  0001 C CNN
F 1 "GND" H 1305 7377 50  0000 C CNN
F 2 "" H 1300 7550 50  0001 C CNN
F 3 "" H 1300 7550 50  0001 C CNN
	1    1300 7550
	1    0    0    -1  
$EndComp
$Comp
L power:VCC #PWR0110
U 1 1 5CC3D3C5
P 1300 6500
F 0 "#PWR0110" H 1300 6350 50  0001 C CNN
F 1 "VCC" H 1317 6673 50  0000 C CNN
F 2 "" H 1300 6500 50  0001 C CNN
F 3 "" H 1300 6500 50  0001 C CNN
	1    1300 6500
	1    0    0    -1  
$EndComp
$Comp
L Device:D_TVS D1
U 1 1 5CC49CEF
P 1000 6850
F 0 "D1" V 1046 6771 50  0000 R CNN
F 1 "D_TVS" V 955 6771 50  0000 R CNN
F 2 "Diode_SMD:D_SMA" H 1000 6850 50  0001 C CNN
F 3 "https://datasheet.lcsc.com/szlcsc/Diodes-Incorporated-SMBJ16CA-13-F_C71870.pdf" H 1000 6850 50  0001 C CNN
	1    1000 6850
	0    -1   -1   0   
$EndComp
$Comp
L Device:D_TVS D2
U 1 1 5CC4A669
P 1000 7400
F 0 "D2" V 954 7479 50  0000 L CNN
F 1 "D_TVS" V 1045 7479 50  0000 L CNN
F 2 "Diode_SMD:D_SMA" H 1000 7400 50  0001 C CNN
F 3 "https://datasheet.lcsc.com/szlcsc/Diodes-Incorporated-SMBJ16CA-13-F_C71870.pdf" H 1000 7400 50  0001 C CNN
	1    1000 7400
	0    1    1    0   
$EndComp
Wire Wire Line
	1000 7550 1300 7550
Wire Wire Line
	1300 7550 1300 7450
Connection ~ 1300 7550
Wire Wire Line
	1000 7000 1300 7000
Connection ~ 1300 7000
Wire Wire Line
	1300 7000 1300 7050
Text GLabel 850  6700 0    50   Input ~ 0
GHA
Text GLabel 850  7250 0    50   Input ~ 0
GLA
Wire Wire Line
	850  7250 1000 7250
Connection ~ 1000 7250
Wire Wire Line
	1000 6700 850  6700
Connection ~ 1000 6700
$Comp
L Transistor_FET:CSD19534Q5A Q3
U 1 1 5CC67E32
P 2500 6700
F 0 "Q3" H 2706 6746 50  0000 L CNN
F 1 "CSD19534Q5A" H 2706 6655 50  0000 L CNN
F 2 "EVCONCEPT:SON5x6" H 2700 6625 50  0001 L CIN
F 3 "http://www.ti.com/lit/gpn/csd19534q5a" V 2500 6700 50  0001 L CNN
	1    2500 6700
	1    0    0    -1  
$EndComp
$Comp
L Transistor_FET:CSD19534Q5A Q4
U 1 1 5CC67E38
P 2500 7250
F 0 "Q4" H 2706 7296 50  0000 L CNN
F 1 "CSD19534Q5A" H 2706 7205 50  0000 L CNN
F 2 "EVCONCEPT:SON5x6" H 2700 7175 50  0001 L CIN
F 3 "http://www.ti.com/lit/gpn/csd19534q5a" V 2500 7250 50  0001 L CNN
	1    2500 7250
	1    0    0    -1  
$EndComp
Wire Wire Line
	2600 6900 2600 7000
$Comp
L power:GND #PWR0111
U 1 1 5CC67E3F
P 2600 7550
F 0 "#PWR0111" H 2600 7300 50  0001 C CNN
F 1 "GND" H 2605 7377 50  0000 C CNN
F 2 "" H 2600 7550 50  0001 C CNN
F 3 "" H 2600 7550 50  0001 C CNN
	1    2600 7550
	1    0    0    -1  
$EndComp
$Comp
L power:VCC #PWR0112
U 1 1 5CC67E45
P 2600 6500
F 0 "#PWR0112" H 2600 6350 50  0001 C CNN
F 1 "VCC" H 2617 6673 50  0000 C CNN
F 2 "" H 2600 6500 50  0001 C CNN
F 3 "" H 2600 6500 50  0001 C CNN
	1    2600 6500
	1    0    0    -1  
$EndComp
$Comp
L Device:D_TVS D3
U 1 1 5CC67E4B
P 2300 6850
F 0 "D3" V 2346 6771 50  0000 R CNN
F 1 "D_TVS" V 2255 6771 50  0000 R CNN
F 2 "Diode_SMD:D_SMA" H 2300 6850 50  0001 C CNN
F 3 "https://datasheet.lcsc.com/szlcsc/Diodes-Incorporated-SMBJ16CA-13-F_C71870.pdf" H 2300 6850 50  0001 C CNN
	1    2300 6850
	0    -1   -1   0   
$EndComp
$Comp
L Device:D_TVS D4
U 1 1 5CC67E51
P 2300 7400
F 0 "D4" V 2254 7479 50  0000 L CNN
F 1 "D_TVS" V 2345 7479 50  0000 L CNN
F 2 "Diode_SMD:D_SMA" H 2300 7400 50  0001 C CNN
F 3 "https://datasheet.lcsc.com/szlcsc/Diodes-Incorporated-SMBJ16CA-13-F_C71870.pdf" H 2300 7400 50  0001 C CNN
	1    2300 7400
	0    1    1    0   
$EndComp
Wire Wire Line
	2300 7550 2600 7550
Wire Wire Line
	2600 7550 2600 7450
Connection ~ 2600 7550
Wire Wire Line
	2300 7000 2600 7000
Connection ~ 2600 7000
Wire Wire Line
	2600 7000 2600 7050
Text GLabel 2150 6700 0    50   Input ~ 0
GHB
Text GLabel 2150 7250 0    50   Input ~ 0
GLB
Wire Wire Line
	2150 7250 2300 7250
Connection ~ 2300 7250
Wire Wire Line
	2300 6700 2150 6700
Connection ~ 2300 6700
$Comp
L Transistor_FET:CSD19534Q5A Q5
U 1 1 5CC855DC
P 3800 6700
F 0 "Q5" H 4006 6746 50  0000 L CNN
F 1 "CSD19534Q5A" H 4006 6655 50  0000 L CNN
F 2 "EVCONCEPT:SON5x6" H 4000 6625 50  0001 L CIN
F 3 "http://www.ti.com/lit/gpn/csd19534q5a" V 3800 6700 50  0001 L CNN
	1    3800 6700
	1    0    0    -1  
$EndComp
$Comp
L Transistor_FET:CSD19534Q5A Q6
U 1 1 5CC855E2
P 3800 7250
F 0 "Q6" H 4006 7296 50  0000 L CNN
F 1 "CSD19534Q5A" H 4006 7205 50  0000 L CNN
F 2 "EVCONCEPT:SON5x6" H 4000 7175 50  0001 L CIN
F 3 "http://www.ti.com/lit/gpn/csd19534q5a" V 3800 7250 50  0001 L CNN
	1    3800 7250
	1    0    0    -1  
$EndComp
Wire Wire Line
	3900 6900 3900 7000
$Comp
L power:GND #PWR0113
U 1 1 5CC855E9
P 3900 7550
F 0 "#PWR0113" H 3900 7300 50  0001 C CNN
F 1 "GND" H 3905 7377 50  0000 C CNN
F 2 "" H 3900 7550 50  0001 C CNN
F 3 "" H 3900 7550 50  0001 C CNN
	1    3900 7550
	1    0    0    -1  
$EndComp
$Comp
L power:VCC #PWR0114
U 1 1 5CC855EF
P 3900 6500
F 0 "#PWR0114" H 3900 6350 50  0001 C CNN
F 1 "VCC" H 3917 6673 50  0000 C CNN
F 2 "" H 3900 6500 50  0001 C CNN
F 3 "" H 3900 6500 50  0001 C CNN
	1    3900 6500
	1    0    0    -1  
$EndComp
$Comp
L Device:D_TVS D5
U 1 1 5CC855F5
P 3600 6850
F 0 "D5" V 3646 6771 50  0000 R CNN
F 1 "D_TVS" V 3555 6771 50  0000 R CNN
F 2 "Diode_SMD:D_SMA" H 3600 6850 50  0001 C CNN
F 3 "https://datasheet.lcsc.com/szlcsc/Diodes-Incorporated-SMBJ16CA-13-F_C71870.pdf" H 3600 6850 50  0001 C CNN
	1    3600 6850
	0    -1   -1   0   
$EndComp
$Comp
L Device:D_TVS D6
U 1 1 5CC855FB
P 3600 7400
F 0 "D6" V 3554 7479 50  0000 L CNN
F 1 "D_TVS" V 3645 7479 50  0000 L CNN
F 2 "Diode_SMD:D_SMA" H 3600 7400 50  0001 C CNN
F 3 "https://datasheet.lcsc.com/szlcsc/Diodes-Incorporated-SMBJ16CA-13-F_C71870.pdf" H 3600 7400 50  0001 C CNN
	1    3600 7400
	0    1    1    0   
$EndComp
Wire Wire Line
	3600 7550 3900 7550
Wire Wire Line
	3900 7550 3900 7450
Connection ~ 3900 7550
Wire Wire Line
	3600 7000 3900 7000
Connection ~ 3900 7000
Wire Wire Line
	3900 7000 3900 7050
Text GLabel 3450 6700 0    50   Input ~ 0
GHC
Text GLabel 3450 7250 0    50   Input ~ 0
GLC
Wire Wire Line
	3450 7250 3600 7250
Connection ~ 3600 7250
Wire Wire Line
	3600 6700 3450 6700
Connection ~ 3600 6700
$Comp
L pspice:C C19
U 1 1 5CC8A017
P 7200 1450
F 0 "C19" H 7378 1496 50  0000 L CNN
F 1 "10uF" H 7378 1405 50  0000 L CNN
F 2 "Capacitor_SMD:C_2220_5650Metric" H 7200 1450 50  0001 C CNN
F 3 "https://datasheet.lcsc.com/szlcsc/1903041502_Murata-Electronics-KRM55QR71J106KH01L_C363968.pdf" H 7200 1450 50  0001 C CNN
	1    7200 1450
	1    0    0    -1  
$EndComp
$Comp
L pspice:C C20
U 1 1 5CC8A01D
P 7550 1450
F 0 "C20" H 7728 1496 50  0000 L CNN
F 1 "1uF" H 7728 1405 50  0000 L CNN
F 2 "Capacitor_SMD:C_1206_3216Metric" H 7550 1450 50  0001 C CNN
F 3 "~" H 7550 1450 50  0001 C CNN
	1    7550 1450
	1    0    0    -1  
$EndComp
Wire Wire Line
	7550 1200 7200 1200
Wire Wire Line
	7200 1700 7550 1700
$Comp
L power:VCC #PWR0115
U 1 1 5CC8A032
P 7900 1200
F 0 "#PWR0115" H 7900 1050 50  0001 C CNN
F 1 "VCC" H 7917 1373 50  0000 C CNN
F 2 "" H 7900 1200 50  0001 C CNN
F 3 "" H 7900 1200 50  0001 C CNN
	1    7900 1200
	1    0    0    -1  
$EndComp
$Comp
L power:GND #PWR0116
U 1 1 5CC8A03A
P 7900 1700
F 0 "#PWR0116" H 7900 1450 50  0001 C CNN
F 1 "GND" H 7905 1527 50  0000 C CNN
F 2 "" H 7900 1700 50  0001 C CNN
F 3 "" H 7900 1700 50  0001 C CNN
	1    7900 1700
	1    0    0    -1  
$EndComp
Text Notes 7550 900  0    50   ~ 0
Bipass Caps DRV
Connection ~ 7550 1700
Connection ~ 7550 1200
$Comp
L pspice:C C21
U 1 1 5CC8A023
P 7900 1450
F 0 "C21" H 8078 1496 50  0000 L CNN
F 1 "0.1uF" H 8078 1405 50  0000 L CNN
F 2 "Capacitor_SMD:C_1206_3216Metric" H 7900 1450 50  0001 C CNN
F 3 "~" H 7900 1450 50  0001 C CNN
	1    7900 1450
	1    0    0    -1  
$EndComp
Text GLabel 1450 7000 2    50   Input ~ 0
Phase_A
Text GLabel 2750 7000 2    50   Input ~ 0
Phase_B
Text GLabel 4050 7000 2    50   Input ~ 0
Phase_C
Wire Wire Line
	1450 7000 1300 7000
Wire Wire Line
	2750 7000 2600 7000
Wire Wire Line
	4050 7000 3900 7000
Text GLabel 5050 6950 0    50   Input ~ 0
Phase_B
Text GLabel 5050 7250 0    50   Input ~ 0
Phase_C
$Comp
L drv8350rs:DRV8350RS U2
U 1 1 5CCF742A
P 3250 3800
F 0 "U2" H 3250 5267 50  0000 C CNN
F 1 "DRV8350RS" H 3250 5176 50  0000 C CNN
F 2 "Package_DFN_QFN:Texas_S-PVQFN-N48_EP5.15x5.15mm_ThermalVias" H 3250 2350 50  0001 C CNN
F 3 "http://www.ti.com/lit/ds/symlink/drv8353.pdf" H 2550 5150 50  0001 C CNN
	1    3250 3800
	1    0    0    -1  
$EndComp
Text GLabel 4150 2650 2    50   Input ~ 0
GHA
Text GLabel 4150 2750 2    50   Input ~ 0
Phase_A
Text GLabel 4150 2850 2    50   Input ~ 0
GLA
Text GLabel 4150 3150 2    50   Input ~ 0
GHB
Text GLabel 4150 3250 2    50   Input ~ 0
Phase_B
Text GLabel 4150 3350 2    50   Input ~ 0
GLB
Text GLabel 4150 3650 2    50   Input ~ 0
GHC
Text GLabel 4150 3750 2    50   Input ~ 0
Phase_C
Text GLabel 4150 3850 2    50   Input ~ 0
GLC
Text GLabel 4150 4250 2    50   Input ~ 0
VGLS
Text GLabel 4150 4350 2    50   Input ~ 0
CPL
Text GLabel 4150 4450 2    50   Input ~ 0
CPH
Text GLabel 4150 4750 2    50   Input ~ 0
VCP
Wire Wire Line
	4050 3650 4150 3650
Wire Wire Line
	4050 3750 4150 3750
Wire Wire Line
	4050 3850 4150 3850
Wire Wire Line
	4050 3950 4150 3950
Wire Wire Line
	4050 3450 4150 3450
Wire Wire Line
	4050 3350 4150 3350
Wire Wire Line
	4150 3250 4050 3250
Wire Wire Line
	4050 3150 4150 3150
Wire Wire Line
	4050 2950 4150 2950
Wire Wire Line
	4050 2850 4150 2850
Wire Wire Line
	4050 2750 4150 2750
Wire Wire Line
	4050 2650 4150 2650
$Comp
L power:GND #PWR0117
U 1 1 5CD2126A
P 4150 2950
F 0 "#PWR0117" H 4150 2700 50  0001 C CNN
F 1 "GND" H 4155 2777 50  0000 C CNN
F 2 "" H 4150 2950 50  0001 C CNN
F 3 "" H 4150 2950 50  0001 C CNN
	1    4150 2950
	1    0    0    -1  
$EndComp
$Comp
L power:GND #PWR0118
U 1 1 5CD22A26
P 4150 3450
F 0 "#PWR0118" H 4150 3200 50  0001 C CNN
F 1 "GND" H 4300 3400 50  0000 C CNN
F 2 "" H 4150 3450 50  0001 C CNN
F 3 "" H 4150 3450 50  0001 C CNN
	1    4150 3450
	1    0    0    -1  
$EndComp
$Comp
L power:GND #PWR0119
U 1 1 5CD24246
P 4150 3950
F 0 "#PWR0119" H 4150 3700 50  0001 C CNN
F 1 "GND" H 4155 3777 50  0000 C CNN
F 2 "" H 4150 3950 50  0001 C CNN
F 3 "" H 4150 3950 50  0001 C CNN
	1    4150 3950
	1    0    0    -1  
$EndComp
Wire Wire Line
	4050 4250 4150 4250
Wire Wire Line
	4050 4350 4150 4350
Wire Wire Line
	4050 4450 4150 4450
Wire Wire Line
	4050 4750 4150 4750
$Comp
L power:VCC #PWR0120
U 1 1 5CD31C71
P 4400 4550
F 0 "#PWR0120" H 4400 4400 50  0001 C CNN
F 1 "VCC" H 4417 4723 50  0000 C CNN
F 2 "" H 4400 4550 50  0001 C CNN
F 3 "" H 4400 4550 50  0001 C CNN
	1    4400 4550
	1    0    0    -1  
$EndComp
Wire Wire Line
	4050 4550 4400 4550
Wire Wire Line
	4050 4650 4050 4550
Connection ~ 4050 4550
Wire Wire Line
	4050 4150 4050 3950
Connection ~ 4050 3950
$Comp
L power:GND #PWR0121
U 1 1 5CD412AE
P 2050 4300
F 0 "#PWR0121" H 2050 4050 50  0001 C CNN
F 1 "GND" H 1900 4300 50  0000 C CNN
F 2 "" H 2050 4300 50  0001 C CNN
F 3 "" H 2050 4300 50  0001 C CNN
	1    2050 4300
	1    0    0    -1  
$EndComp
Text GLabel 2300 4200 0    50   Input ~ 0
DVDD
Wire Wire Line
	2300 4200 2450 4200
Text GLabel 2300 4400 0    50   Input ~ 0
SW
Text GLabel 2300 4500 0    50   Input ~ 0
VIN
Text GLabel 2300 4600 0    50   Input ~ 0
VCC
Text GLabel 2300 4700 0    50   Input ~ 0
BST
Text GLabel 2300 4800 0    50   Input ~ 0
RCL
Text GLabel 2300 4900 0    50   Input ~ 0
RTSD
Text GLabel 2300 5000 0    50   Input ~ 0
FB
Wire Wire Line
	2300 4400 2450 4400
Wire Wire Line
	2300 4500 2450 4500
Wire Wire Line
	2300 4600 2450 4600
Wire Wire Line
	2300 4700 2450 4700
Wire Wire Line
	2300 4800 2450 4800
Wire Wire Line
	2300 4900 2450 4900
Wire Wire Line
	2300 5000 2450 5000
Wire Wire Line
	2050 4300 2450 4300
$Comp
L power:GND #PWR0122
U 1 1 5CD67EE0
P 1800 2700
F 0 "#PWR0122" H 1800 2450 50  0001 C CNN
F 1 "GND" H 1650 2700 50  0000 C CNN
F 2 "" H 1800 2700 50  0001 C CNN
F 3 "" H 1800 2700 50  0001 C CNN
	1    1800 2700
	1    0    0    -1  
$EndComp
Text GLabel 2200 3500 0    50   Input ~ 0
INHA
Text GLabel 2200 3600 0    50   Input ~ 0
INLA
Text GLabel 2200 3700 0    50   Input ~ 0
INHB
Text GLabel 2200 3800 0    50   Input ~ 0
INLB
Text GLabel 2200 3900 0    50   Input ~ 0
INHC
Text GLabel 2200 4000 0    50   Input ~ 0
INLC
Wire Wire Line
	2200 4000 2450 4000
Wire Wire Line
	2450 3900 2200 3900
Wire Wire Line
	2200 3800 2450 3800
Wire Wire Line
	2450 3700 2200 3700
Wire Wire Line
	2200 3600 2450 3600
Wire Wire Line
	2450 3500 2200 3500
Text GLabel 2200 2800 0    50   Input ~ 0
nFault
Wire Wire Line
	1800 2700 2450 2700
Text GLabel 2200 2900 0    50   Input ~ 0
SDO
Text GLabel 2200 3000 0    50   Input ~ 0
SDI
Text GLabel 2200 3100 0    50   Input ~ 0
SCLK
Text GLabel 2200 3200 0    50   Input ~ 0
nSCS
Text GLabel 2200 3300 0    50   Input ~ 0
ENABLE
Wire Wire Line
	2200 2800 2450 2800
Wire Wire Line
	2200 2900 2450 2900
Wire Wire Line
	2200 3000 2450 3000
Wire Wire Line
	2200 3100 2450 3100
Wire Wire Line
	2200 3200 2450 3200
Wire Wire Line
	2200 3300 2450 3300
Text Notes 3100 2250 0    50   ~ 0
Driver IC\n
Text Notes 4950 2250 0    50   ~ 0
Driver IC Passives
$Comp
L pspice:C C22
U 1 1 5CDB912C
P 8250 1450
F 0 "C22" H 8428 1496 50  0000 L CNN
F 1 "1uF" H 8428 1405 50  0000 L CNN
F 2 "Capacitor_SMD:C_1206_3216Metric" H 8250 1450 50  0001 C CNN
F 3 "~" H 8250 1450 50  0001 C CNN
	1    8250 1450
	1    0    0    -1  
$EndComp
Connection ~ 8250 1700
Wire Wire Line
	8250 1700 8600 1700
$Comp
L pspice:C C24
U 1 1 5CDB9135
P 8600 1450
F 0 "C24" H 8778 1496 50  0000 L CNN
F 1 "0.1uF" H 8778 1405 50  0000 L CNN
F 2 "Capacitor_SMD:C_1206_3216Metric" H 8600 1450 50  0001 C CNN
F 3 "~" H 8600 1450 50  0001 C CNN
	1    8600 1450
	1    0    0    -1  
$EndComp
Connection ~ 7900 1700
Connection ~ 7900 1200
Connection ~ 8250 1200
Wire Wire Line
	8250 1200 8600 1200
Wire Wire Line
	7900 1700 8250 1700
Wire Wire Line
	7900 1200 8250 1200
Wire Wire Line
	7550 1200 7900 1200
Connection ~ 6150 1200
Wire Wire Line
	6150 1200 5950 1200
Connection ~ 6150 1700
Wire Wire Line
	6150 1700 6300 1700
Connection ~ 4550 1700
Wire Wire Line
	4550 1700 4700 1700
Connection ~ 4550 1200
Wire Wire Line
	4550 1200 4350 1200
Connection ~ 3050 1200
Wire Wire Line
	3050 1200 2850 1200
Connection ~ 3050 1700
Wire Wire Line
	3050 1700 3200 1700
$Comp
L Amplifier_Current:INA240A1D U5
U 1 1 5CE62E47
P 6850 2750
F 0 "U5" H 7194 2796 50  0000 L CNN
F 1 "INA240A1D" H 6850 3000 50  0000 L CNN
F 2 "Package_SO:SOIC-8_3.9x4.9mm_P1.27mm" H 6850 2100 50  0001 C CNN
F 3 "http://www.ti.com/lit/ds/symlink/ina240.pdf" H 7000 2900 50  0001 C CNN
	1    6850 2750
	1    0    0    -1  
$EndComp
Text GLabel 6750 2450 1    50   Input ~ 0
3.3V
$Comp
L power:GND #PWR0123
U 1 1 5CE65A7A
P 6750 3050
F 0 "#PWR0123" H 6750 2800 50  0001 C CNN
F 1 "GND" H 6600 3050 50  0000 C CNN
F 2 "" H 6750 3050 50  0001 C CNN
F 3 "" H 6750 3050 50  0001 C CNN
	1    6750 3050
	1    0    0    -1  
$EndComp
Text GLabel 7600 3050 1    50   Input ~ 0
3.3V
$Comp
L power:GND #PWR0124
U 1 1 5CE7477A
P 7600 3200
F 0 "#PWR0124" H 7600 2950 50  0001 C CNN
F 1 "GND" H 7750 3200 50  0000 C CNN
F 2 "" H 7600 3200 50  0001 C CNN
F 3 "" H 7600 3200 50  0001 C CNN
	1    7600 3200
	1    0    0    -1  
$EndComp
$Comp
L pspice:R R8
U 1 1 5CE8ECA2
P 7350 3050
F 0 "R8" V 7145 3050 50  0000 C CNN
F 1 "10kΩ" V 7236 3050 50  0000 C CNN
F 2 "Resistor_SMD:R_0603_1608Metric" H 7350 3050 50  0001 C CNN
F 3 "~" H 7350 3050 50  0001 C CNN
	1    7350 3050
	0    1    1    0   
$EndComp
$Comp
L pspice:R R9
U 1 1 5CE93B0B
P 7350 3200
F 0 "R9" V 7145 3200 50  0000 C CNN
F 1 "10kΩ" V 7236 3200 50  0000 C CNN
F 2 "Resistor_SMD:R_0603_1608Metric" H 7350 3200 50  0001 C CNN
F 3 "~" H 7350 3200 50  0001 C CNN
	1    7350 3200
	0    1    1    0   
$EndComp
Wire Wire Line
	7100 3200 7100 3050
Wire Wire Line
	7100 3050 6950 3050
Connection ~ 7100 3050
Wire Wire Line
	6850 3050 6950 3050
Connection ~ 6950 3050
Text GLabel 5050 6650 0    50   Input ~ 0
Phase_A
Text GLabel 5550 6650 2    50   Input ~ 0
ASENSE+
$Comp
L pspice:R R1
U 1 1 5CE03702
P 5300 6650
F 0 "R1" V 5095 6650 50  0000 C CNN
F 1 "750uΩ" V 5186 6650 50  0000 C CNN
F 2 "EVCONCEPT:Shunt 7.6x15mm" H 5300 6650 50  0001 C CNN
F 3 "https://datasheet.lcsc.com/szlcsc/1812111932_ResistorToday-EWSL5930FL750S9_C349174.pdf" H 5300 6650 50  0001 C CNN
	1    5300 6650
	0    1    1    0   
$EndComp
$Comp
L pspice:R R2
U 1 1 5CDFEBD6
P 5300 6950
F 0 "R2" V 5095 6950 50  0000 C CNN
F 1 "750uΩ" V 5186 6950 50  0000 C CNN
F 2 "EVCONCEPT:Shunt 7.6x15mm" H 5300 6950 50  0001 C CNN
F 3 "https://datasheet.lcsc.com/szlcsc/1812111932_ResistorToday-EWSL5930FL750S9_C349174.pdf" H 5300 6950 50  0001 C CNN
	1    5300 6950
	0    1    1    0   
$EndComp
$Comp
L pspice:R R3
U 1 1 5CDFE22D
P 5300 7250
F 0 "R3" V 5095 7250 50  0000 C CNN
F 1 "750uΩ" V 5186 7250 50  0000 C CNN
F 2 "EVCONCEPT:Shunt 7.6x15mm" H 5300 7250 50  0001 C CNN
F 3 "https://datasheet.lcsc.com/szlcsc/1812111932_ResistorToday-EWSL5930FL750S9_C349174.pdf" H 5300 7250 50  0001 C CNN
	1    5300 7250
	0    1    1    0   
$EndComp
Text GLabel 5550 6950 2    50   Input ~ 0
BSENSE+
Text GLabel 5550 7250 2    50   Input ~ 0
CSENSE+
Text GLabel 6550 2650 0    50   Input ~ 0
ASENSE+
Text GLabel 6550 2850 0    50   Input ~ 0
Phase_A
$Comp
L Amplifier_Current:INA240A1D U6
U 1 1 5CF2361B
P 8350 2750
F 0 "U6" H 8694 2796 50  0000 L CNN
F 1 "INA240A1D" H 8350 3000 50  0000 L CNN
F 2 "Package_SO:SOIC-8_3.9x4.9mm_P1.27mm" H 8350 2100 50  0001 C CNN
F 3 "http://www.ti.com/lit/ds/symlink/ina240.pdf" H 8500 2900 50  0001 C CNN
	1    8350 2750
	1    0    0    -1  
$EndComp
Text GLabel 8250 2450 1    50   Input ~ 0
3.3V
$Comp
L power:GND #PWR0125
U 1 1 5CF23622
P 8250 3050
F 0 "#PWR0125" H 8250 2800 50  0001 C CNN
F 1 "GND" H 8100 3050 50  0000 C CNN
F 2 "" H 8250 3050 50  0001 C CNN
F 3 "" H 8250 3050 50  0001 C CNN
	1    8250 3050
	1    0    0    -1  
$EndComp
Text GLabel 9100 3050 1    50   Input ~ 0
3.3V
$Comp
L power:GND #PWR0126
U 1 1 5CF23629
P 9100 3200
F 0 "#PWR0126" H 9100 2950 50  0001 C CNN
F 1 "GND" H 9250 3200 50  0000 C CNN
F 2 "" H 9100 3200 50  0001 C CNN
F 3 "" H 9100 3200 50  0001 C CNN
	1    9100 3200
	1    0    0    -1  
$EndComp
$Comp
L pspice:R R12
U 1 1 5CF2362F
P 8850 3050
F 0 "R12" V 8645 3050 50  0000 C CNN
F 1 "10kΩ" V 8736 3050 50  0000 C CNN
F 2 "Resistor_SMD:R_0603_1608Metric" H 8850 3050 50  0001 C CNN
F 3 "~" H 8850 3050 50  0001 C CNN
	1    8850 3050
	0    1    1    0   
$EndComp
$Comp
L pspice:R R13
U 1 1 5CF23635
P 8850 3200
F 0 "R13" V 8645 3200 50  0000 C CNN
F 1 "10kΩ" V 8736 3200 50  0000 C CNN
F 2 "Resistor_SMD:R_0603_1608Metric" H 8850 3200 50  0001 C CNN
F 3 "~" H 8850 3200 50  0001 C CNN
	1    8850 3200
	0    1    1    0   
$EndComp
Wire Wire Line
	8600 3200 8600 3050
Wire Wire Line
	8600 3050 8450 3050
Connection ~ 8600 3050
Wire Wire Line
	8350 3050 8450 3050
Connection ~ 8450 3050
Text GLabel 8050 2650 0    50   Input ~ 0
BSENSE+
Text GLabel 8050 2850 0    50   Input ~ 0
Phase_B
$Comp
L Amplifier_Current:INA240A1D U8
U 1 1 5CF2A767
P 9850 2750
F 0 "U8" H 10194 2796 50  0000 L CNN
F 1 "INA240A1D" H 9850 3000 50  0000 L CNN
F 2 "Package_SO:SOIC-8_3.9x4.9mm_P1.27mm" H 9850 2100 50  0001 C CNN
F 3 "http://www.ti.com/lit/ds/symlink/ina240.pdf" H 10000 2900 50  0001 C CNN
	1    9850 2750
	1    0    0    -1  
$EndComp
Text GLabel 9750 2450 1    50   Input ~ 0
3.3V
$Comp
L power:GND #PWR0127
U 1 1 5CF2A76E
P 9750 3050
F 0 "#PWR0127" H 9750 2800 50  0001 C CNN
F 1 "GND" H 9600 3050 50  0000 C CNN
F 2 "" H 9750 3050 50  0001 C CNN
F 3 "" H 9750 3050 50  0001 C CNN
	1    9750 3050
	1    0    0    -1  
$EndComp
Text GLabel 10600 3050 1    50   Input ~ 0
3.3V
$Comp
L power:GND #PWR0128
U 1 1 5CF2A775
P 10600 3200
F 0 "#PWR0128" H 10600 2950 50  0001 C CNN
F 1 "GND" H 10750 3200 50  0000 C CNN
F 2 "" H 10600 3200 50  0001 C CNN
F 3 "" H 10600 3200 50  0001 C CNN
	1    10600 3200
	1    0    0    -1  
$EndComp
$Comp
L pspice:R R14
U 1 1 5CF2A77B
P 10350 3050
F 0 "R14" V 10145 3050 50  0000 C CNN
F 1 "10kΩ" V 10236 3050 50  0000 C CNN
F 2 "Resistor_SMD:R_0603_1608Metric" H 10350 3050 50  0001 C CNN
F 3 "~" H 10350 3050 50  0001 C CNN
	1    10350 3050
	0    1    1    0   
$EndComp
$Comp
L pspice:R R15
U 1 1 5CF2A781
P 10350 3200
F 0 "R15" V 10145 3200 50  0000 C CNN
F 1 "10kΩ" V 10236 3200 50  0000 C CNN
F 2 "Resistor_SMD:R_0603_1608Metric" H 10350 3200 50  0001 C CNN
F 3 "~" H 10350 3200 50  0001 C CNN
	1    10350 3200
	0    1    1    0   
$EndComp
Wire Wire Line
	10100 3200 10100 3050
Wire Wire Line
	10100 3050 9950 3050
Connection ~ 10100 3050
Wire Wire Line
	9850 3050 9950 3050
Connection ~ 9950 3050
Text GLabel 9550 2650 0    50   Input ~ 0
CSENSE+
Text GLabel 9550 2850 0    50   Input ~ 0
Phase_C
Text GLabel 7150 2750 2    50   Input ~ 0
CurrentA+
Text GLabel 8650 2750 2    50   Input ~ 0
CurrentB+
Text GLabel 10150 2750 2    50   Input ~ 0
CurrentC+
Text Notes 7850 2200 0    50   ~ 0
Current Sense Op-Amps
Text Notes 2400 6300 0    50   ~ 0
Half-Bridges
Text GLabel 5550 7700 2    50   Input ~ 0
CSENSE+
Text GLabel 5550 7600 2    50   Input ~ 0
BSENSE+
Text GLabel 5550 7500 2    50   Input ~ 0
ASENSE+
$Comp
L Connector:Screw_Terminal_01x03 J4
U 1 1 5CCB4964
P 5350 7600
F 0 "J4" H 5430 7642 50  0000 L CNN
F 1 "Screw_Terminal_01x03" H 5430 7551 50  0000 L CNN
F 2 "EVCONCEPT:Super_Sabre_3PIN" H 5350 7600 50  0001 C CNN
F 3 "~" H 5350 7600 50  0001 C CNN
	1    5350 7600
	-1   0    0    1   
$EndComp
Text Notes 9400 850  0    50   ~ 0
Current Sense Caps
$Comp
L pspice:C C27
U 1 1 5CF9F0F5
P 9150 1450
F 0 "C27" H 9328 1496 50  0000 L CNN
F 1 "0.1uF" H 9328 1405 50  0000 L CNN
F 2 "Capacitor_SMD:C_1206_3216Metric" H 9150 1450 50  0001 C CNN
F 3 "~" H 9150 1450 50  0001 C CNN
	1    9150 1450
	1    0    0    -1  
$EndComp
$Comp
L pspice:C C28
U 1 1 5CFA40E3
P 9600 1450
F 0 "C28" H 9778 1496 50  0000 L CNN
F 1 "0.1uF" H 9778 1405 50  0000 L CNN
F 2 "Capacitor_SMD:C_1206_3216Metric" H 9600 1450 50  0001 C CNN
F 3 "~" H 9600 1450 50  0001 C CNN
	1    9600 1450
	1    0    0    -1  
$EndComp
$Comp
L pspice:C C29
U 1 1 5CFA9004
P 10000 1450
F 0 "C29" H 10178 1496 50  0000 L CNN
F 1 "0.1uF" H 10178 1405 50  0000 L CNN
F 2 "Capacitor_SMD:C_1206_3216Metric" H 10000 1450 50  0001 C CNN
F 3 "~" H 10000 1450 50  0001 C CNN
	1    10000 1450
	1    0    0    -1  
$EndComp
Wire Wire Line
	9150 1200 9600 1200
Connection ~ 9600 1200
Wire Wire Line
	9600 1200 10000 1200
$Comp
L power:GND #PWR0129
U 1 1 5CFB4A40
P 9600 1700
F 0 "#PWR0129" H 9600 1450 50  0001 C CNN
F 1 "GND" H 9605 1527 50  0000 C CNN
F 2 "" H 9600 1700 50  0001 C CNN
F 3 "" H 9600 1700 50  0001 C CNN
	1    9600 1700
	1    0    0    -1  
$EndComp
Wire Wire Line
	9150 1700 9600 1700
Connection ~ 9600 1700
Wire Wire Line
	9600 1700 10000 1700
Text GLabel 9600 1200 1    50   Input ~ 0
3.3V
$Comp
L pspice:C C8
U 1 1 5CFC0CF8
P 4950 2850
F 0 "C8" H 5128 2896 50  0000 L CNN
F 1 "0.1uF" H 5128 2805 50  0000 L CNN
F 2 "Capacitor_SMD:C_1206_3216Metric" H 4950 2850 50  0001 C CNN
F 3 "~" H 4950 2850 50  0001 C CNN
	1    4950 2850
	1    0    0    -1  
$EndComp
Text GLabel 4950 3100 3    50   Input ~ 0
VCP
$Comp
L pspice:C C12
U 1 1 5CFC8F56
P 5500 2850
F 0 "C12" H 5678 2896 50  0000 L CNN
F 1 "1uF" H 5678 2805 50  0000 L CNN
F 2 "Capacitor_SMD:C_1206_3216Metric" H 5500 2850 50  0001 C CNN
F 3 "~" H 5500 2850 50  0001 C CNN
	1    5500 2850
	1    0    0    -1  
$EndComp
$Comp
L power:GND #PWR0130
U 1 1 5CFCE40C
P 5500 3100
F 0 "#PWR0130" H 5500 2850 50  0001 C CNN
F 1 "GND" H 5505 2927 50  0000 C CNN
F 2 "" H 5500 3100 50  0001 C CNN
F 3 "" H 5500 3100 50  0001 C CNN
	1    5500 3100
	1    0    0    -1  
$EndComp
Text GLabel 5500 2600 1    50   Input ~ 0
VGLS
$Comp
L pspice:C C9
U 1 1 5CFD63F2
P 4950 3800
F 0 "C9" H 5128 3846 50  0000 L CNN
F 1 "1uF" H 5128 3755 50  0000 L CNN
F 2 "Capacitor_SMD:C_1206_3216Metric" H 4950 3800 50  0001 C CNN
F 3 "~" H 4950 3800 50  0001 C CNN
	1    4950 3800
	1    0    0    -1  
$EndComp
Text GLabel 4950 3550 1    50   Input ~ 0
DVDD
$Comp
L power:GND #PWR0131
U 1 1 5CFDC694
P 4950 4050
F 0 "#PWR0131" H 4950 3800 50  0001 C CNN
F 1 "GND" H 4955 3877 50  0000 C CNN
F 2 "" H 4950 4050 50  0001 C CNN
F 3 "" H 4950 4050 50  0001 C CNN
	1    4950 4050
	1    0    0    -1  
$EndComp
$Comp
L pspice:C C13
U 1 1 5CFE21A9
P 5500 3750
F 0 "C13" H 5678 3796 50  0000 L CNN
F 1 "0.47uF" H 5678 3705 50  0000 L CNN
F 2 "Capacitor_SMD:C_1206_3216Metric" H 5500 3750 50  0001 C CNN
F 3 "~" H 5500 3750 50  0001 C CNN
	1    5500 3750
	1    0    0    -1  
$EndComp
$Comp
L power:GND #PWR0132
U 1 1 5CFE21AF
P 5500 4000
F 0 "#PWR0132" H 5500 3750 50  0001 C CNN
F 1 "GND" H 5500 3850 50  0000 C CNN
F 2 "" H 5500 4000 50  0001 C CNN
F 3 "" H 5500 4000 50  0001 C CNN
	1    5500 4000
	1    0    0    -1  
$EndComp
Text GLabel 5500 3500 1    50   Input ~ 0
VCC
$Comp
L pspice:C C10
U 1 1 5CFE895E
P 4950 4700
F 0 "C10" H 5128 4746 50  0000 L CNN
F 1 "0.01uF" H 5128 4655 50  0000 L CNN
F 2 "Capacitor_SMD:C_1206_3216Metric" H 4950 4700 50  0001 C CNN
F 3 "~" H 4950 4700 50  0001 C CNN
	1    4950 4700
	1    0    0    -1  
$EndComp
Text GLabel 4950 4450 1    50   Input ~ 0
BST
Text GLabel 4950 4950 3    50   Input ~ 0
SW
$Comp
L pspice:R R4
U 1 1 5CFF510C
P 5500 4650
F 0 "R4" H 5568 4696 50  0000 L CNN
F 1 "232kΩ" H 5568 4605 50  0000 L CNN
F 2 "Resistor_SMD:R_0603_1608Metric" H 5500 4650 50  0001 C CNN
F 3 "~" H 5500 4650 50  0001 C CNN
	1    5500 4650
	1    0    0    -1  
$EndComp
$Comp
L pspice:R R7
U 1 1 5CFFA624
P 6000 4650
F 0 "R7" H 6068 4696 50  0000 L CNN
F 1 "10kΩ" H 6068 4605 50  0000 L CNN
F 2 "Resistor_SMD:R_0603_1608Metric" H 6000 4650 50  0001 C CNN
F 3 "~" H 6000 4650 50  0001 C CNN
	1    6000 4650
	1    0    0    -1  
$EndComp
$Comp
L power:VCC #PWR0133
U 1 1 5CFFFCC4
P 5500 4400
F 0 "#PWR0133" H 5500 4250 50  0001 C CNN
F 1 "VCC" H 5517 4573 50  0000 C CNN
F 2 "" H 5500 4400 50  0001 C CNN
F 3 "" H 5500 4400 50  0001 C CNN
	1    5500 4400
	1    0    0    -1  
$EndComp
$Comp
L power:GND #PWR0134
U 1 1 5D00537A
P 6000 4900
F 0 "#PWR0134" H 6000 4650 50  0001 C CNN
F 1 "GND" H 6005 4727 50  0000 C CNN
F 2 "" H 6000 4900 50  0001 C CNN
F 3 "" H 6000 4900 50  0001 C CNN
	1    6000 4900
	1    0    0    -1  
$EndComp
Text GLabel 6000 4400 1    50   Input ~ 0
RCL
Text GLabel 5500 4900 3    50   Input ~ 0
RTSD
$Comp
L power:VCC #PWR0135
U 1 1 5D0126ED
P 4950 2600
F 0 "#PWR0135" H 4950 2450 50  0001 C CNN
F 1 "VCC" H 4967 2773 50  0000 C CNN
F 2 "" H 4950 2600 50  0001 C CNN
F 3 "" H 4950 2600 50  0001 C CNN
	1    4950 2600
	1    0    0    -1  
$EndComp
Text Notes 8500 4000 0    50   ~ 0
Buck
$Comp
L pspice:DIODE D7
U 1 1 5D0254A5
P 7000 4400
F 0 "D7" V 7046 4272 50  0000 R CNN
F 1 "DIODE" V 6955 4272 50  0000 R CNN
F 2 "Diode_SMD:D_SMA" H 7000 4400 50  0001 C CNN
F 3 "~" H 7000 4400 50  0001 C CNN
	1    7000 4400
	0    -1   -1   0   
$EndComp
$Comp
L power:GND #PWR0136
U 1 1 5D0276BF
P 7500 4450
F 0 "#PWR0136" H 7500 4200 50  0001 C CNN
F 1 "GND" H 7505 4277 50  0000 C CNN
F 2 "" H 7500 4450 50  0001 C CNN
F 3 "" H 7500 4450 50  0001 C CNN
	1    7500 4450
	1    0    0    -1  
$EndComp
$Comp
L pspice:R R10
U 1 1 5D02CCAD
P 7750 4300
F 0 "R10" V 7955 4300 50  0000 C CNN
F 1 "50kΩ" V 7864 4300 50  0000 C CNN
F 2 "Resistor_SMD:R_0603_1608Metric" H 7750 4300 50  0001 C CNN
F 3 "~" H 7750 4300 50  0001 C CNN
	1    7750 4300
	0    -1   -1   0   
$EndComp
$Comp
L pspice:R R11
U 1 1 5D06C0BF
P 7750 4450
F 0 "R11" V 7955 4450 50  0000 C CNN
F 1 "50kΩ" V 7864 4450 50  0000 C CNN
F 2 "Resistor_SMD:R_0603_1608Metric" H 7750 4450 50  0001 C CNN
F 3 "~" H 7750 4450 50  0001 C CNN
	1    7750 4450
	0    -1   -1   0   
$EndComp
Wire Wire Line
	7500 4300 7500 4200
Wire Wire Line
	8000 4300 8000 4450
$Comp
L pspice:C C23
U 1 1 5D083574
P 8200 4450
F 0 "C23" H 8378 4496 50  0000 L CNN
F 1 "100uF" H 8378 4405 50  0000 L CNN
F 2 "Capacitor_SMD:C_1206_3216Metric" H 8200 4450 50  0001 C CNN
F 3 "~" H 8200 4450 50  0001 C CNN
	1    8200 4450
	1    0    0    -1  
$EndComp
$Comp
L pspice:C C25
U 1 1 5D08357A
P 8550 4450
F 0 "C25" H 8728 4496 50  0000 L CNN
F 1 "100uF" H 8728 4405 50  0000 L CNN
F 2 "Capacitor_SMD:C_1206_3216Metric" H 8550 4450 50  0001 C CNN
F 3 "~" H 8550 4450 50  0001 C CNN
	1    8550 4450
	1    0    0    -1  
$EndComp
$Comp
L pspice:C C26
U 1 1 5D083580
P 8900 4450
F 0 "C26" H 9078 4496 50  0000 L CNN
F 1 "100uF" H 9078 4405 50  0000 L CNN
F 2 "Capacitor_SMD:C_1206_3216Metric" H 8900 4450 50  0001 C CNN
F 3 "~" H 8900 4450 50  0001 C CNN
	1    8900 4450
	1    0    0    -1  
$EndComp
Wire Wire Line
	7500 4200 8200 4200
Wire Wire Line
	8200 4200 8550 4200
Connection ~ 8200 4200
Wire Wire Line
	8550 4200 8900 4200
Connection ~ 8550 4200
Wire Wire Line
	8200 4700 8550 4700
Connection ~ 8550 4700
Wire Wire Line
	8550 4700 8900 4700
$Comp
L power:GND #PWR0137
U 1 1 5D0A85E2
P 8550 4700
F 0 "#PWR0137" H 8550 4450 50  0001 C CNN
F 1 "GND" H 8700 4700 50  0000 C CNN
F 2 "" H 8550 4700 50  0001 C CNN
F 3 "" H 8550 4700 50  0001 C CNN
	1    8550 4700
	1    0    0    -1  
$EndComp
$Comp
L power:GND #PWR0138
U 1 1 5D0AE56F
P 7000 4600
F 0 "#PWR0138" H 7000 4350 50  0001 C CNN
F 1 "GND" H 7150 4600 50  0000 C CNN
F 2 "" H 7000 4600 50  0001 C CNN
F 3 "" H 7000 4600 50  0001 C CNN
	1    7000 4600
	1    0    0    -1  
$EndComp
Text GLabel 8000 4450 3    50   Input ~ 0
FB
Text GLabel 7000 4200 0    50   Input ~ 0
SW
$Comp
L pspice:R R6
U 1 1 5D0CA69E
P 6000 3650
F 0 "R6" H 6068 3696 50  0000 L CNN
F 1 "10kΩ" H 6068 3605 50  0000 L CNN
F 2 "Resistor_SMD:R_0603_1608Metric" H 6000 3650 50  0001 C CNN
F 3 "~" H 6000 3650 50  0001 C CNN
	1    6000 3650
	1    0    0    -1  
$EndComp
$Comp
L power:VCC #PWR0139
U 1 1 5D0CA6A4
P 6000 3400
F 0 "#PWR0139" H 6000 3250 50  0001 C CNN
F 1 "VCC" H 6017 3573 50  0000 C CNN
F 2 "" H 6000 3400 50  0001 C CNN
F 3 "" H 6000 3400 50  0001 C CNN
	1    6000 3400
	1    0    0    -1  
$EndComp
Text GLabel 6000 3900 3    50   Input ~ 0
nFault
$Comp
L pspice:R R5
U 1 1 5D0D07FB
P 6000 2750
F 0 "R5" H 6068 2796 50  0000 L CNN
F 1 "1kΩ" H 6068 2705 50  0000 L CNN
F 2 "Resistor_SMD:R_0603_1608Metric" H 6000 2750 50  0001 C CNN
F 3 "~" H 6000 2750 50  0001 C CNN
	1    6000 2750
	1    0    0    -1  
$EndComp
Text GLabel 6000 3000 3    50   Input ~ 0
SDO
$Comp
L power:VCC #PWR0140
U 1 1 5D0D0801
P 6000 2500
F 0 "#PWR0140" H 6000 2350 50  0001 C CNN
F 1 "VCC" H 6017 2673 50  0000 C CNN
F 2 "" H 6000 2500 50  0001 C CNN
F 3 "" H 6000 2500 50  0001 C CNN
	1    6000 2500
	1    0    0    -1  
$EndComp
$Comp
L Connector_Generic_MountingPin:Conn_01x08_MountingPin J2
U 1 1 5CC0EB35
P 1050 5800
F 0 "J2" H 1138 5622 50  0000 L CNN
F 1 "Conn_01x08_MountingPin" V 1250 5250 50  0000 L CNN
F 2 "Connector_PinHeader_1.27mm:PinHeader_1x08_P1.27mm_Vertical" H 1050 5800 50  0001 C CNN
F 3 "~" H 1050 5800 50  0001 C CNN
	1    1050 5800
	-1   0    0    1   
$EndComp
Text GLabel 2250 5400 2    50   Input ~ 0
3.3V
$Comp
L power:GND #PWR0141
U 1 1 5CC11DE1
P 2250 6100
F 0 "#PWR0141" H 2250 5850 50  0001 C CNN
F 1 "GND" H 2255 5927 50  0000 C CNN
F 2 "" H 2250 6100 50  0001 C CNN
F 3 "" H 2250 6100 50  0001 C CNN
	1    2250 6100
	1    0    0    -1  
$EndComp
Text GLabel 2250 5500 2    50   Input ~ 0
SDI
Text GLabel 2250 5600 2    50   Input ~ 0
SCLK
Text GLabel 2250 5700 2    50   Input ~ 0
NSCS
Text GLabel 2250 5800 2    50   Input ~ 0
ENABLE
Text GLabel 2250 5900 2    50   Input ~ 0
SDO
Text GLabel 2250 6000 2    50   Input ~ 0
NFault
$Comp
L Connector_Generic_MountingPin:Conn_01x08_MountingPin J3
U 1 1 5CC254E5
P 2850 5800
F 0 "J3" H 2938 5622 50  0000 L CNN
F 1 "Conn_01x08_MountingPin" V 3050 5250 50  0000 L CNN
F 2 "Connector_PinHeader_1.27mm:PinHeader_1x08_P1.27mm_Vertical" H 2850 5800 50  0001 C CNN
F 3 "~" H 2850 5800 50  0001 C CNN
	1    2850 5800
	-1   0    0    1   
$EndComp
Text GLabel 4050 5400 2    50   Input ~ 0
3.3V
$Comp
L power:GND #PWR0142
U 1 1 5CC254EC
P 4050 6100
F 0 "#PWR0142" H 4050 5850 50  0001 C CNN
F 1 "GND" H 4055 5927 50  0000 C CNN
F 2 "" H 4050 6100 50  0001 C CNN
F 3 "" H 4050 6100 50  0001 C CNN
	1    4050 6100
	1    0    0    -1  
$EndComp
Text GLabel 4050 5500 2    50   Input ~ 0
INHA
Text GLabel 4050 5600 2    50   Input ~ 0
INLA
Text GLabel 4050 5700 2    50   Input ~ 0
INHB
Text GLabel 4050 5800 2    50   Input ~ 0
INLB
Text GLabel 4050 5900 2    50   Input ~ 0
INHC
Text GLabel 4050 6000 2    50   Input ~ 0
INLC
$Comp
L Motor-Controller-rescue:ISO7762-EVCONCEPT U1
U 1 1 5CC72B88
P 1750 5750
F 0 "U1" H 1750 6365 50  0000 C CNN
F 1 "ISO7762" H 1750 6274 50  0000 C CNN
F 2 "Package_SO:SSOP-16_3.9x4.9mm_P0.635mm" H 1750 5750 50  0001 C CNN
F 3 "http://www.ti.com/product/ISO7760/datasheet?keyMatch=iso7760&tisearch=Search-EN-Everything" H 1750 5750 50  0001 C CNN
	1    1750 5750
	1    0    0    -1  
$EndComp
$Comp
L Motor-Controller-rescue:ISO7760-EVCONCEPT U3
U 1 1 5CC7432C
P 3550 5750
F 0 "U3" H 3550 6365 50  0000 C CNN
F 1 "ISO7760" H 3550 6274 50  0000 C CNN
F 2 "Package_SO:SSOP-16_3.9x4.9mm_P0.635mm" H 3550 5750 50  0001 C CNN
F 3 "http://www.ti.com/product/ISO7760/datasheet?keyMatch=iso7760&tisearch=Search-EN-Everything" H 3550 5750 50  0001 C CNN
	1    3550 5750
	1    0    0    -1  
$EndComp
Text GLabel 10250 4200 2    50   Input ~ 0
3.3V
$Comp
L Motor-Controller-rescue:ADS131M04-EVCONCEPT U4
U 1 1 5CC890FB
P 6050 5850
F 0 "U4" H 6050 6565 50  0000 C CNN
F 1 "ADS131M04" H 6050 6474 50  0000 C CNN
F 2 "Package_SO:TSSOP-20_4.4x6.5mm_P0.65mm" H 6050 5850 50  0001 C CNN
F 3 "http://www.ti.com/lit/ds/symlink/ads131m04.pdf" H 6050 5850 50  0001 C CNN
	1    6050 5850
	1    0    0    -1  
$EndComp
Text GLabel 6600 5400 2    50   Input ~ 0
3.3V
Text GLabel 5500 5400 0    50   Input ~ 0
3.3V
$Comp
L power:GND #PWR0143
U 1 1 5CC9E940
P 4950 5500
F 0 "#PWR0143" H 4950 5250 50  0001 C CNN
F 1 "GND" H 4955 5327 50  0000 C CNN
F 2 "" H 4950 5500 50  0001 C CNN
F 3 "" H 4950 5500 50  0001 C CNN
	1    4950 5500
	1    0    0    -1  
$EndComp
$Comp
L power:GND #PWR0144
U 1 1 5CCA43FB
P 7550 5600
F 0 "#PWR0144" H 7550 5350 50  0001 C CNN
F 1 "GND" H 7555 5427 50  0000 C CNN
F 2 "" H 7550 5600 50  0001 C CNN
F 3 "" H 7550 5600 50  0001 C CNN
	1    7550 5600
	1    0    0    -1  
$EndComp
Wire Wire Line
	6600 5500 6850 5500
Text GLabel 5500 5600 0    50   Input ~ 0
CurrentA+
Text GLabel 7100 3200 3    50   Input ~ 0
CurrentA-
Text GLabel 8600 3200 3    50   Input ~ 0
CurrentB-
Text GLabel 10100 3200 3    50   Input ~ 0
CurrentC-
Text GLabel 5500 5700 0    50   Input ~ 0
CurrentA-
Text GLabel 5500 5800 0    50   Input ~ 0
CurrentB+
Text GLabel 5500 5900 0    50   Input ~ 0
CurrentB-
Text GLabel 5500 6000 0    50   Input ~ 0
CurrentC+
Text GLabel 5500 6100 0    50   Input ~ 0
CurrentC-
Wire Wire Line
	4950 5500 5500 5500
Wire Wire Line
	5500 6200 5500 6300
$Comp
L Connector_Generic_MountingPin:Conn_01x08_MountingPin J5
U 1 1 5CD2AF19
P 9550 5900
F 0 "J5" H 9638 5722 50  0000 L CNN
F 1 "Conn_01x08_MountingPin" V 9750 5350 50  0000 L CNN
F 2 "Connector_PinHeader_1.27mm:PinHeader_1x08_P1.27mm_Vertical" H 9550 5900 50  0001 C CNN
F 3 "~" H 9550 5900 50  0001 C CNN
	1    9550 5900
	1    0    0    -1  
$EndComp
Text GLabel 8350 5600 0    50   Input ~ 0
3.3V
$Comp
L power:GND #PWR0145
U 1 1 5CD2AF20
P 8350 6300
F 0 "#PWR0145" H 8350 6050 50  0001 C CNN
F 1 "GND" H 8355 6127 50  0000 C CNN
F 2 "" H 8350 6300 50  0001 C CNN
F 3 "" H 8350 6300 50  0001 C CNN
	1    8350 6300
	1    0    0    -1  
$EndComp
$Comp
L Motor-Controller-rescue:ISO7762-EVCONCEPT U7
U 1 1 5CD2AF2C
P 8850 5950
F 0 "U7" H 8850 6565 50  0000 C CNN
F 1 "ISO7762" H 8850 6474 50  0000 C CNN
F 2 "Package_SO:SSOP-16_3.9x4.9mm_P0.635mm" H 8850 5950 50  0001 C CNN
F 3 "http://www.ti.com/product/ISO7760/datasheet?keyMatch=iso7760&tisearch=Search-EN-Everything" H 8850 5950 50  0001 C CNN
	1    8850 5950
	-1   0    0    -1  
$EndComp
$Comp
L pspice:C C18
U 1 1 5CD32E4B
P 7300 5600
F 0 "C18" H 7478 5646 50  0000 L CNN
F 1 "0.01uF" H 7478 5555 50  0000 L CNN
F 2 "Capacitor_SMD:C_1206_3216Metric" H 7300 5600 50  0001 C CNN
F 3 "~" H 7300 5600 50  0001 C CNN
	1    7300 5600
	0    -1   -1   0   
$EndComp
$Comp
L power:GND #PWR0146
U 1 1 5CD50E64
P 6850 5500
F 0 "#PWR0146" H 6850 5250 50  0001 C CNN
F 1 "GND" H 6855 5327 50  0000 C CNN
F 2 "" H 6850 5500 50  0001 C CNN
F 3 "" H 6850 5500 50  0001 C CNN
	1    6850 5500
	1    0    0    -1  
$EndComp
Wire Wire Line
	6600 5600 7050 5600
Wire Wire Line
	7150 5900 7150 6200
Wire Wire Line
	7150 6200 8350 6200
Wire Wire Line
	6600 5900 7150 5900
Wire Wire Line
	6600 5700 8350 5700
Wire Wire Line
	6600 5800 8350 5800
Wire Wire Line
	6600 6000 7300 6000
Wire Wire Line
	7300 6000 7300 5900
Wire Wire Line
	7300 5900 8350 5900
Wire Wire Line
	6600 6200 7050 6200
Wire Wire Line
	7050 6200 7050 6100
Wire Wire Line
	7050 6100 8100 6100
Wire Wire Line
	8100 6000 8350 6000
Wire Wire Line
	8350 6100 8200 6100
Wire Wire Line
	8200 6100 8200 6300
Wire Wire Line
	8200 6300 6600 6300
Wire Wire Line
	8100 6000 8100 6100
$Comp
L pspice:C C33
U 1 1 5CE77F42
P 10450 1450
F 0 "C33" H 10628 1496 50  0000 L CNN
F 1 "0.1uF" H 10628 1405 50  0000 L CNN
F 2 "Capacitor_SMD:C_1206_3216Metric" H 10450 1450 50  0001 C CNN
F 3 "~" H 10450 1450 50  0001 C CNN
	1    10450 1450
	1    0    0    -1  
$EndComp
Wire Wire Line
	10450 1200 10000 1200
Connection ~ 10000 1200
Wire Wire Line
	10000 1700 10450 1700
Connection ~ 10000 1700
Text Notes 10100 5450 0    50   ~ 0
Isoalation Caps\n
$Comp
L pspice:C C30
U 1 1 5CE90A92
P 9950 5950
F 0 "C30" H 10128 5996 50  0000 L CNN
F 1 "0.1uF" H 10128 5905 50  0000 L CNN
F 2 "Capacitor_SMD:C_1206_3216Metric" H 9950 5950 50  0001 C CNN
F 3 "~" H 9950 5950 50  0001 C CNN
	1    9950 5950
	1    0    0    -1  
$EndComp
$Comp
L pspice:C C31
U 1 1 5CE90A98
P 10400 5950
F 0 "C31" H 10578 5996 50  0000 L CNN
F 1 "0.1uF" H 10578 5905 50  0000 L CNN
F 2 "Capacitor_SMD:C_1206_3216Metric" H 10400 5950 50  0001 C CNN
F 3 "~" H 10400 5950 50  0001 C CNN
	1    10400 5950
	1    0    0    -1  
$EndComp
$Comp
L pspice:C C32
U 1 1 5CE90A9E
P 10800 5950
F 0 "C32" H 10978 5996 50  0000 L CNN
F 1 "0.1uF" H 10978 5905 50  0000 L CNN
F 2 "Capacitor_SMD:C_1206_3216Metric" H 10800 5950 50  0001 C CNN
F 3 "~" H 10800 5950 50  0001 C CNN
	1    10800 5950
	1    0    0    -1  
$EndComp
Wire Wire Line
	9950 5700 10400 5700
Connection ~ 10400 5700
Wire Wire Line
	10400 5700 10800 5700
$Comp
L power:GND #PWR0147
U 1 1 5CE90AA7
P 10400 6200
F 0 "#PWR0147" H 10400 5950 50  0001 C CNN
F 1 "GND" H 10405 6027 50  0000 C CNN
F 2 "" H 10400 6200 50  0001 C CNN
F 3 "" H 10400 6200 50  0001 C CNN
	1    10400 6200
	1    0    0    -1  
$EndComp
Wire Wire Line
	9950 6200 10400 6200
Connection ~ 10400 6200
Wire Wire Line
	10400 6200 10800 6200
Text GLabel 10400 5700 1    50   Input ~ 0
3.3V
$Comp
L Connector:Conn_01x05_Female J6
U 1 1 5CC1ED39
P 950 4750
F 0 "J6" H 842 4325 50  0000 C CNN
F 1 "Conn_01x05_Female" H 842 4416 50  0000 C CNN
F 2 "Connector_PinHeader_1.27mm:PinHeader_1x05_P1.27mm_Vertical" H 950 4750 50  0001 C CNN
F 3 "~" H 950 4750 50  0001 C CNN
	1    950  4750
	-1   0    0    1   
$EndComp
Text GLabel 1150 4550 2    50   Input ~ 0
5V
$Comp
L power:GND #PWR0148
U 1 1 5CC2A85B
P 1400 4650
F 0 "#PWR0148" H 1400 4400 50  0001 C CNN
F 1 "GND" H 1500 4650 50  0000 C CNN
F 2 "" H 1400 4650 50  0001 C CNN
F 3 "" H 1400 4650 50  0001 C CNN
	1    1400 4650
	1    0    0    -1  
$EndComp
Wire Wire Line
	1400 4650 1150 4650
Text GLabel 1150 4750 2    50   Input ~ 0
INLA
Text GLabel 1150 4850 2    50   Input ~ 0
INHB
Text GLabel 1150 4950 2    50   Input ~ 0
INLB
$Comp
L Regulator_Linear:TLV75533PDBV U9
U 1 1 5CC42260
P 9650 4300
F 0 "U9" H 9650 4642 50  0000 C CNN
F 1 "TLV75533PDBV" H 9650 4551 50  0000 C CNN
F 2 "Package_TO_SOT_SMD:SOT-23-5" H 9650 4600 50  0001 C CIN
F 3 "http://www.ti.com/lit/ds/symlink/tlv755p.pdf" H 9650 4300 50  0001 C CNN
	1    9650 4300
	1    0    0    -1  
$EndComp
$Comp
L pspice:C C34
U 1 1 5CC4EFF0
P 10100 4450
F 0 "C34" H 10278 4496 50  0000 L CNN
F 1 "1uF" H 10278 4405 50  0000 L CNN
F 2 "Capacitor_SMD:C_1206_3216Metric" H 10100 4450 50  0001 C CNN
F 3 "~" H 10100 4450 50  0001 C CNN
	1    10100 4450
	1    0    0    -1  
$EndComp
Wire Wire Line
	9950 4200 10100 4200
Wire Wire Line
	10100 4200 10250 4200
Connection ~ 10100 4200
Wire Wire Line
	9650 4600 9650 4700
Wire Wire Line
	9650 4700 9900 4700
$Comp
L power:GND #PWR0149
U 1 1 5CC81660
P 9900 4700
F 0 "#PWR0149" H 9900 4450 50  0001 C CNN
F 1 "GND" H 10050 4700 50  0000 C CNN
F 2 "" H 9900 4700 50  0001 C CNN
F 3 "" H 9900 4700 50  0001 C CNN
	1    9900 4700
	1    0    0    -1  
$EndComp
Wire Wire Line
	9350 4300 9350 4200
Wire Wire Line
	8900 4200 9350 4200
Connection ~ 8900 4200
Connection ~ 9350 4200
Connection ~ 9900 4700
Wire Wire Line
	9900 4700 10100 4700
Text GLabel 8200 4200 1    50   Input ~ 0
5V
Wire Wire Line
	7750 1700 7900 1700
Wire Wire Line
	7550 1700 7900 1700
$Comp
L power:GND #PWR0150
U 1 1 5CD79035
P 4050 4850
F 0 "#PWR0150" H 4050 4600 50  0001 C CNN
F 1 "GND" H 4055 4677 50  0000 C CNN
F 2 "" H 4050 4850 50  0001 C CNN
F 3 "" H 4050 4850 50  0001 C CNN
	1    4050 4850
	1    0    0    -1  
$EndComp
$Comp
L pspice:INDUCTOR L3
U 1 1 5CC26A5B
P 7250 4200
F 0 "L3" H 7250 4415 50  0000 C CNN
F 1 "47uH" H 7250 4324 50  0000 C CNN
F 2 "Inductor_SMD:L_10.4x10.4_H4.8" H 7250 4200 50  0001 C CNN
F 3 "https://katalog.we-online.de/pbs/datasheet/7443641000.pdf" H 7250 4200 50  0001 C CNN
	1    7250 4200
	1    0    0    -1  
$EndComp
$EndSCHEMATC
