G04 #@! TF.GenerationSoftware,KiCad,Pcbnew,(5.1.0)-1*
G04 #@! TF.CreationDate,2019-05-03T19:33:28-05:00*
G04 #@! TF.ProjectId,Motor Controller 2.0,4d6f746f-7220-4436-9f6e-74726f6c6c65,rev?*
G04 #@! TF.SameCoordinates,Original*
G04 #@! TF.FileFunction,Legend,Bot*
G04 #@! TF.FilePolarity,Positive*
%FSLAX46Y46*%
G04 Gerber Fmt 4.6, Leading zero omitted, Abs format (unit mm)*
G04 Created by KiCad (PCBNEW (5.1.0)-1) date 2019-05-03 19:33:28*
%MOMM*%
%LPD*%
G04 APERTURE LIST*
%ADD10C,0.120000*%
%ADD11C,0.150000*%
%ADD12C,0.100000*%
G04 APERTURE END LIST*
D10*
X113490000Y-89912779D02*
X113490000Y-89587221D01*
X114510000Y-89912779D02*
X114510000Y-89587221D01*
X95639748Y-102686000D02*
X92808252Y-102686000D01*
X95639748Y-97466000D02*
X92808252Y-97466000D01*
X98150000Y-100867936D02*
X98150000Y-102072064D01*
X99970000Y-100867936D02*
X99970000Y-102072064D01*
X102256000Y-100743936D02*
X102256000Y-101948064D01*
X100436000Y-100743936D02*
X100436000Y-101948064D01*
X77990000Y-89875279D02*
X77990000Y-89549721D01*
X79010000Y-89875279D02*
X79010000Y-89549721D01*
X76510000Y-89875279D02*
X76510000Y-89549721D01*
X75490000Y-89875279D02*
X75490000Y-89549721D01*
X132034779Y-106010000D02*
X131709221Y-106010000D01*
X132034779Y-104990000D02*
X131709221Y-104990000D01*
X132034779Y-118490000D02*
X131709221Y-118490000D01*
X132034779Y-119510000D02*
X131709221Y-119510000D01*
X132534779Y-133510000D02*
X132209221Y-133510000D01*
X132534779Y-132490000D02*
X132209221Y-132490000D01*
X112260000Y-89875279D02*
X112260000Y-89549721D01*
X111240000Y-89875279D02*
X111240000Y-89549721D01*
D11*
X123997000Y-100125000D02*
X123822000Y-100125000D01*
X123997000Y-96875000D02*
X123722000Y-96875000D01*
X120747000Y-96875000D02*
X121022000Y-96875000D01*
X120747000Y-100125000D02*
X121022000Y-100125000D01*
X123997000Y-100125000D02*
X123997000Y-96875000D01*
X120747000Y-100125000D02*
X120747000Y-96875000D01*
X123822000Y-100125000D02*
X123822000Y-101200000D01*
X123822000Y-114475000D02*
X123822000Y-115550000D01*
X120747000Y-114475000D02*
X120747000Y-111225000D01*
X123997000Y-114475000D02*
X123997000Y-111225000D01*
X120747000Y-114475000D02*
X121022000Y-114475000D01*
X120747000Y-111225000D02*
X121022000Y-111225000D01*
X123997000Y-111225000D02*
X123722000Y-111225000D01*
X123997000Y-114475000D02*
X123822000Y-114475000D01*
X123997000Y-128125000D02*
X123822000Y-128125000D01*
X123997000Y-124875000D02*
X123722000Y-124875000D01*
X120747000Y-124875000D02*
X121022000Y-124875000D01*
X120747000Y-128125000D02*
X121022000Y-128125000D01*
X123997000Y-128125000D02*
X123997000Y-124875000D01*
X120747000Y-128125000D02*
X120747000Y-124875000D01*
X123822000Y-128125000D02*
X123822000Y-129200000D01*
X120447000Y-107575000D02*
X120447000Y-107525000D01*
X124597000Y-107575000D02*
X124597000Y-107430000D01*
X124597000Y-102425000D02*
X124597000Y-102570000D01*
X120447000Y-102425000D02*
X120447000Y-102570000D01*
X120447000Y-107575000D02*
X124597000Y-107575000D01*
X120447000Y-102425000D02*
X124597000Y-102425000D01*
X120447000Y-107525000D02*
X119047000Y-107525000D01*
X120297000Y-121525000D02*
X118897000Y-121525000D01*
X120297000Y-116425000D02*
X124447000Y-116425000D01*
X120297000Y-121575000D02*
X124447000Y-121575000D01*
X120297000Y-116425000D02*
X120297000Y-116570000D01*
X124447000Y-116425000D02*
X124447000Y-116570000D01*
X124447000Y-121575000D02*
X124447000Y-121430000D01*
X120297000Y-121575000D02*
X120297000Y-121525000D01*
X120497000Y-135440000D02*
X120497000Y-135390000D01*
X124647000Y-135440000D02*
X124647000Y-135295000D01*
X124647000Y-130290000D02*
X124647000Y-130435000D01*
X120497000Y-130290000D02*
X120497000Y-130435000D01*
X120497000Y-135440000D02*
X124647000Y-135440000D01*
X120497000Y-130290000D02*
X124647000Y-130290000D01*
X120497000Y-135390000D02*
X119097000Y-135390000D01*
D10*
X94602000Y-109080000D02*
X94602000Y-109588000D01*
X95110000Y-109080000D02*
X94602000Y-109080000D01*
X94602000Y-114414000D02*
X95110000Y-114414000D01*
X94602000Y-113906000D02*
X94602000Y-114414000D01*
X99936000Y-114414000D02*
X99936000Y-113906000D01*
X99428000Y-114414000D02*
X99936000Y-114414000D01*
X99428000Y-109080000D02*
X99936000Y-109080000D01*
X101906000Y-109801922D02*
X101906000Y-110319078D01*
X103326000Y-109801922D02*
X103326000Y-110319078D01*
X97738000Y-105668578D02*
X97738000Y-105151422D01*
X96318000Y-105668578D02*
X96318000Y-105151422D01*
X101348000Y-108341279D02*
X101348000Y-108015721D01*
X100328000Y-108341279D02*
X100328000Y-108015721D01*
X98604000Y-105668578D02*
X98604000Y-105151422D01*
X100024000Y-105668578D02*
X100024000Y-105151422D01*
X99260000Y-89549721D02*
X99260000Y-89875279D01*
X98240000Y-89549721D02*
X98240000Y-89875279D01*
X100740000Y-89587221D02*
X100740000Y-89912779D01*
X101760000Y-89587221D02*
X101760000Y-89912779D01*
X104260000Y-89587221D02*
X104260000Y-89912779D01*
X103240000Y-89587221D02*
X103240000Y-89912779D01*
X122630578Y-107790000D02*
X122113422Y-107790000D01*
X122630578Y-109210000D02*
X122113422Y-109210000D01*
X126082000Y-112741422D02*
X126082000Y-113258578D01*
X124662000Y-112741422D02*
X124662000Y-113258578D01*
X122630578Y-121790000D02*
X122113422Y-121790000D01*
X122630578Y-123210000D02*
X122113422Y-123210000D01*
X126082000Y-126241422D02*
X126082000Y-126758578D01*
X124662000Y-126241422D02*
X124662000Y-126758578D01*
X124662000Y-98241422D02*
X124662000Y-98758578D01*
X126082000Y-98241422D02*
X126082000Y-98758578D01*
X123068078Y-137210000D02*
X122550922Y-137210000D01*
X123068078Y-135790000D02*
X122550922Y-135790000D01*
D12*
X130875000Y-104150000D02*
X130600000Y-104150000D01*
X130600000Y-104150000D02*
X130225000Y-103875000D01*
X130225000Y-103875000D02*
X130225000Y-103825000D01*
X130225000Y-103825000D02*
X129450000Y-103825000D01*
X130700000Y-100850000D02*
X130225000Y-100850000D01*
X130225000Y-100850000D02*
X130225000Y-101200000D01*
X131875000Y-101075000D02*
X131875000Y-101200000D01*
X131875000Y-101150000D02*
X131875000Y-100850000D01*
X131875000Y-100850000D02*
X131425000Y-100850000D01*
X131500000Y-104150000D02*
X131875000Y-104150000D01*
X131875000Y-104150000D02*
X131875000Y-103850000D01*
X130875000Y-117625001D02*
X130600000Y-117625001D01*
X130600000Y-117625001D02*
X130225000Y-117350001D01*
X130225000Y-117350001D02*
X130225000Y-117300001D01*
X130225000Y-117300001D02*
X129450000Y-117300001D01*
X130700000Y-114325001D02*
X130225000Y-114325001D01*
X130225000Y-114325001D02*
X130225000Y-114675001D01*
X131875000Y-114550001D02*
X131875000Y-114675001D01*
X131875000Y-114625001D02*
X131875000Y-114325001D01*
X131875000Y-114325001D02*
X131425000Y-114325001D01*
X131500000Y-117625001D02*
X131875000Y-117625001D01*
X131875000Y-117625001D02*
X131875000Y-117325001D01*
X131647000Y-131650000D02*
X131647000Y-131350000D01*
X131272000Y-131650000D02*
X131647000Y-131650000D01*
X131647000Y-128350000D02*
X131197000Y-128350000D01*
X131647000Y-128650000D02*
X131647000Y-128350000D01*
X131647000Y-128575000D02*
X131647000Y-128700000D01*
X129997000Y-128350000D02*
X129997000Y-128700000D01*
X130472000Y-128350000D02*
X129997000Y-128350000D01*
X129997000Y-131325000D02*
X129222000Y-131325000D01*
X129997000Y-131375000D02*
X129997000Y-131325000D01*
X130372000Y-131650000D02*
X129997000Y-131375000D01*
X130647000Y-131650000D02*
X130372000Y-131650000D01*
D11*
X114580380Y-92107142D02*
X114104190Y-91773809D01*
X114580380Y-91535714D02*
X113580380Y-91535714D01*
X113580380Y-91916666D01*
X113628000Y-92011904D01*
X113675619Y-92059523D01*
X113770857Y-92107142D01*
X113913714Y-92107142D01*
X114008952Y-92059523D01*
X114056571Y-92011904D01*
X114104190Y-91916666D01*
X114104190Y-91535714D01*
X114580380Y-93059523D02*
X114580380Y-92488095D01*
X114580380Y-92773809D02*
X113580380Y-92773809D01*
X113723238Y-92678571D01*
X113818476Y-92583333D01*
X113866095Y-92488095D01*
X113580380Y-93916666D02*
X113580380Y-93726190D01*
X113628000Y-93630952D01*
X113675619Y-93583333D01*
X113818476Y-93488095D01*
X114008952Y-93440476D01*
X114389904Y-93440476D01*
X114485142Y-93488095D01*
X114532761Y-93535714D01*
X114580380Y-93630952D01*
X114580380Y-93821428D01*
X114532761Y-93916666D01*
X114485142Y-93964285D01*
X114389904Y-94011904D01*
X114151809Y-94011904D01*
X114056571Y-93964285D01*
X114008952Y-93916666D01*
X113961333Y-93821428D01*
X113961333Y-93630952D01*
X114008952Y-93535714D01*
X114056571Y-93488095D01*
X114151809Y-93440476D01*
X95142857Y-103857142D02*
X95190476Y-103904761D01*
X95333333Y-103952380D01*
X95428571Y-103952380D01*
X95571428Y-103904761D01*
X95666666Y-103809523D01*
X95714285Y-103714285D01*
X95761904Y-103523809D01*
X95761904Y-103380952D01*
X95714285Y-103190476D01*
X95666666Y-103095238D01*
X95571428Y-103000000D01*
X95428571Y-102952380D01*
X95333333Y-102952380D01*
X95190476Y-103000000D01*
X95142857Y-103047619D01*
X94190476Y-103952380D02*
X94761904Y-103952380D01*
X94476190Y-103952380D02*
X94476190Y-102952380D01*
X94571428Y-103095238D01*
X94666666Y-103190476D01*
X94761904Y-103238095D01*
X93714285Y-103952380D02*
X93523809Y-103952380D01*
X93428571Y-103904761D01*
X93380952Y-103857142D01*
X93285714Y-103714285D01*
X93238095Y-103523809D01*
X93238095Y-103142857D01*
X93285714Y-103047619D01*
X93333333Y-103000000D01*
X93428571Y-102952380D01*
X93619047Y-102952380D01*
X93714285Y-103000000D01*
X93761904Y-103047619D01*
X93809523Y-103142857D01*
X93809523Y-103380952D01*
X93761904Y-103476190D01*
X93714285Y-103523809D01*
X93619047Y-103571428D01*
X93428571Y-103571428D01*
X93333333Y-103523809D01*
X93285714Y-103476190D01*
X93238095Y-103380952D01*
X99857142Y-97357142D02*
X99904761Y-97309523D01*
X99952380Y-97166666D01*
X99952380Y-97071428D01*
X99904761Y-96928571D01*
X99809523Y-96833333D01*
X99714285Y-96785714D01*
X99523809Y-96738095D01*
X99380952Y-96738095D01*
X99190476Y-96785714D01*
X99095238Y-96833333D01*
X99000000Y-96928571D01*
X98952380Y-97071428D01*
X98952380Y-97166666D01*
X99000000Y-97309523D01*
X99047619Y-97357142D01*
X99047619Y-97738095D02*
X99000000Y-97785714D01*
X98952380Y-97880952D01*
X98952380Y-98119047D01*
X99000000Y-98214285D01*
X99047619Y-98261904D01*
X99142857Y-98309523D01*
X99238095Y-98309523D01*
X99380952Y-98261904D01*
X99952380Y-97690476D01*
X99952380Y-98309523D01*
X98952380Y-98928571D02*
X98952380Y-99023809D01*
X99000000Y-99119047D01*
X99047619Y-99166666D01*
X99142857Y-99214285D01*
X99333333Y-99261904D01*
X99571428Y-99261904D01*
X99761904Y-99214285D01*
X99857142Y-99166666D01*
X99904761Y-99119047D01*
X99952380Y-99023809D01*
X99952380Y-98928571D01*
X99904761Y-98833333D01*
X99857142Y-98785714D01*
X99761904Y-98738095D01*
X99571428Y-98690476D01*
X99333333Y-98690476D01*
X99142857Y-98738095D01*
X99047619Y-98785714D01*
X99000000Y-98833333D01*
X98952380Y-98928571D01*
X101857142Y-97357142D02*
X101904761Y-97309523D01*
X101952380Y-97166666D01*
X101952380Y-97071428D01*
X101904761Y-96928571D01*
X101809523Y-96833333D01*
X101714285Y-96785714D01*
X101523809Y-96738095D01*
X101380952Y-96738095D01*
X101190476Y-96785714D01*
X101095238Y-96833333D01*
X101000000Y-96928571D01*
X100952380Y-97071428D01*
X100952380Y-97166666D01*
X101000000Y-97309523D01*
X101047619Y-97357142D01*
X101047619Y-97738095D02*
X101000000Y-97785714D01*
X100952380Y-97880952D01*
X100952380Y-98119047D01*
X101000000Y-98214285D01*
X101047619Y-98261904D01*
X101142857Y-98309523D01*
X101238095Y-98309523D01*
X101380952Y-98261904D01*
X101952380Y-97690476D01*
X101952380Y-98309523D01*
X101952380Y-99261904D02*
X101952380Y-98690476D01*
X101952380Y-98976190D02*
X100952380Y-98976190D01*
X101095238Y-98880952D01*
X101190476Y-98785714D01*
X101238095Y-98690476D01*
X79080380Y-91833333D02*
X78604190Y-91500000D01*
X79080380Y-91261904D02*
X78080380Y-91261904D01*
X78080380Y-91642857D01*
X78128000Y-91738095D01*
X78175619Y-91785714D01*
X78270857Y-91833333D01*
X78413714Y-91833333D01*
X78508952Y-91785714D01*
X78556571Y-91738095D01*
X78604190Y-91642857D01*
X78604190Y-91261904D01*
X78080380Y-92738095D02*
X78080380Y-92261904D01*
X78556571Y-92214285D01*
X78508952Y-92261904D01*
X78461333Y-92357142D01*
X78461333Y-92595238D01*
X78508952Y-92690476D01*
X78556571Y-92738095D01*
X78651809Y-92785714D01*
X78889904Y-92785714D01*
X78985142Y-92738095D01*
X79032761Y-92690476D01*
X79080380Y-92595238D01*
X79080380Y-92357142D01*
X79032761Y-92261904D01*
X78985142Y-92214285D01*
X76580380Y-91833333D02*
X76104190Y-91500000D01*
X76580380Y-91261904D02*
X75580380Y-91261904D01*
X75580380Y-91642857D01*
X75628000Y-91738095D01*
X75675619Y-91785714D01*
X75770857Y-91833333D01*
X75913714Y-91833333D01*
X76008952Y-91785714D01*
X76056571Y-91738095D01*
X76104190Y-91642857D01*
X76104190Y-91261904D01*
X75580380Y-92690476D02*
X75580380Y-92500000D01*
X75628000Y-92404761D01*
X75675619Y-92357142D01*
X75818476Y-92261904D01*
X76008952Y-92214285D01*
X76389904Y-92214285D01*
X76485142Y-92261904D01*
X76532761Y-92309523D01*
X76580380Y-92404761D01*
X76580380Y-92595238D01*
X76532761Y-92690476D01*
X76485142Y-92738095D01*
X76389904Y-92785714D01*
X76151809Y-92785714D01*
X76056571Y-92738095D01*
X76008952Y-92690476D01*
X75961333Y-92595238D01*
X75961333Y-92404761D01*
X76008952Y-92309523D01*
X76056571Y-92261904D01*
X76151809Y-92214285D01*
X132038666Y-107452380D02*
X132372000Y-106976190D01*
X132610095Y-107452380D02*
X132610095Y-106452380D01*
X132229142Y-106452380D01*
X132133904Y-106500000D01*
X132086285Y-106547619D01*
X132038666Y-106642857D01*
X132038666Y-106785714D01*
X132086285Y-106880952D01*
X132133904Y-106928571D01*
X132229142Y-106976190D01*
X132610095Y-106976190D01*
X131467238Y-106880952D02*
X131562476Y-106833333D01*
X131610095Y-106785714D01*
X131657714Y-106690476D01*
X131657714Y-106642857D01*
X131610095Y-106547619D01*
X131562476Y-106500000D01*
X131467238Y-106452380D01*
X131276761Y-106452380D01*
X131181523Y-106500000D01*
X131133904Y-106547619D01*
X131086285Y-106642857D01*
X131086285Y-106690476D01*
X131133904Y-106785714D01*
X131181523Y-106833333D01*
X131276761Y-106880952D01*
X131467238Y-106880952D01*
X131562476Y-106928571D01*
X131610095Y-106976190D01*
X131657714Y-107071428D01*
X131657714Y-107261904D01*
X131610095Y-107357142D01*
X131562476Y-107404761D01*
X131467238Y-107452380D01*
X131276761Y-107452380D01*
X131181523Y-107404761D01*
X131133904Y-107357142D01*
X131086285Y-107261904D01*
X131086285Y-107071428D01*
X131133904Y-106976190D01*
X131181523Y-106928571D01*
X131276761Y-106880952D01*
X132142857Y-120952380D02*
X132476190Y-120476190D01*
X132714285Y-120952380D02*
X132714285Y-119952380D01*
X132333333Y-119952380D01*
X132238095Y-120000000D01*
X132190476Y-120047619D01*
X132142857Y-120142857D01*
X132142857Y-120285714D01*
X132190476Y-120380952D01*
X132238095Y-120428571D01*
X132333333Y-120476190D01*
X132714285Y-120476190D01*
X131190476Y-120952380D02*
X131761904Y-120952380D01*
X131476190Y-120952380D02*
X131476190Y-119952380D01*
X131571428Y-120095238D01*
X131666666Y-120190476D01*
X131761904Y-120238095D01*
X130238095Y-120952380D02*
X130809523Y-120952380D01*
X130523809Y-120952380D02*
X130523809Y-119952380D01*
X130619047Y-120095238D01*
X130714285Y-120190476D01*
X130809523Y-120238095D01*
X133014857Y-134952380D02*
X133348190Y-134476190D01*
X133586285Y-134952380D02*
X133586285Y-133952380D01*
X133205333Y-133952380D01*
X133110095Y-134000000D01*
X133062476Y-134047619D01*
X133014857Y-134142857D01*
X133014857Y-134285714D01*
X133062476Y-134380952D01*
X133110095Y-134428571D01*
X133205333Y-134476190D01*
X133586285Y-134476190D01*
X132062476Y-134952380D02*
X132633904Y-134952380D01*
X132348190Y-134952380D02*
X132348190Y-133952380D01*
X132443428Y-134095238D01*
X132538666Y-134190476D01*
X132633904Y-134238095D01*
X131205333Y-134285714D02*
X131205333Y-134952380D01*
X131443428Y-133904761D02*
X131681523Y-134619047D01*
X131062476Y-134619047D01*
X112330380Y-92069642D02*
X111854190Y-91736309D01*
X112330380Y-91498214D02*
X111330380Y-91498214D01*
X111330380Y-91879166D01*
X111378000Y-91974404D01*
X111425619Y-92022023D01*
X111520857Y-92069642D01*
X111663714Y-92069642D01*
X111758952Y-92022023D01*
X111806571Y-91974404D01*
X111854190Y-91879166D01*
X111854190Y-91498214D01*
X112330380Y-93022023D02*
X112330380Y-92450595D01*
X112330380Y-92736309D02*
X111330380Y-92736309D01*
X111473238Y-92641071D01*
X111568476Y-92545833D01*
X111616095Y-92450595D01*
X111330380Y-93926785D02*
X111330380Y-93450595D01*
X111806571Y-93402976D01*
X111758952Y-93450595D01*
X111711333Y-93545833D01*
X111711333Y-93783928D01*
X111758952Y-93879166D01*
X111806571Y-93926785D01*
X111901809Y-93974404D01*
X112139904Y-93974404D01*
X112235142Y-93926785D01*
X112282761Y-93879166D01*
X112330380Y-93783928D01*
X112330380Y-93545833D01*
X112282761Y-93450595D01*
X112235142Y-93402976D01*
X119452380Y-97738095D02*
X120261904Y-97738095D01*
X120357142Y-97785714D01*
X120404761Y-97833333D01*
X120452380Y-97928571D01*
X120452380Y-98119047D01*
X120404761Y-98214285D01*
X120357142Y-98261904D01*
X120261904Y-98309523D01*
X119452380Y-98309523D01*
X119547619Y-98738095D02*
X119500000Y-98785714D01*
X119452380Y-98880952D01*
X119452380Y-99119047D01*
X119500000Y-99214285D01*
X119547619Y-99261904D01*
X119642857Y-99309523D01*
X119738095Y-99309523D01*
X119880952Y-99261904D01*
X120452380Y-98690476D01*
X120452380Y-99309523D01*
X119452380Y-112088095D02*
X120261904Y-112088095D01*
X120357142Y-112135714D01*
X120404761Y-112183333D01*
X120452380Y-112278571D01*
X120452380Y-112469047D01*
X120404761Y-112564285D01*
X120357142Y-112611904D01*
X120261904Y-112659523D01*
X119452380Y-112659523D01*
X119452380Y-113040476D02*
X119452380Y-113659523D01*
X119833333Y-113326190D01*
X119833333Y-113469047D01*
X119880952Y-113564285D01*
X119928571Y-113611904D01*
X120023809Y-113659523D01*
X120261904Y-113659523D01*
X120357142Y-113611904D01*
X120404761Y-113564285D01*
X120452380Y-113469047D01*
X120452380Y-113183333D01*
X120404761Y-113088095D01*
X120357142Y-113040476D01*
X119452380Y-125738095D02*
X120261904Y-125738095D01*
X120357142Y-125785714D01*
X120404761Y-125833333D01*
X120452380Y-125928571D01*
X120452380Y-126119047D01*
X120404761Y-126214285D01*
X120357142Y-126261904D01*
X120261904Y-126309523D01*
X119452380Y-126309523D01*
X119785714Y-127214285D02*
X120452380Y-127214285D01*
X119404761Y-126976190D02*
X120119047Y-126738095D01*
X120119047Y-127357142D01*
X116952380Y-104238095D02*
X117761904Y-104238095D01*
X117857142Y-104285714D01*
X117904761Y-104333333D01*
X117952380Y-104428571D01*
X117952380Y-104619047D01*
X117904761Y-104714285D01*
X117857142Y-104761904D01*
X117761904Y-104809523D01*
X116952380Y-104809523D01*
X116952380Y-105761904D02*
X116952380Y-105285714D01*
X117428571Y-105238095D01*
X117380952Y-105285714D01*
X117333333Y-105380952D01*
X117333333Y-105619047D01*
X117380952Y-105714285D01*
X117428571Y-105761904D01*
X117523809Y-105809523D01*
X117761904Y-105809523D01*
X117857142Y-105761904D01*
X117904761Y-105714285D01*
X117952380Y-105619047D01*
X117952380Y-105380952D01*
X117904761Y-105285714D01*
X117857142Y-105238095D01*
X116952380Y-118238095D02*
X117761904Y-118238095D01*
X117857142Y-118285714D01*
X117904761Y-118333333D01*
X117952380Y-118428571D01*
X117952380Y-118619047D01*
X117904761Y-118714285D01*
X117857142Y-118761904D01*
X117761904Y-118809523D01*
X116952380Y-118809523D01*
X116952380Y-119714285D02*
X116952380Y-119523809D01*
X117000000Y-119428571D01*
X117047619Y-119380952D01*
X117190476Y-119285714D01*
X117380952Y-119238095D01*
X117761904Y-119238095D01*
X117857142Y-119285714D01*
X117904761Y-119333333D01*
X117952380Y-119428571D01*
X117952380Y-119619047D01*
X117904761Y-119714285D01*
X117857142Y-119761904D01*
X117761904Y-119809523D01*
X117523809Y-119809523D01*
X117428571Y-119761904D01*
X117380952Y-119714285D01*
X117333333Y-119619047D01*
X117333333Y-119428571D01*
X117380952Y-119333333D01*
X117428571Y-119285714D01*
X117523809Y-119238095D01*
X116952380Y-132238095D02*
X117761904Y-132238095D01*
X117857142Y-132285714D01*
X117904761Y-132333333D01*
X117952380Y-132428571D01*
X117952380Y-132619047D01*
X117904761Y-132714285D01*
X117857142Y-132761904D01*
X117761904Y-132809523D01*
X116952380Y-132809523D01*
X117380952Y-133428571D02*
X117333333Y-133333333D01*
X117285714Y-133285714D01*
X117190476Y-133238095D01*
X117142857Y-133238095D01*
X117047619Y-133285714D01*
X117000000Y-133333333D01*
X116952380Y-133428571D01*
X116952380Y-133619047D01*
X117000000Y-133714285D01*
X117047619Y-133761904D01*
X117142857Y-133809523D01*
X117190476Y-133809523D01*
X117285714Y-133761904D01*
X117333333Y-133714285D01*
X117380952Y-133619047D01*
X117380952Y-133428571D01*
X117428571Y-133333333D01*
X117476190Y-133285714D01*
X117571428Y-133238095D01*
X117761904Y-133238095D01*
X117857142Y-133285714D01*
X117904761Y-133333333D01*
X117952380Y-133428571D01*
X117952380Y-133619047D01*
X117904761Y-133714285D01*
X117857142Y-133761904D01*
X117761904Y-133809523D01*
X117571428Y-133809523D01*
X117476190Y-133761904D01*
X117428571Y-133714285D01*
X117380952Y-133619047D01*
X98030904Y-107389380D02*
X98030904Y-108198904D01*
X97983285Y-108294142D01*
X97935666Y-108341761D01*
X97840428Y-108389380D01*
X97649952Y-108389380D01*
X97554714Y-108341761D01*
X97507095Y-108294142D01*
X97459476Y-108198904D01*
X97459476Y-107389380D01*
X96459476Y-108389380D02*
X97030904Y-108389380D01*
X96745190Y-108389380D02*
X96745190Y-107389380D01*
X96840428Y-107532238D01*
X96935666Y-107627476D01*
X97030904Y-107675095D01*
X101323142Y-110333333D02*
X101370761Y-110285714D01*
X101418380Y-110142857D01*
X101418380Y-110047619D01*
X101370761Y-109904761D01*
X101275523Y-109809523D01*
X101180285Y-109761904D01*
X100989809Y-109714285D01*
X100846952Y-109714285D01*
X100656476Y-109761904D01*
X100561238Y-109809523D01*
X100466000Y-109904761D01*
X100418380Y-110047619D01*
X100418380Y-110142857D01*
X100466000Y-110285714D01*
X100513619Y-110333333D01*
X100846952Y-110904761D02*
X100799333Y-110809523D01*
X100751714Y-110761904D01*
X100656476Y-110714285D01*
X100608857Y-110714285D01*
X100513619Y-110761904D01*
X100466000Y-110809523D01*
X100418380Y-110904761D01*
X100418380Y-111095238D01*
X100466000Y-111190476D01*
X100513619Y-111238095D01*
X100608857Y-111285714D01*
X100656476Y-111285714D01*
X100751714Y-111238095D01*
X100799333Y-111190476D01*
X100846952Y-111095238D01*
X100846952Y-110904761D01*
X100894571Y-110809523D01*
X100942190Y-110761904D01*
X101037428Y-110714285D01*
X101227904Y-110714285D01*
X101323142Y-110761904D01*
X101370761Y-110809523D01*
X101418380Y-110904761D01*
X101418380Y-111095238D01*
X101370761Y-111190476D01*
X101323142Y-111238095D01*
X101227904Y-111285714D01*
X101037428Y-111285714D01*
X100942190Y-111238095D01*
X100894571Y-111190476D01*
X100846952Y-111095238D01*
X95857142Y-105243333D02*
X95904761Y-105195714D01*
X95952380Y-105052857D01*
X95952380Y-104957619D01*
X95904761Y-104814761D01*
X95809523Y-104719523D01*
X95714285Y-104671904D01*
X95523809Y-104624285D01*
X95380952Y-104624285D01*
X95190476Y-104671904D01*
X95095238Y-104719523D01*
X95000000Y-104814761D01*
X94952380Y-104957619D01*
X94952380Y-105052857D01*
X95000000Y-105195714D01*
X95047619Y-105243333D01*
X95952380Y-105719523D02*
X95952380Y-105910000D01*
X95904761Y-106005238D01*
X95857142Y-106052857D01*
X95714285Y-106148095D01*
X95523809Y-106195714D01*
X95142857Y-106195714D01*
X95047619Y-106148095D01*
X95000000Y-106100476D01*
X94952380Y-106005238D01*
X94952380Y-105814761D01*
X95000000Y-105719523D01*
X95047619Y-105671904D01*
X95142857Y-105624285D01*
X95380952Y-105624285D01*
X95476190Y-105671904D01*
X95523809Y-105719523D01*
X95571428Y-105814761D01*
X95571428Y-106005238D01*
X95523809Y-106100476D01*
X95476190Y-106148095D01*
X95380952Y-106195714D01*
X102857142Y-112357142D02*
X102904761Y-112309523D01*
X102952380Y-112166666D01*
X102952380Y-112071428D01*
X102904761Y-111928571D01*
X102809523Y-111833333D01*
X102714285Y-111785714D01*
X102523809Y-111738095D01*
X102380952Y-111738095D01*
X102190476Y-111785714D01*
X102095238Y-111833333D01*
X102000000Y-111928571D01*
X101952380Y-112071428D01*
X101952380Y-112166666D01*
X102000000Y-112309523D01*
X102047619Y-112357142D01*
X102952380Y-113309523D02*
X102952380Y-112738095D01*
X102952380Y-113023809D02*
X101952380Y-113023809D01*
X102095238Y-112928571D01*
X102190476Y-112833333D01*
X102238095Y-112738095D01*
X101952380Y-113928571D02*
X101952380Y-114023809D01*
X102000000Y-114119047D01*
X102047619Y-114166666D01*
X102142857Y-114214285D01*
X102333333Y-114261904D01*
X102571428Y-114261904D01*
X102761904Y-114214285D01*
X102857142Y-114166666D01*
X102904761Y-114119047D01*
X102952380Y-114023809D01*
X102952380Y-113928571D01*
X102904761Y-113833333D01*
X102857142Y-113785714D01*
X102761904Y-113738095D01*
X102571428Y-113690476D01*
X102333333Y-113690476D01*
X102142857Y-113738095D01*
X102047619Y-113785714D01*
X102000000Y-113833333D01*
X101952380Y-113928571D01*
X101321142Y-104767142D02*
X101368761Y-104719523D01*
X101416380Y-104576666D01*
X101416380Y-104481428D01*
X101368761Y-104338571D01*
X101273523Y-104243333D01*
X101178285Y-104195714D01*
X100987809Y-104148095D01*
X100844952Y-104148095D01*
X100654476Y-104195714D01*
X100559238Y-104243333D01*
X100464000Y-104338571D01*
X100416380Y-104481428D01*
X100416380Y-104576666D01*
X100464000Y-104719523D01*
X100511619Y-104767142D01*
X101416380Y-105719523D02*
X101416380Y-105148095D01*
X101416380Y-105433809D02*
X100416380Y-105433809D01*
X100559238Y-105338571D01*
X100654476Y-105243333D01*
X100702095Y-105148095D01*
X100511619Y-106100476D02*
X100464000Y-106148095D01*
X100416380Y-106243333D01*
X100416380Y-106481428D01*
X100464000Y-106576666D01*
X100511619Y-106624285D01*
X100606857Y-106671904D01*
X100702095Y-106671904D01*
X100844952Y-106624285D01*
X101416380Y-106052857D01*
X101416380Y-106671904D01*
X99476380Y-93129642D02*
X99000190Y-92796309D01*
X99476380Y-92558214D02*
X98476380Y-92558214D01*
X98476380Y-92939166D01*
X98524000Y-93034404D01*
X98571619Y-93082023D01*
X98666857Y-93129642D01*
X98809714Y-93129642D01*
X98904952Y-93082023D01*
X98952571Y-93034404D01*
X99000190Y-92939166D01*
X99000190Y-92558214D01*
X99476380Y-94082023D02*
X99476380Y-93510595D01*
X99476380Y-93796309D02*
X98476380Y-93796309D01*
X98619238Y-93701071D01*
X98714476Y-93605833D01*
X98762095Y-93510595D01*
X98476380Y-94415357D02*
X98476380Y-95082023D01*
X99476380Y-94653452D01*
X101952380Y-93167142D02*
X101476190Y-92833809D01*
X101952380Y-92595714D02*
X100952380Y-92595714D01*
X100952380Y-92976666D01*
X101000000Y-93071904D01*
X101047619Y-93119523D01*
X101142857Y-93167142D01*
X101285714Y-93167142D01*
X101380952Y-93119523D01*
X101428571Y-93071904D01*
X101476190Y-92976666D01*
X101476190Y-92595714D01*
X101952380Y-94119523D02*
X101952380Y-93548095D01*
X101952380Y-93833809D02*
X100952380Y-93833809D01*
X101095238Y-93738571D01*
X101190476Y-93643333D01*
X101238095Y-93548095D01*
X101380952Y-94690952D02*
X101333333Y-94595714D01*
X101285714Y-94548095D01*
X101190476Y-94500476D01*
X101142857Y-94500476D01*
X101047619Y-94548095D01*
X101000000Y-94595714D01*
X100952380Y-94690952D01*
X100952380Y-94881428D01*
X101000000Y-94976666D01*
X101047619Y-95024285D01*
X101142857Y-95071904D01*
X101190476Y-95071904D01*
X101285714Y-95024285D01*
X101333333Y-94976666D01*
X101380952Y-94881428D01*
X101380952Y-94690952D01*
X101428571Y-94595714D01*
X101476190Y-94548095D01*
X101571428Y-94500476D01*
X101761904Y-94500476D01*
X101857142Y-94548095D01*
X101904761Y-94595714D01*
X101952380Y-94690952D01*
X101952380Y-94881428D01*
X101904761Y-94976666D01*
X101857142Y-95024285D01*
X101761904Y-95071904D01*
X101571428Y-95071904D01*
X101476190Y-95024285D01*
X101428571Y-94976666D01*
X101380952Y-94881428D01*
X104436380Y-93192642D02*
X103960190Y-92859309D01*
X104436380Y-92621214D02*
X103436380Y-92621214D01*
X103436380Y-93002166D01*
X103484000Y-93097404D01*
X103531619Y-93145023D01*
X103626857Y-93192642D01*
X103769714Y-93192642D01*
X103864952Y-93145023D01*
X103912571Y-93097404D01*
X103960190Y-93002166D01*
X103960190Y-92621214D01*
X104436380Y-94145023D02*
X104436380Y-93573595D01*
X104436380Y-93859309D02*
X103436380Y-93859309D01*
X103579238Y-93764071D01*
X103674476Y-93668833D01*
X103722095Y-93573595D01*
X104436380Y-94621214D02*
X104436380Y-94811690D01*
X104388761Y-94906928D01*
X104341142Y-94954547D01*
X104198285Y-95049785D01*
X104007809Y-95097404D01*
X103626857Y-95097404D01*
X103531619Y-95049785D01*
X103484000Y-95002166D01*
X103436380Y-94906928D01*
X103436380Y-94716452D01*
X103484000Y-94621214D01*
X103531619Y-94573595D01*
X103626857Y-94525976D01*
X103864952Y-94525976D01*
X103960190Y-94573595D01*
X104007809Y-94621214D01*
X104055428Y-94716452D01*
X104055428Y-94906928D01*
X104007809Y-95002166D01*
X103960190Y-95049785D01*
X103864952Y-95097404D01*
X126142857Y-108857142D02*
X126190476Y-108904761D01*
X126333333Y-108952380D01*
X126428571Y-108952380D01*
X126571428Y-108904761D01*
X126666666Y-108809523D01*
X126714285Y-108714285D01*
X126761904Y-108523809D01*
X126761904Y-108380952D01*
X126714285Y-108190476D01*
X126666666Y-108095238D01*
X126571428Y-108000000D01*
X126428571Y-107952380D01*
X126333333Y-107952380D01*
X126190476Y-108000000D01*
X126142857Y-108047619D01*
X125761904Y-108047619D02*
X125714285Y-108000000D01*
X125619047Y-107952380D01*
X125380952Y-107952380D01*
X125285714Y-108000000D01*
X125238095Y-108047619D01*
X125190476Y-108142857D01*
X125190476Y-108238095D01*
X125238095Y-108380952D01*
X125809523Y-108952380D01*
X125190476Y-108952380D01*
X124809523Y-108047619D02*
X124761904Y-108000000D01*
X124666666Y-107952380D01*
X124428571Y-107952380D01*
X124333333Y-108000000D01*
X124285714Y-108047619D01*
X124238095Y-108142857D01*
X124238095Y-108238095D01*
X124285714Y-108380952D01*
X124857142Y-108952380D01*
X124238095Y-108952380D01*
X127357142Y-112357142D02*
X127404761Y-112309523D01*
X127452380Y-112166666D01*
X127452380Y-112071428D01*
X127404761Y-111928571D01*
X127309523Y-111833333D01*
X127214285Y-111785714D01*
X127023809Y-111738095D01*
X126880952Y-111738095D01*
X126690476Y-111785714D01*
X126595238Y-111833333D01*
X126500000Y-111928571D01*
X126452380Y-112071428D01*
X126452380Y-112166666D01*
X126500000Y-112309523D01*
X126547619Y-112357142D01*
X126547619Y-112738095D02*
X126500000Y-112785714D01*
X126452380Y-112880952D01*
X126452380Y-113119047D01*
X126500000Y-113214285D01*
X126547619Y-113261904D01*
X126642857Y-113309523D01*
X126738095Y-113309523D01*
X126880952Y-113261904D01*
X127452380Y-112690476D01*
X127452380Y-113309523D01*
X126452380Y-113642857D02*
X126452380Y-114261904D01*
X126833333Y-113928571D01*
X126833333Y-114071428D01*
X126880952Y-114166666D01*
X126928571Y-114214285D01*
X127023809Y-114261904D01*
X127261904Y-114261904D01*
X127357142Y-114214285D01*
X127404761Y-114166666D01*
X127452380Y-114071428D01*
X127452380Y-113785714D01*
X127404761Y-113690476D01*
X127357142Y-113642857D01*
X126142857Y-122857142D02*
X126190476Y-122904761D01*
X126333333Y-122952380D01*
X126428571Y-122952380D01*
X126571428Y-122904761D01*
X126666666Y-122809523D01*
X126714285Y-122714285D01*
X126761904Y-122523809D01*
X126761904Y-122380952D01*
X126714285Y-122190476D01*
X126666666Y-122095238D01*
X126571428Y-122000000D01*
X126428571Y-121952380D01*
X126333333Y-121952380D01*
X126190476Y-122000000D01*
X126142857Y-122047619D01*
X125761904Y-122047619D02*
X125714285Y-122000000D01*
X125619047Y-121952380D01*
X125380952Y-121952380D01*
X125285714Y-122000000D01*
X125238095Y-122047619D01*
X125190476Y-122142857D01*
X125190476Y-122238095D01*
X125238095Y-122380952D01*
X125809523Y-122952380D01*
X125190476Y-122952380D01*
X124333333Y-122285714D02*
X124333333Y-122952380D01*
X124571428Y-121904761D02*
X124809523Y-122619047D01*
X124190476Y-122619047D01*
X127357142Y-125857142D02*
X127404761Y-125809523D01*
X127452380Y-125666666D01*
X127452380Y-125571428D01*
X127404761Y-125428571D01*
X127309523Y-125333333D01*
X127214285Y-125285714D01*
X127023809Y-125238095D01*
X126880952Y-125238095D01*
X126690476Y-125285714D01*
X126595238Y-125333333D01*
X126500000Y-125428571D01*
X126452380Y-125571428D01*
X126452380Y-125666666D01*
X126500000Y-125809523D01*
X126547619Y-125857142D01*
X126547619Y-126238095D02*
X126500000Y-126285714D01*
X126452380Y-126380952D01*
X126452380Y-126619047D01*
X126500000Y-126714285D01*
X126547619Y-126761904D01*
X126642857Y-126809523D01*
X126738095Y-126809523D01*
X126880952Y-126761904D01*
X127452380Y-126190476D01*
X127452380Y-126809523D01*
X126452380Y-127666666D02*
X126452380Y-127476190D01*
X126500000Y-127380952D01*
X126547619Y-127333333D01*
X126690476Y-127238095D01*
X126880952Y-127190476D01*
X127261904Y-127190476D01*
X127357142Y-127238095D01*
X127404761Y-127285714D01*
X127452380Y-127380952D01*
X127452380Y-127571428D01*
X127404761Y-127666666D01*
X127357142Y-127714285D01*
X127261904Y-127761904D01*
X127023809Y-127761904D01*
X126928571Y-127714285D01*
X126880952Y-127666666D01*
X126833333Y-127571428D01*
X126833333Y-127380952D01*
X126880952Y-127285714D01*
X126928571Y-127238095D01*
X127023809Y-127190476D01*
X127357142Y-97857142D02*
X127404761Y-97809523D01*
X127452380Y-97666666D01*
X127452380Y-97571428D01*
X127404761Y-97428571D01*
X127309523Y-97333333D01*
X127214285Y-97285714D01*
X127023809Y-97238095D01*
X126880952Y-97238095D01*
X126690476Y-97285714D01*
X126595238Y-97333333D01*
X126500000Y-97428571D01*
X126452380Y-97571428D01*
X126452380Y-97666666D01*
X126500000Y-97809523D01*
X126547619Y-97857142D01*
X126547619Y-98238095D02*
X126500000Y-98285714D01*
X126452380Y-98380952D01*
X126452380Y-98619047D01*
X126500000Y-98714285D01*
X126547619Y-98761904D01*
X126642857Y-98809523D01*
X126738095Y-98809523D01*
X126880952Y-98761904D01*
X127452380Y-98190476D01*
X127452380Y-98809523D01*
X126452380Y-99142857D02*
X126452380Y-99809523D01*
X127452380Y-99380952D01*
X126642857Y-136857142D02*
X126690476Y-136904761D01*
X126833333Y-136952380D01*
X126928571Y-136952380D01*
X127071428Y-136904761D01*
X127166666Y-136809523D01*
X127214285Y-136714285D01*
X127261904Y-136523809D01*
X127261904Y-136380952D01*
X127214285Y-136190476D01*
X127166666Y-136095238D01*
X127071428Y-136000000D01*
X126928571Y-135952380D01*
X126833333Y-135952380D01*
X126690476Y-136000000D01*
X126642857Y-136047619D01*
X126261904Y-136047619D02*
X126214285Y-136000000D01*
X126119047Y-135952380D01*
X125880952Y-135952380D01*
X125785714Y-136000000D01*
X125738095Y-136047619D01*
X125690476Y-136142857D01*
X125690476Y-136238095D01*
X125738095Y-136380952D01*
X126309523Y-136952380D01*
X125690476Y-136952380D01*
X125119047Y-136380952D02*
X125214285Y-136333333D01*
X125261904Y-136285714D01*
X125309523Y-136190476D01*
X125309523Y-136142857D01*
X125261904Y-136047619D01*
X125214285Y-136000000D01*
X125119047Y-135952380D01*
X124928571Y-135952380D01*
X124833333Y-136000000D01*
X124785714Y-136047619D01*
X124738095Y-136142857D01*
X124738095Y-136190476D01*
X124785714Y-136285714D01*
X124833333Y-136333333D01*
X124928571Y-136380952D01*
X125119047Y-136380952D01*
X125214285Y-136428571D01*
X125261904Y-136476190D01*
X125309523Y-136571428D01*
X125309523Y-136761904D01*
X125261904Y-136857142D01*
X125214285Y-136904761D01*
X125119047Y-136952380D01*
X124928571Y-136952380D01*
X124833333Y-136904761D01*
X124785714Y-136857142D01*
X124738095Y-136761904D01*
X124738095Y-136571428D01*
X124785714Y-136476190D01*
X124833333Y-136428571D01*
X124928571Y-136380952D01*
X135987523Y-101952380D02*
X135654190Y-102952380D01*
X135320857Y-101952380D01*
X134416095Y-102952380D02*
X134749428Y-102476190D01*
X134987523Y-102952380D02*
X134987523Y-101952380D01*
X134606571Y-101952380D01*
X134511333Y-102000000D01*
X134463714Y-102047619D01*
X134416095Y-102142857D01*
X134416095Y-102285714D01*
X134463714Y-102380952D01*
X134511333Y-102428571D01*
X134606571Y-102476190D01*
X134987523Y-102476190D01*
X133463714Y-102952380D02*
X134035142Y-102952380D01*
X133749428Y-102952380D02*
X133749428Y-101952380D01*
X133844666Y-102095238D01*
X133939904Y-102190476D01*
X134035142Y-102238095D01*
X135937522Y-115452380D02*
X135604189Y-116452380D01*
X135270856Y-115452380D01*
X134366094Y-116452380D02*
X134699427Y-115976190D01*
X134937522Y-116452380D02*
X134937522Y-115452380D01*
X134556570Y-115452380D01*
X134461332Y-115500000D01*
X134413713Y-115547619D01*
X134366094Y-115642857D01*
X134366094Y-115785714D01*
X134413713Y-115880952D01*
X134461332Y-115928571D01*
X134556570Y-115976190D01*
X134937522Y-115976190D01*
X133985141Y-115547619D02*
X133937522Y-115500000D01*
X133842284Y-115452380D01*
X133604189Y-115452380D01*
X133508951Y-115500000D01*
X133461332Y-115547619D01*
X133413713Y-115642857D01*
X133413713Y-115738095D01*
X133461332Y-115880952D01*
X134032760Y-116452380D01*
X133413713Y-116452380D01*
X135809523Y-129452380D02*
X135476190Y-130452380D01*
X135142857Y-129452380D01*
X134238095Y-130452380D02*
X134571428Y-129976190D01*
X134809523Y-130452380D02*
X134809523Y-129452380D01*
X134428571Y-129452380D01*
X134333333Y-129500000D01*
X134285714Y-129547619D01*
X134238095Y-129642857D01*
X134238095Y-129785714D01*
X134285714Y-129880952D01*
X134333333Y-129928571D01*
X134428571Y-129976190D01*
X134809523Y-129976190D01*
X133904761Y-129452380D02*
X133285714Y-129452380D01*
X133619047Y-129833333D01*
X133476190Y-129833333D01*
X133380952Y-129880952D01*
X133333333Y-129928571D01*
X133285714Y-130023809D01*
X133285714Y-130261904D01*
X133333333Y-130357142D01*
X133380952Y-130404761D01*
X133476190Y-130452380D01*
X133761904Y-130452380D01*
X133857142Y-130404761D01*
X133904761Y-130357142D01*
M02*
