EESchema Schematic File Version 4
LIBS:Motor Controller 2.0-cache
EELAYER 29 0
EELAYER END
$Descr A4 11693 8268
encoding utf-8
Sheet 1 1
Title ""
Date ""
Rev ""
Comp ""
Comment1 ""
Comment2 ""
Comment3 ""
Comment4 ""
$EndDescr
$Comp
L pspice:INDUCTOR L1
U 1 1 5CBE21C1
P 1850 1250
F 0 "L1" H 1850 1465 50  0000 C CNN
F 1 "12.5uH" H 1850 1374 50  0000 C CNN
F 2 "EVCONCEPT:7443641000" H 1850 1250 50  0001 C CNN
F 3 "https://katalog.we-online.de/pbs/datasheet/7443641000.pdf" H 1850 1250 50  0001 C CNN
	1    1850 1250
	-1   0    0    1   
$EndComp
$Comp
L pspice:C C1
U 1 1 5CBE2AC3
P 2500 1450
F 0 "C1" H 2678 1496 50  0000 L CNN
F 1 "10uF" H 2678 1405 50  0000 L CNN
F 2 "Capacitor_SMD:C_2220_5650Metric" H 2500 1450 50  0001 C CNN
F 3 "https://datasheet.lcsc.com/szlcsc/1903041502_Murata-Electronics-KRM55QR71J106KH01L_C363968.pdf" H 2500 1450 50  0001 C CNN
	1    2500 1450
	1    0    0    -1  
$EndComp
$Comp
L pspice:C C2
U 1 1 5CBE4182
P 2850 1450
F 0 "C2" H 3028 1496 50  0000 L CNN
F 1 "10uF" H 3028 1405 50  0000 L CNN
F 2 "Capacitor_SMD:C_2220_5650Metric" H 2850 1450 50  0001 C CNN
F 3 "https://datasheet.lcsc.com/szlcsc/1903041502_Murata-Electronics-KRM55QR71J106KH01L_C363968.pdf" H 2850 1450 50  0001 C CNN
	1    2850 1450
	1    0    0    -1  
$EndComp
$Comp
L pspice:C C3
U 1 1 5CBE4761
P 3200 1450
F 0 "C3" H 3378 1496 50  0000 L CNN
F 1 "1uF" H 3378 1405 50  0000 L CNN
F 2 "Capacitor_SMD:C_1206_3216Metric" H 3200 1450 50  0001 C CNN
F 3 "~" H 3200 1450 50  0001 C CNN
	1    3200 1450
	1    0    0    -1  
$EndComp
$Comp
L pspice:C C4
U 1 1 5CBE48D5
P 3550 1450
F 0 "C4" H 3728 1496 50  0000 L CNN
F 1 "0.1uF" H 3728 1405 50  0000 L CNN
F 2 "Capacitor_SMD:C_1206_3216Metric" H 3550 1450 50  0001 C CNN
F 3 "~" H 3550 1450 50  0001 C CNN
	1    3550 1450
	1    0    0    -1  
$EndComp
Connection ~ 2850 1200
Wire Wire Line
	2850 1200 2500 1200
Connection ~ 3200 1200
Wire Wire Line
	3200 1200 3050 1200
Wire Wire Line
	3550 1200 3200 1200
Wire Wire Line
	2500 1700 2850 1700
Connection ~ 2850 1700
Connection ~ 3200 1700
Wire Wire Line
	3200 1700 3550 1700
$Comp
L power:VCC #PWR0101
U 1 1 5CBEC387
P 3050 1200
F 0 "#PWR0101" H 3050 1050 50  0001 C CNN
F 1 "VCC" H 3067 1373 50  0000 C CNN
F 2 "" H 3050 1200 50  0001 C CNN
F 3 "" H 3050 1200 50  0001 C CNN
	1    3050 1200
	1    0    0    -1  
$EndComp
$Comp
L power:VCC #PWR0102
U 1 1 5CBECA45
P 2100 1250
F 0 "#PWR0102" H 2100 1100 50  0001 C CNN
F 1 "VCC" H 2117 1423 50  0000 C CNN
F 2 "" H 2100 1250 50  0001 C CNN
F 3 "" H 2100 1250 50  0001 C CNN
	1    2100 1250
	1    0    0    -1  
$EndComp
Wire Wire Line
	2850 1700 3050 1700
$Comp
L power:GND #PWR0103
U 1 1 5CBED45A
P 3050 1700
F 0 "#PWR0103" H 3050 1450 50  0001 C CNN
F 1 "GND" H 3055 1527 50  0000 C CNN
F 2 "" H 3050 1700 50  0001 C CNN
F 3 "" H 3050 1700 50  0001 C CNN
	1    3050 1700
	1    0    0    -1  
$EndComp
$Comp
L pspice:C C5
U 1 1 5CBF2BD9
P 4000 1450
F 0 "C5" H 4178 1496 50  0000 L CNN
F 1 "10uF" H 4178 1405 50  0000 L CNN
F 2 "Capacitor_SMD:C_2220_5650Metric" H 4000 1450 50  0001 C CNN
F 3 "https://datasheet.lcsc.com/szlcsc/1903041502_Murata-Electronics-KRM55QR71J106KH01L_C363968.pdf" H 4000 1450 50  0001 C CNN
	1    4000 1450
	1    0    0    -1  
$EndComp
$Comp
L pspice:C C6
U 1 1 5CBF2BDF
P 4350 1450
F 0 "C6" H 4528 1496 50  0000 L CNN
F 1 "10uF" H 4528 1405 50  0000 L CNN
F 2 "Capacitor_SMD:C_2220_5650Metric" H 4350 1450 50  0001 C CNN
F 3 "https://datasheet.lcsc.com/szlcsc/1903041502_Murata-Electronics-KRM55QR71J106KH01L_C363968.pdf" H 4350 1450 50  0001 C CNN
	1    4350 1450
	1    0    0    -1  
$EndComp
$Comp
L pspice:C C7
U 1 1 5CBF2BE5
P 4700 1450
F 0 "C7" H 4878 1496 50  0000 L CNN
F 1 "1uF" H 4878 1405 50  0000 L CNN
F 2 "Capacitor_SMD:C_1206_3216Metric" H 4700 1450 50  0001 C CNN
F 3 "~" H 4700 1450 50  0001 C CNN
	1    4700 1450
	1    0    0    -1  
$EndComp
$Comp
L pspice:C C11
U 1 1 5CBF2BEB
P 5050 1450
F 0 "C11" H 5228 1496 50  0000 L CNN
F 1 "0.1uF" H 5228 1405 50  0000 L CNN
F 2 "Capacitor_SMD:C_1206_3216Metric" H 5050 1450 50  0001 C CNN
F 3 "~" H 5050 1450 50  0001 C CNN
	1    5050 1450
	1    0    0    -1  
$EndComp
Connection ~ 4350 1200
Wire Wire Line
	4350 1200 4000 1200
Connection ~ 4700 1200
Wire Wire Line
	4700 1200 4550 1200
Wire Wire Line
	5050 1200 4700 1200
Wire Wire Line
	4000 1700 4350 1700
Connection ~ 4350 1700
Connection ~ 4700 1700
Wire Wire Line
	4700 1700 5050 1700
$Comp
L power:VCC #PWR0104
U 1 1 5CBF2BFA
P 4550 1200
F 0 "#PWR0104" H 4550 1050 50  0001 C CNN
F 1 "VCC" H 4567 1373 50  0000 C CNN
F 2 "" H 4550 1200 50  0001 C CNN
F 3 "" H 4550 1200 50  0001 C CNN
	1    4550 1200
	1    0    0    -1  
$EndComp
Wire Wire Line
	4350 1700 4550 1700
$Comp
L power:GND #PWR0105
U 1 1 5CBF2C02
P 4550 1700
F 0 "#PWR0105" H 4550 1450 50  0001 C CNN
F 1 "GND" H 4555 1527 50  0000 C CNN
F 2 "" H 4550 1700 50  0001 C CNN
F 3 "" H 4550 1700 50  0001 C CNN
	1    4550 1700
	1    0    0    -1  
$EndComp
Text Notes 4100 950  0    50   ~ 0
Bipass Caps Phase B
$Comp
L pspice:C C14
U 1 1 5CBF845F
P 5600 1450
F 0 "C14" H 5778 1496 50  0000 L CNN
F 1 "10uF" H 5778 1405 50  0000 L CNN
F 2 "Capacitor_SMD:C_2220_5650Metric" H 5600 1450 50  0001 C CNN
F 3 "https://datasheet.lcsc.com/szlcsc/1903041502_Murata-Electronics-KRM55QR71J106KH01L_C363968.pdf" H 5600 1450 50  0001 C CNN
	1    5600 1450
	1    0    0    -1  
$EndComp
$Comp
L pspice:C C15
U 1 1 5CBF8465
P 5950 1450
F 0 "C15" H 6128 1496 50  0000 L CNN
F 1 "10uF" H 6128 1405 50  0000 L CNN
F 2 "Capacitor_SMD:C_2220_5650Metric" H 5950 1450 50  0001 C CNN
F 3 "https://datasheet.lcsc.com/szlcsc/1903041502_Murata-Electronics-KRM55QR71J106KH01L_C363968.pdf" H 5950 1450 50  0001 C CNN
	1    5950 1450
	1    0    0    -1  
$EndComp
$Comp
L pspice:C C16
U 1 1 5CBF846B
P 6300 1450
F 0 "C16" H 6478 1496 50  0000 L CNN
F 1 "1uF" H 6478 1405 50  0000 L CNN
F 2 "Capacitor_SMD:C_1206_3216Metric" H 6300 1450 50  0001 C CNN
F 3 "~" H 6300 1450 50  0001 C CNN
	1    6300 1450
	1    0    0    -1  
$EndComp
$Comp
L pspice:C C17
U 1 1 5CBF8471
P 6650 1450
F 0 "C17" H 6828 1496 50  0000 L CNN
F 1 "0.1uF" H 6828 1405 50  0000 L CNN
F 2 "Capacitor_SMD:C_1206_3216Metric" H 6650 1450 50  0001 C CNN
F 3 "~" H 6650 1450 50  0001 C CNN
	1    6650 1450
	1    0    0    -1  
$EndComp
Connection ~ 5950 1200
Wire Wire Line
	5950 1200 5600 1200
Connection ~ 6300 1200
Wire Wire Line
	6300 1200 6150 1200
Wire Wire Line
	6650 1200 6300 1200
Wire Wire Line
	5600 1700 5950 1700
Connection ~ 5950 1700
Connection ~ 6300 1700
Wire Wire Line
	6300 1700 6650 1700
$Comp
L power:VCC #PWR0106
U 1 1 5CBF8480
P 6150 1200
F 0 "#PWR0106" H 6150 1050 50  0001 C CNN
F 1 "VCC" H 6167 1373 50  0000 C CNN
F 2 "" H 6150 1200 50  0001 C CNN
F 3 "" H 6150 1200 50  0001 C CNN
	1    6150 1200
	1    0    0    -1  
$EndComp
Wire Wire Line
	5950 1700 6150 1700
$Comp
L power:GND #PWR0107
U 1 1 5CBF8488
P 6150 1700
F 0 "#PWR0107" H 6150 1450 50  0001 C CNN
F 1 "GND" H 6155 1527 50  0000 C CNN
F 2 "" H 6150 1700 50  0001 C CNN
F 3 "" H 6150 1700 50  0001 C CNN
	1    6150 1700
	1    0    0    -1  
$EndComp
Text Notes 5700 950  0    50   ~ 0
Bipass Caps Phase C
$Comp
L pspice:INDUCTOR L2
U 1 1 5CBFB7B2
P 1850 1650
F 0 "L2" H 1850 1865 50  0000 C CNN
F 1 "12.5uH" H 1850 1774 50  0000 C CNN
F 2 "EVCONCEPT:7443641000" H 1850 1650 50  0001 C CNN
F 3 "https://katalog.we-online.de/pbs/datasheet/7443641000.pdf" H 1850 1650 50  0001 C CNN
	1    1850 1650
	1    0    0    -1  
$EndComp
$Comp
L power:GND #PWR0108
U 1 1 5CBFBE23
P 2100 1650
F 0 "#PWR0108" H 2100 1400 50  0001 C CNN
F 1 "GND" H 2105 1477 50  0000 C CNN
F 2 "" H 2100 1650 50  0001 C CNN
F 3 "" H 2100 1650 50  0001 C CNN
	1    2100 1650
	1    0    0    -1  
$EndComp
$Comp
L Connector:Screw_Terminal_01x02 J1
U 1 1 5CC0D20C
P 1050 1500
F 0 "J1" H 968 1175 50  0000 C CNN
F 1 "Screw_Terminal_01x02" H 968 1266 50  0000 C CNN
F 2 "EVCONCEPT:Super_Sabre_2PIN" H 1050 1500 50  0001 C CNN
F 3 "~" H 1050 1500 50  0001 C CNN
	1    1050 1500
	-1   0    0    1   
$EndComp
Wire Wire Line
	1600 1650 1250 1650
Wire Wire Line
	1250 1650 1250 1500
Wire Wire Line
	1250 1250 1250 1400
Wire Wire Line
	1250 1250 1600 1250
$Comp
L Transistor_FET:CSD19534Q5A Q1
U 1 1 5CC2D219
P 1200 6700
F 0 "Q1" H 1406 6746 50  0000 L CNN
F 1 "CSD19534Q5A" H 1406 6655 50  0000 L CNN
F 2 "EVCONCEPT:SON5x6" H 1400 6625 50  0001 L CIN
F 3 "http://www.ti.com/lit/gpn/csd19534q5a" V 1200 6700 50  0001 L CNN
	1    1200 6700
	1    0    0    -1  
$EndComp
$Comp
L Transistor_FET:CSD19534Q5A Q2
U 1 1 5CC383F2
P 1200 7250
F 0 "Q2" H 1406 7296 50  0000 L CNN
F 1 "CSD19534Q5A" H 1406 7205 50  0000 L CNN
F 2 "EVCONCEPT:SON5x6" H 1400 7175 50  0001 L CIN
F 3 "http://www.ti.com/lit/gpn/csd19534q5a" V 1200 7250 50  0001 L CNN
	1    1200 7250
	1    0    0    -1  
$EndComp
Wire Wire Line
	1300 6900 1300 7000
$Comp
L power:GND #PWR0109
U 1 1 5CC3C167
P 1300 7550
F 0 "#PWR0109" H 1300 7300 50  0001 C CNN
F 1 "GND" H 1305 7377 50  0000 C CNN
F 2 "" H 1300 7550 50  0001 C CNN
F 3 "" H 1300 7550 50  0001 C CNN
	1    1300 7550
	1    0    0    -1  
$EndComp
$Comp
L power:VCC #PWR0110
U 1 1 5CC3D3C5
P 1300 6500
F 0 "#PWR0110" H 1300 6350 50  0001 C CNN
F 1 "VCC" H 1317 6673 50  0000 C CNN
F 2 "" H 1300 6500 50  0001 C CNN
F 3 "" H 1300 6500 50  0001 C CNN
	1    1300 6500
	1    0    0    -1  
$EndComp
$Comp
L Device:D_TVS D1
U 1 1 5CC49CEF
P 1000 6850
F 0 "D1" V 1046 6771 50  0000 R CNN
F 1 "D_TVS" V 955 6771 50  0000 R CNN
F 2 "Diode_SMD:D_SMA" H 1000 6850 50  0001 C CNN
F 3 "https://datasheet.lcsc.com/szlcsc/Diodes-Incorporated-SMBJ16CA-13-F_C71870.pdf" H 1000 6850 50  0001 C CNN
	1    1000 6850
	0    -1   -1   0   
$EndComp
$Comp
L Device:D_TVS D2
U 1 1 5CC4A669
P 1000 7400
F 0 "D2" V 954 7479 50  0000 L CNN
F 1 "D_TVS" V 1045 7479 50  0000 L CNN
F 2 "Diode_SMD:D_SMA" H 1000 7400 50  0001 C CNN
F 3 "https://datasheet.lcsc.com/szlcsc/Diodes-Incorporated-SMBJ16CA-13-F_C71870.pdf" H 1000 7400 50  0001 C CNN
	1    1000 7400
	0    1    1    0   
$EndComp
Wire Wire Line
	1000 7550 1300 7550
Wire Wire Line
	1300 7550 1300 7450
Connection ~ 1300 7550
Wire Wire Line
	1000 7000 1300 7000
Connection ~ 1300 7000
Wire Wire Line
	1300 7000 1300 7050
Text GLabel 850  6700 0    50   Input ~ 0
GHA
Text GLabel 850  7250 0    50   Input ~ 0
GLA
Wire Wire Line
	850  7250 1000 7250
Connection ~ 1000 7250
Wire Wire Line
	1000 6700 850  6700
Connection ~ 1000 6700
$Comp
L Transistor_FET:CSD19534Q5A Q3
U 1 1 5CC67E32
P 2500 6700
F 0 "Q3" H 2706 6746 50  0000 L CNN
F 1 "CSD19534Q5A" H 2706 6655 50  0000 L CNN
F 2 "EVCONCEPT:SON5x6" H 2700 6625 50  0001 L CIN
F 3 "http://www.ti.com/lit/gpn/csd19534q5a" V 2500 6700 50  0001 L CNN
	1    2500 6700
	1    0    0    -1  
$EndComp
$Comp
L Transistor_FET:CSD19534Q5A Q4
U 1 1 5CC67E38
P 2500 7250
F 0 "Q4" H 2706 7296 50  0000 L CNN
F 1 "CSD19534Q5A" H 2706 7205 50  0000 L CNN
F 2 "EVCONCEPT:SON5x6" H 2700 7175 50  0001 L CIN
F 3 "http://www.ti.com/lit/gpn/csd19534q5a" V 2500 7250 50  0001 L CNN
	1    2500 7250
	1    0    0    -1  
$EndComp
Wire Wire Line
	2600 6900 2600 7000
$Comp
L power:GND #PWR0111
U 1 1 5CC67E3F
P 2600 7550
F 0 "#PWR0111" H 2600 7300 50  0001 C CNN
F 1 "GND" H 2605 7377 50  0000 C CNN
F 2 "" H 2600 7550 50  0001 C CNN
F 3 "" H 2600 7550 50  0001 C CNN
	1    2600 7550
	1    0    0    -1  
$EndComp
$Comp
L power:VCC #PWR0112
U 1 1 5CC67E45
P 2600 6500
F 0 "#PWR0112" H 2600 6350 50  0001 C CNN
F 1 "VCC" H 2617 6673 50  0000 C CNN
F 2 "" H 2600 6500 50  0001 C CNN
F 3 "" H 2600 6500 50  0001 C CNN
	1    2600 6500
	1    0    0    -1  
$EndComp
$Comp
L Device:D_TVS D3
U 1 1 5CC67E4B
P 2300 6850
F 0 "D3" V 2346 6771 50  0000 R CNN
F 1 "D_TVS" V 2255 6771 50  0000 R CNN
F 2 "Diode_SMD:D_SMA" H 2300 6850 50  0001 C CNN
F 3 "https://datasheet.lcsc.com/szlcsc/Diodes-Incorporated-SMBJ16CA-13-F_C71870.pdf" H 2300 6850 50  0001 C CNN
	1    2300 6850
	0    -1   -1   0   
$EndComp
$Comp
L Device:D_TVS D4
U 1 1 5CC67E51
P 2300 7400
F 0 "D4" V 2254 7479 50  0000 L CNN
F 1 "D_TVS" V 2345 7479 50  0000 L CNN
F 2 "Diode_SMD:D_SMA" H 2300 7400 50  0001 C CNN
F 3 "https://datasheet.lcsc.com/szlcsc/Diodes-Incorporated-SMBJ16CA-13-F_C71870.pdf" H 2300 7400 50  0001 C CNN
	1    2300 7400
	0    1    1    0   
$EndComp
Wire Wire Line
	2300 7550 2600 7550
Wire Wire Line
	2600 7550 2600 7450
Connection ~ 2600 7550
Wire Wire Line
	2300 7000 2600 7000
Connection ~ 2600 7000
Wire Wire Line
	2600 7000 2600 7050
Text GLabel 2150 6700 0    50   Input ~ 0
GHB
Text GLabel 2150 7250 0    50   Input ~ 0
GLB
Wire Wire Line
	2150 7250 2300 7250
Connection ~ 2300 7250
Wire Wire Line
	2300 6700 2150 6700
Connection ~ 2300 6700
$Comp
L Transistor_FET:CSD19534Q5A Q5
U 1 1 5CC855DC
P 3800 6700
F 0 "Q5" H 4006 6746 50  0000 L CNN
F 1 "CSD19534Q5A" H 4006 6655 50  0000 L CNN
F 2 "EVCONCEPT:SON5x6" H 4000 6625 50  0001 L CIN
F 3 "http://www.ti.com/lit/gpn/csd19534q5a" V 3800 6700 50  0001 L CNN
	1    3800 6700
	1    0    0    -1  
$EndComp
$Comp
L Transistor_FET:CSD19534Q5A Q6
U 1 1 5CC855E2
P 3800 7250
F 0 "Q6" H 4006 7296 50  0000 L CNN
F 1 "CSD19534Q5A" H 4006 7205 50  0000 L CNN
F 2 "EVCONCEPT:SON5x6" H 4000 7175 50  0001 L CIN
F 3 "http://www.ti.com/lit/gpn/csd19534q5a" V 3800 7250 50  0001 L CNN
	1    3800 7250
	1    0    0    -1  
$EndComp
Wire Wire Line
	3900 6900 3900 7000
$Comp
L power:GND #PWR0113
U 1 1 5CC855E9
P 3900 7550
F 0 "#PWR0113" H 3900 7300 50  0001 C CNN
F 1 "GND" H 3905 7377 50  0000 C CNN
F 2 "" H 3900 7550 50  0001 C CNN
F 3 "" H 3900 7550 50  0001 C CNN
	1    3900 7550
	1    0    0    -1  
$EndComp
$Comp
L power:VCC #PWR0114
U 1 1 5CC855EF
P 3900 6500
F 0 "#PWR0114" H 3900 6350 50  0001 C CNN
F 1 "VCC" H 3917 6673 50  0000 C CNN
F 2 "" H 3900 6500 50  0001 C CNN
F 3 "" H 3900 6500 50  0001 C CNN
	1    3900 6500
	1    0    0    -1  
$EndComp
$Comp
L Device:D_TVS D5
U 1 1 5CC855F5
P 3600 6850
F 0 "D5" V 3646 6771 50  0000 R CNN
F 1 "D_TVS" V 3555 6771 50  0000 R CNN
F 2 "Diode_SMD:D_SMA" H 3600 6850 50  0001 C CNN
F 3 "https://datasheet.lcsc.com/szlcsc/Diodes-Incorporated-SMBJ16CA-13-F_C71870.pdf" H 3600 6850 50  0001 C CNN
	1    3600 6850
	0    -1   -1   0   
$EndComp
$Comp
L Device:D_TVS D6
U 1 1 5CC855FB
P 3600 7400
F 0 "D6" V 3554 7479 50  0000 L CNN
F 1 "D_TVS" V 3645 7479 50  0000 L CNN
F 2 "Diode_SMD:D_SMA" H 3600 7400 50  0001 C CNN
F 3 "https://datasheet.lcsc.com/szlcsc/Diodes-Incorporated-SMBJ16CA-13-F_C71870.pdf" H 3600 7400 50  0001 C CNN
	1    3600 7400
	0    1    1    0   
$EndComp
Wire Wire Line
	3600 7550 3900 7550
Wire Wire Line
	3900 7550 3900 7450
Connection ~ 3900 7550
Wire Wire Line
	3600 7000 3900 7000
Connection ~ 3900 7000
Wire Wire Line
	3900 7000 3900 7050
Text GLabel 3450 6700 0    50   Input ~ 0
GHC
Text GLabel 3450 7250 0    50   Input ~ 0
GLC
Wire Wire Line
	3450 7250 3600 7250
Connection ~ 3600 7250
Wire Wire Line
	3600 6700 3450 6700
Connection ~ 3600 6700
$Comp
L pspice:C C19
U 1 1 5CC8A017
P 7200 1450
F 0 "C19" H 7250 1550 50  0000 L CNN
F 1 "10uF" H 7100 1450 50  0000 L CNN
F 2 "Capacitor_SMD:C_2220_5650Metric" H 7200 1450 50  0001 C CNN
F 3 "https://datasheet.lcsc.com/szlcsc/1903041502_Murata-Electronics-KRM55QR71J106KH01L_C363968.pdf" H 7200 1450 50  0001 C CNN
	1    7200 1450
	1    0    0    -1  
$EndComp
$Comp
L pspice:C C20
U 1 1 5CC8A01D
P 7550 1450
F 0 "C20" H 7600 1550 50  0000 L CNN
F 1 "1uF" H 7500 1450 50  0000 L CNN
F 2 "Capacitor_SMD:C_1206_3216Metric" H 7550 1450 50  0001 C CNN
F 3 "~" H 7550 1450 50  0001 C CNN
	1    7550 1450
	1    0    0    -1  
$EndComp
Wire Wire Line
	7550 1200 7200 1200
Wire Wire Line
	7200 1700 7550 1700
$Comp
L power:VCC #PWR0115
U 1 1 5CC8A032
P 7550 1200
F 0 "#PWR0115" H 7550 1050 50  0001 C CNN
F 1 "VCC" H 7567 1373 50  0000 C CNN
F 2 "" H 7550 1200 50  0001 C CNN
F 3 "" H 7550 1200 50  0001 C CNN
	1    7550 1200
	1    0    0    -1  
$EndComp
$Comp
L power:GND #PWR0116
U 1 1 5CC8A03A
P 7550 1700
F 0 "#PWR0116" H 7550 1450 50  0001 C CNN
F 1 "GND" H 7555 1527 50  0000 C CNN
F 2 "" H 7550 1700 50  0001 C CNN
F 3 "" H 7550 1700 50  0001 C CNN
	1    7550 1700
	1    0    0    -1  
$EndComp
Text Notes 7250 900  0    50   ~ 0
Bipass Caps DRV
$Comp
L pspice:C C21
U 1 1 5CC8A023
P 7900 1450
F 0 "C21" H 7950 1550 50  0000 L CNN
F 1 "0.1uF" H 7850 1450 50  0000 L CNN
F 2 "Capacitor_SMD:C_1206_3216Metric" H 7900 1450 50  0001 C CNN
F 3 "~" H 7900 1450 50  0001 C CNN
	1    7900 1450
	1    0    0    -1  
$EndComp
Text GLabel 1450 7000 2    50   Input ~ 0
Phase_A
Text GLabel 2750 7000 2    50   Input ~ 0
Phase_B
Text GLabel 4050 7000 2    50   Input ~ 0
Phase_C
Wire Wire Line
	1450 7000 1300 7000
Wire Wire Line
	2750 7000 2600 7000
Wire Wire Line
	4050 7000 3900 7000
Text GLabel 5050 6950 0    50   Input ~ 0
Phase_B
Text GLabel 5050 7250 0    50   Input ~ 0
Phase_C
Text GLabel 4150 2750 2    50   Input ~ 0
GHA
Text GLabel 4150 2850 2    50   Input ~ 0
Phase_A
Text GLabel 4150 2950 2    50   Input ~ 0
GLA
Text GLabel 4150 3250 2    50   Input ~ 0
GHB
Text GLabel 4150 3350 2    50   Input ~ 0
Phase_B
Text GLabel 4150 3450 2    50   Input ~ 0
GLB
Text GLabel 4150 3750 2    50   Input ~ 0
GHC
Text GLabel 4150 3850 2    50   Input ~ 0
Phase_C
Text GLabel 4150 3950 2    50   Input ~ 0
GLC
Text GLabel 4150 4550 2    50   Input ~ 0
VGLS
Text GLabel 4150 4650 2    50   Input ~ 0
CPL
Text GLabel 4150 4250 2    50   Input ~ 0
CPH
Text GLabel 4150 4350 2    50   Input ~ 0
VCP
Wire Wire Line
	4050 3750 4150 3750
Wire Wire Line
	4050 3850 4150 3850
Wire Wire Line
	4050 3950 4150 3950
Wire Wire Line
	4050 4050 4150 4050
Wire Wire Line
	4050 3550 4150 3550
Wire Wire Line
	4050 3450 4150 3450
Wire Wire Line
	4150 3350 4050 3350
Wire Wire Line
	4050 3250 4150 3250
Wire Wire Line
	4050 3050 4150 3050
Wire Wire Line
	4050 2950 4150 2950
Wire Wire Line
	4050 2850 4150 2850
Wire Wire Line
	4050 2750 4150 2750
$Comp
L power:GND #PWR0117
U 1 1 5CD2126A
P 4150 3050
F 0 "#PWR0117" H 4150 2800 50  0001 C CNN
F 1 "GND" H 4250 3050 50  0000 C CNN
F 2 "" H 4150 3050 50  0001 C CNN
F 3 "" H 4150 3050 50  0001 C CNN
	1    4150 3050
	1    0    0    -1  
$EndComp
$Comp
L power:GND #PWR0118
U 1 1 5CD22A26
P 4150 3550
F 0 "#PWR0118" H 4150 3300 50  0001 C CNN
F 1 "GND" H 4250 3550 50  0000 C CNN
F 2 "" H 4150 3550 50  0001 C CNN
F 3 "" H 4150 3550 50  0001 C CNN
	1    4150 3550
	1    0    0    -1  
$EndComp
$Comp
L power:GND #PWR0119
U 1 1 5CD24246
P 4150 4050
F 0 "#PWR0119" H 4150 3800 50  0001 C CNN
F 1 "GND" H 4250 4050 50  0000 C CNN
F 2 "" H 4150 4050 50  0001 C CNN
F 3 "" H 4150 4050 50  0001 C CNN
	1    4150 4050
	1    0    0    -1  
$EndComp
Wire Wire Line
	2300 4400 2450 4400
Text GLabel 2200 3500 0    50   Input ~ 0
INHA
Text GLabel 2200 3600 0    50   Input ~ 0
INLA
Text GLabel 2200 3700 0    50   Input ~ 0
INHB
Text GLabel 2200 3800 0    50   Input ~ 0
INLB
Text GLabel 2200 3900 0    50   Input ~ 0
INHC
Text GLabel 2200 4000 0    50   Input ~ 0
INLC
Wire Wire Line
	2200 4000 2450 4000
Wire Wire Line
	2450 3900 2200 3900
Wire Wire Line
	2200 3800 2450 3800
Wire Wire Line
	2450 3700 2200 3700
Wire Wire Line
	2200 3600 2450 3600
Wire Wire Line
	2450 3500 2200 3500
Text GLabel 2200 3300 0    50   Input ~ 0
NFault
Text GLabel 2200 3200 0    50   Input ~ 0
SDO
Text GLabel 2200 3100 0    50   Input ~ 0
SDI
Text GLabel 2200 3000 0    50   Input ~ 0
SCLK
Text GLabel 2200 2900 0    50   Input ~ 0
NSCS
Text GLabel 2200 2800 0    50   Input ~ 0
ENABLE
Wire Wire Line
	2200 2800 2450 2800
Wire Wire Line
	2200 2900 2450 2900
Wire Wire Line
	2200 3000 2450 3000
Wire Wire Line
	2200 3100 2450 3100
Wire Wire Line
	2200 3200 2450 3200
Wire Wire Line
	2200 3300 2450 3300
Text Notes 2900 2250 0    118  ~ 0
Driver IC\n
Text Notes 4650 2250 0    118  ~ 0
Driver IC Passives
Connection ~ 6150 1200
Wire Wire Line
	6150 1200 5950 1200
Connection ~ 6150 1700
Wire Wire Line
	6150 1700 6300 1700
Connection ~ 4550 1700
Wire Wire Line
	4550 1700 4700 1700
Connection ~ 4550 1200
Wire Wire Line
	4550 1200 4350 1200
Connection ~ 3050 1200
Wire Wire Line
	3050 1200 2850 1200
Connection ~ 3050 1700
Wire Wire Line
	3050 1700 3200 1700
$Comp
L Amplifier_Current:INA240A1D U5
U 1 1 5CE62E47
P 7050 2850
F 0 "U5" H 7400 2950 50  0000 L CNN
F 1 "INA240A1D" H 7050 3100 50  0000 L CNN
F 2 "Package_SO:SOIC-8_3.9x4.9mm_P1.27mm" H 7050 2200 50  0001 C CNN
F 3 "http://www.ti.com/lit/ds/symlink/ina240.pdf" H 7200 3000 50  0001 C CNN
	1    7050 2850
	1    0    0    -1  
$EndComp
Text GLabel 6950 2550 1    50   Input ~ 0
3.3V
$Comp
L power:GND #PWR0123
U 1 1 5CE65A7A
P 6950 3150
F 0 "#PWR0123" H 6950 2900 50  0001 C CNN
F 1 "GND" H 6800 3150 50  0000 C CNN
F 2 "" H 6950 3150 50  0001 C CNN
F 3 "" H 6950 3150 50  0001 C CNN
	1    6950 3150
	1    0    0    -1  
$EndComp
Wire Wire Line
	7050 3150 7150 3150
Text GLabel 5050 6650 0    50   Input ~ 0
Phase_A
Text GLabel 5550 6650 2    50   Input ~ 0
ASENSE+
$Comp
L pspice:R R1
U 1 1 5CE03702
P 5300 6650
F 0 "R1" V 5095 6650 50  0000 C CNN
F 1 "750uΩ" V 5186 6650 50  0000 C CNN
F 2 "EVCONCEPT:Shunt 7.6x15mm" H 5300 6650 50  0001 C CNN
F 3 "https://datasheet.lcsc.com/szlcsc/1812111932_ResistorToday-EWSL5930FL750S9_C349174.pdf" H 5300 6650 50  0001 C CNN
	1    5300 6650
	0    1    1    0   
$EndComp
$Comp
L pspice:R R2
U 1 1 5CDFEBD6
P 5300 6950
F 0 "R2" V 5095 6950 50  0000 C CNN
F 1 "750uΩ" V 5186 6950 50  0000 C CNN
F 2 "EVCONCEPT:Shunt 7.6x15mm" H 5300 6950 50  0001 C CNN
F 3 "https://datasheet.lcsc.com/szlcsc/1812111932_ResistorToday-EWSL5930FL750S9_C349174.pdf" H 5300 6950 50  0001 C CNN
	1    5300 6950
	0    1    1    0   
$EndComp
$Comp
L pspice:R R3
U 1 1 5CDFE22D
P 5300 7250
F 0 "R3" V 5095 7250 50  0000 C CNN
F 1 "750uΩ" V 5186 7250 50  0000 C CNN
F 2 "EVCONCEPT:Shunt 7.6x15mm" H 5300 7250 50  0001 C CNN
F 3 "https://datasheet.lcsc.com/szlcsc/1812111932_ResistorToday-EWSL5930FL750S9_C349174.pdf" H 5300 7250 50  0001 C CNN
	1    5300 7250
	0    1    1    0   
$EndComp
Text GLabel 5550 6950 2    50   Input ~ 0
BSENSE+
Text GLabel 5550 7250 2    50   Input ~ 0
CSENSE+
Text GLabel 6750 2750 0    50   Input ~ 0
ASENSE+
Text GLabel 6750 2950 0    50   Input ~ 0
Phase_A
Text GLabel 8450 2550 1    50   Input ~ 0
3.3V
Text GLabel 8250 2750 0    50   Input ~ 0
BSENSE+
Text GLabel 8250 2950 0    50   Input ~ 0
Phase_B
$Comp
L Amplifier_Current:INA240A1D U8
U 1 1 5CF2A767
P 10050 2850
F 0 "U8" H 10400 2950 50  0000 L CNN
F 1 "INA240A1D" H 10050 3100 50  0000 L CNN
F 2 "Package_SO:SOIC-8_3.9x4.9mm_P1.27mm" H 10050 2200 50  0001 C CNN
F 3 "http://www.ti.com/lit/ds/symlink/ina240.pdf" H 10200 3000 50  0001 C CNN
	1    10050 2850
	1    0    0    -1  
$EndComp
Text GLabel 9950 2550 1    50   Input ~ 0
3.3V
$Comp
L power:GND #PWR0127
U 1 1 5CF2A76E
P 9950 3150
F 0 "#PWR0127" H 9950 2900 50  0001 C CNN
F 1 "GND" H 9800 3150 50  0000 C CNN
F 2 "" H 9950 3150 50  0001 C CNN
F 3 "" H 9950 3150 50  0001 C CNN
	1    9950 3150
	1    0    0    -1  
$EndComp
Text GLabel 9750 2750 0    50   Input ~ 0
CSENSE+
Text GLabel 9750 2950 0    50   Input ~ 0
Phase_C
Text GLabel 7350 2850 2    50   Input ~ 0
CurrentA+
Text GLabel 8850 2850 2    50   Input ~ 0
CurrentB+
Text GLabel 10350 2850 2    50   Input ~ 0
CurrentC+
Text Notes 7400 2250 0    118  ~ 0
Current Sense Op-Amps
Text Notes 2050 6250 0    118  ~ 0
Half-Bridges
Text GLabel 5550 7700 2    50   Input ~ 0
CSENSE+
Text GLabel 5550 7600 2    50   Input ~ 0
BSENSE+
Text GLabel 5550 7500 2    50   Input ~ 0
ASENSE+
$Comp
L Connector:Screw_Terminal_01x03 J4
U 1 1 5CCB4964
P 5350 7600
F 0 "J4" H 5430 7642 50  0000 L CNN
F 1 "Screw_Terminal_01x03" H 5430 7551 50  0000 L CNN
F 2 "EVCONCEPT:Super_Sabre_3PIN" H 5350 7600 50  0001 C CNN
F 3 "~" H 5350 7600 50  0001 C CNN
	1    5350 7600
	-1   0    0    1   
$EndComp
$Comp
L pspice:C C8
U 1 1 5CFC0CF8
P 4950 3050
F 0 "C8" H 5128 3096 50  0000 L CNN
F 1 "1uF" H 5128 3005 50  0000 L CNN
F 2 "Capacitor_SMD:C_0805_2012Metric" H 4950 3050 50  0001 C CNN
F 3 "~" H 4950 3050 50  0001 C CNN
	1    4950 3050
	1    0    0    -1  
$EndComp
Text GLabel 4950 3300 3    50   Input ~ 0
VCP
$Comp
L pspice:C C12
U 1 1 5CFC8F56
P 5500 3050
F 0 "C12" H 5678 3096 50  0000 L CNN
F 1 "1uF" H 5678 3005 50  0000 L CNN
F 2 "Capacitor_SMD:C_0805_2012Metric" H 5500 3050 50  0001 C CNN
F 3 "~" H 5500 3050 50  0001 C CNN
	1    5500 3050
	1    0    0    -1  
$EndComp
$Comp
L power:GND #PWR0130
U 1 1 5CFCE40C
P 5500 3300
F 0 "#PWR0130" H 5500 3050 50  0001 C CNN
F 1 "GND" H 5505 3127 50  0000 C CNN
F 2 "" H 5500 3300 50  0001 C CNN
F 3 "" H 5500 3300 50  0001 C CNN
	1    5500 3300
	1    0    0    -1  
$EndComp
Text GLabel 5500 2800 1    50   Input ~ 0
VGLS
$Comp
L pspice:C C9
U 1 1 5CFD63F2
P 4950 4050
F 0 "C9" H 5128 4096 50  0000 L CNN
F 1 "1uF" H 5128 4005 50  0000 L CNN
F 2 "Capacitor_SMD:C_0805_2012Metric" H 4950 4050 50  0001 C CNN
F 3 "~" H 4950 4050 50  0001 C CNN
	1    4950 4050
	1    0    0    -1  
$EndComp
Text GLabel 4950 3800 1    50   Input ~ 0
DVDD
$Comp
L power:GND #PWR0131
U 1 1 5CFDC694
P 4950 4300
F 0 "#PWR0131" H 4950 4050 50  0001 C CNN
F 1 "GND" H 4955 4127 50  0000 C CNN
F 2 "" H 4950 4300 50  0001 C CNN
F 3 "" H 4950 4300 50  0001 C CNN
	1    4950 4300
	1    0    0    -1  
$EndComp
$Comp
L pspice:C C10
U 1 1 5CFE895E
P 5500 4050
F 0 "C10" H 5678 4096 50  0000 L CNN
F 1 "47nF" H 5678 4005 50  0000 L CNN
F 2 "Capacitor_SMD:C_0603_1608Metric" H 5500 4050 50  0001 C CNN
F 3 "~" H 5500 4050 50  0001 C CNN
	1    5500 4050
	1    0    0    -1  
$EndComp
$Comp
L power:VCC #PWR0135
U 1 1 5D0126ED
P 4950 2800
F 0 "#PWR0135" H 4950 2650 50  0001 C CNN
F 1 "VCC" H 4967 2973 50  0000 C CNN
F 2 "" H 4950 2800 50  0001 C CNN
F 3 "" H 4950 2800 50  0001 C CNN
	1    4950 2800
	1    0    0    -1  
$EndComp
$Comp
L pspice:R R6
U 1 1 5D0CA69E
P 6000 3950
F 0 "R6" H 6068 3996 50  0000 L CNN
F 1 "10kΩ" H 6068 3905 50  0000 L CNN
F 2 "Resistor_SMD:R_0603_1608Metric" H 6000 3950 50  0001 C CNN
F 3 "~" H 6000 3950 50  0001 C CNN
	1    6000 3950
	1    0    0    -1  
$EndComp
Text GLabel 6000 4200 3    50   Input ~ 0
NFault
$Comp
L pspice:R R5
U 1 1 5D0D07FB
P 6000 2950
F 0 "R5" H 6068 2996 50  0000 L CNN
F 1 "1kΩ" H 6068 2905 50  0000 L CNN
F 2 "Resistor_SMD:R_0603_1608Metric" H 6000 2950 50  0001 C CNN
F 3 "~" H 6000 2950 50  0001 C CNN
	1    6000 2950
	1    0    0    -1  
$EndComp
Text GLabel 6000 3200 3    50   Input ~ 0
SDO
Text GLabel 1050 4100 2    50   Input ~ 0
3.3V
$Comp
L power:GND #PWR0141
U 1 1 5CC11DE1
P 1050 4800
F 0 "#PWR0141" H 1050 4550 50  0001 C CNN
F 1 "GND" H 1055 4627 50  0000 C CNN
F 2 "" H 1050 4800 50  0001 C CNN
F 3 "" H 1050 4800 50  0001 C CNN
	1    1050 4800
	1    0    0    -1  
$EndComp
Text GLabel 1050 4500 2    50   Input ~ 0
SDI
Text GLabel 1050 4400 2    50   Input ~ 0
SCLK
Text GLabel 1050 4300 2    50   Input ~ 0
NSCS
Text GLabel 1050 4200 2    50   Input ~ 0
ENABLE
Text GLabel 1050 4600 2    50   Input ~ 0
SDO
Text GLabel 1050 4700 2    50   Input ~ 0
NFault
Text GLabel 1050 3900 2    50   Input ~ 0
INHA
Text GLabel 1550 3800 2    50   Input ~ 0
INLA
Text GLabel 1550 3700 2    50   Input ~ 0
INHB
Text GLabel 1550 3600 2    50   Input ~ 0
INLB
Text GLabel 1050 3500 2    50   Input ~ 0
INHC
Text GLabel 1050 3400 2    50   Input ~ 0
INLC
Text GLabel 8950 3150 3    50   Input ~ 0
CurrentB-
Text GLabel 10450 3150 3    50   Input ~ 0
CurrentC-
$Comp
L Connector:Conn_01x05_Female J6
U 1 1 5CC1ED39
P 850 5450
F 0 "J6" H 742 5025 50  0000 C CNN
F 1 "Conn_01x05" H 742 5116 50  0000 C CNN
F 2 "Connector_PinSocket_2.54mm:PinSocket_1x05_P2.54mm_Vertical" H 850 5450 50  0001 C CNN
F 3 "~" H 850 5450 50  0001 C CNN
	1    850  5450
	-1   0    0    1   
$EndComp
Text GLabel 1050 5250 2    50   Input ~ 0
3.3V
$Comp
L power:GND #PWR0148
U 1 1 5CC2A85B
P 1300 5350
F 0 "#PWR0148" H 1300 5100 50  0001 C CNN
F 1 "GND" H 1400 5350 50  0000 C CNN
F 2 "" H 1300 5350 50  0001 C CNN
F 3 "" H 1300 5350 50  0001 C CNN
	1    1300 5350
	1    0    0    -1  
$EndComp
Wire Wire Line
	1300 5350 1050 5350
Text GLabel 1050 5450 2    50   Input ~ 0
INLA
Text GLabel 1050 5550 2    50   Input ~ 0
INHB
Text GLabel 1050 5650 2    50   Input ~ 0
INLB
$Comp
L power:GND #PWR0150
U 1 1 5CD79035
P 2200 4200
F 0 "#PWR0150" H 2200 3950 50  0001 C CNN
F 1 "GND" H 2200 4250 50  0000 C CNN
F 2 "" H 2200 4200 50  0001 C CNN
F 3 "" H 2200 4200 50  0001 C CNN
	1    2200 4200
	1    0    0    -1  
$EndComp
$Comp
L EV_Concept:DRV8350 U1
U 1 1 5CD9D635
P 3250 3650
F 0 "U1" H 3250 4867 50  0000 C CNN
F 1 "DRV8350" H 3250 4776 50  0000 C CNN
F 2 "EVCONCEPT:WQFN-32-1EP_5x5mm_Pitch0.5mm" H 3250 3700 50  0001 C CNN
F 3 "https://www.ti.com/lit/ds/symlink/drv8350.pdf" H 3250 3700 50  0001 C CNN
	1    3250 3650
	1    0    0    -1  
$EndComp
Wire Wire Line
	4050 4250 4150 4250
Wire Wire Line
	4050 4350 4150 4350
Text GLabel 4150 4450 2    50   Input ~ 0
DVDD
Wire Wire Line
	4050 4450 4150 4450
Wire Wire Line
	4150 4550 4050 4550
Wire Wire Line
	4050 4650 4150 4650
Wire Wire Line
	2450 4300 2450 4400
Connection ~ 2450 4400
$Comp
L power:VCC #PWR01
U 1 1 5CE09A75
P 2300 4400
F 0 "#PWR01" H 2300 4250 50  0001 C CNN
F 1 "VCC" H 2200 4450 50  0000 C CNN
F 2 "" H 2300 4400 50  0001 C CNN
F 3 "" H 2300 4400 50  0001 C CNN
	1    2300 4400
	1    0    0    -1  
$EndComp
Wire Wire Line
	2200 4200 2450 4200
Text GLabel 5500 4300 3    50   Input ~ 0
CPL
Text GLabel 5500 3800 1    50   Input ~ 0
CPH
Text Notes 1100 950  0    118  ~ 0
Input Filter
Text Notes 2600 950  0    50   ~ 0
Bipass Caps Phase A
$Comp
L Device:CP C13
U 1 1 5CD1D5CF
P 9100 1450
F 0 "C13" H 9218 1496 50  0000 L CNN
F 1 "330uF" H 9218 1405 50  0000 L CNN
F 2 "Capacitor_THT:CP_Radial_D13.0mm_P5.00mm" H 9138 1300 50  0001 C CNN
F 3 "~" H 9100 1450 50  0001 C CNN
	1    9100 1450
	1    0    0    -1  
$EndComp
$Comp
L power:VCC #PWR03
U 1 1 5CD1E55B
P 9600 1300
F 0 "#PWR03" H 9600 1150 50  0001 C CNN
F 1 "VCC" H 9617 1473 50  0000 C CNN
F 2 "" H 9600 1300 50  0001 C CNN
F 3 "" H 9600 1300 50  0001 C CNN
	1    9600 1300
	1    0    0    -1  
$EndComp
$Comp
L Device:CP C18
U 1 1 5CD2D199
P 9600 1450
F 0 "C18" H 9718 1496 50  0000 L CNN
F 1 "330uF" H 9718 1405 50  0000 L CNN
F 2 "Capacitor_THT:CP_Radial_D13.0mm_P5.00mm" H 9638 1300 50  0001 C CNN
F 3 "~" H 9600 1450 50  0001 C CNN
	1    9600 1450
	1    0    0    -1  
$EndComp
$Comp
L power:GND #PWR04
U 1 1 5CD3D751
P 9600 1600
F 0 "#PWR04" H 9600 1350 50  0001 C CNN
F 1 "GND" H 9605 1427 50  0000 C CNN
F 2 "" H 9600 1600 50  0001 C CNN
F 3 "" H 9600 1600 50  0001 C CNN
	1    9600 1600
	1    0    0    -1  
$EndComp
Text GLabel 7950 3150 2    50   Input ~ 0
3.3V
$Comp
L pspice:R R8
U 1 1 5CE8ECA2
P 7700 3150
F 0 "R8" V 7495 3150 50  0000 C CNN
F 1 "10kΩ" V 7586 3150 50  0000 C CNN
F 2 "Resistor_SMD:R_0603_1608Metric" H 7700 3150 50  0001 C CNN
F 3 "~" H 7700 3150 50  0001 C CNN
	1    7700 3150
	0    1    1    0   
$EndComp
$Comp
L power:GND #PWR0125
U 1 1 5CF23622
P 8450 3150
F 0 "#PWR0125" H 8450 2900 50  0001 C CNN
F 1 "GND" H 8300 3150 50  0000 C CNN
F 2 "" H 8450 3150 50  0001 C CNN
F 3 "" H 8450 3150 50  0001 C CNN
	1    8450 3150
	1    0    0    -1  
$EndComp
$Comp
L dk_PMIC-Voltage-Reference:LM4040D25FTA VR1
U 1 1 5CD56EC1
P 7150 3350
F 0 "VR1" H 7047 3396 50  0000 R CNN
F 1 "LM4040D25FTA" H 7350 2950 50  0000 R CNN
F 2 "digikey-footprints:SOT-23-3" H 7350 3550 50  0001 L CNN
F 3 "https://www.diodes.com/assets/Datasheets/LM4040.pdf" H 7350 3650 60  0001 L CNN
F 4 "LM4040D25FCT-ND" H 7350 3750 60  0001 L CNN "Digi-Key_PN"
F 5 "LM4040D25FTA" H 7350 3850 60  0001 L CNN "MPN"
F 6 "Integrated Circuits (ICs)" H 7350 3950 60  0001 L CNN "Category"
F 7 "PMIC - Voltage Reference" H 7350 4050 60  0001 L CNN "Family"
F 8 "https://www.diodes.com/assets/Datasheets/LM4040.pdf" H 7350 4150 60  0001 L CNN "DK_Datasheet_Link"
F 9 "/product-detail/en/diodes-incorporated/LM4040D25FTA/LM4040D25FCT-ND/1557756" H 7350 4250 60  0001 L CNN "DK_Detail_Page"
F 10 "IC VREF SHUNT 2.5V SOT23-3" H 7350 4350 60  0001 L CNN "Description"
F 11 "Diodes Incorporated" H 7350 4450 60  0001 L CNN "Manufacturer"
F 12 "Active" H 7350 4550 60  0001 L CNN "Status"
	1    7150 3350
	1    0    0    -1  
$EndComp
$Comp
L power:GND #PWR0124
U 1 1 5CE7477A
P 7150 3650
F 0 "#PWR0124" H 7150 3400 50  0001 C CNN
F 1 "GND" H 7150 3500 50  0000 C CNN
F 2 "" H 7150 3650 50  0001 C CNN
F 3 "" H 7150 3650 50  0001 C CNN
	1    7150 3650
	1    0    0    -1  
$EndComp
Wire Wire Line
	7150 3150 7450 3150
Wire Wire Line
	7150 3650 7150 3550
Text GLabel 7450 3150 3    50   Input ~ 0
CurrentA-
Wire Wire Line
	8650 3650 8650 3550
Wire Wire Line
	8650 3150 8950 3150
$Comp
L power:GND #PWR02
U 1 1 5CDCA69D
P 8650 3650
F 0 "#PWR02" H 8650 3400 50  0001 C CNN
F 1 "GND" H 8700 3500 50  0000 C CNN
F 2 "" H 8650 3650 50  0001 C CNN
F 3 "" H 8650 3650 50  0001 C CNN
	1    8650 3650
	1    0    0    -1  
$EndComp
$Comp
L dk_PMIC-Voltage-Reference:LM4040D25FTA VR2
U 1 1 5CDCA6B2
P 8650 3350
F 0 "VR2" H 8547 3396 50  0000 R CNN
F 1 "LM4040D25FTA" H 8900 2950 50  0000 R CNN
F 2 "digikey-footprints:SOT-23-3" H 8850 3550 50  0001 L CNN
F 3 "https://www.diodes.com/assets/Datasheets/LM4040.pdf" H 8850 3650 60  0001 L CNN
F 4 "LM4040D25FCT-ND" H 8850 3750 60  0001 L CNN "Digi-Key_PN"
F 5 "LM4040D25FTA" H 8850 3850 60  0001 L CNN "MPN"
F 6 "Integrated Circuits (ICs)" H 8850 3950 60  0001 L CNN "Category"
F 7 "PMIC - Voltage Reference" H 8850 4050 60  0001 L CNN "Family"
F 8 "https://www.diodes.com/assets/Datasheets/LM4040.pdf" H 8850 4150 60  0001 L CNN "DK_Datasheet_Link"
F 9 "/product-detail/en/diodes-incorporated/LM4040D25FTA/LM4040D25FCT-ND/1557756" H 8850 4250 60  0001 L CNN "DK_Detail_Page"
F 10 "IC VREF SHUNT 2.5V SOT23-3" H 8850 4350 60  0001 L CNN "Description"
F 11 "Diodes Incorporated" H 8850 4450 60  0001 L CNN "Manufacturer"
F 12 "Active" H 8850 4550 60  0001 L CNN "Status"
	1    8650 3350
	1    0    0    -1  
$EndComp
$Comp
L pspice:R R11
U 1 1 5CDCA6B8
P 9200 3150
F 0 "R11" V 8995 3150 50  0000 C CNN
F 1 "10kΩ" V 9086 3150 50  0000 C CNN
F 2 "Resistor_SMD:R_0603_1608Metric" H 9200 3150 50  0001 C CNN
F 3 "~" H 9200 3150 50  0001 C CNN
	1    9200 3150
	0    1    1    0   
$EndComp
Text GLabel 9450 3150 2    50   Input ~ 0
3.3V
Wire Wire Line
	8550 3150 8650 3150
Wire Wire Line
	10150 3650 10150 3550
Wire Wire Line
	10150 3150 10450 3150
$Comp
L power:GND #PWR05
U 1 1 5CDDD2A7
P 10150 3650
F 0 "#PWR05" H 10150 3400 50  0001 C CNN
F 1 "GND" H 10150 3500 50  0000 C CNN
F 2 "" H 10150 3650 50  0001 C CNN
F 3 "" H 10150 3650 50  0001 C CNN
	1    10150 3650
	1    0    0    -1  
$EndComp
$Comp
L dk_PMIC-Voltage-Reference:LM4040D25FTA VR3
U 1 1 5CDDD2BC
P 10150 3350
F 0 "VR3" H 10047 3396 50  0000 R CNN
F 1 "LM4040D25FTA" H 10300 2950 50  0000 R CNN
F 2 "digikey-footprints:SOT-23-3" H 10350 3550 50  0001 L CNN
F 3 "https://www.diodes.com/assets/Datasheets/LM4040.pdf" H 10350 3650 60  0001 L CNN
F 4 "LM4040D25FCT-ND" H 10350 3750 60  0001 L CNN "Digi-Key_PN"
F 5 "LM4040D25FTA" H 10350 3850 60  0001 L CNN "MPN"
F 6 "Integrated Circuits (ICs)" H 10350 3950 60  0001 L CNN "Category"
F 7 "PMIC - Voltage Reference" H 10350 4050 60  0001 L CNN "Family"
F 8 "https://www.diodes.com/assets/Datasheets/LM4040.pdf" H 10350 4150 60  0001 L CNN "DK_Datasheet_Link"
F 9 "/product-detail/en/diodes-incorporated/LM4040D25FTA/LM4040D25FCT-ND/1557756" H 10350 4250 60  0001 L CNN "DK_Detail_Page"
F 10 "IC VREF SHUNT 2.5V SOT23-3" H 10350 4350 60  0001 L CNN "Description"
F 11 "Diodes Incorporated" H 10350 4450 60  0001 L CNN "Manufacturer"
F 12 "Active" H 10350 4550 60  0001 L CNN "Status"
	1    10150 3350
	1    0    0    -1  
$EndComp
$Comp
L pspice:R R14
U 1 1 5CDDD2C2
P 10700 3150
F 0 "R14" V 10495 3150 50  0000 C CNN
F 1 "10kΩ" V 10586 3150 50  0000 C CNN
F 2 "Resistor_SMD:R_0603_1608Metric" H 10700 3150 50  0001 C CNN
F 3 "~" H 10700 3150 50  0001 C CNN
	1    10700 3150
	0    1    1    0   
$EndComp
Text GLabel 10950 3150 2    50   Input ~ 0
3.3V
Wire Wire Line
	10050 3150 10150 3150
$Comp
L power:GND #PWR06
U 1 1 5CE232AF
P 7400 5200
F 0 "#PWR06" H 7400 4950 50  0001 C CNN
F 1 "GND" H 7400 5050 50  0000 C CNN
F 2 "" H 7400 5200 50  0001 C CNN
F 3 "" H 7400 5200 50  0001 C CNN
	1    7400 5200
	1    0    0    -1  
$EndComp
$Comp
L power:GND #PWR07
U 1 1 5CE2AF77
P 7800 5000
F 0 "#PWR07" H 7800 4750 50  0001 C CNN
F 1 "GND" H 7800 4850 50  0000 C CNN
F 2 "" H 7800 5000 50  0001 C CNN
F 3 "" H 7800 5000 50  0001 C CNN
	1    7800 5000
	1    0    0    -1  
$EndComp
Text GLabel 8600 4700 0    50   Input ~ 0
CurrentB+
Text GLabel 8600 4800 0    50   Input ~ 0
CurrentB-
Text GLabel 10150 4700 0    50   Input ~ 0
CurrentC+
Text GLabel 10150 4800 0    50   Input ~ 0
CurrentC-
$Comp
L Analog_ADC:ADS1113IDGS U2
U 1 1 5CE6F77C
P 7400 4800
F 0 "U2" H 7400 5650 50  0000 C CNN
F 1 "ADS1113IDGS" H 7400 5550 50  0000 C CNN
F 2 "Package_SO:TSSOP-10_3x3mm_P0.5mm" H 7400 4300 50  0001 C CNN
F 3 "http://www.ti.com/lit/ds/symlink/ads1113.pdf" H 7450 4100 50  0001 C CNN
	1    7400 4800
	1    0    0    -1  
$EndComp
Text GLabel 7000 4700 0    50   Input ~ 0
CurrentA+
Text GLabel 7000 4800 0    50   Input ~ 0
CurrentA-
Text GLabel 7400 4300 1    50   Input ~ 0
3.3V
Text GLabel 7800 4800 2    50   Input ~ 0
SCL
Text GLabel 7800 4900 2    50   Input ~ 0
SDA
$Comp
L power:GND #PWR09
U 1 1 5CEB4D8F
P 9000 5200
F 0 "#PWR09" H 9000 4950 50  0001 C CNN
F 1 "GND" H 9000 5050 50  0000 C CNN
F 2 "" H 9000 5200 50  0001 C CNN
F 3 "" H 9000 5200 50  0001 C CNN
	1    9000 5200
	1    0    0    -1  
$EndComp
$Comp
L Analog_ADC:ADS1113IDGS U3
U 1 1 5CEB4D9B
P 9000 4800
F 0 "U3" H 9000 5650 50  0000 C CNN
F 1 "ADS1113IDGS" H 9000 5550 50  0000 C CNN
F 2 "Package_SO:TSSOP-10_3x3mm_P0.5mm" H 9000 4300 50  0001 C CNN
F 3 "http://www.ti.com/lit/ds/symlink/ads1113.pdf" H 9050 4100 50  0001 C CNN
	1    9000 4800
	1    0    0    -1  
$EndComp
Text GLabel 9000 4300 1    50   Input ~ 0
3.3V
Text GLabel 9400 4800 2    50   Input ~ 0
SCL
Text GLabel 9400 4900 2    50   Input ~ 0
SDA
$Comp
L power:GND #PWR010
U 1 1 5CECDB01
P 10550 5200
F 0 "#PWR010" H 10550 4950 50  0001 C CNN
F 1 "GND" H 10550 5050 50  0000 C CNN
F 2 "" H 10550 5200 50  0001 C CNN
F 3 "" H 10550 5200 50  0001 C CNN
	1    10550 5200
	1    0    0    -1  
$EndComp
$Comp
L Analog_ADC:ADS1113IDGS U4
U 1 1 5CECDB0D
P 10550 4800
F 0 "U4" H 10550 5650 50  0000 C CNN
F 1 "ADS1113IDGS" H 10550 5550 50  0000 C CNN
F 2 "Package_SO:TSSOP-10_3x3mm_P0.5mm" H 10550 4300 50  0001 C CNN
F 3 "http://www.ti.com/lit/ds/symlink/ads1113.pdf" H 10600 4100 50  0001 C CNN
	1    10550 4800
	1    0    0    -1  
$EndComp
Text GLabel 10550 4300 1    50   Input ~ 0
3.3V
Text GLabel 10950 4800 2    50   Input ~ 0
SCL
Text GLabel 10950 4900 2    50   Input ~ 0
SDA
Text GLabel 10950 5000 2    50   Input ~ 0
SCL
Text GLabel 9400 5000 2    50   Input ~ 0
3.3V
$Comp
L pspice:C C22
U 1 1 5CEFA4A1
P 9550 5950
F 0 "C22" H 9728 5996 50  0000 L CNN
F 1 "0.1uF" H 9728 5905 50  0000 L CNN
F 2 "Capacitor_SMD:C_0805_2012Metric" H 9550 5950 50  0001 C CNN
F 3 "~" H 9550 5950 50  0001 C CNN
	1    9550 5950
	1    0    0    -1  
$EndComp
$Comp
L pspice:C C23
U 1 1 5CEFEF53
P 10100 5950
F 0 "C23" H 10278 5996 50  0000 L CNN
F 1 "0.1uF" H 10278 5905 50  0000 L CNN
F 2 "Capacitor_SMD:C_0805_2012Metric" H 10100 5950 50  0001 C CNN
F 3 "~" H 10100 5950 50  0001 C CNN
	1    10100 5950
	1    0    0    -1  
$EndComp
$Comp
L pspice:C C24
U 1 1 5CF03AF5
P 10650 5950
F 0 "C24" H 10828 5996 50  0000 L CNN
F 1 "0.1uF" H 10828 5905 50  0000 L CNN
F 2 "Capacitor_SMD:C_0805_2012Metric" H 10650 5950 50  0001 C CNN
F 3 "~" H 10650 5950 50  0001 C CNN
	1    10650 5950
	1    0    0    -1  
$EndComp
Wire Wire Line
	9550 5700 10100 5700
Connection ~ 10100 5700
Wire Wire Line
	10100 5700 10650 5700
Wire Wire Line
	9550 6200 10100 6200
Connection ~ 10100 6200
Wire Wire Line
	10100 6200 10650 6200
$Comp
L power:GND #PWR08
U 1 1 5CF19CBF
P 10100 6200
F 0 "#PWR08" H 10100 5950 50  0001 C CNN
F 1 "GND" H 10100 6050 50  0000 C CNN
F 2 "" H 10100 6200 50  0001 C CNN
F 3 "" H 10100 6200 50  0001 C CNN
	1    10100 6200
	1    0    0    -1  
$EndComp
Text GLabel 10100 5700 1    50   Input ~ 0
3.3V
$Comp
L Device:CP C25
U 1 1 5CF3E7C6
P 10100 1450
F 0 "C25" H 10218 1496 50  0000 L CNN
F 1 "330uF" H 10218 1405 50  0000 L CNN
F 2 "Capacitor_THT:CP_Radial_D13.0mm_P5.00mm" H 10138 1300 50  0001 C CNN
F 3 "~" H 10100 1450 50  0001 C CNN
	1    10100 1450
	1    0    0    -1  
$EndComp
Connection ~ 9600 1300
Wire Wire Line
	9100 1300 9600 1300
Connection ~ 9600 1600
Wire Wire Line
	9600 1600 10100 1600
Wire Wire Line
	9100 1600 9600 1600
Wire Wire Line
	9600 1300 10100 1300
Connection ~ 7550 1200
Wire Wire Line
	7550 1200 7900 1200
Wire Wire Line
	7900 1700 7550 1700
Connection ~ 7550 1700
Text GLabel 1050 3300 2    50   Input ~ 0
SCL
Text GLabel 1050 3200 2    50   Input ~ 0
SDA
$Comp
L pspice:C C26
U 1 1 5D000472
P 7850 5950
F 0 "C26" H 8028 5996 50  0000 L CNN
F 1 "0.1uF" H 8028 5905 50  0000 L CNN
F 2 "Capacitor_SMD:C_0805_2012Metric" H 7850 5950 50  0001 C CNN
F 3 "~" H 7850 5950 50  0001 C CNN
	1    7850 5950
	1    0    0    -1  
$EndComp
$Comp
L pspice:C C27
U 1 1 5D000478
P 8400 5950
F 0 "C27" H 8578 5996 50  0000 L CNN
F 1 "0.1uF" H 8578 5905 50  0000 L CNN
F 2 "Capacitor_SMD:C_0805_2012Metric" H 8400 5950 50  0001 C CNN
F 3 "~" H 8400 5950 50  0001 C CNN
	1    8400 5950
	1    0    0    -1  
$EndComp
$Comp
L pspice:C C28
U 1 1 5D00047E
P 8950 5950
F 0 "C28" H 9128 5996 50  0000 L CNN
F 1 "0.1uF" H 9128 5905 50  0000 L CNN
F 2 "Capacitor_SMD:C_0805_2012Metric" H 8950 5950 50  0001 C CNN
F 3 "~" H 8950 5950 50  0001 C CNN
	1    8950 5950
	1    0    0    -1  
$EndComp
Wire Wire Line
	7850 5700 8400 5700
Connection ~ 8400 5700
Wire Wire Line
	8400 5700 8950 5700
Wire Wire Line
	7850 6200 8400 6200
Connection ~ 8400 6200
Wire Wire Line
	8400 6200 8950 6200
$Comp
L power:GND #PWR0120
U 1 1 5D00048A
P 8400 6200
F 0 "#PWR0120" H 8400 5950 50  0001 C CNN
F 1 "GND" H 8400 6050 50  0000 C CNN
F 2 "" H 8400 6200 50  0001 C CNN
F 3 "" H 8400 6200 50  0001 C CNN
	1    8400 6200
	1    0    0    -1  
$EndComp
Text GLabel 8400 5700 1    50   Input ~ 0
3.3V
$Comp
L pspice:R R16
U 1 1 5D00A545
P 7300 5900
F 0 "R16" H 7368 5946 50  0000 L CNN
F 1 "4.7kΩ" H 7368 5855 50  0000 L CNN
F 2 "Resistor_SMD:R_0603_1608Metric" H 7300 5900 50  0001 C CNN
F 3 "~" H 7300 5900 50  0001 C CNN
	1    7300 5900
	1    0    0    -1  
$EndComp
Text GLabel 7300 6150 3    50   Input ~ 0
SDA
$Comp
L pspice:R R15
U 1 1 5D00FCFC
P 6800 5900
F 0 "R15" H 6868 5946 50  0000 L CNN
F 1 "4.7kΩ" H 6868 5855 50  0000 L CNN
F 2 "Resistor_SMD:R_0603_1608Metric" H 6800 5900 50  0001 C CNN
F 3 "~" H 6800 5900 50  0001 C CNN
	1    6800 5900
	1    0    0    -1  
$EndComp
Text GLabel 6800 6150 3    50   Input ~ 0
SCL
$Comp
L power:GND #PWR0126
U 1 1 5D125632
P 2200 4500
F 0 "#PWR0126" H 2200 4250 50  0001 C CNN
F 1 "GND" H 2200 4550 50  0000 C CNN
F 2 "" H 2200 4500 50  0001 C CNN
F 3 "" H 2200 4500 50  0001 C CNN
	1    2200 4500
	1    0    0    -1  
$EndComp
Wire Wire Line
	2200 4500 2450 4500
$Comp
L pspice:R R17
U 1 1 5D20D684
P 1300 3800
F 0 "R17" H 1368 3846 50  0000 L CNN
F 1 "0Ω" H 1368 3755 50  0000 L CNN
F 2 "Resistor_SMD:R_0603_1608Metric" H 1300 3800 50  0001 C CNN
F 3 "~" H 1300 3800 50  0001 C CNN
	1    1300 3800
	0    -1   -1   0   
$EndComp
$Comp
L pspice:R R18
U 1 1 5D212DDD
P 1300 3700
F 0 "R18" H 1368 3746 50  0000 L CNN
F 1 "0Ω" H 1368 3655 50  0000 L CNN
F 2 "Resistor_SMD:R_0603_1608Metric" H 1300 3700 50  0001 C CNN
F 3 "~" H 1300 3700 50  0001 C CNN
	1    1300 3700
	0    -1   -1   0   
$EndComp
$Comp
L pspice:R R19
U 1 1 5D218278
P 1300 3600
F 0 "R19" H 1368 3646 50  0000 L CNN
F 1 "0Ω" H 1368 3555 50  0000 L CNN
F 2 "Resistor_SMD:R_0603_1608Metric" H 1300 3600 50  0001 C CNN
F 3 "~" H 1300 3600 50  0001 C CNN
	1    1300 3600
	0    -1   -1   0   
$EndComp
Text GLabel 6350 7700 2    50   Input ~ 0
CSENSE+
Text GLabel 6350 7600 2    50   Input ~ 0
BSENSE+
Text GLabel 6350 7500 2    50   Input ~ 0
ASENSE+
$Comp
L Connector:Screw_Terminal_01x03 J7
U 1 1 5CC870DD
P 6150 7600
F 0 "J7" H 6230 7642 50  0000 L CNN
F 1 "Screw_Terminal_01x03" H 6230 7551 50  0000 L CNN
F 2 "Connector_Phoenix_GMSTB:PhoenixContact_GMSTBVA_2,5_3-G_1x03_P7.50mm_Vertical" H 6150 7600 50  0001 C CNN
F 3 "~" H 6150 7600 50  0001 C CNN
	1    6150 7600
	-1   0    0    1   
$EndComp
$Comp
L Connector:Screw_Terminal_01x02 J5
U 1 1 5CC8CB66
P 750 1500
F 0 "J5" H 668 1175 50  0000 C CNN
F 1 "Screw_Terminal_01x02" H 668 1266 50  0000 C CNN
F 2 "Connector_Phoenix_GMSTB:PhoenixContact_GMSTBVA_2,5_2-G_1x02_P7.50mm_Vertical" H 750 1500 50  0001 C CNN
F 3 "~" H 750 1500 50  0001 C CNN
	1    750  1500
	-1   0    0    1   
$EndComp
Wire Wire Line
	950  1400 950  1250
Wire Wire Line
	950  1250 1250 1250
Connection ~ 1250 1250
Wire Wire Line
	950  1500 950  1650
Wire Wire Line
	950  1650 1250 1650
Connection ~ 1250 1650
Text GLabel 7300 5650 1    50   Input ~ 0
3.3V
Text GLabel 6800 5650 1    50   Input ~ 0
3.3V
$Comp
L power:VCC #PWR0121
U 1 1 5CD0236B
P 1400 4000
F 0 "#PWR0121" H 1400 3850 50  0001 C CNN
F 1 "VCC" H 1300 4050 50  0000 C CNN
F 2 "" H 1400 4000 50  0001 C CNN
F 3 "" H 1400 4000 50  0001 C CNN
	1    1400 4000
	1    0    0    -1  
$EndComp
Wire Wire Line
	1400 4000 1050 4000
$Comp
L Connector:Conn_01x17_Male J2
U 1 1 5CD2D8D1
P 850 4000
F 0 "J2" H 958 4981 50  0000 C CNN
F 1 "Conn_01x17_Male" H 958 4890 50  0000 C CNN
F 2 "Connector_PinHeader_2.54mm:PinHeader_1x17_P2.54mm_Vertical" H 850 4000 50  0001 C CNN
F 3 "~" H 850 4000 50  0001 C CNN
	1    850  4000
	1    0    0    -1  
$EndComp
NoConn ~ 8850 3350
NoConn ~ 10350 3350
NoConn ~ 7350 3350
$Comp
L Amplifier_Current:INA240A1D U6
U 1 1 5CF2361B
P 8550 2850
F 0 "U6" H 8900 2950 50  0000 L CNN
F 1 "INA240A1D" H 8550 3100 50  0000 L CNN
F 2 "Package_SO:SOIC-8_3.9x4.9mm_P1.27mm" H 8550 2200 50  0001 C CNN
F 3 "http://www.ti.com/lit/ds/symlink/ina240.pdf" H 8700 3000 50  0001 C CNN
	1    8550 2850
	1    0    0    -1  
$EndComp
Connection ~ 7150 3150
Connection ~ 8650 3150
Connection ~ 10150 3150
Text GLabel 6000 2700 1    50   Input ~ 0
3.3V
Text GLabel 6000 3700 1    50   Input ~ 0
3.3V
$EndSCHEMATC
