EESchema Schematic File Version 4
EELAYER 29 0
EELAYER END
$Descr A4 11693 8268
encoding utf-8
Sheet 1 1
Title ""
Date ""
Rev ""
Comp ""
Comment1 ""
Comment2 ""
Comment3 ""
Comment4 ""
$EndDescr
$Comp
L Power_Management:LMG5200 Q?
U 1 1 5CCED1AB
P 2000 3250
F 0 "Q?" H 2344 3296 50  0000 L CNN
F 1 "LMG5200" H 2344 3205 50  0000 L CNN
F 2 "Package_DFN_QFN:Texas_MOF0009A" H 2000 3250 50  0001 C CIN
F 3 "http://www.ti.com/lit/ds/symlink/lmg5200.pdf" H 2000 3250 50  0001 L CNN
	1    2000 3250
	1    0    0    -1  
$EndComp
$Comp
L power:GND #PWR?
U 1 1 5CCEF32F
P 2100 3750
F 0 "#PWR?" H 2100 3500 50  0001 C CNN
F 1 "GND" H 2105 3577 50  0000 C CNN
F 2 "" H 2100 3750 50  0001 C CNN
F 3 "" H 2100 3750 50  0001 C CNN
	1    2100 3750
	1    0    0    -1  
$EndComp
$Comp
L power:GND #PWR?
U 1 1 5CCEFCAE
P 1900 3750
F 0 "#PWR?" H 1900 3500 50  0001 C CNN
F 1 "GND" H 1905 3577 50  0000 C CNN
F 2 "" H 1900 3750 50  0001 C CNN
F 3 "" H 1900 3750 50  0001 C CNN
	1    1900 3750
	1    0    0    -1  
$EndComp
$Comp
L power:+48V #PWR?
U 1 1 5CCEFE2C
P 2100 2750
F 0 "#PWR?" H 2100 2600 50  0001 C CNN
F 1 "+48V" H 2115 2923 50  0000 C CNN
F 2 "" H 2100 2750 50  0001 C CNN
F 3 "" H 2100 2750 50  0001 C CNN
	1    2100 2750
	1    0    0    -1  
$EndComp
$Comp
L power:+5V #PWR?
U 1 1 5CCF02DF
P 1900 2750
F 0 "#PWR?" H 1900 2600 50  0001 C CNN
F 1 "+5V" H 1915 2923 50  0000 C CNN
F 2 "" H 1900 2750 50  0001 C CNN
F 3 "" H 1900 2750 50  0001 C CNN
	1    1900 2750
	1    0    0    -1  
$EndComp
$Comp
L Device:C_Small C?
U 1 1 5CCF08DB
P 1250 2050
F 0 "C?" H 1342 2096 50  0000 L CNN
F 1 "0.1uF" H 1342 2005 50  0000 L CNN
F 2 "" H 1250 2050 50  0001 C CNN
F 3 "~" H 1250 2050 50  0001 C CNN
	1    1250 2050
	1    0    0    -1  
$EndComp
$Comp
L Device:C_Small C?
U 1 1 5CCF1852
P 1400 3100
F 0 "C?" H 1492 3146 50  0000 L CNN
F 1 "0.1uF" H 1492 3055 50  0000 L CNN
F 2 "" H 1400 3100 50  0001 C CNN
F 3 "~" H 1400 3100 50  0001 C CNN
	1    1400 3100
	1    0    0    -1  
$EndComp
Wire Wire Line
	1400 3200 1600 3200
Wire Wire Line
	1600 3200 1600 3150
Wire Wire Line
	1600 3150 1700 3150
Wire Wire Line
	1700 3050 1600 3050
Wire Wire Line
	1600 3050 1600 3000
Wire Wire Line
	1600 3000 1400 3000
$Comp
L power:+5V #PWR?
U 1 1 5CCF2517
P 1250 1950
F 0 "#PWR?" H 1250 1800 50  0001 C CNN
F 1 "+5V" H 1265 2123 50  0000 C CNN
F 2 "" H 1250 1950 50  0001 C CNN
F 3 "" H 1250 1950 50  0001 C CNN
	1    1250 1950
	1    0    0    -1  
$EndComp
$Comp
L power:GND #PWR?
U 1 1 5CCF2B44
P 1250 2150
F 0 "#PWR?" H 1250 1900 50  0001 C CNN
F 1 "GND" H 1255 1977 50  0000 C CNN
F 2 "" H 1250 2150 50  0001 C CNN
F 3 "" H 1250 2150 50  0001 C CNN
	1    1250 2150
	1    0    0    -1  
$EndComp
$Comp
L power:GND #PWR?
U 1 1 5CCF3A2D
P 2000 2100
F 0 "#PWR?" H 2000 1850 50  0001 C CNN
F 1 "GND" H 2005 1927 50  0000 C CNN
F 2 "" H 2000 2100 50  0001 C CNN
F 3 "" H 2000 2100 50  0001 C CNN
	1    2000 2100
	1    0    0    -1  
$EndComp
$Comp
L power:+48V #PWR?
U 1 1 5CCF3B7F
P 2000 1900
F 0 "#PWR?" H 2000 1750 50  0001 C CNN
F 1 "+48V" H 2015 2073 50  0000 C CNN
F 2 "" H 2000 1900 50  0001 C CNN
F 3 "" H 2000 1900 50  0001 C CNN
	1    2000 1900
	1    0    0    -1  
$EndComp
$Comp
L Device:C_Small C?
U 1 1 5CCF4211
P 2000 2000
F 0 "C?" H 2092 2046 50  0000 L CNN
F 1 "10uF" H 2092 1955 50  0000 L CNN
F 2 "" H 2000 2000 50  0001 C CNN
F 3 "~" H 2000 2000 50  0001 C CNN
	1    2000 2000
	1    0    0    -1  
$EndComp
$Comp
L power:GND #PWR?
U 1 1 5CCF66BB
P 2200 2100
F 0 "#PWR?" H 2200 1850 50  0001 C CNN
F 1 "GND" H 2205 1927 50  0000 C CNN
F 2 "" H 2200 2100 50  0001 C CNN
F 3 "" H 2200 2100 50  0001 C CNN
	1    2200 2100
	1    0    0    -1  
$EndComp
$Comp
L power:+48V #PWR?
U 1 1 5CCF66C1
P 2200 1900
F 0 "#PWR?" H 2200 1750 50  0001 C CNN
F 1 "+48V" H 2215 2073 50  0000 C CNN
F 2 "" H 2200 1900 50  0001 C CNN
F 3 "" H 2200 1900 50  0001 C CNN
	1    2200 1900
	1    0    0    -1  
$EndComp
$Comp
L Device:C_Small C?
U 1 1 5CCF66C7
P 2200 2000
F 0 "C?" H 2292 2046 50  0000 L CNN
F 1 "10uF" H 2292 1955 50  0000 L CNN
F 2 "" H 2200 2000 50  0001 C CNN
F 3 "~" H 2200 2000 50  0001 C CNN
	1    2200 2000
	1    0    0    -1  
$EndComp
$Comp
L power:GND #PWR?
U 1 1 5CCF7403
P 2400 2100
F 0 "#PWR?" H 2400 1850 50  0001 C CNN
F 1 "GND" H 2405 1927 50  0000 C CNN
F 2 "" H 2400 2100 50  0001 C CNN
F 3 "" H 2400 2100 50  0001 C CNN
	1    2400 2100
	1    0    0    -1  
$EndComp
$Comp
L power:+48V #PWR?
U 1 1 5CCF7409
P 2400 1900
F 0 "#PWR?" H 2400 1750 50  0001 C CNN
F 1 "+48V" H 2415 2073 50  0000 C CNN
F 2 "" H 2400 1900 50  0001 C CNN
F 3 "" H 2400 1900 50  0001 C CNN
	1    2400 1900
	1    0    0    -1  
$EndComp
$Comp
L Device:C_Small C?
U 1 1 5CCF740F
P 2400 2000
F 0 "C?" H 2492 2046 50  0000 L CNN
F 1 "1uF" H 2492 1955 50  0000 L CNN
F 2 "" H 2400 2000 50  0001 C CNN
F 3 "~" H 2400 2000 50  0001 C CNN
	1    2400 2000
	1    0    0    -1  
$EndComp
$Comp
L power:GND #PWR?
U 1 1 5CCF7C41
P 2600 2100
F 0 "#PWR?" H 2600 1850 50  0001 C CNN
F 1 "GND" H 2605 1927 50  0000 C CNN
F 2 "" H 2600 2100 50  0001 C CNN
F 3 "" H 2600 2100 50  0001 C CNN
	1    2600 2100
	1    0    0    -1  
$EndComp
$Comp
L power:+48V #PWR?
U 1 1 5CCF7C47
P 2600 1900
F 0 "#PWR?" H 2600 1750 50  0001 C CNN
F 1 "+48V" H 2615 2073 50  0000 C CNN
F 2 "" H 2600 1900 50  0001 C CNN
F 3 "" H 2600 1900 50  0001 C CNN
	1    2600 1900
	1    0    0    -1  
$EndComp
$Comp
L Device:C_Small C?
U 1 1 5CCF7C4D
P 2600 2000
F 0 "C?" H 2692 2046 50  0000 L CNN
F 1 "0.1uF" H 2692 1955 50  0000 L CNN
F 2 "" H 2600 2000 50  0001 C CNN
F 3 "~" H 2600 2000 50  0001 C CNN
	1    2600 2000
	1    0    0    -1  
$EndComp
$Comp
L power:GND #PWR?
U 1 1 5CCF8686
P 850 2150
F 0 "#PWR?" H 850 1900 50  0001 C CNN
F 1 "GND" H 855 1977 50  0000 C CNN
F 2 "" H 850 2150 50  0001 C CNN
F 3 "" H 850 2150 50  0001 C CNN
	1    850  2150
	1    0    0    -1  
$EndComp
$Comp
L power:+5V #PWR?
U 1 1 5CCF8680
P 850 1950
F 0 "#PWR?" H 850 1800 50  0001 C CNN
F 1 "+5V" H 865 2123 50  0000 C CNN
F 2 "" H 850 1950 50  0001 C CNN
F 3 "" H 850 1950 50  0001 C CNN
	1    850  1950
	1    0    0    -1  
$EndComp
$Comp
L Device:C_Small C?
U 1 1 5CCF867A
P 850 2050
F 0 "C?" H 942 2096 50  0000 L CNN
F 1 "10uF" H 942 2005 50  0000 L CNN
F 2 "" H 850 2050 50  0001 C CNN
F 3 "~" H 850 2050 50  0001 C CNN
	1    850  2050
	1    0    0    -1  
$EndComp
$Comp
L power:GND #PWR?
U 1 1 5CCF9FA1
P 1050 2150
F 0 "#PWR?" H 1050 1900 50  0001 C CNN
F 1 "GND" H 1055 1977 50  0000 C CNN
F 2 "" H 1050 2150 50  0001 C CNN
F 3 "" H 1050 2150 50  0001 C CNN
	1    1050 2150
	1    0    0    -1  
$EndComp
$Comp
L power:+5V #PWR?
U 1 1 5CCF9FA7
P 1050 1950
F 0 "#PWR?" H 1050 1800 50  0001 C CNN
F 1 "+5V" H 1065 2123 50  0000 C CNN
F 2 "" H 1050 1950 50  0001 C CNN
F 3 "" H 1050 1950 50  0001 C CNN
	1    1050 1950
	1    0    0    -1  
$EndComp
$Comp
L Device:C_Small C?
U 1 1 5CCF9FAD
P 1050 2050
F 0 "C?" H 1142 2096 50  0000 L CNN
F 1 "1uF" H 1142 2005 50  0000 L CNN
F 2 "" H 1050 2050 50  0001 C CNN
F 3 "~" H 1050 2050 50  0001 C CNN
	1    1050 2050
	1    0    0    -1  
$EndComp
$EndSCHEMATC
