<?xml version="1.0" encoding="utf-8"?>
<!DOCTYPE eagle SYSTEM "eagle.dtd">
<eagle version="9.1.3">
<drawing>
<settings>
<setting alwaysvectorfont="no"/>
<setting verticaltext="up"/>
</settings>
<grid distance="25" unitdist="mil" unit="mm" style="lines" multiple="1" display="no" altdistance="5" altunitdist="mil" altunit="mil"/>
<layers>
<layer number="1" name="Top" color="4" fill="1" visible="yes" active="yes"/>
<layer number="2" name="Route2" color="1" fill="3" visible="no" active="no"/>
<layer number="3" name="Route3" color="4" fill="3" visible="no" active="no"/>
<layer number="4" name="Route4" color="1" fill="4" visible="no" active="no"/>
<layer number="5" name="Route5" color="4" fill="4" visible="no" active="no"/>
<layer number="6" name="Route6" color="1" fill="8" visible="no" active="no"/>
<layer number="7" name="Route7" color="4" fill="8" visible="no" active="no"/>
<layer number="8" name="Route8" color="1" fill="2" visible="no" active="no"/>
<layer number="9" name="Route9" color="4" fill="2" visible="no" active="no"/>
<layer number="10" name="Route10" color="1" fill="7" visible="no" active="no"/>
<layer number="11" name="Route11" color="4" fill="7" visible="no" active="no"/>
<layer number="12" name="Route12" color="1" fill="5" visible="no" active="no"/>
<layer number="13" name="Route13" color="4" fill="5" visible="no" active="no"/>
<layer number="14" name="Route14" color="1" fill="6" visible="no" active="no"/>
<layer number="15" name="Route15" color="4" fill="6" visible="no" active="no"/>
<layer number="16" name="Bottom" color="1" fill="1" visible="yes" active="yes"/>
<layer number="17" name="Pads" color="2" fill="1" visible="yes" active="yes"/>
<layer number="18" name="Vias" color="2" fill="1" visible="yes" active="yes"/>
<layer number="19" name="Unrouted" color="6" fill="1" visible="yes" active="yes"/>
<layer number="20" name="Dimension" color="24" fill="1" visible="yes" active="yes"/>
<layer number="21" name="tPlace" color="7" fill="1" visible="yes" active="yes"/>
<layer number="22" name="bPlace" color="7" fill="1" visible="yes" active="yes"/>
<layer number="23" name="tOrigins" color="15" fill="1" visible="yes" active="yes"/>
<layer number="24" name="bOrigins" color="15" fill="1" visible="yes" active="yes"/>
<layer number="25" name="tNames" color="7" fill="1" visible="yes" active="yes"/>
<layer number="26" name="bNames" color="7" fill="1" visible="yes" active="yes"/>
<layer number="27" name="tValues" color="7" fill="1" visible="yes" active="yes"/>
<layer number="28" name="bValues" color="7" fill="1" visible="yes" active="yes"/>
<layer number="29" name="tStop" color="7" fill="3" visible="no" active="yes"/>
<layer number="30" name="bStop" color="7" fill="6" visible="no" active="yes"/>
<layer number="31" name="tCream" color="7" fill="4" visible="no" active="yes"/>
<layer number="32" name="bCream" color="7" fill="5" visible="no" active="yes"/>
<layer number="33" name="tFinish" color="6" fill="3" visible="no" active="yes"/>
<layer number="34" name="bFinish" color="6" fill="6" visible="no" active="yes"/>
<layer number="35" name="tGlue" color="7" fill="4" visible="no" active="yes"/>
<layer number="36" name="bGlue" color="7" fill="5" visible="no" active="yes"/>
<layer number="37" name="tTest" color="7" fill="1" visible="no" active="yes"/>
<layer number="38" name="bTest" color="7" fill="1" visible="no" active="yes"/>
<layer number="39" name="tKeepout" color="4" fill="11" visible="yes" active="yes"/>
<layer number="40" name="bKeepout" color="1" fill="11" visible="yes" active="yes"/>
<layer number="41" name="tRestrict" color="4" fill="10" visible="yes" active="yes"/>
<layer number="42" name="bRestrict" color="1" fill="10" visible="yes" active="yes"/>
<layer number="43" name="vRestrict" color="2" fill="10" visible="yes" active="yes"/>
<layer number="44" name="Drills" color="7" fill="1" visible="no" active="yes"/>
<layer number="45" name="Holes" color="7" fill="1" visible="yes" active="yes"/>
<layer number="46" name="Milling" color="3" fill="1" visible="no" active="yes"/>
<layer number="47" name="Measures" color="7" fill="1" visible="no" active="yes"/>
<layer number="48" name="Document" color="7" fill="1" visible="yes" active="yes"/>
<layer number="49" name="Reference" color="7" fill="1" visible="yes" active="yes"/>
<layer number="51" name="tDocu" color="7" fill="1" visible="yes" active="yes"/>
<layer number="52" name="bDocu" color="7" fill="1" visible="yes" active="yes"/>
<layer number="88" name="SimResults" color="9" fill="1" visible="no" active="no"/>
<layer number="89" name="SimProbes" color="9" fill="1" visible="no" active="no"/>
<layer number="90" name="Modules" color="5" fill="1" visible="no" active="no"/>
<layer number="91" name="Nets" color="2" fill="1" visible="no" active="no"/>
<layer number="92" name="Busses" color="1" fill="1" visible="no" active="no"/>
<layer number="93" name="Pins" color="2" fill="1" visible="no" active="no"/>
<layer number="94" name="Symbols" color="4" fill="1" visible="no" active="no"/>
<layer number="95" name="Names" color="7" fill="1" visible="no" active="no"/>
<layer number="96" name="Values" color="7" fill="1" visible="no" active="no"/>
<layer number="97" name="Info" color="7" fill="1" visible="no" active="no"/>
<layer number="98" name="Guide" color="6" fill="1" visible="no" active="no"/>
<layer number="99" name="SpiceOrder" color="5" fill="1" visible="no" active="no"/>
</layers>
<board>
<plain>
<wire x1="0" y1="0" x2="54.59" y2="0" width="0" layer="20"/>
<wire x1="54.59" y1="0" x2="54.59" y2="56.82" width="0" layer="20"/>
<wire x1="54.59" y1="56.82" x2="0" y2="56.82" width="0" layer="20"/>
<wire x1="0" y1="56.82" x2="0" y2="0" width="0" layer="20"/>
<text x="3.81" y="47.625" size="1.778" layer="21">-     +</text>
<text x="8.89" y="23.495" size="1.778" layer="21">3
4</text>
<text x="13.97" y="27.94" size="2" layer="21">2 1 0</text>
<text x="10.795" y="10.795" size="1.4" layer="21">5  6  7  8  9  10 11 12</text>
<text x="35.56" y="19.05" size="1.4" layer="21">13</text>
<text x="36.195" y="26.67" size="1.4" layer="21">A0</text>
<text x="36.195" y="29.21" size="1.4" layer="21">A1</text>
<text x="29.21" y="33.655" size="1.4" layer="21">A2</text>
<text x="26.67" y="33.655" size="1.4" layer="21">A3</text>
<text x="24.13" y="33.655" size="1.4" layer="21">A4</text>
<text x="21.59" y="33.655" size="1.4" layer="21">A5</text>
<text x="20.32" y="50.165" size="1.2" layer="21">Logan Rosenmayer
5-20-18
Loguino</text>
<hole x="2.54" y="2.54" drill="3"/>
<hole x="52.07" y="2.54" drill="3"/>
<hole x="52.07" y="54.61" drill="3"/>
</plain>
<libraries>
<library name="eagle-ltspice" urn="urn:adsk.eagle:library:217">
<description>Default symbols for import LTspice schematics&lt;p&gt;
2012-10-29 alf@cadsoft.de&lt;br&gt;</description>
<packages>
<package name="C1206" urn="urn:adsk.eagle:footprint:13201/1" library_version="1">
<description>&lt;b&gt;CAPACITOR&lt;/b&gt;</description>
<wire x1="-2.473" y1="0.983" x2="2.473" y2="0.983" width="0.0508" layer="39"/>
<wire x1="2.473" y1="-0.983" x2="-2.473" y2="-0.983" width="0.0508" layer="39"/>
<wire x1="-2.473" y1="-0.983" x2="-2.473" y2="0.983" width="0.0508" layer="39"/>
<wire x1="2.473" y1="0.983" x2="2.473" y2="-0.983" width="0.0508" layer="39"/>
<wire x1="-0.965" y1="0.787" x2="0.965" y2="0.787" width="0.1016" layer="51"/>
<wire x1="-0.965" y1="-0.787" x2="0.965" y2="-0.787" width="0.1016" layer="51"/>
<rectangle x1="-1.7018" y1="-0.8509" x2="-0.9517" y2="0.8491" layer="51"/>
<rectangle x1="0.9517" y1="-0.8491" x2="1.7018" y2="0.8509" layer="51"/>
<rectangle x1="-0.1999" y1="-0.4001" x2="0.1999" y2="0.4001" layer="35"/>
<smd name="1" x="-1.4" y="0" dx="1.6" dy="1.8" layer="1"/>
<smd name="2" x="1.4" y="0" dx="1.6" dy="1.8" layer="1"/>
<text x="-1.27" y="1.27" size="1.27" layer="25">&gt;NAME</text>
<text x="-1.27" y="-2.54" size="1.27" layer="27">&gt;VALUE</text>
</package>
<package name="R1206" urn="urn:adsk.eagle:footprint:13238/1" library_version="1">
<description>&lt;b&gt;RESISTOR&lt;/b&gt;</description>
<wire x1="0.9525" y1="-0.8128" x2="-0.9652" y2="-0.8128" width="0.1524" layer="51"/>
<wire x1="0.9525" y1="0.8128" x2="-0.9652" y2="0.8128" width="0.1524" layer="51"/>
<wire x1="-2.473" y1="0.983" x2="2.473" y2="0.983" width="0.0508" layer="39"/>
<wire x1="2.473" y1="0.983" x2="2.473" y2="-0.983" width="0.0508" layer="39"/>
<wire x1="2.473" y1="-0.983" x2="-2.473" y2="-0.983" width="0.0508" layer="39"/>
<wire x1="-2.473" y1="-0.983" x2="-2.473" y2="0.983" width="0.0508" layer="39"/>
<rectangle x1="-1.6891" y1="-0.8763" x2="-0.9525" y2="0.8763" layer="51"/>
<rectangle x1="0.9525" y1="-0.8763" x2="1.6891" y2="0.8763" layer="51"/>
<rectangle x1="-0.3" y1="-0.7" x2="0.3" y2="0.7" layer="35"/>
<smd name="1" x="-1.422" y="0" dx="1.6" dy="1.803" layer="1"/>
<smd name="2" x="1.422" y="0" dx="1.6" dy="1.803" layer="1"/>
<text x="-1.27" y="1.27" size="1.27" layer="25">&gt;NAME</text>
<text x="-1.27" y="-2.54" size="1.27" layer="27">&gt;VALUE</text>
</package>
</packages>
<packages3d>
<package3d name="C1206" urn="urn:adsk.eagle:package:13279/1" type="box" library_version="1">
<description>CAPACITOR</description>
</package3d>
<package3d name="R1206" urn="urn:adsk.eagle:package:13301/1" type="box" library_version="1">
<description>RESISTOR</description>
</package3d>
</packages3d>
</library>
<library name="diode" urn="urn:adsk.eagle:library:210">
<description>&lt;b&gt;Diodes&lt;/b&gt;&lt;p&gt;
Based on the following sources:
&lt;ul&gt;
&lt;li&gt;Motorola : www.onsemi.com
&lt;li&gt;Fairchild : www.fairchildsemi.com
&lt;li&gt;Philips : www.semiconductors.com
&lt;li&gt;Vishay : www.vishay.de
&lt;/ul&gt;
&lt;author&gt;Created by librarian@cadsoft.de&lt;/author&gt;</description>
<packages>
<package name="DO-214AC" urn="urn:adsk.eagle:footprint:43216/1" library_version="2">
<description>&lt;b&gt;SURFACE MOUNT GENERAL RECTIFIER&lt;/b&gt; JEDEC DO-214AC molded platic body&lt;p&gt;
Method 2026&lt;br&gt;
Source: http://www.kingtronics.com/SMD_M7/M7_SMD_4007.pdf</description>
<wire x1="-2.15" y1="1.3" x2="2.15" y2="1.3" width="0.2032" layer="51"/>
<wire x1="2.15" y1="1.3" x2="2.15" y2="-1.3" width="0.2032" layer="51"/>
<wire x1="2.15" y1="-1.3" x2="-2.15" y2="-1.3" width="0.2032" layer="51"/>
<wire x1="-2.15" y1="-1.3" x2="-2.15" y2="1.3" width="0.2032" layer="51"/>
<wire x1="-1.035" y1="1.3" x2="1.025" y2="1.3" width="0.2032" layer="21"/>
<wire x1="1.025" y1="-1.3" x2="-1.035" y2="-1.3" width="0.2032" layer="21"/>
<smd name="C" x="-2.025" y="0" dx="1.8" dy="2.4" layer="1"/>
<smd name="A" x="2.025" y="0" dx="1.8" dy="2.4" layer="1" rot="R180"/>
<text x="-2.54" y="1.905" size="1.27" layer="25">&gt;NAME</text>
<text x="-2.54" y="-3.175" size="1.27" layer="27">&gt;VALUE</text>
<rectangle x1="-2.825" y1="-1.1" x2="-2.175" y2="1.1" layer="51"/>
<rectangle x1="2.175" y1="-1.1" x2="2.825" y2="1.1" layer="51" rot="R180"/>
<rectangle x1="-1.065" y1="-1.225" x2="-0.39" y2="1.225" layer="21"/>
<rectangle x1="-1.75" y1="-1.225" x2="-1.075" y2="1.225" layer="51"/>
</package>
</packages>
<packages3d>
<package3d name="DO-214AC" urn="urn:adsk.eagle:package:43416/2" type="model" library_version="2">
<description>SURFACE MOUNT GENERAL RECTIFIER JEDEC DO-214AC molded platic body
Method 2026
Source: http://www.kingtronics.com/SMD_M7/M7_SMD_4007.pdf</description>
</package3d>
</packages3d>
</library>
<library name="pinhead" urn="urn:adsk.eagle:library:325">
<description>&lt;b&gt;Pin Header Connectors&lt;/b&gt;&lt;p&gt;
&lt;author&gt;Created by librarian@cadsoft.de&lt;/author&gt;</description>
<packages>
<package name="1X02" urn="urn:adsk.eagle:footprint:22309/1" library_version="3">
<description>&lt;b&gt;PIN HEADER&lt;/b&gt;</description>
<wire x1="-1.905" y1="1.27" x2="-0.635" y2="1.27" width="0.1524" layer="21"/>
<wire x1="-0.635" y1="1.27" x2="0" y2="0.635" width="0.1524" layer="21"/>
<wire x1="0" y1="0.635" x2="0" y2="-0.635" width="0.1524" layer="21"/>
<wire x1="0" y1="-0.635" x2="-0.635" y2="-1.27" width="0.1524" layer="21"/>
<wire x1="-2.54" y1="0.635" x2="-2.54" y2="-0.635" width="0.1524" layer="21"/>
<wire x1="-1.905" y1="1.27" x2="-2.54" y2="0.635" width="0.1524" layer="21"/>
<wire x1="-2.54" y1="-0.635" x2="-1.905" y2="-1.27" width="0.1524" layer="21"/>
<wire x1="-0.635" y1="-1.27" x2="-1.905" y2="-1.27" width="0.1524" layer="21"/>
<wire x1="0" y1="0.635" x2="0.635" y2="1.27" width="0.1524" layer="21"/>
<wire x1="0.635" y1="1.27" x2="1.905" y2="1.27" width="0.1524" layer="21"/>
<wire x1="1.905" y1="1.27" x2="2.54" y2="0.635" width="0.1524" layer="21"/>
<wire x1="2.54" y1="0.635" x2="2.54" y2="-0.635" width="0.1524" layer="21"/>
<wire x1="2.54" y1="-0.635" x2="1.905" y2="-1.27" width="0.1524" layer="21"/>
<wire x1="1.905" y1="-1.27" x2="0.635" y2="-1.27" width="0.1524" layer="21"/>
<wire x1="0.635" y1="-1.27" x2="0" y2="-0.635" width="0.1524" layer="21"/>
<pad name="1" x="-1.27" y="0" drill="1.016" shape="long" rot="R90"/>
<pad name="2" x="1.27" y="0" drill="1.016" shape="long" rot="R90"/>
<text x="-2.6162" y="1.8288" size="1.27" layer="25" ratio="10">&gt;NAME</text>
<text x="-2.54" y="-3.175" size="1.27" layer="27">&gt;VALUE</text>
<rectangle x1="-1.524" y1="-0.254" x2="-1.016" y2="0.254" layer="51"/>
<rectangle x1="1.016" y1="-0.254" x2="1.524" y2="0.254" layer="51"/>
</package>
<package name="1X01" urn="urn:adsk.eagle:footprint:22382/1" library_version="3">
<description>&lt;b&gt;PIN HEADER&lt;/b&gt;</description>
<wire x1="-0.635" y1="1.27" x2="0.635" y2="1.27" width="0.1524" layer="21"/>
<wire x1="0.635" y1="1.27" x2="1.27" y2="0.635" width="0.1524" layer="21"/>
<wire x1="1.27" y1="0.635" x2="1.27" y2="-0.635" width="0.1524" layer="21"/>
<wire x1="1.27" y1="-0.635" x2="0.635" y2="-1.27" width="0.1524" layer="21"/>
<wire x1="-1.27" y1="0.635" x2="-1.27" y2="-0.635" width="0.1524" layer="21"/>
<wire x1="-0.635" y1="1.27" x2="-1.27" y2="0.635" width="0.1524" layer="21"/>
<wire x1="-1.27" y1="-0.635" x2="-0.635" y2="-1.27" width="0.1524" layer="21"/>
<wire x1="0.635" y1="-1.27" x2="-0.635" y2="-1.27" width="0.1524" layer="21"/>
<pad name="1" x="0" y="0" drill="1.016" shape="octagon"/>
<text x="-1.3462" y="1.8288" size="1.27" layer="25" ratio="10">&gt;NAME</text>
<text x="-1.27" y="-3.175" size="1.27" layer="27">&gt;VALUE</text>
<rectangle x1="-0.254" y1="-0.254" x2="0.254" y2="0.254" layer="51"/>
</package>
<package name="2X03" urn="urn:adsk.eagle:footprint:22348/1" library_version="3">
<description>&lt;b&gt;PIN HEADER&lt;/b&gt;</description>
<wire x1="-3.81" y1="-1.905" x2="-3.175" y2="-2.54" width="0.1524" layer="21"/>
<wire x1="-1.905" y1="-2.54" x2="-1.27" y2="-1.905" width="0.1524" layer="21"/>
<wire x1="-1.27" y1="-1.905" x2="-0.635" y2="-2.54" width="0.1524" layer="21"/>
<wire x1="0.635" y1="-2.54" x2="1.27" y2="-1.905" width="0.1524" layer="21"/>
<wire x1="-3.81" y1="-1.905" x2="-3.81" y2="1.905" width="0.1524" layer="21"/>
<wire x1="-3.81" y1="1.905" x2="-3.175" y2="2.54" width="0.1524" layer="21"/>
<wire x1="-3.175" y1="2.54" x2="-1.905" y2="2.54" width="0.1524" layer="21"/>
<wire x1="-1.905" y1="2.54" x2="-1.27" y2="1.905" width="0.1524" layer="21"/>
<wire x1="-1.27" y1="1.905" x2="-0.635" y2="2.54" width="0.1524" layer="21"/>
<wire x1="-0.635" y1="2.54" x2="0.635" y2="2.54" width="0.1524" layer="21"/>
<wire x1="0.635" y1="2.54" x2="1.27" y2="1.905" width="0.1524" layer="21"/>
<wire x1="-1.27" y1="1.905" x2="-1.27" y2="-1.905" width="0.1524" layer="21"/>
<wire x1="1.27" y1="1.905" x2="1.27" y2="-1.905" width="0.1524" layer="21"/>
<wire x1="-0.635" y1="-2.54" x2="0.635" y2="-2.54" width="0.1524" layer="21"/>
<wire x1="-3.175" y1="-2.54" x2="-1.905" y2="-2.54" width="0.1524" layer="21"/>
<wire x1="1.27" y1="-1.905" x2="1.905" y2="-2.54" width="0.1524" layer="21"/>
<wire x1="3.175" y1="-2.54" x2="3.81" y2="-1.905" width="0.1524" layer="21"/>
<wire x1="1.27" y1="1.905" x2="1.905" y2="2.54" width="0.1524" layer="21"/>
<wire x1="1.905" y1="2.54" x2="3.175" y2="2.54" width="0.1524" layer="21"/>
<wire x1="3.175" y1="2.54" x2="3.81" y2="1.905" width="0.1524" layer="21"/>
<wire x1="3.81" y1="1.905" x2="3.81" y2="-1.905" width="0.1524" layer="21"/>
<wire x1="1.905" y1="-2.54" x2="3.175" y2="-2.54" width="0.1524" layer="21"/>
<pad name="1" x="-2.54" y="-1.27" drill="1.016" shape="octagon"/>
<pad name="2" x="-2.54" y="1.27" drill="1.016" shape="octagon"/>
<pad name="3" x="0" y="-1.27" drill="1.016" shape="octagon"/>
<pad name="4" x="0" y="1.27" drill="1.016" shape="octagon"/>
<pad name="5" x="2.54" y="-1.27" drill="1.016" shape="octagon"/>
<pad name="6" x="2.54" y="1.27" drill="1.016" shape="octagon"/>
<text x="-3.81" y="3.175" size="1.27" layer="25" ratio="10">&gt;NAME</text>
<text x="-3.81" y="-4.445" size="1.27" layer="27">&gt;VALUE</text>
<rectangle x1="-2.794" y1="-1.524" x2="-2.286" y2="-1.016" layer="51"/>
<rectangle x1="-2.794" y1="1.016" x2="-2.286" y2="1.524" layer="51"/>
<rectangle x1="-0.254" y1="1.016" x2="0.254" y2="1.524" layer="51"/>
<rectangle x1="-0.254" y1="-1.524" x2="0.254" y2="-1.016" layer="51"/>
<rectangle x1="2.286" y1="1.016" x2="2.794" y2="1.524" layer="51"/>
<rectangle x1="2.286" y1="-1.524" x2="2.794" y2="-1.016" layer="51"/>
</package>
</packages>
<packages3d>
<package3d name="1X02" urn="urn:adsk.eagle:package:22435/2" type="model" library_version="3">
<description>PIN HEADER</description>
</package3d>
<package3d name="1X01" urn="urn:adsk.eagle:package:22485/2" type="model" library_version="3">
<description>PIN HEADER</description>
</package3d>
<package3d name="2X03" urn="urn:adsk.eagle:package:22462/2" type="model" library_version="3">
<description>PIN HEADER</description>
</package3d>
</packages3d>
</library>
<library name="led" urn="urn:adsk.eagle:library:259">
<description>&lt;b&gt;LEDs&lt;/b&gt;&lt;p&gt;
&lt;author&gt;Created by librarian@cadsoft.de&lt;/author&gt;&lt;br&gt;
Extended by Federico Battaglin &lt;author&gt;&amp;lt;federico.rd@fdpinternational.com&amp;gt;&lt;/author&gt; with DUOLED</description>
<packages>
<package name="CHIPLED_1206" urn="urn:adsk.eagle:footprint:15675/1" library_version="2">
<description>&lt;b&gt;CHIPLED&lt;/b&gt;&lt;p&gt;
Source: http://www.osram.convergy.de/ ... LG_LY N971.pdf</description>
<wire x1="-0.4" y1="1.6" x2="0.4" y2="1.6" width="0.1016" layer="51" curve="172.619069"/>
<wire x1="-0.8" y1="-0.95" x2="-0.8" y2="0.95" width="0.1016" layer="51"/>
<wire x1="0.8" y1="0.95" x2="0.8" y2="-0.95" width="0.1016" layer="51"/>
<circle x="-0.55" y="1.425" radius="0.1" width="0.1016" layer="51"/>
<smd name="C" x="0" y="1.75" dx="1.5" dy="1.5" layer="1"/>
<smd name="A" x="0" y="-1.75" dx="1.5" dy="1.5" layer="1"/>
<text x="-1.27" y="-1.27" size="1.27" layer="25" rot="R90">&gt;NAME</text>
<text x="2.54" y="-1.27" size="1.27" layer="27" rot="R90">&gt;VALUE</text>
<rectangle x1="-0.85" y1="1.525" x2="-0.35" y2="1.65" layer="51"/>
<rectangle x1="-0.85" y1="1.225" x2="-0.625" y2="1.55" layer="51"/>
<rectangle x1="-0.45" y1="1.225" x2="-0.325" y2="1.45" layer="51"/>
<rectangle x1="-0.65" y1="1.225" x2="-0.225" y2="1.35" layer="51"/>
<rectangle x1="0.35" y1="1.3" x2="0.85" y2="1.65" layer="51"/>
<rectangle x1="0.25" y1="1.225" x2="0.85" y2="1.35" layer="51"/>
<rectangle x1="-0.85" y1="0.95" x2="0.85" y2="1.25" layer="51"/>
<rectangle x1="-0.85" y1="-1.65" x2="0.85" y2="-0.95" layer="51"/>
<rectangle x1="-0.85" y1="0.35" x2="-0.525" y2="0.775" layer="21"/>
<rectangle x1="0.525" y1="0.35" x2="0.85" y2="0.775" layer="21"/>
<rectangle x1="-0.175" y1="0" x2="0.175" y2="0.35" layer="21"/>
</package>
</packages>
<packages3d>
<package3d name="CHIPLED_1206" urn="urn:adsk.eagle:package:15823/2" type="model" library_version="2">
<description>CHIPLED
Source: http://www.osram.convergy.de/ ... LG_LY N971.pdf</description>
</package3d>
</packages3d>
</library>
<library name="pot" urn="urn:adsk.eagle:library:331">
<description>&lt;b&gt;Potentiometers&lt;/b&gt;&lt;p&gt;
Beckman, Copal, Piher, Spectrol, Schukat&lt;p&gt;
&lt;author&gt;Created by librarian@cadsoft.de&lt;/author&gt;</description>
<packages>
<package name="S64W" urn="urn:adsk.eagle:footprint:22652/1" library_version="1">
<description>&lt;b&gt;POTENTIOMETER&lt;/b&gt;&lt;p&gt;
Spectrol</description>
<wire x1="-4.826" y1="-1.27" x2="4.826" y2="-1.27" width="0.1524" layer="21"/>
<wire x1="4.064" y1="0.508" x2="3.048" y2="-0.508" width="0.3048" layer="21"/>
<wire x1="-4.826" y1="3.81" x2="4.826" y2="3.81" width="0.1524" layer="21"/>
<wire x1="4.826" y1="3.81" x2="4.826" y2="-1.27" width="0.1524" layer="21"/>
<wire x1="-4.826" y1="-1.27" x2="-4.826" y2="3.81" width="0.1524" layer="21"/>
<wire x1="-2.032" y1="0" x2="-2.413" y2="0" width="0.1524" layer="51"/>
<wire x1="-2.032" y1="0" x2="-2.159" y2="-0.127" width="0.1524" layer="51"/>
<wire x1="-2.032" y1="0" x2="-2.159" y2="0.127" width="0.1524" layer="51"/>
<wire x1="-2.286" y1="-0.254" x2="-2.286" y2="0.254" width="0.1524" layer="51"/>
<wire x1="-2.286" y1="-0.254" x2="-2.413" y2="-0.381" width="0.1524" layer="51"/>
<wire x1="-2.286" y1="0.254" x2="-2.413" y2="0.381" width="0.1524" layer="51"/>
<wire x1="-2.159" y1="-0.127" x2="-2.159" y2="0.127" width="0.1524" layer="51"/>
<wire x1="-2.159" y1="-0.127" x2="-2.286" y2="-0.254" width="0.1524" layer="51"/>
<wire x1="-2.159" y1="0.127" x2="-2.286" y2="0.254" width="0.1524" layer="51"/>
<wire x1="-2.413" y1="0" x2="-2.413" y2="0.381" width="0.1524" layer="51"/>
<wire x1="-2.413" y1="-0.381" x2="-2.413" y2="0" width="0.1524" layer="51"/>
<wire x1="-2.54" y1="-0.508" x2="-2.413" y2="-0.381" width="0.1524" layer="51"/>
<wire x1="-2.413" y1="0.381" x2="-2.54" y2="0.508" width="0.1524" layer="51"/>
<wire x1="-2.54" y1="0.508" x2="-2.54" y2="-0.508" width="0.1524" layer="51"/>
<wire x1="-4.318" y1="0" x2="-2.413" y2="0" width="0.1524" layer="51"/>
<circle x="3.556" y="0" radius="0.889" width="0.1524" layer="51"/>
<circle x="3.556" y="0" radius="0.635" width="0.0508" layer="21"/>
<pad name="A" x="2.54" y="1.27" drill="0.8128" shape="long" rot="R90"/>
<pad name="E" x="-2.54" y="1.27" drill="0.8128" shape="long" rot="R90"/>
<pad name="S" x="0" y="1.27" drill="0.8128" shape="long" rot="R90"/>
<text x="-4.826" y="4.1402" size="1.27" layer="25" ratio="10">&gt;NAME</text>
<text x="-4.8006" y="-2.921" size="1.27" layer="27" ratio="10">&gt;VALUE</text>
<text x="-4.445" y="1.905" size="1.27" layer="21" ratio="10">3</text>
<text x="3.556" y="1.905" size="1.27" layer="21" ratio="10">1</text>
<text x="-1.905" y="-0.635" size="1.27" layer="51" ratio="10">3</text>
</package>
</packages>
<packages3d>
<package3d name="S64W" urn="urn:adsk.eagle:package:22708/1" type="box" library_version="1">
<description>POTENTIOMETER
Spectrol</description>
</package3d>
</packages3d>
</library>
<library name="BMS">
<packages>
<package name="328P">
<wire x1="0" y1="0" x2="7" y2="0" width="0.127" layer="21"/>
<wire x1="7" y1="0" x2="7" y2="7" width="0.127" layer="21"/>
<wire x1="7" y1="7" x2="0" y2="7" width="0.127" layer="21"/>
<wire x1="0" y1="7" x2="0" y2="0" width="0.127" layer="21"/>
<circle x="0.4" y="6.6" radius="0.14141875" width="0.127" layer="21"/>
<text x="1.6" y="3.1" size="1.27" layer="21">328P</text>
<smd name="P$1" x="-1.2" y="6.3" dx="2" dy="0.5" layer="1"/>
<smd name="P$2" x="-1.2" y="5.5" dx="2" dy="0.5" layer="1"/>
<smd name="P$3" x="-1.2" y="4.7" dx="2" dy="0.5" layer="1"/>
<smd name="P$4" x="-1.2" y="3.9" dx="2" dy="0.5" layer="1"/>
<smd name="P$5" x="-1.2" y="3.1" dx="2" dy="0.5" layer="1"/>
<smd name="P$6" x="-1.2" y="2.3" dx="2" dy="0.5" layer="1"/>
<smd name="P$7" x="-1.2" y="1.5" dx="2" dy="0.5" layer="1"/>
<smd name="P$8" x="-1.2" y="0.7" dx="2" dy="0.5" layer="1"/>
<smd name="P$9" x="0.7" y="-1.2" dx="2" dy="0.5" layer="1" rot="R90"/>
<smd name="P$10" x="1.5" y="-1.2" dx="2" dy="0.5" layer="1" rot="R90"/>
<smd name="P$11" x="2.3" y="-1.2" dx="2" dy="0.5" layer="1" rot="R90"/>
<smd name="P$12" x="3.1" y="-1.2" dx="2" dy="0.5" layer="1" rot="R90"/>
<smd name="P$13" x="3.9" y="-1.2" dx="2" dy="0.5" layer="1" rot="R90"/>
<smd name="P$14" x="4.7" y="-1.2" dx="2" dy="0.5" layer="1" rot="R90"/>
<smd name="P$15" x="5.5" y="-1.2" dx="2" dy="0.5" layer="1" rot="R90"/>
<smd name="P$16" x="6.3" y="-1.2" dx="2" dy="0.5" layer="1" rot="R90"/>
<smd name="P$17" x="8.2" y="0.7" dx="2" dy="0.5" layer="1" rot="R180"/>
<smd name="P$18" x="8.2" y="1.5" dx="2" dy="0.5" layer="1" rot="R180"/>
<smd name="P$19" x="8.2" y="2.3" dx="2" dy="0.5" layer="1" rot="R180"/>
<smd name="P$20" x="8.2" y="3.1" dx="2" dy="0.5" layer="1" rot="R180"/>
<smd name="P$21" x="8.2" y="3.9" dx="2" dy="0.5" layer="1" rot="R180"/>
<smd name="P$22" x="8.2" y="4.7" dx="2" dy="0.5" layer="1" rot="R180"/>
<smd name="P$23" x="8.2" y="5.5" dx="2" dy="0.5" layer="1" rot="R180"/>
<smd name="P$24" x="8.2" y="6.3" dx="2" dy="0.5" layer="1" rot="R180"/>
<smd name="P$25" x="6.3" y="8.2" dx="2" dy="0.5" layer="1" rot="R270"/>
<smd name="P$26" x="5.5" y="8.2" dx="2" dy="0.5" layer="1" rot="R270"/>
<smd name="P$27" x="4.7" y="8.2" dx="2" dy="0.5" layer="1" rot="R270"/>
<smd name="P$28" x="3.9" y="8.2" dx="2" dy="0.5" layer="1" rot="R270"/>
<smd name="P$29" x="3.1" y="8.2" dx="2" dy="0.5" layer="1" rot="R270"/>
<smd name="P$30" x="2.3" y="8.2" dx="2" dy="0.5" layer="1" rot="R270"/>
<smd name="P$31" x="1.5" y="8.2" dx="2" dy="0.5" layer="1" rot="R270"/>
<smd name="P$32" x="0.7" y="8.2" dx="2" dy="0.5" layer="1" rot="R270"/>
</package>
<package name="TPS54060">
<smd name="P$1" x="0" y="-0.3" dx="2" dy="0.3" layer="1" rot="R90"/>
<smd name="P$2" x="0.5" y="-0.3" dx="2" dy="0.3" layer="1" rot="R90"/>
<smd name="P$3" x="1" y="-0.3" dx="2" dy="0.3" layer="1" rot="R90"/>
<smd name="P$4" x="1.5" y="-0.3" dx="2" dy="0.3" layer="1" rot="R90"/>
<smd name="P$5" x="2" y="-0.3" dx="2" dy="0.3" layer="1" rot="R90"/>
<smd name="P$6" x="2" y="4.3" dx="2" dy="0.3" layer="1" rot="R90"/>
<smd name="P$7" x="1.5" y="4.3" dx="2" dy="0.3" layer="1" rot="R90"/>
<smd name="P$8" x="1" y="4.3" dx="2" dy="0.3" layer="1" rot="R90"/>
<smd name="P$9" x="0.5" y="4.3" dx="2" dy="0.3" layer="1" rot="R90"/>
<smd name="P$10" x="0" y="4.3" dx="2" dy="0.3" layer="1" rot="R90"/>
<smd name="P$11" x="1" y="2" dx="1.5" dy="2" layer="1" rot="R90"/>
<wire x1="-0.5" y1="3.2" x2="2.5" y2="3.2" width="0.127" layer="21"/>
<wire x1="2.5" y1="3.2" x2="2.5" y2="0.8" width="0.127" layer="21"/>
<wire x1="2.5" y1="0.8" x2="-0.5" y2="0.8" width="0.127" layer="21"/>
<wire x1="-0.5" y1="0.8" x2="-0.5" y2="3.2" width="0.127" layer="21"/>
<circle x="-0.3" y="1" radius="0.1" width="0.0762" layer="21"/>
</package>
<package name="BUTTON">
<pad name="P$1" x="0" y="0" drill="1"/>
<pad name="P$2" x="4.5" y="0" drill="1"/>
<pad name="P$3" x="0" y="7.8" drill="1"/>
<pad name="P$4" x="4.5" y="7.8" drill="1"/>
<wire x1="-0.8" y1="1.3" x2="5.2" y2="1.3" width="0.127" layer="21"/>
<wire x1="5.2" y1="1.3" x2="5.2" y2="6.6" width="0.127" layer="21"/>
<wire x1="5.2" y1="6.6" x2="-0.8" y2="6.6" width="0.127" layer="21"/>
<wire x1="-0.8" y1="6.6" x2="-0.8" y2="1.3" width="0.127" layer="21"/>
<circle x="2.2" y="3.9" radius="2.0808625" width="0.127" layer="21"/>
<wire x1="0" y1="3.7" x2="1.7" y2="3.7" width="0.127" layer="21"/>
<wire x1="2.7" y1="3.7" x2="4.5" y2="3.7" width="0.127" layer="21"/>
<wire x1="1.7" y1="3.7" x2="2.6" y2="4.6" width="0.127" layer="21"/>
<wire x1="0" y1="7.8" x2="0" y2="3.7" width="0.127" layer="21"/>
<wire x1="0" y1="3.7" x2="0" y2="0" width="0.127" layer="21"/>
<wire x1="4.5" y1="7.7" x2="4.5" y2="3.7" width="0.127" layer="21"/>
<wire x1="4.5" y1="3.7" x2="4.5" y2="0" width="0.127" layer="21"/>
</package>
<package name="CRYSTAL_OSCILLATOR">
<wire x1="0" y1="0" x2="0" y2="4.7" width="0.127" layer="21"/>
<wire x1="0" y1="4.7" x2="11.4" y2="4.7" width="0.127" layer="21"/>
<wire x1="11.4" y1="4.7" x2="11.4" y2="0" width="0.127" layer="21"/>
<wire x1="11.4" y1="0" x2="0" y2="0" width="0.127" layer="21"/>
<smd name="P$1" x="0" y="2.35" dx="3" dy="0.635" layer="1"/>
<smd name="P$2" x="11.4" y="2.35" dx="3" dy="0.635" layer="1"/>
<text x="3.8" y="1.7" size="1.27" layer="21">328p</text>
</package>
<package name="R3216">
<description>&lt;b&gt;RESISTOR&lt;/b&gt;</description>
<wire x1="-0.913" y1="0.8" x2="0.888" y2="0.8" width="0.1524" layer="51"/>
<wire x1="-0.913" y1="-0.8" x2="0.888" y2="-0.8" width="0.1524" layer="51"/>
<wire x1="-2.473" y1="0.983" x2="2.473" y2="0.983" width="0.0508" layer="39"/>
<wire x1="2.473" y1="0.983" x2="2.473" y2="-0.983" width="0.0508" layer="39"/>
<wire x1="2.473" y1="-0.983" x2="-2.473" y2="-0.983" width="0.0508" layer="39"/>
<wire x1="-2.473" y1="-0.983" x2="-2.473" y2="0.983" width="0.0508" layer="39"/>
<rectangle x1="-1.651" y1="-0.8763" x2="-0.9009" y2="0.8738" layer="51"/>
<rectangle x1="0.889" y1="-0.8763" x2="1.6391" y2="0.8738" layer="51"/>
<rectangle x1="-0.3" y1="-0.7" x2="0.3" y2="0.7" layer="35"/>
<smd name="1" x="-1.4" y="0" dx="1.6" dy="1.8" layer="1"/>
<smd name="2" x="1.4" y="0" dx="1.6" dy="1.8" layer="1"/>
<text x="-1.905" y="1.27" size="1.27" layer="25">&gt;NAME</text>
<text x="-1.905" y="-2.54" size="1.27" layer="27">&gt;VALUE</text>
</package>
<package name="PHOENIX-2PIN">
<pad name="P$1" x="0" y="0" drill="1.6" shape="long" rot="R90"/>
<pad name="P$2" x="5" y="0" drill="1.6" shape="long" rot="R90"/>
<wire x1="-2.5" y1="3" x2="-2.5" y2="-3" width="0.127" layer="21"/>
<wire x1="-2.5" y1="-3" x2="7.5" y2="-3" width="0.127" layer="21"/>
<wire x1="7.5" y1="-3" x2="7.5" y2="3" width="0.127" layer="21"/>
<wire x1="7.5" y1="3" x2="-2.5" y2="3" width="0.127" layer="21"/>
</package>
<package name="12X12INDUCTOR">
<smd name="P$1" x="0" y="0" dx="5.4" dy="3.5" layer="1"/>
<smd name="P$2" x="0" y="12.8" dx="5.4" dy="3.5" layer="1"/>
<wire x1="-6" y1="12" x2="-6" y2="0" width="0.127" layer="21"/>
<wire x1="-6" y1="0" x2="6" y2="0" width="0.127" layer="21"/>
<wire x1="6" y1="0" x2="6" y2="12" width="0.127" layer="21"/>
<wire x1="6" y1="12" x2="-6" y2="12" width="0.127" layer="21"/>
<circle x="0" y="6" radius="6" width="0.127" layer="21"/>
</package>
</packages>
</library>
</libraries>
<attributes>
</attributes>
<variantdefs>
</variantdefs>
<classes>
<class number="0" name="default" width="0" drill="0">
</class>
</classes>
<designrules name="default">
<description language="de">&lt;b&gt;EAGLE Design Rules&lt;/b&gt;
&lt;p&gt;
Die Standard-Design-Rules sind so gewählt, dass sie für 
die meisten Anwendungen passen. Sollte ihre Platine 
besondere Anforderungen haben, treffen Sie die erforderlichen
Einstellungen hier und speichern die Design Rules unter 
einem neuen Namen ab.</description>
<description language="en">&lt;b&gt;EAGLE Design Rules&lt;/b&gt;
&lt;p&gt;
The default Design Rules have been set to cover
a wide range of applications. Your particular design
may have different requirements, so please make the
necessary adjustments and save your customized
design rules under a new name.</description>
<param name="layerSetup" value="(1*16)"/>
<param name="mtCopper" value="0.035mm 0.035mm 0.035mm 0.035mm 0.035mm 0.035mm 0.035mm 0.035mm 0.035mm 0.035mm 0.035mm 0.035mm 0.035mm 0.035mm 0.035mm 0.035mm"/>
<param name="mtIsolate" value="1.5mm 0.15mm 0.2mm 0.15mm 0.2mm 0.15mm 0.2mm 0.15mm 0.2mm 0.15mm 0.2mm 0.15mm 0.2mm 0.15mm 0.2mm"/>
<param name="mdWireWire" value="6mil"/>
<param name="mdWirePad" value="6mil"/>
<param name="mdWireVia" value="6mil"/>
<param name="mdPadPad" value="6mil"/>
<param name="mdPadVia" value="6mil"/>
<param name="mdViaVia" value="6mil"/>
<param name="mdSmdPad" value="6mil"/>
<param name="mdSmdVia" value="6mil"/>
<param name="mdSmdSmd" value="6mil"/>
<param name="mdViaViaSameLayer" value="6mil"/>
<param name="mnLayersViaInSmd" value="2"/>
<param name="mdCopperDimension" value="40mil"/>
<param name="mdDrill" value="6mil"/>
<param name="mdSmdStop" value="0mil"/>
<param name="msWidth" value="6mil"/>
<param name="msDrill" value="0.35mm"/>
<param name="msMicroVia" value="9.99mm"/>
<param name="msBlindViaRatio" value="0.5"/>
<param name="rvPadTop" value="0.25"/>
<param name="rvPadInner" value="0.25"/>
<param name="rvPadBottom" value="0.25"/>
<param name="rvViaOuter" value="0.25"/>
<param name="rvViaInner" value="0.25"/>
<param name="rvMicroViaOuter" value="0.25"/>
<param name="rvMicroViaInner" value="0.25"/>
<param name="rlMinPadTop" value="10mil"/>
<param name="rlMaxPadTop" value="20mil"/>
<param name="rlMinPadInner" value="10mil"/>
<param name="rlMaxPadInner" value="20mil"/>
<param name="rlMinPadBottom" value="10mil"/>
<param name="rlMaxPadBottom" value="20mil"/>
<param name="rlMinViaOuter" value="8mil"/>
<param name="rlMaxViaOuter" value="20mil"/>
<param name="rlMinViaInner" value="8mil"/>
<param name="rlMaxViaInner" value="20mil"/>
<param name="rlMinMicroViaOuter" value="4mil"/>
<param name="rlMaxMicroViaOuter" value="20mil"/>
<param name="rlMinMicroViaInner" value="4mil"/>
<param name="rlMaxMicroViaInner" value="20mil"/>
<param name="psTop" value="-1"/>
<param name="psBottom" value="-1"/>
<param name="psFirst" value="-1"/>
<param name="psElongationLong" value="100"/>
<param name="psElongationOffset" value="100"/>
<param name="mvStopFrame" value="1"/>
<param name="mvCreamFrame" value="0"/>
<param name="mlMinStopFrame" value="4mil"/>
<param name="mlMaxStopFrame" value="4mil"/>
<param name="mlMinCreamFrame" value="0mil"/>
<param name="mlMaxCreamFrame" value="0mil"/>
<param name="mlViaStopLimit" value="0mil"/>
<param name="srRoundness" value="0"/>
<param name="srMinRoundness" value="0mil"/>
<param name="srMaxRoundness" value="0mil"/>
<param name="slThermalIsolate" value="10mil"/>
<param name="slThermalsForVias" value="0"/>
<param name="dpMaxLengthDifference" value="10mm"/>
<param name="dpGapFactor" value="2.5"/>
<param name="checkAngle" value="0"/>
<param name="checkFont" value="1"/>
<param name="checkRestrict" value="1"/>
<param name="checkStop" value="0"/>
<param name="checkValues" value="0"/>
<param name="checkNames" value="1"/>
<param name="checkWireStubs" value="1"/>
<param name="checkPolygonWidth" value="0"/>
<param name="useDiameter" value="13"/>
<param name="maxErrors" value="50"/>
</designrules>
<autorouter>
<pass name="Default">
<param name="RoutingGrid" value="50mil"/>
<param name="AutoGrid" value="1"/>
<param name="Efforts" value="0"/>
<param name="TopRouterVariant" value="1"/>
<param name="tpViaShape" value="round"/>
<param name="PrefDir.1" value="a"/>
<param name="PrefDir.2" value="0"/>
<param name="PrefDir.3" value="0"/>
<param name="PrefDir.4" value="0"/>
<param name="PrefDir.5" value="0"/>
<param name="PrefDir.6" value="0"/>
<param name="PrefDir.7" value="0"/>
<param name="PrefDir.8" value="0"/>
<param name="PrefDir.9" value="0"/>
<param name="PrefDir.10" value="0"/>
<param name="PrefDir.11" value="0"/>
<param name="PrefDir.12" value="0"/>
<param name="PrefDir.13" value="0"/>
<param name="PrefDir.14" value="0"/>
<param name="PrefDir.15" value="0"/>
<param name="PrefDir.16" value="a"/>
<param name="cfVia" value="8"/>
<param name="cfNonPref" value="5"/>
<param name="cfChangeDir" value="2"/>
<param name="cfOrthStep" value="2"/>
<param name="cfDiagStep" value="3"/>
<param name="cfExtdStep" value="0"/>
<param name="cfBonusStep" value="1"/>
<param name="cfMalusStep" value="1"/>
<param name="cfPadImpact" value="4"/>
<param name="cfSmdImpact" value="4"/>
<param name="cfBusImpact" value="0"/>
<param name="cfHugging" value="3"/>
<param name="cfAvoid" value="4"/>
<param name="cfPolygon" value="10"/>
<param name="cfBase.1" value="0"/>
<param name="cfBase.2" value="1"/>
<param name="cfBase.3" value="1"/>
<param name="cfBase.4" value="1"/>
<param name="cfBase.5" value="1"/>
<param name="cfBase.6" value="1"/>
<param name="cfBase.7" value="1"/>
<param name="cfBase.8" value="1"/>
<param name="cfBase.9" value="1"/>
<param name="cfBase.10" value="1"/>
<param name="cfBase.11" value="1"/>
<param name="cfBase.12" value="1"/>
<param name="cfBase.13" value="1"/>
<param name="cfBase.14" value="1"/>
<param name="cfBase.15" value="1"/>
<param name="cfBase.16" value="0"/>
<param name="mnVias" value="20"/>
<param name="mnSegments" value="9999"/>
<param name="mnExtdSteps" value="9999"/>
<param name="mnRipupLevel" value="10"/>
<param name="mnRipupSteps" value="100"/>
<param name="mnRipupTotal" value="100"/>
</pass>
<pass name="Follow-me" refer="Default" active="yes">
</pass>
<pass name="Busses" refer="Default" active="yes">
<param name="cfNonPref" value="4"/>
<param name="cfBusImpact" value="4"/>
<param name="cfHugging" value="0"/>
<param name="mnVias" value="0"/>
</pass>
<pass name="Route" refer="Default" active="yes">
</pass>
<pass name="Optimize1" refer="Default" active="yes">
<param name="cfVia" value="99"/>
<param name="cfExtdStep" value="10"/>
<param name="cfHugging" value="1"/>
<param name="mnExtdSteps" value="1"/>
<param name="mnRipupLevel" value="0"/>
</pass>
<pass name="Optimize2" refer="Optimize1" active="yes">
<param name="cfNonPref" value="0"/>
<param name="cfChangeDir" value="6"/>
<param name="cfExtdStep" value="0"/>
<param name="cfBonusStep" value="2"/>
<param name="cfMalusStep" value="2"/>
<param name="cfPadImpact" value="2"/>
<param name="cfSmdImpact" value="2"/>
<param name="cfHugging" value="0"/>
</pass>
<pass name="Optimize3" refer="Optimize2" active="yes">
<param name="cfChangeDir" value="8"/>
<param name="cfPadImpact" value="0"/>
<param name="cfSmdImpact" value="0"/>
</pass>
<pass name="Optimize4" refer="Optimize3" active="yes">
<param name="cfChangeDir" value="25"/>
</pass>
</autorouter>
<elements>
<element name="C1" library="eagle-ltspice" library_urn="urn:adsk.eagle:library:217" package="C1206" package3d_urn="urn:adsk.eagle:package:13279/1" value="" x="4.445" y="10.795" rot="R90">
<attribute name="SPICEMODEL" value="NONE" x="4.445" y="10.795" size="1.778" layer="27" rot="R90" display="off"/>
<attribute name="SPICEPREFIX" value="C" x="4.445" y="10.795" size="1.778" layer="27" rot="R90" display="off"/>
</element>
<element name="C10" library="eagle-ltspice" library_urn="urn:adsk.eagle:library:217" package="C1206" package3d_urn="urn:adsk.eagle:package:13279/1" value="" x="10.16" y="36.83" rot="R270">
<attribute name="SPICEMODEL" value="NONE" x="10.16" y="36.83" size="1.778" layer="27" rot="R270" display="off"/>
<attribute name="SPICEPREFIX" value="C" x="10.16" y="36.83" size="1.778" layer="27" rot="R270" display="off"/>
</element>
<element name="C11" library="eagle-ltspice" library_urn="urn:adsk.eagle:library:217" package="C1206" package3d_urn="urn:adsk.eagle:package:13279/1" value="" x="15.24" y="36.83" rot="R270">
<attribute name="SPICEMODEL" value="NONE" x="15.24" y="36.83" size="1.778" layer="27" rot="R270" display="off"/>
<attribute name="SPICEPREFIX" value="C" x="15.24" y="36.83" size="1.778" layer="27" rot="R270" display="off"/>
</element>
<element name="C12" library="eagle-ltspice" library_urn="urn:adsk.eagle:library:217" package="C1206" package3d_urn="urn:adsk.eagle:package:13279/1" value="" x="41.91" y="43.815" rot="R90">
<attribute name="SPICEMODEL" value="NONE" x="41.91" y="43.815" size="1.778" layer="27" rot="R90" display="off"/>
<attribute name="SPICEPREFIX" value="C" x="41.91" y="43.815" size="1.778" layer="27" rot="R90" display="off"/>
</element>
<element name="C13" library="eagle-ltspice" library_urn="urn:adsk.eagle:library:217" package="C1206" package3d_urn="urn:adsk.eagle:package:13279/1" value="" x="39.37" y="43.815" rot="R90">
<attribute name="SPICEMODEL" value="NONE" x="39.37" y="43.815" size="1.778" layer="27" rot="R90" display="off"/>
<attribute name="SPICEPREFIX" value="C" x="39.37" y="43.815" size="1.778" layer="27" rot="R90" display="off"/>
</element>
<element name="C14" library="eagle-ltspice" library_urn="urn:adsk.eagle:library:217" package="C1206" package3d_urn="urn:adsk.eagle:package:13279/1" value="" x="36.83" y="43.815" rot="R90">
<attribute name="SPICEMODEL" value="NONE" x="36.83" y="43.815" size="1.778" layer="27" rot="R90" display="off"/>
<attribute name="SPICEPREFIX" value="C" x="36.83" y="43.815" size="1.778" layer="27" rot="R90" display="off"/>
</element>
<element name="C2" library="eagle-ltspice" library_urn="urn:adsk.eagle:library:217" package="C1206" package3d_urn="urn:adsk.eagle:package:13279/1" value="" x="4.445" y="32.385" rot="R270">
<attribute name="SPICEMODEL" value="NONE" x="4.445" y="32.385" size="1.778" layer="27" rot="R270" display="off"/>
<attribute name="SPICEPREFIX" value="C" x="4.445" y="32.385" size="1.778" layer="27" rot="R270" display="off"/>
</element>
<element name="C3" library="eagle-ltspice" library_urn="urn:adsk.eagle:library:217" package="C1206" package3d_urn="urn:adsk.eagle:package:13279/1" value="" x="10.16" y="45.085">
<attribute name="SPICEMODEL" value="NONE" x="10.16" y="45.085" size="1.778" layer="27" display="off"/>
<attribute name="SPICEPREFIX" value="C" x="10.16" y="45.085" size="1.778" layer="27" display="off"/>
</element>
<element name="C4" library="eagle-ltspice" library_urn="urn:adsk.eagle:library:217" package="C1206" package3d_urn="urn:adsk.eagle:package:13279/1" value="" x="22.225" y="24.13" rot="MR0">
<attribute name="SPICEMODEL" value="NONE" x="22.225" y="24.13" size="1.778" layer="28" rot="MR0" display="off"/>
<attribute name="SPICEPREFIX" value="C" x="22.225" y="24.13" size="1.778" layer="28" rot="MR0" display="off"/>
</element>
<element name="C5" library="eagle-ltspice" library_urn="urn:adsk.eagle:library:217" package="C1206" package3d_urn="urn:adsk.eagle:package:13279/1" value="" x="3.81" y="46.355" rot="R180">
<attribute name="SPICEMODEL" value="NONE" x="3.81" y="46.355" size="1.778" layer="27" rot="R180" display="off"/>
<attribute name="SPICEPREFIX" value="C" x="3.81" y="46.355" size="1.778" layer="27" rot="R180" display="off"/>
</element>
<element name="C6" library="eagle-ltspice" library_urn="urn:adsk.eagle:library:217" package="C1206" package3d_urn="urn:adsk.eagle:package:13279/1" value="" x="3.81" y="43.815" rot="R180">
<attribute name="SPICEMODEL" value="NONE" x="3.81" y="43.815" size="1.778" layer="27" rot="R180" display="off"/>
<attribute name="SPICEPREFIX" value="C" x="3.81" y="43.815" size="1.778" layer="27" rot="R180" display="off"/>
</element>
<element name="C7" library="eagle-ltspice" library_urn="urn:adsk.eagle:library:217" package="C1206" package3d_urn="urn:adsk.eagle:package:13279/1" value="" x="3.81" y="41.275" rot="R180">
<attribute name="SPICEMODEL" value="NONE" x="3.81" y="41.275" size="1.778" layer="27" rot="R180" display="off"/>
<attribute name="SPICEPREFIX" value="C" x="3.81" y="41.275" size="1.778" layer="27" rot="R180" display="off"/>
</element>
<element name="C8" library="eagle-ltspice" library_urn="urn:adsk.eagle:library:217" package="C1206" package3d_urn="urn:adsk.eagle:package:13279/1" value="" x="3.81" y="38.735" rot="R180">
<attribute name="SPICEMODEL" value="NONE" x="3.81" y="38.735" size="1.778" layer="27" rot="R180" display="off"/>
<attribute name="SPICEPREFIX" value="C" x="3.81" y="38.735" size="1.778" layer="27" rot="R180" display="off"/>
</element>
<element name="C9" library="eagle-ltspice" library_urn="urn:adsk.eagle:library:217" package="C1206" package3d_urn="urn:adsk.eagle:package:13279/1" value="" x="3.81" y="36.195" rot="R180">
<attribute name="SPICEMODEL" value="NONE" x="3.81" y="36.195" size="1.778" layer="27" rot="R180" display="off"/>
<attribute name="SPICEPREFIX" value="C" x="3.81" y="36.195" size="1.778" layer="27" rot="R180" display="off"/>
</element>
<element name="D1" library="diode" library_urn="urn:adsk.eagle:library:210" package="DO-214AC" package3d_urn="urn:adsk.eagle:package:43416/2" value="" x="15.875" y="46.99" rot="R90"/>
<element name="JP1" library="pinhead" library_urn="urn:adsk.eagle:library:325" package="1X02" package3d_urn="urn:adsk.eagle:package:22435/2" value="" x="45.085" y="50.8"/>
<element name="JP10" library="pinhead" library_urn="urn:adsk.eagle:library:325" package="1X01" package3d_urn="urn:adsk.eagle:package:22485/2" value="" x="16.51" y="8.89"/>
<element name="JP11" library="pinhead" library_urn="urn:adsk.eagle:library:325" package="1X01" package3d_urn="urn:adsk.eagle:package:22485/2" value="" x="22.225" y="31.75"/>
<element name="JP12" library="pinhead" library_urn="urn:adsk.eagle:library:325" package="1X01" package3d_urn="urn:adsk.eagle:package:22485/2" value="" x="24.765" y="31.75"/>
<element name="JP13" library="pinhead" library_urn="urn:adsk.eagle:library:325" package="1X01" package3d_urn="urn:adsk.eagle:package:22485/2" value="" x="27.305" y="31.75"/>
<element name="JP14" library="pinhead" library_urn="urn:adsk.eagle:library:325" package="1X01" package3d_urn="urn:adsk.eagle:package:22485/2" value="" x="29.845" y="31.75"/>
<element name="JP15" library="pinhead" library_urn="urn:adsk.eagle:library:325" package="1X01" package3d_urn="urn:adsk.eagle:package:22485/2" value="" x="34.29" y="29.845"/>
<element name="JP16" library="pinhead" library_urn="urn:adsk.eagle:library:325" package="1X01" package3d_urn="urn:adsk.eagle:package:22485/2" value="" x="34.29" y="27.305"/>
<element name="JP17" library="pinhead" library_urn="urn:adsk.eagle:library:325" package="1X01" package3d_urn="urn:adsk.eagle:package:22485/2" value="" x="34.29" y="24.765"/>
<element name="JP18" library="pinhead" library_urn="urn:adsk.eagle:library:325" package="1X01" package3d_urn="urn:adsk.eagle:package:22485/2" value="" x="34.29" y="22.225"/>
<element name="JP19" library="pinhead" library_urn="urn:adsk.eagle:library:325" package="1X01" package3d_urn="urn:adsk.eagle:package:22485/2" value="" x="19.05" y="8.89"/>
<element name="JP20" library="pinhead" library_urn="urn:adsk.eagle:library:325" package="1X01" package3d_urn="urn:adsk.eagle:package:22485/2" value="" x="21.59" y="8.89"/>
<element name="JP21" library="pinhead" library_urn="urn:adsk.eagle:library:325" package="1X01" package3d_urn="urn:adsk.eagle:package:22485/2" value="" x="24.13" y="8.89"/>
<element name="JP22" library="pinhead" library_urn="urn:adsk.eagle:library:325" package="1X01" package3d_urn="urn:adsk.eagle:package:22485/2" value="" x="26.67" y="8.89"/>
<element name="JP23" library="pinhead" library_urn="urn:adsk.eagle:library:325" package="1X01" package3d_urn="urn:adsk.eagle:package:22485/2" value="" x="29.21" y="8.89"/>
<element name="JP24" library="pinhead" library_urn="urn:adsk.eagle:library:325" package="1X01" package3d_urn="urn:adsk.eagle:package:22485/2" value="" x="34.29" y="19.685"/>
<element name="JP25" library="pinhead" library_urn="urn:adsk.eagle:library:325" package="2X03" package3d_urn="urn:adsk.eagle:package:22462/2" value="" x="29.21" y="3.81"/>
<element name="JP3" library="pinhead" library_urn="urn:adsk.eagle:library:325" package="1X01" package3d_urn="urn:adsk.eagle:package:22485/2" value="" x="12.065" y="27.305"/>
<element name="JP4" library="pinhead" library_urn="urn:adsk.eagle:library:325" package="1X01" package3d_urn="urn:adsk.eagle:package:22485/2" value="" x="12.065" y="24.765"/>
<element name="JP5" library="pinhead" library_urn="urn:adsk.eagle:library:325" package="1X01" package3d_urn="urn:adsk.eagle:package:22485/2" value="" x="14.605" y="31.75"/>
<element name="JP6" library="pinhead" library_urn="urn:adsk.eagle:library:325" package="1X01" package3d_urn="urn:adsk.eagle:package:22485/2" value="" x="17.145" y="31.75"/>
<element name="JP7" library="pinhead" library_urn="urn:adsk.eagle:library:325" package="1X01" package3d_urn="urn:adsk.eagle:package:22485/2" value="" x="19.685" y="31.75"/>
<element name="JP8" library="pinhead" library_urn="urn:adsk.eagle:library:325" package="1X01" package3d_urn="urn:adsk.eagle:package:22485/2" value="" x="11.43" y="8.89" rot="R180"/>
<element name="JP9" library="pinhead" library_urn="urn:adsk.eagle:library:325" package="1X01" package3d_urn="urn:adsk.eagle:package:22485/2" value="" x="13.97" y="8.89" rot="R180"/>
<element name="LED1" library="led" library_urn="urn:adsk.eagle:library:259" package="CHIPLED_1206" package3d_urn="urn:adsk.eagle:package:15823/2" value="" x="47.625" y="27.305" rot="R90"/>
<element name="LED3" library="led" library_urn="urn:adsk.eagle:library:259" package="CHIPLED_1206" package3d_urn="urn:adsk.eagle:package:15823/2" value="" x="36.195" y="13.335" rot="R90"/>
<element name="R1" library="eagle-ltspice" library_urn="urn:adsk.eagle:library:217" package="R1206" package3d_urn="urn:adsk.eagle:package:13301/1" value="" x="47.625" y="29.845" rot="R180">
<attribute name="SPICEMODEL" value="NONE" x="47.625" y="29.845" size="1.778" layer="27" rot="R180" display="off"/>
<attribute name="SPICEPREFIX" value="R" x="47.625" y="29.845" size="1.778" layer="27" rot="R180" display="off"/>
</element>
<element name="R2" library="eagle-ltspice" library_urn="urn:adsk.eagle:library:217" package="R1206" package3d_urn="urn:adsk.eagle:package:13301/1" value="" x="23.495" y="3.81" rot="R270">
<attribute name="SPICEMODEL" value="NONE" x="23.495" y="3.81" size="1.778" layer="27" rot="R270" display="off"/>
<attribute name="SPICEPREFIX" value="R" x="23.495" y="3.81" size="1.778" layer="27" rot="R270" display="off"/>
</element>
<element name="R4" library="eagle-ltspice" library_urn="urn:adsk.eagle:library:217" package="R1206" package3d_urn="urn:adsk.eagle:package:13301/1" value="" x="36.195" y="5.715" rot="R180">
<attribute name="SPICEMODEL" value="NONE" x="36.195" y="5.715" size="1.778" layer="27" rot="R180" display="off"/>
<attribute name="SPICEPREFIX" value="R" x="36.195" y="5.715" size="1.778" layer="27" rot="R180" display="off"/>
</element>
<element name="R6" library="eagle-ltspice" library_urn="urn:adsk.eagle:library:217" package="R1206" package3d_urn="urn:adsk.eagle:package:13301/1" value="" x="7.62" y="36.83" rot="R90">
<attribute name="SPICEMODEL" value="NONE" x="7.62" y="36.83" size="1.778" layer="27" rot="R90" display="off"/>
<attribute name="SPICEPREFIX" value="R" x="7.62" y="36.83" size="1.778" layer="27" rot="R90" display="off"/>
</element>
<element name="R7" library="eagle-ltspice" library_urn="urn:adsk.eagle:library:217" package="R1206" package3d_urn="urn:adsk.eagle:package:13301/1" value="" x="12.7" y="36.83" rot="R90">
<attribute name="SPICEMODEL" value="NONE" x="12.7" y="36.83" size="1.778" layer="27" rot="R90" display="off"/>
<attribute name="SPICEPREFIX" value="R" x="12.7" y="36.83" size="1.778" layer="27" rot="R90" display="off"/>
</element>
<element name="R8" library="pot" library_urn="urn:adsk.eagle:library:331" package="S64W" package3d_urn="urn:adsk.eagle:package:22708/1" value="" x="49.53" y="40.005" rot="R90"/>
<element name="U$1" library="BMS" package="328P" value="328P" x="19.05" y="19.05"/>
<element name="U$2" library="BMS" package="TPS54060" value="TPS54060" x="8.255" y="42.545" rot="R270"/>
<element name="U$3" library="BMS" package="BUTTON" value="BUTTON" x="45.72" y="12.7" rot="R180"/>
<element name="U$4" library="BMS" package="CRYSTAL_OSCILLATOR" value="CRYSTAL_OSCILLATOR" x="6.985" y="15.875" rot="R90"/>
<element name="U$5" library="BMS" package="R3216" value="FUSE3216" x="47.625" y="33.02"/>
<element name="U$6" library="BMS" package="PHOENIX-2PIN" value="PHOENIX-2PIN" x="9.525" y="52.07" rot="R180"/>
<element name="U$7" library="BMS" package="12X12INDUCTOR" value="12X12MMINDUCTOR" x="19.685" y="42.545" rot="R270"/>
</elements>
<signals>
<signal name="GND">
<contactref element="U$3" pad="P$3"/>
<contactref element="U$3" pad="P$4"/>
<contactref element="U$1" pad="P$3"/>
<contactref element="U$1" pad="P$5"/>
<contactref element="U$1" pad="P$21"/>
<contactref element="C1" pad="1"/>
<contactref element="C2" pad="1"/>
<contactref element="C4" pad="2"/>
<contactref element="JP25" pad="1"/>
<contactref element="LED1" pad="C"/>
<contactref element="LED3" pad="C"/>
<contactref element="JP1" pad="1"/>
<contactref element="U$6" pad="P$2"/>
<contactref element="C5" pad="2"/>
<contactref element="C6" pad="2"/>
<contactref element="C7" pad="2"/>
<contactref element="C8" pad="2"/>
<contactref element="C9" pad="2"/>
<contactref element="R6" pad="1"/>
<contactref element="R8" pad="E"/>
<contactref element="C10" pad="2"/>
<contactref element="C11" pad="2"/>
<contactref element="U$2" pad="P$9"/>
<contactref element="U$2" pad="P$11"/>
<contactref element="D1" pad="A"/>
<contactref element="C12" pad="2"/>
<contactref element="C13" pad="2"/>
<contactref element="C14" pad="2"/>
<wire x1="20.825" y1="24.13" x2="17.78" y2="27.175" width="0.1524" layer="16"/>
<wire x1="17.78" y1="27.175" x2="17.78" y2="27.305" width="0.1524" layer="16"/>
<via x="17.78" y="27.305" extent="1-16" drill="0.35"/>
<polygon width="0.5" layer="1">
<vertex x="-13.335" y="65.405"/>
<vertex x="-13.335" y="3.175"/>
<vertex x="0" y="-10.16"/>
<vertex x="55.245" y="-10.16"/>
<vertex x="66.04" y="0.635"/>
<vertex x="66.04" y="57.15"/>
<vertex x="61.595" y="61.595"/>
<vertex x="57.785" y="65.405"/>
</polygon>
<wire x1="12.555" y1="42.045" x2="10.93" y2="42.045" width="0.1524" layer="1"/>
<wire x1="10.43" y1="41.545" x2="10.255" y2="41.545" width="0.1524" layer="1"/>
<wire x1="10.93" y1="42.045" x2="10.43" y2="41.545" width="0.1524" layer="1"/>
<wire x1="41.91" y1="45.215" x2="43.815" y2="50.8" width="0" layer="19" extent="1-1"/>
<wire x1="39.37" y1="45.215" x2="41.91" y2="45.215" width="0" layer="19" extent="1-1"/>
<wire x1="36.83" y1="45.215" x2="39.37" y2="45.215" width="0" layer="19" extent="1-1"/>
<wire x1="48.26" y1="37.465" x2="41.91" y2="45.215" width="0" layer="19" extent="1-1"/>
<wire x1="45.875" y1="27.305" x2="48.26" y2="37.465" width="0" layer="19" extent="1-1"/>
<wire x1="34.445" y1="13.335" x2="45.875" y2="27.305" width="0" layer="19" extent="1-1"/>
<wire x1="41.22" y1="4.9" x2="34.445" y2="13.335" width="0" layer="19" extent="1-1"/>
<wire x1="45.72" y1="4.9" x2="41.22" y2="4.9" width="0" layer="19" extent="1-1"/>
<wire x1="27.25" y1="22.95" x2="34.445" y2="13.335" width="0" layer="19" extent="1-1"/>
<wire x1="20.825" y1="24.13" x2="27.25" y2="22.95" width="0" layer="19" extent="1-16"/>
<wire x1="17.85" y1="23.75" x2="20.825" y2="24.13" width="0" layer="19" extent="1-16"/>
<wire x1="17.85" y1="22.15" x2="17.85" y2="23.75" width="0" layer="19" extent="1-1"/>
<wire x1="15.24" y1="35.43" x2="17.78" y2="27.305" width="0" layer="19" extent="1-16"/>
<wire x1="10.16" y1="35.43" x2="15.24" y2="35.43" width="0" layer="19" extent="1-1"/>
<wire x1="7.62" y1="35.408" x2="10.16" y2="35.43" width="0" layer="19" extent="1-1"/>
<wire x1="4.445" y1="33.785" x2="7.62" y2="35.408" width="0" layer="19" extent="1-1"/>
<wire x1="2.41" y1="36.195" x2="4.445" y2="33.785" width="0" layer="19" extent="1-1"/>
<wire x1="2.41" y1="38.735" x2="2.41" y2="36.195" width="0" layer="19" extent="1-1"/>
<wire x1="2.41" y1="41.275" x2="2.41" y2="38.735" width="0" layer="19" extent="1-1"/>
<wire x1="2.41" y1="43.815" x2="2.41" y2="41.275" width="0" layer="19" extent="1-1"/>
<wire x1="2.41" y1="46.355" x2="2.41" y2="43.815" width="0" layer="19" extent="1-1"/>
<wire x1="4.525" y1="52.07" x2="2.41" y2="46.355" width="0" layer="19" extent="1-1"/>
<wire x1="10.255" y1="41.545" x2="10.16" y2="35.43" width="0" layer="19" extent="1-1"/>
<wire x1="15.875" y1="49.015" x2="12.555" y2="42.045" width="0" layer="19" extent="1-1"/>
<wire x1="26.67" y1="2.54" x2="34.445" y2="13.335" width="0" layer="19" extent="1-1"/>
<wire x1="4.445" y1="9.395" x2="17.85" y2="22.15" width="0" layer="19" extent="1-1"/>
</signal>
<signal name="VCC">
<contactref element="R2" pad="2"/>
<contactref element="U$1" pad="P$4"/>
<contactref element="U$1" pad="P$6"/>
<contactref element="U$1" pad="P$20"/>
<contactref element="U$1" pad="P$18"/>
<contactref element="C4" pad="1"/>
<contactref element="JP25" pad="5"/>
<contactref element="U$5" pad="1"/>
<contactref element="R1" pad="2"/>
<contactref element="JP1" pad="2"/>
<wire x1="27.25" y1="22.15" x2="24.205" y2="22.15" width="0.1524" layer="1"/>
<wire x1="24.205" y1="22.15" x2="24.13" y2="22.225" width="0.1524" layer="1"/>
<via x="24.13" y="22.225" extent="1-16" drill="0.35"/>
<wire x1="24.13" y1="22.225" x2="23.625" y2="22.73" width="0.1524" layer="16"/>
<wire x1="23.625" y1="22.73" x2="23.625" y2="24.13" width="0.1524" layer="16"/>
<wire x1="27.25" y1="20.55" x2="25.805" y2="20.55" width="0.1524" layer="1"/>
<wire x1="25.805" y1="20.55" x2="24.205" y2="22.15" width="0.1524" layer="1"/>
<wire x1="17.85" y1="21.35" x2="23.405" y2="21.35" width="0.1524" layer="1"/>
<wire x1="23.405" y1="21.35" x2="24.205" y2="22.15" width="0.1524" layer="1"/>
<wire x1="17.85" y1="22.95" x2="23.405" y2="22.95" width="0.1524" layer="1"/>
<wire x1="23.405" y1="22.95" x2="24.13" y2="22.225" width="0.1524" layer="1"/>
<wire x1="23.495" y1="2.388" x2="25.421075" y2="2.388" width="0.1524" layer="1"/>
<wire x1="25.421075" y1="2.388" x2="26.259675" y2="1.5494" width="0.1524" layer="1"/>
<wire x1="26.259675" y1="1.5494" x2="30.7594" y2="1.5494" width="0.1524" layer="1"/>
<wire x1="30.7594" y1="1.5494" x2="31.75" y2="2.54" width="0.1524" layer="1"/>
<wire x1="23.625" y1="24.13" x2="23.625" y2="9.785925" width="0.1524" layer="16"/>
<wire x1="23.625" y1="9.785925" x2="23.1394" y2="9.300325" width="0.1524" layer="16"/>
<wire x1="23.1394" y1="9.300325" x2="23.1394" y2="3.5306" width="0.1524" layer="16"/>
<wire x1="25.1206" y1="1.5494" x2="30.7594" y2="1.5494" width="0.1524" layer="16"/>
<wire x1="30.7594" y1="1.5494" x2="31.75" y2="2.54" width="0.1524" layer="16"/>
<wire x1="23.1394" y1="3.5306" x2="25.1206" y2="1.5494" width="0.1524" layer="16"/>
<wire x1="27.25" y1="22.15" x2="32.814075" y2="22.15" width="0.1524" layer="1"/>
<wire x1="32.814075" y1="22.15" x2="33.879675" y2="23.2156" width="0.1524" layer="1"/>
<wire x1="37.6686" y1="23.2156" x2="46.203" y2="29.845" width="0.1524" layer="1"/>
<wire x1="33.879675" y1="23.2156" x2="37.6686" y2="23.2156" width="0.1524" layer="1"/>
<wire x1="46.203" y1="29.845" x2="46.225" y2="29.867" width="0.1524" layer="1"/>
<wire x1="46.225" y1="29.867" x2="46.225" y2="33.02" width="0.1524" layer="1"/>
<wire x1="46.225" y1="33.02" x2="46.225" y2="50.67" width="0.1524" layer="1"/>
<wire x1="46.225" y1="50.67" x2="46.355" y2="50.8" width="0.1524" layer="1"/>
</signal>
<signal name="N$2">
<contactref element="U$3" pad="P$1"/>
<contactref element="U$3" pad="P$2"/>
<contactref element="R2" pad="1"/>
<contactref element="U$1" pad="P$29"/>
<contactref element="JP25" pad="2"/>
<wire x1="23.495" y1="5.232" x2="26.518" y2="5.232" width="0.1524" layer="1"/>
<wire x1="26.518" y1="5.232" x2="26.67" y2="5.08" width="0.1524" layer="1"/>
<wire x1="41.22" y1="12.7" x2="45.72" y2="12.7" width="0.1524" layer="1"/>
<wire x1="27.809075" y1="5.08" x2="26.67" y2="5.08" width="0.1524" layer="16"/>
<wire x1="28.799675" y1="4.0894" x2="27.809075" y2="5.08" width="0.1524" layer="16"/>
<wire x1="41.22" y1="12.7" x2="32.6094" y2="4.0894" width="0.1524" layer="16"/>
<wire x1="32.6094" y1="4.0894" x2="28.799675" y2="4.0894" width="0.1524" layer="16"/>
<wire x1="22.15" y1="27.25" x2="22.15" y2="24.84" width="0.1524" layer="1"/>
<wire x1="22.15" y1="24.84" x2="22.225" y2="24.765" width="0.1524" layer="1"/>
<via x="22.225" y="24.765" extent="1-16" drill="0.35"/>
<wire x1="22.7303125" y1="25.2586" x2="24.5196875" y2="25.2586" width="0.1524" layer="16"/>
<wire x1="22.225" y1="24.765" x2="22.2367125" y2="24.765" width="0.1524" layer="16"/>
<wire x1="22.2367125" y1="24.765" x2="22.7303125" y2="25.2586" width="0.1524" layer="16"/>
<wire x1="37.0782875" y1="12.7" x2="41.22" y2="12.7" width="0.1524" layer="16"/>
<wire x1="24.5196875" y1="25.2586" x2="37.0782875" y2="12.7" width="0.1524" layer="16"/>
</signal>
<signal name="N$3">
<contactref element="JP4" pad="1"/>
<contactref element="U$1" pad="P$2"/>
<wire x1="17.85" y1="24.55" x2="12.28" y2="24.55" width="0.1524" layer="1"/>
<wire x1="12.28" y1="24.55" x2="12.065" y2="24.765" width="0.1524" layer="1"/>
</signal>
<signal name="N$4">
<contactref element="JP3" pad="1"/>
<contactref element="U$1" pad="P$1"/>
<wire x1="17.85" y1="25.35" x2="14.02" y2="25.35" width="0.1524" layer="1"/>
<wire x1="14.02" y1="25.35" x2="12.065" y2="27.305" width="0.1524" layer="1"/>
</signal>
<signal name="N$5">
<contactref element="JP5" pad="1"/>
<contactref element="U$1" pad="P$32"/>
<wire x1="19.75" y1="27.25" x2="15.25" y2="31.75" width="0.1524" layer="1"/>
<wire x1="15.25" y1="31.75" x2="14.605" y2="31.75" width="0.1524" layer="1"/>
</signal>
<signal name="N$6">
<contactref element="JP6" pad="1"/>
<contactref element="U$1" pad="P$31"/>
<wire x1="20.55" y1="27.25" x2="20.55" y2="28.345" width="0.1524" layer="1"/>
<wire x1="20.55" y1="28.345" x2="17.145" y2="31.75" width="0.1524" layer="1"/>
</signal>
<signal name="N$7">
<contactref element="JP7" pad="1"/>
<contactref element="U$1" pad="P$30"/>
<wire x1="21.35" y1="27.25" x2="21.35" y2="30.085" width="0.1524" layer="1"/>
<wire x1="21.35" y1="30.085" x2="19.685" y2="31.75" width="0.1524" layer="1"/>
</signal>
<signal name="N$8">
<contactref element="JP8" pad="1"/>
<contactref element="U$1" pad="P$9"/>
<wire x1="19.75" y1="17.85" x2="11.43" y2="9.53" width="0.1524" layer="1"/>
<wire x1="11.43" y1="9.53" x2="11.43" y2="8.89" width="0.1524" layer="1"/>
</signal>
<signal name="N$9">
<contactref element="JP9" pad="1"/>
<contactref element="U$1" pad="P$10"/>
<wire x1="20.55" y1="17.85" x2="20.55" y2="16.105" width="0.1524" layer="1"/>
<wire x1="13.97" y1="9.525" x2="13.97" y2="8.89" width="0.1524" layer="1"/>
<wire x1="20.55" y1="16.105" x2="13.97" y2="9.525" width="0.1524" layer="1"/>
</signal>
<signal name="N$10">
<contactref element="JP10" pad="1"/>
<contactref element="U$1" pad="P$11"/>
<wire x1="21.35" y1="17.85" x2="21.35" y2="15.635" width="0.1524" layer="1"/>
<wire x1="16.51" y1="10.795" x2="16.51" y2="8.89" width="0.1524" layer="1"/>
<wire x1="21.35" y1="15.635" x2="16.51" y2="10.795" width="0.1524" layer="1"/>
</signal>
<signal name="N$11">
<contactref element="U$1" pad="P$28"/>
<contactref element="JP11" pad="1"/>
<wire x1="22.95" y1="27.25" x2="22.95" y2="31.025" width="0.1524" layer="1"/>
<wire x1="22.95" y1="31.025" x2="22.225" y2="31.75" width="0.1524" layer="1"/>
</signal>
<signal name="N$12">
<contactref element="U$1" pad="P$27"/>
<contactref element="JP12" pad="1"/>
<wire x1="23.75" y1="27.25" x2="23.75" y2="30.735" width="0.1524" layer="1"/>
<wire x1="23.75" y1="30.735" x2="24.765" y2="31.75" width="0.1524" layer="1"/>
</signal>
<signal name="N$13">
<contactref element="U$1" pad="P$26"/>
<contactref element="JP13" pad="1"/>
<wire x1="24.55" y1="27.25" x2="24.55" y2="28.36" width="0.1524" layer="1"/>
<wire x1="27.305" y1="31.115" x2="27.305" y2="31.75" width="0.1524" layer="1"/>
<wire x1="24.55" y1="28.36" x2="27.305" y2="31.115" width="0.1524" layer="1"/>
</signal>
<signal name="N$14">
<contactref element="U$1" pad="P$25"/>
<contactref element="JP14" pad="1"/>
<wire x1="29.845" y1="31.75" x2="29.845" y2="31.745" width="0.1524" layer="1"/>
<wire x1="29.845" y1="31.745" x2="25.35" y2="27.25" width="0.1524" layer="1"/>
</signal>
<signal name="N$15">
<contactref element="JP18" pad="1"/>
<contactref element="U$1" pad="P$19"/>
<wire x1="27.25" y1="21.35" x2="33.415" y2="21.35" width="0.1524" layer="1"/>
<wire x1="33.415" y1="21.35" x2="34.29" y2="22.225" width="0.1524" layer="1"/>
</signal>
<signal name="N$16">
<contactref element="U$1" pad="P$22"/>
<contactref element="JP17" pad="1"/>
<wire x1="27.25" y1="23.75" x2="33.275" y2="23.75" width="0.1524" layer="1"/>
<wire x1="33.275" y1="23.75" x2="34.29" y2="24.765" width="0.1524" layer="1"/>
</signal>
<signal name="N$17">
<contactref element="JP16" pad="1"/>
<contactref element="U$1" pad="P$23"/>
<wire x1="27.25" y1="24.55" x2="31.535" y2="24.55" width="0.1524" layer="1"/>
<wire x1="31.535" y1="24.55" x2="34.29" y2="27.305" width="0.1524" layer="1"/>
</signal>
<signal name="N$18">
<contactref element="U$1" pad="P$24"/>
<contactref element="JP15" pad="1"/>
<wire x1="27.25" y1="25.35" x2="29.795" y2="25.35" width="0.1524" layer="1"/>
<wire x1="29.795" y1="25.35" x2="34.29" y2="29.845" width="0.1524" layer="1"/>
</signal>
<signal name="MOSI">
<contactref element="JP25" pad="3"/>
<contactref element="JP22" pad="1"/>
<contactref element="U$1" pad="P$15"/>
<wire x1="32.515925" y1="3.175" x2="32.160325" y2="3.5306" width="0.1524" layer="1"/>
<wire x1="32.160325" y1="3.5306" x2="30.2006" y2="3.5306" width="0.1524" layer="1"/>
<wire x1="30.2006" y1="3.5306" x2="29.21" y2="2.54" width="0.1524" layer="1"/>
<wire x1="24.55" y1="17.85" x2="24.55" y2="11.01" width="0.1524" layer="1"/>
<wire x1="24.55" y1="11.01" x2="26.67" y2="8.89" width="0.1524" layer="1"/>
<wire x1="25.6794" y1="5.490325" x2="25.6794" y2="4.669675" width="0.1524" layer="16"/>
<wire x1="25.6794" y1="4.669675" x2="26.259675" y2="4.0894" width="0.1524" layer="16"/>
<wire x1="26.67" y1="8.89" x2="26.67" y2="6.480925" width="0.1524" layer="16"/>
<wire x1="27.6606" y1="4.0894" x2="29.21" y2="2.54" width="0.1524" layer="16"/>
<wire x1="26.67" y1="6.480925" x2="25.6794" y2="5.490325" width="0.1524" layer="16"/>
<wire x1="26.259675" y1="4.0894" x2="27.6606" y2="4.0894" width="0.1524" layer="16"/>
</signal>
<signal name="N$20">
<contactref element="JP20" pad="1"/>
<contactref element="U$1" pad="P$13"/>
<wire x1="22.95" y1="17.85" x2="22.86" y2="17.76" width="0.1524" layer="1"/>
<wire x1="22.86" y1="10.16" x2="21.59" y2="8.89" width="0.1524" layer="1"/>
<wire x1="22.86" y1="17.76" x2="22.86" y2="10.16" width="0.1524" layer="1"/>
</signal>
<signal name="N$21">
<contactref element="JP21" pad="1"/>
<contactref element="U$1" pad="P$14"/>
<wire x1="23.75" y1="17.85" x2="23.75" y2="9.27" width="0.1524" layer="1"/>
<wire x1="23.75" y1="9.27" x2="24.13" y2="8.89" width="0.1524" layer="1"/>
</signal>
<signal name="MISO">
<contactref element="JP23" pad="1"/>
<contactref element="U$1" pad="P$16"/>
<contactref element="R4" pad="2"/>
<contactref element="JP25" pad="6"/>
<wire x1="34.773" y1="5.715" x2="32.385" y2="5.715" width="0.1524" layer="1"/>
<wire x1="32.385" y1="5.715" x2="31.75" y2="5.08" width="0.1524" layer="1"/>
<wire x1="25.35" y1="17.85" x2="25.35" y2="12.75" width="0.1524" layer="1"/>
<wire x1="25.35" y1="12.75" x2="29.21" y2="8.89" width="0.1524" layer="1"/>
<wire x1="28.2194" y1="5.490325" x2="28.2194" y2="4.669675" width="0.1524" layer="1"/>
<wire x1="28.2194" y1="4.669675" x2="28.799675" y2="4.0894" width="0.1524" layer="1"/>
<wire x1="28.799675" y1="4.0894" x2="29.620325" y2="4.0894" width="0.1524" layer="1"/>
<wire x1="30.610925" y1="5.08" x2="31.75" y2="5.08" width="0.1524" layer="1"/>
<wire x1="29.620325" y1="4.0894" x2="30.610925" y2="5.08" width="0.1524" layer="1"/>
<wire x1="29.21" y1="8.89" x2="29.21" y2="6.480925" width="0.1524" layer="1"/>
<wire x1="29.21" y1="6.480925" x2="28.2194" y2="5.490325" width="0.1524" layer="1"/>
</signal>
<signal name="N$25">
<contactref element="U$4" pad="P$2"/>
<contactref element="C2" pad="2"/>
<contactref element="U$1" pad="P$7"/>
<wire x1="4.635" y1="27.275" x2="4.635" y2="30.795" width="0.1524" layer="1"/>
<wire x1="4.635" y1="30.795" x2="4.445" y2="30.985" width="0.1524" layer="1"/>
<wire x1="17.85" y1="20.55" x2="11.36" y2="20.55" width="0.1524" layer="1"/>
<wire x1="11.36" y1="20.55" x2="4.635" y2="27.275" width="0.1524" layer="1"/>
</signal>
<signal name="N$26">
<contactref element="U$4" pad="P$1"/>
<contactref element="C1" pad="2"/>
<contactref element="U$1" pad="P$8"/>
<wire x1="4.635" y1="15.875" x2="4.635" y2="12.385" width="0.1524" layer="1"/>
<wire x1="4.635" y1="12.385" x2="4.445" y2="12.195" width="0.1524" layer="1"/>
<wire x1="17.85" y1="19.75" x2="8.51" y2="19.75" width="0.1524" layer="1"/>
<wire x1="8.51" y1="19.75" x2="4.635" y2="15.875" width="0.1524" layer="1"/>
</signal>
<signal name="PIN12">
<contactref element="JP19" pad="1"/>
<contactref element="U$1" pad="P$12"/>
<wire x1="22.15" y1="17.85" x2="22.15" y2="15.165" width="0.1524" layer="1"/>
<wire x1="19.05" y1="12.065" x2="19.05" y2="8.89" width="0.1524" layer="1"/>
<wire x1="22.15" y1="15.165" x2="19.05" y2="12.065" width="0.1524" layer="1"/>
</signal>
<signal name="SCK">
<contactref element="JP25" pad="4"/>
<contactref element="JP24" pad="1"/>
<contactref element="U$1" pad="P$17"/>
<wire x1="32.385" y1="8.255" x2="29.21" y2="5.08" width="0.1524" layer="1"/>
<wire x1="34.29" y1="19.685" x2="27.315" y2="19.685" width="0.1524" layer="1"/>
<wire x1="27.315" y1="19.685" x2="27.25" y2="19.75" width="0.1524" layer="1"/>
<wire x1="34.29" y1="19.685" x2="34.29" y2="19.05" width="0.1524" layer="1"/>
<wire x1="32.385" y1="17.145" x2="32.385" y2="10.643" width="0.1524" layer="1"/>
<wire x1="34.29" y1="19.05" x2="32.385" y2="17.145" width="0.1524" layer="1"/>
<wire x1="32.385" y1="8.255" x2="32.385" y2="10.643" width="0" layer="19" extent="1-1"/>
</signal>
<signal name="N$22">
<contactref element="LED1" pad="A"/>
<contactref element="R1" pad="1"/>
<wire x1="49.375" y1="27.305" x2="49.375" y2="29.517" width="0.1524" layer="1"/>
<wire x1="49.375" y1="29.517" x2="49.047" y2="29.845" width="0.1524" layer="1"/>
</signal>
<signal name="N$24">
<contactref element="LED3" pad="A"/>
<contactref element="R4" pad="1"/>
<wire x1="37.617" y1="5.715" x2="39.37" y2="7.468" width="0.1524" layer="1"/>
<wire x1="39.37" y1="11.91" x2="37.945" y2="13.335" width="0.1524" layer="1"/>
<wire x1="39.37" y1="7.468" x2="39.37" y2="11.91" width="0.1524" layer="1"/>
</signal>
<signal name="N$1">
<contactref element="U$2" pad="P$1"/>
<contactref element="C3" pad="1"/>
<wire x1="7.955" y1="42.545" x2="7.955" y2="44.28" width="0.1524" layer="1"/>
<wire x1="7.955" y1="44.28" x2="8.76" y2="45.085" width="0.1524" layer="1"/>
</signal>
<signal name="N$19">
<contactref element="U$2" pad="P$10"/>
<contactref element="C3" pad="2"/>
<contactref element="U$7" pad="P$1"/>
<contactref element="D1" pad="C"/>
<wire x1="11.56" y1="45.085" x2="15.755" y2="45.085" width="0.1524" layer="1"/>
<wire x1="15.755" y1="45.085" x2="15.875" y2="44.965" width="0.1524" layer="1"/>
<wire x1="15.875" y1="44.965" x2="17.265" y2="44.965" width="0.1524" layer="1"/>
<wire x1="17.265" y1="44.965" x2="19.685" y2="42.545" width="0.1524" layer="1"/>
<wire x1="12.555" y1="42.545" x2="19.685" y2="42.545" width="0.1524" layer="1"/>
</signal>
<signal name="N$28">
<contactref element="U$6" pad="P$1"/>
<contactref element="C5" pad="1"/>
<contactref element="C6" pad="1"/>
<contactref element="C7" pad="1"/>
<contactref element="C8" pad="1"/>
<contactref element="U$2" pad="P$2"/>
<wire x1="7.955" y1="42.045" x2="6.485" y2="42.045" width="0.1524" layer="1"/>
<wire x1="5.715" y1="41.275" x2="5.21" y2="41.275" width="0.1524" layer="1"/>
<wire x1="6.485" y1="42.045" x2="5.715" y2="41.275" width="0.1524" layer="1"/>
<wire x1="5.21" y1="41.275" x2="5.21" y2="38.735" width="0.1524" layer="1"/>
<wire x1="5.21" y1="41.275" x2="5.21" y2="43.815" width="0.1524" layer="1"/>
<wire x1="5.21" y1="43.815" x2="5.21" y2="46.355" width="0.1524" layer="1"/>
<wire x1="9.525" y1="52.07" x2="5.21" y2="47.755" width="0.1524" layer="1"/>
<wire x1="5.21" y1="47.755" x2="5.21" y2="46.355" width="0.1524" layer="1"/>
</signal>
<signal name="N$29">
<contactref element="U$2" pad="P$4"/>
<contactref element="C9" pad="1"/>
<wire x1="7.955" y1="41.045" x2="6.755" y2="41.045" width="0.1524" layer="1"/>
<wire x1="5.21" y1="36.7117125" x2="5.21" y2="36.195" width="0.1524" layer="1"/>
<wire x1="6.2386" y1="37.7403125" x2="5.21" y2="36.7117125" width="0.1524" layer="1"/>
<wire x1="6.2386" y1="40.5286" x2="6.2386" y2="37.7403125" width="0.1524" layer="1"/>
<wire x1="6.755" y1="41.045" x2="6.2386" y2="40.5286" width="0.1524" layer="1"/>
</signal>
<signal name="N$30">
<contactref element="U$2" pad="P$5"/>
<contactref element="R6" pad="2"/>
<wire x1="7.62" y1="38.252" x2="7.955" y2="38.587" width="0.1524" layer="1"/>
<wire x1="7.955" y1="38.587" x2="7.955" y2="40.545" width="0.1524" layer="1"/>
</signal>
<signal name="N$31">
<contactref element="U$2" pad="P$7"/>
<contactref element="R8" pad="S"/>
<wire x1="12.555" y1="41.045" x2="13.97685" y2="41.045" width="0.1524" layer="1"/>
<wire x1="13.97685" y1="41.045" x2="14.493425" y2="40.528425" width="0.1524" layer="1"/>
<via x="14.493425" y="40.528425" extent="1-16" drill="0.35"/>
<wire x1="14.493425" y1="40.528425" x2="47.736575" y2="40.528425" width="0.1524" layer="16"/>
<wire x1="47.736575" y1="40.528425" x2="48.26" y2="40.005" width="0.1524" layer="16"/>
</signal>
<signal name="N$32">
<contactref element="C10" pad="1"/>
<contactref element="R7" pad="1"/>
<wire x1="12.7" y1="35.408" x2="12.7" y2="35.69" width="0.1524" layer="1"/>
<wire x1="12.7" y1="35.69" x2="10.16" y2="38.23" width="0.1524" layer="1"/>
</signal>
<signal name="N$34">
<contactref element="C12" pad="1"/>
<contactref element="C13" pad="1"/>
<contactref element="C14" pad="1"/>
<contactref element="R8" pad="A"/>
<contactref element="U$7" pad="P$2"/>
<contactref element="U$5" pad="2"/>
<wire x1="36.83" y1="42.415" x2="39.37" y2="42.415" width="0.1524" layer="1"/>
<wire x1="39.37" y1="42.415" x2="41.91" y2="42.415" width="0.1524" layer="1"/>
<wire x1="32.485" y1="42.545" x2="36.7" y2="42.545" width="0.1524" layer="1"/>
<wire x1="36.7" y1="42.545" x2="36.83" y2="42.415" width="0.1524" layer="1"/>
<wire x1="41.91" y1="42.415" x2="42.04" y2="42.545" width="0.1524" layer="1"/>
<wire x1="42.04" y1="42.545" x2="44.45" y2="42.545" width="0.1524" layer="1"/>
<via x="44.45" y="42.545" extent="1-16" drill="0.35"/>
<wire x1="44.45" y1="42.545" x2="48.26" y2="42.545" width="0.1524" layer="16"/>
<wire x1="49.025" y1="33.02" x2="51.435" y2="35.43" width="0.1524" layer="1"/>
<wire x1="51.435" y1="39.37" x2="48.26" y2="42.545" width="0.1524" layer="1"/>
<wire x1="51.435" y1="35.43" x2="51.435" y2="39.37" width="0.1524" layer="1"/>
</signal>
<signal name="N$33">
<contactref element="C11" pad="1"/>
<contactref element="R7" pad="2"/>
<contactref element="U$2" pad="P$8"/>
<wire x1="15.24" y1="38.23" x2="12.722" y2="38.23" width="0.1524" layer="1"/>
<wire x1="12.722" y1="38.23" x2="12.7" y2="38.252" width="0.1524" layer="1"/>
<wire x1="12.555" y1="41.545" x2="14.335" y2="41.545" width="0.1524" layer="1"/>
<wire x1="15.24" y1="40.64" x2="15.24" y2="38.23" width="0.1524" layer="1"/>
<wire x1="14.335" y1="41.545" x2="15.24" y2="40.64" width="0.1524" layer="1"/>
</signal>
</signals>
<mfgpreviewcolors>
<mfgpreviewcolor name="soldermaskcolor" color="0xC8008000"/>
<mfgpreviewcolor name="silkscreencolor" color="0xFFFEFEFE"/>
<mfgpreviewcolor name="backgroundcolor" color="0xFF282828"/>
<mfgpreviewcolor name="coppercolor" color="0xFFFFBF00"/>
<mfgpreviewcolor name="substratecolor" color="0xFF786E46"/>
</mfgpreviewcolors>
</board>
</drawing>
<compatibility>
<note version="6.3" minversion="6.2.2" severity="warning">
Since Version 6.2.2 text objects can contain more than one line,
which will not be processed correctly with this version.
</note>
<note version="8.2" severity="warning">
Since Version 8.2, EAGLE supports online libraries. The ids
of those online libraries will not be understood (or retained)
with this version.
</note>
<note version="8.3" severity="warning">
Since Version 8.3, EAGLE supports URNs for individual library
assets (packages, symbols, and devices). The URNs of those assets
will not be understood (or retained) with this version.
</note>
<note version="8.3" severity="warning">
Since Version 8.3, EAGLE supports the association of 3D packages
with devices in libraries, schematics, and board files. Those 3D
packages will not be understood (or retained) with this version.
</note>
</compatibility>
</eagle>
