<?xml version="1.0" encoding="utf-8"?>
<!DOCTYPE eagle SYSTEM "eagle.dtd">
<eagle version="8.5.1">
<drawing>
<settings>
<setting alwaysvectorfont="no"/>
<setting verticaltext="up"/>
</settings>
<grid distance="0.1" unitdist="inch" unit="inch" style="lines" multiple="1" display="no" altdistance="0.01" altunitdist="inch" altunit="inch"/>
<layers>
<layer number="1" name="Top" color="4" fill="1" visible="no" active="no"/>
<layer number="2" name="Route2" color="1" fill="3" visible="no" active="no"/>
<layer number="3" name="Route3" color="4" fill="3" visible="no" active="no"/>
<layer number="4" name="Route4" color="1" fill="4" visible="no" active="no"/>
<layer number="5" name="Route5" color="4" fill="4" visible="no" active="no"/>
<layer number="6" name="Route6" color="1" fill="8" visible="no" active="no"/>
<layer number="7" name="Route7" color="4" fill="8" visible="no" active="no"/>
<layer number="8" name="Route8" color="1" fill="2" visible="no" active="no"/>
<layer number="9" name="Route9" color="4" fill="2" visible="no" active="no"/>
<layer number="10" name="Route10" color="1" fill="7" visible="no" active="no"/>
<layer number="11" name="Route11" color="4" fill="7" visible="no" active="no"/>
<layer number="12" name="Route12" color="1" fill="5" visible="no" active="no"/>
<layer number="13" name="Route13" color="4" fill="5" visible="no" active="no"/>
<layer number="14" name="Route14" color="1" fill="6" visible="no" active="no"/>
<layer number="15" name="Route15" color="4" fill="6" visible="no" active="no"/>
<layer number="16" name="Bottom" color="1" fill="1" visible="no" active="no"/>
<layer number="17" name="Pads" color="2" fill="1" visible="no" active="no"/>
<layer number="18" name="Vias" color="2" fill="1" visible="no" active="no"/>
<layer number="19" name="Unrouted" color="6" fill="1" visible="no" active="no"/>
<layer number="20" name="Dimension" color="24" fill="1" visible="no" active="no"/>
<layer number="21" name="tPlace" color="7" fill="1" visible="no" active="no"/>
<layer number="22" name="bPlace" color="7" fill="1" visible="no" active="no"/>
<layer number="23" name="tOrigins" color="15" fill="1" visible="no" active="no"/>
<layer number="24" name="bOrigins" color="15" fill="1" visible="no" active="no"/>
<layer number="25" name="tNames" color="7" fill="1" visible="no" active="no"/>
<layer number="26" name="bNames" color="7" fill="1" visible="no" active="no"/>
<layer number="27" name="tValues" color="7" fill="1" visible="no" active="no"/>
<layer number="28" name="bValues" color="7" fill="1" visible="no" active="no"/>
<layer number="29" name="tStop" color="7" fill="3" visible="no" active="no"/>
<layer number="30" name="bStop" color="7" fill="6" visible="no" active="no"/>
<layer number="31" name="tCream" color="7" fill="4" visible="no" active="no"/>
<layer number="32" name="bCream" color="7" fill="5" visible="no" active="no"/>
<layer number="33" name="tFinish" color="6" fill="3" visible="no" active="no"/>
<layer number="34" name="bFinish" color="6" fill="6" visible="no" active="no"/>
<layer number="35" name="tGlue" color="7" fill="4" visible="no" active="no"/>
<layer number="36" name="bGlue" color="7" fill="5" visible="no" active="no"/>
<layer number="37" name="tTest" color="7" fill="1" visible="no" active="no"/>
<layer number="38" name="bTest" color="7" fill="1" visible="no" active="no"/>
<layer number="39" name="tKeepout" color="4" fill="11" visible="no" active="no"/>
<layer number="40" name="bKeepout" color="1" fill="11" visible="no" active="no"/>
<layer number="41" name="tRestrict" color="4" fill="10" visible="no" active="no"/>
<layer number="42" name="bRestrict" color="1" fill="10" visible="no" active="no"/>
<layer number="43" name="vRestrict" color="2" fill="10" visible="no" active="no"/>
<layer number="44" name="Drills" color="7" fill="1" visible="no" active="no"/>
<layer number="45" name="Holes" color="7" fill="1" visible="no" active="no"/>
<layer number="46" name="Milling" color="3" fill="1" visible="no" active="no"/>
<layer number="47" name="Measures" color="7" fill="1" visible="no" active="no"/>
<layer number="48" name="Document" color="7" fill="1" visible="no" active="no"/>
<layer number="49" name="Reference" color="7" fill="1" visible="no" active="no"/>
<layer number="51" name="tDocu" color="7" fill="1" visible="no" active="no"/>
<layer number="52" name="bDocu" color="7" fill="1" visible="no" active="no"/>
<layer number="88" name="SimResults" color="9" fill="1" visible="yes" active="yes"/>
<layer number="89" name="SimProbes" color="9" fill="1" visible="yes" active="yes"/>
<layer number="90" name="Modules" color="5" fill="1" visible="yes" active="yes"/>
<layer number="91" name="Nets" color="2" fill="1" visible="yes" active="yes"/>
<layer number="92" name="Busses" color="1" fill="1" visible="yes" active="yes"/>
<layer number="93" name="Pins" color="2" fill="1" visible="no" active="yes"/>
<layer number="94" name="Symbols" color="4" fill="1" visible="yes" active="yes"/>
<layer number="95" name="Names" color="7" fill="1" visible="yes" active="yes"/>
<layer number="96" name="Values" color="7" fill="1" visible="yes" active="yes"/>
<layer number="97" name="Info" color="7" fill="1" visible="yes" active="yes"/>
<layer number="98" name="Guide" color="6" fill="1" visible="yes" active="yes"/>
</layers>
<schematic xreflabel="%F%N/%S.%C%R" xrefpart="/%S.%C%R">
<libraries>
<library name="LED BOARD">
<packages>
<package name="SK6812">
<wire x1="-2.5" y1="2.5" x2="2.5" y2="2.5" width="0.127" layer="21"/>
<wire x1="-2.5" y1="-2.5" x2="2.5" y2="-2.5" width="0.127" layer="21"/>
<wire x1="-2.5" y1="2.5" x2="-2.5" y2="-2.5" width="0.127" layer="21"/>
<wire x1="2.5" y1="2.5" x2="2.5" y2="-2.5" width="0.127" layer="21"/>
<smd name="P$1" x="-2.6" y="1.6" dx="1.75" dy="1.2" layer="1"/>
<smd name="P$2" x="-2.6" y="-1.6" dx="1.75" dy="1.2" layer="1"/>
<smd name="P$3" x="2.6" y="1.6" dx="1.75" dy="1.2" layer="1"/>
<smd name="P$4" x="2.6" y="-1.6" dx="1.75" dy="1.2" layer="1"/>
<circle x="1.2" y="-2.2" radius="0.2" width="0.127" layer="21"/>
<text x="3.81" y="-2.54" size="1.27" layer="25">&gt;NAME</text>
</package>
</packages>
<symbols>
<symbol name="SK6812">
<wire x1="-7.62" y1="7.62" x2="7.62" y2="7.62" width="0.254" layer="94"/>
<wire x1="7.62" y1="7.62" x2="7.62" y2="-7.62" width="0.254" layer="94"/>
<wire x1="7.62" y1="-7.62" x2="-7.62" y2="-7.62" width="0.254" layer="94"/>
<wire x1="-7.62" y1="-7.62" x2="-7.62" y2="7.62" width="0.254" layer="94"/>
<pin name="4DOUT" x="-12.7" y="-5.08" length="middle"/>
<pin name="3VDD" x="-12.7" y="5.08" length="middle"/>
<pin name="2DIN" x="12.7" y="5.08" length="middle" rot="R180"/>
<pin name="1VSS" x="12.7" y="-5.08" length="middle" rot="R180"/>
<text x="-3.81" y="0" size="1.778" layer="94">SK6812</text>
<text x="15.24" y="-7.62" size="1.778" layer="95">&gt;NAME</text>
</symbol>
</symbols>
<devicesets>
<deviceset name="SK6812">
<gates>
<gate name="G$1" symbol="SK6812" x="50.8" y="-12.7"/>
</gates>
<devices>
<device name="" package="SK6812">
<connects>
<connect gate="G$1" pin="1VSS" pad="P$4"/>
<connect gate="G$1" pin="2DIN" pad="P$3"/>
<connect gate="G$1" pin="3VDD" pad="P$1"/>
<connect gate="G$1" pin="4DOUT" pad="P$2"/>
</connects>
<technologies>
<technology name=""/>
</technologies>
</device>
</devices>
</deviceset>
</devicesets>
</library>
<library name="supply1" urn="urn:adsk.eagle:library:371">
<description>&lt;b&gt;Supply Symbols&lt;/b&gt;&lt;p&gt;
 GND, VCC, 0V, +5V, -5V, etc.&lt;p&gt;
 Please keep in mind, that these devices are necessary for the
 automatic wiring of the supply signals.&lt;p&gt;
 The pin name defined in the symbol is identical to the net which is to be wired automatically.&lt;p&gt;
 In this library the device names are the same as the pin names of the symbols, therefore the correct signal names appear next to the supply symbols in the schematic.&lt;p&gt;
 &lt;author&gt;Created by librarian@cadsoft.de&lt;/author&gt;</description>
<packages>
</packages>
<symbols>
<symbol name="GND" urn="urn:adsk.eagle:symbol:26925/1" library_version="1">
<wire x1="-1.905" y1="0" x2="1.905" y2="0" width="0.254" layer="94"/>
<text x="-2.54" y="-2.54" size="1.778" layer="96">&gt;VALUE</text>
<pin name="GND" x="0" y="2.54" visible="off" length="short" direction="sup" rot="R270"/>
</symbol>
<symbol name="VCC" urn="urn:adsk.eagle:symbol:26928/1" library_version="1">
<wire x1="1.27" y1="-1.905" x2="0" y2="0" width="0.254" layer="94"/>
<wire x1="0" y1="0" x2="-1.27" y2="-1.905" width="0.254" layer="94"/>
<text x="-2.54" y="-2.54" size="1.778" layer="96" rot="R90">&gt;VALUE</text>
<pin name="VCC" x="0" y="-2.54" visible="off" length="short" direction="sup" rot="R90"/>
</symbol>
</symbols>
<devicesets>
<deviceset name="GND" urn="urn:adsk.eagle:component:26954/1" prefix="GND" library_version="1">
<description>&lt;b&gt;SUPPLY SYMBOL&lt;/b&gt;</description>
<gates>
<gate name="1" symbol="GND" x="0" y="0"/>
</gates>
<devices>
<device name="">
<technologies>
<technology name=""/>
</technologies>
</device>
</devices>
</deviceset>
<deviceset name="VCC" urn="urn:adsk.eagle:component:26957/1" prefix="P+" library_version="1">
<description>&lt;b&gt;SUPPLY SYMBOL&lt;/b&gt;</description>
<gates>
<gate name="VCC" symbol="VCC" x="0" y="0"/>
</gates>
<devices>
<device name="">
<technologies>
<technology name=""/>
</technologies>
</device>
</devices>
</deviceset>
</devicesets>
</library>
<library name="pinhead" urn="urn:adsk.eagle:library:325">
<description>&lt;b&gt;Pin Header Connectors&lt;/b&gt;&lt;p&gt;
&lt;author&gt;Created by librarian@cadsoft.de&lt;/author&gt;</description>
<packages>
<package name="1X04" urn="urn:adsk.eagle:footprint:22258/1" library_version="3">
<description>&lt;b&gt;PIN HEADER&lt;/b&gt;</description>
<wire x1="0" y1="0.635" x2="0.635" y2="1.27" width="0.1524" layer="21"/>
<wire x1="0.635" y1="1.27" x2="1.905" y2="1.27" width="0.1524" layer="21"/>
<wire x1="1.905" y1="1.27" x2="2.54" y2="0.635" width="0.1524" layer="21"/>
<wire x1="2.54" y1="0.635" x2="2.54" y2="-0.635" width="0.1524" layer="21"/>
<wire x1="2.54" y1="-0.635" x2="1.905" y2="-1.27" width="0.1524" layer="21"/>
<wire x1="1.905" y1="-1.27" x2="0.635" y2="-1.27" width="0.1524" layer="21"/>
<wire x1="0.635" y1="-1.27" x2="0" y2="-0.635" width="0.1524" layer="21"/>
<wire x1="-4.445" y1="1.27" x2="-3.175" y2="1.27" width="0.1524" layer="21"/>
<wire x1="-3.175" y1="1.27" x2="-2.54" y2="0.635" width="0.1524" layer="21"/>
<wire x1="-2.54" y1="0.635" x2="-2.54" y2="-0.635" width="0.1524" layer="21"/>
<wire x1="-2.54" y1="-0.635" x2="-3.175" y2="-1.27" width="0.1524" layer="21"/>
<wire x1="-2.54" y1="0.635" x2="-1.905" y2="1.27" width="0.1524" layer="21"/>
<wire x1="-1.905" y1="1.27" x2="-0.635" y2="1.27" width="0.1524" layer="21"/>
<wire x1="-0.635" y1="1.27" x2="0" y2="0.635" width="0.1524" layer="21"/>
<wire x1="0" y1="0.635" x2="0" y2="-0.635" width="0.1524" layer="21"/>
<wire x1="0" y1="-0.635" x2="-0.635" y2="-1.27" width="0.1524" layer="21"/>
<wire x1="-0.635" y1="-1.27" x2="-1.905" y2="-1.27" width="0.1524" layer="21"/>
<wire x1="-1.905" y1="-1.27" x2="-2.54" y2="-0.635" width="0.1524" layer="21"/>
<wire x1="-5.08" y1="0.635" x2="-5.08" y2="-0.635" width="0.1524" layer="21"/>
<wire x1="-4.445" y1="1.27" x2="-5.08" y2="0.635" width="0.1524" layer="21"/>
<wire x1="-5.08" y1="-0.635" x2="-4.445" y2="-1.27" width="0.1524" layer="21"/>
<wire x1="-3.175" y1="-1.27" x2="-4.445" y2="-1.27" width="0.1524" layer="21"/>
<wire x1="3.175" y1="1.27" x2="4.445" y2="1.27" width="0.1524" layer="21"/>
<wire x1="4.445" y1="1.27" x2="5.08" y2="0.635" width="0.1524" layer="21"/>
<wire x1="5.08" y1="0.635" x2="5.08" y2="-0.635" width="0.1524" layer="21"/>
<wire x1="5.08" y1="-0.635" x2="4.445" y2="-1.27" width="0.1524" layer="21"/>
<wire x1="3.175" y1="1.27" x2="2.54" y2="0.635" width="0.1524" layer="21"/>
<wire x1="2.54" y1="-0.635" x2="3.175" y2="-1.27" width="0.1524" layer="21"/>
<wire x1="4.445" y1="-1.27" x2="3.175" y2="-1.27" width="0.1524" layer="21"/>
<pad name="1" x="-3.81" y="0" drill="1.016" shape="long" rot="R90"/>
<pad name="2" x="-1.27" y="0" drill="1.016" shape="long" rot="R90"/>
<pad name="3" x="1.27" y="0" drill="1.016" shape="long" rot="R90"/>
<pad name="4" x="3.81" y="0" drill="1.016" shape="long" rot="R90"/>
<text x="-5.1562" y="1.8288" size="1.27" layer="25" ratio="10">&gt;NAME</text>
<text x="-5.08" y="-3.175" size="1.27" layer="27">&gt;VALUE</text>
<rectangle x1="1.016" y1="-0.254" x2="1.524" y2="0.254" layer="51"/>
<rectangle x1="-1.524" y1="-0.254" x2="-1.016" y2="0.254" layer="51"/>
<rectangle x1="-4.064" y1="-0.254" x2="-3.556" y2="0.254" layer="51"/>
<rectangle x1="3.556" y1="-0.254" x2="4.064" y2="0.254" layer="51"/>
</package>
<package name="1X04/90" urn="urn:adsk.eagle:footprint:22259/1" library_version="3">
<description>&lt;b&gt;PIN HEADER&lt;/b&gt;</description>
<wire x1="-5.08" y1="-1.905" x2="-2.54" y2="-1.905" width="0.1524" layer="21"/>
<wire x1="-2.54" y1="-1.905" x2="-2.54" y2="0.635" width="0.1524" layer="21"/>
<wire x1="-2.54" y1="0.635" x2="-5.08" y2="0.635" width="0.1524" layer="21"/>
<wire x1="-5.08" y1="0.635" x2="-5.08" y2="-1.905" width="0.1524" layer="21"/>
<wire x1="-3.81" y1="6.985" x2="-3.81" y2="1.27" width="0.762" layer="21"/>
<wire x1="-2.54" y1="-1.905" x2="0" y2="-1.905" width="0.1524" layer="21"/>
<wire x1="0" y1="-1.905" x2="0" y2="0.635" width="0.1524" layer="21"/>
<wire x1="0" y1="0.635" x2="-2.54" y2="0.635" width="0.1524" layer="21"/>
<wire x1="-1.27" y1="6.985" x2="-1.27" y2="1.27" width="0.762" layer="21"/>
<wire x1="0" y1="-1.905" x2="2.54" y2="-1.905" width="0.1524" layer="21"/>
<wire x1="2.54" y1="-1.905" x2="2.54" y2="0.635" width="0.1524" layer="21"/>
<wire x1="2.54" y1="0.635" x2="0" y2="0.635" width="0.1524" layer="21"/>
<wire x1="1.27" y1="6.985" x2="1.27" y2="1.27" width="0.762" layer="21"/>
<wire x1="2.54" y1="-1.905" x2="5.08" y2="-1.905" width="0.1524" layer="21"/>
<wire x1="5.08" y1="-1.905" x2="5.08" y2="0.635" width="0.1524" layer="21"/>
<wire x1="5.08" y1="0.635" x2="2.54" y2="0.635" width="0.1524" layer="21"/>
<wire x1="3.81" y1="6.985" x2="3.81" y2="1.27" width="0.762" layer="21"/>
<pad name="1" x="-3.81" y="-3.81" drill="1.016" shape="long" rot="R90"/>
<pad name="2" x="-1.27" y="-3.81" drill="1.016" shape="long" rot="R90"/>
<pad name="3" x="1.27" y="-3.81" drill="1.016" shape="long" rot="R90"/>
<pad name="4" x="3.81" y="-3.81" drill="1.016" shape="long" rot="R90"/>
<text x="-5.715" y="-3.81" size="1.27" layer="25" ratio="10" rot="R90">&gt;NAME</text>
<text x="6.985" y="-4.445" size="1.27" layer="27" rot="R90">&gt;VALUE</text>
<rectangle x1="-4.191" y1="0.635" x2="-3.429" y2="1.143" layer="21"/>
<rectangle x1="-1.651" y1="0.635" x2="-0.889" y2="1.143" layer="21"/>
<rectangle x1="0.889" y1="0.635" x2="1.651" y2="1.143" layer="21"/>
<rectangle x1="3.429" y1="0.635" x2="4.191" y2="1.143" layer="21"/>
<rectangle x1="-4.191" y1="-2.921" x2="-3.429" y2="-1.905" layer="21"/>
<rectangle x1="-1.651" y1="-2.921" x2="-0.889" y2="-1.905" layer="21"/>
<rectangle x1="0.889" y1="-2.921" x2="1.651" y2="-1.905" layer="21"/>
<rectangle x1="3.429" y1="-2.921" x2="4.191" y2="-1.905" layer="21"/>
</package>
<package name="1X01" urn="urn:adsk.eagle:footprint:22382/1" library_version="3">
<description>&lt;b&gt;PIN HEADER&lt;/b&gt;</description>
<wire x1="-0.635" y1="1.27" x2="0.635" y2="1.27" width="0.1524" layer="21"/>
<wire x1="0.635" y1="1.27" x2="1.27" y2="0.635" width="0.1524" layer="21"/>
<wire x1="1.27" y1="0.635" x2="1.27" y2="-0.635" width="0.1524" layer="21"/>
<wire x1="1.27" y1="-0.635" x2="0.635" y2="-1.27" width="0.1524" layer="21"/>
<wire x1="-1.27" y1="0.635" x2="-1.27" y2="-0.635" width="0.1524" layer="21"/>
<wire x1="-0.635" y1="1.27" x2="-1.27" y2="0.635" width="0.1524" layer="21"/>
<wire x1="-1.27" y1="-0.635" x2="-0.635" y2="-1.27" width="0.1524" layer="21"/>
<wire x1="0.635" y1="-1.27" x2="-0.635" y2="-1.27" width="0.1524" layer="21"/>
<pad name="1" x="0" y="0" drill="1.016" shape="octagon"/>
<text x="-1.3462" y="1.8288" size="1.27" layer="25" ratio="10">&gt;NAME</text>
<text x="-1.27" y="-3.175" size="1.27" layer="27">&gt;VALUE</text>
<rectangle x1="-0.254" y1="-0.254" x2="0.254" y2="0.254" layer="51"/>
</package>
</packages>
<packages3d>
<package3d name="1X04" urn="urn:adsk.eagle:package:22407/2" type="model" library_version="3">
<description>PIN HEADER</description>
</package3d>
<package3d name="1X04/90" urn="urn:adsk.eagle:package:22404/2" type="model" library_version="3">
<description>PIN HEADER</description>
</package3d>
<package3d name="1X01" urn="urn:adsk.eagle:package:22485/2" type="model" library_version="3">
<description>PIN HEADER</description>
</package3d>
</packages3d>
<symbols>
<symbol name="PINHD4" urn="urn:adsk.eagle:symbol:22257/1" library_version="3">
<wire x1="-6.35" y1="-5.08" x2="1.27" y2="-5.08" width="0.4064" layer="94"/>
<wire x1="1.27" y1="-5.08" x2="1.27" y2="7.62" width="0.4064" layer="94"/>
<wire x1="1.27" y1="7.62" x2="-6.35" y2="7.62" width="0.4064" layer="94"/>
<wire x1="-6.35" y1="7.62" x2="-6.35" y2="-5.08" width="0.4064" layer="94"/>
<text x="-6.35" y="8.255" size="1.778" layer="95">&gt;NAME</text>
<text x="-6.35" y="-7.62" size="1.778" layer="96">&gt;VALUE</text>
<pin name="1" x="-2.54" y="5.08" visible="pad" length="short" direction="pas" function="dot"/>
<pin name="2" x="-2.54" y="2.54" visible="pad" length="short" direction="pas" function="dot"/>
<pin name="3" x="-2.54" y="0" visible="pad" length="short" direction="pas" function="dot"/>
<pin name="4" x="-2.54" y="-2.54" visible="pad" length="short" direction="pas" function="dot"/>
</symbol>
<symbol name="PINHD1" urn="urn:adsk.eagle:symbol:22381/1" library_version="3">
<wire x1="-6.35" y1="-2.54" x2="1.27" y2="-2.54" width="0.4064" layer="94"/>
<wire x1="1.27" y1="-2.54" x2="1.27" y2="2.54" width="0.4064" layer="94"/>
<wire x1="1.27" y1="2.54" x2="-6.35" y2="2.54" width="0.4064" layer="94"/>
<wire x1="-6.35" y1="2.54" x2="-6.35" y2="-2.54" width="0.4064" layer="94"/>
<text x="-6.35" y="3.175" size="1.778" layer="95">&gt;NAME</text>
<text x="-6.35" y="-5.08" size="1.778" layer="96">&gt;VALUE</text>
<pin name="1" x="-2.54" y="0" visible="pad" length="short" direction="pas" function="dot"/>
</symbol>
</symbols>
<devicesets>
<deviceset name="PINHD-1X4" urn="urn:adsk.eagle:component:22499/4" prefix="JP" uservalue="yes" library_version="3">
<description>&lt;b&gt;PIN HEADER&lt;/b&gt;</description>
<gates>
<gate name="A" symbol="PINHD4" x="0" y="0"/>
</gates>
<devices>
<device name="" package="1X04">
<connects>
<connect gate="A" pin="1" pad="1"/>
<connect gate="A" pin="2" pad="2"/>
<connect gate="A" pin="3" pad="3"/>
<connect gate="A" pin="4" pad="4"/>
</connects>
<package3dinstances>
<package3dinstance package3d_urn="urn:adsk.eagle:package:22407/2"/>
</package3dinstances>
<technologies>
<technology name=""/>
</technologies>
</device>
<device name="/90" package="1X04/90">
<connects>
<connect gate="A" pin="1" pad="1"/>
<connect gate="A" pin="2" pad="2"/>
<connect gate="A" pin="3" pad="3"/>
<connect gate="A" pin="4" pad="4"/>
</connects>
<package3dinstances>
<package3dinstance package3d_urn="urn:adsk.eagle:package:22404/2"/>
</package3dinstances>
<technologies>
<technology name=""/>
</technologies>
</device>
</devices>
</deviceset>
<deviceset name="PINHD-1X1" urn="urn:adsk.eagle:component:22540/2" prefix="JP" uservalue="yes" library_version="3">
<description>&lt;b&gt;PIN HEADER&lt;/b&gt;</description>
<gates>
<gate name="G$1" symbol="PINHD1" x="0" y="0"/>
</gates>
<devices>
<device name="" package="1X01">
<connects>
<connect gate="G$1" pin="1" pad="1"/>
</connects>
<package3dinstances>
<package3dinstance package3d_urn="urn:adsk.eagle:package:22485/2"/>
</package3dinstances>
<technologies>
<technology name=""/>
</technologies>
</device>
</devices>
</deviceset>
</devicesets>
</library>
</libraries>
<attributes>
</attributes>
<variantdefs>
</variantdefs>
<classes>
<class number="0" name="default" width="0" drill="0">
</class>
</classes>
<parts>
<part name="U$5" library="LED BOARD" deviceset="SK6812" device=""/>
<part name="GND5" library="supply1" library_urn="urn:adsk.eagle:library:371" deviceset="GND" device=""/>
<part name="P+5" library="supply1" library_urn="urn:adsk.eagle:library:371" deviceset="VCC" device=""/>
<part name="JP1" library="pinhead" library_urn="urn:adsk.eagle:library:325" deviceset="PINHD-1X4" device="" package3d_urn="urn:adsk.eagle:package:22407/2"/>
<part name="P+21" library="supply1" library_urn="urn:adsk.eagle:library:371" deviceset="VCC" device=""/>
<part name="GND22" library="supply1" library_urn="urn:adsk.eagle:library:371" deviceset="GND" device=""/>
<part name="U$1" library="LED BOARD" deviceset="SK6812" device=""/>
<part name="GND1" library="supply1" library_urn="urn:adsk.eagle:library:371" deviceset="GND" device=""/>
<part name="P+1" library="supply1" library_urn="urn:adsk.eagle:library:371" deviceset="VCC" device=""/>
<part name="U$2" library="LED BOARD" deviceset="SK6812" device=""/>
<part name="GND2" library="supply1" library_urn="urn:adsk.eagle:library:371" deviceset="GND" device=""/>
<part name="P+2" library="supply1" library_urn="urn:adsk.eagle:library:371" deviceset="VCC" device=""/>
<part name="U$3" library="LED BOARD" deviceset="SK6812" device=""/>
<part name="GND3" library="supply1" library_urn="urn:adsk.eagle:library:371" deviceset="GND" device=""/>
<part name="P+3" library="supply1" library_urn="urn:adsk.eagle:library:371" deviceset="VCC" device=""/>
<part name="U$4" library="LED BOARD" deviceset="SK6812" device=""/>
<part name="GND4" library="supply1" library_urn="urn:adsk.eagle:library:371" deviceset="GND" device=""/>
<part name="P+4" library="supply1" library_urn="urn:adsk.eagle:library:371" deviceset="VCC" device=""/>
<part name="U$6" library="LED BOARD" deviceset="SK6812" device=""/>
<part name="GND6" library="supply1" library_urn="urn:adsk.eagle:library:371" deviceset="GND" device=""/>
<part name="P+6" library="supply1" library_urn="urn:adsk.eagle:library:371" deviceset="VCC" device=""/>
<part name="U$7" library="LED BOARD" deviceset="SK6812" device=""/>
<part name="GND7" library="supply1" library_urn="urn:adsk.eagle:library:371" deviceset="GND" device=""/>
<part name="P+7" library="supply1" library_urn="urn:adsk.eagle:library:371" deviceset="VCC" device=""/>
<part name="U$8" library="LED BOARD" deviceset="SK6812" device=""/>
<part name="GND8" library="supply1" library_urn="urn:adsk.eagle:library:371" deviceset="GND" device=""/>
<part name="P+8" library="supply1" library_urn="urn:adsk.eagle:library:371" deviceset="VCC" device=""/>
<part name="U$9" library="LED BOARD" deviceset="SK6812" device=""/>
<part name="GND9" library="supply1" library_urn="urn:adsk.eagle:library:371" deviceset="GND" device=""/>
<part name="P+9" library="supply1" library_urn="urn:adsk.eagle:library:371" deviceset="VCC" device=""/>
<part name="U$10" library="LED BOARD" deviceset="SK6812" device=""/>
<part name="GND10" library="supply1" library_urn="urn:adsk.eagle:library:371" deviceset="GND" device=""/>
<part name="P+10" library="supply1" library_urn="urn:adsk.eagle:library:371" deviceset="VCC" device=""/>
<part name="U$11" library="LED BOARD" deviceset="SK6812" device=""/>
<part name="GND11" library="supply1" library_urn="urn:adsk.eagle:library:371" deviceset="GND" device=""/>
<part name="P+11" library="supply1" library_urn="urn:adsk.eagle:library:371" deviceset="VCC" device=""/>
<part name="U$12" library="LED BOARD" deviceset="SK6812" device=""/>
<part name="GND12" library="supply1" library_urn="urn:adsk.eagle:library:371" deviceset="GND" device=""/>
<part name="P+12" library="supply1" library_urn="urn:adsk.eagle:library:371" deviceset="VCC" device=""/>
<part name="U$13" library="LED BOARD" deviceset="SK6812" device=""/>
<part name="GND13" library="supply1" library_urn="urn:adsk.eagle:library:371" deviceset="GND" device=""/>
<part name="P+13" library="supply1" library_urn="urn:adsk.eagle:library:371" deviceset="VCC" device=""/>
<part name="U$14" library="LED BOARD" deviceset="SK6812" device=""/>
<part name="GND14" library="supply1" library_urn="urn:adsk.eagle:library:371" deviceset="GND" device=""/>
<part name="P+14" library="supply1" library_urn="urn:adsk.eagle:library:371" deviceset="VCC" device=""/>
<part name="U$15" library="LED BOARD" deviceset="SK6812" device=""/>
<part name="GND15" library="supply1" library_urn="urn:adsk.eagle:library:371" deviceset="GND" device=""/>
<part name="P+15" library="supply1" library_urn="urn:adsk.eagle:library:371" deviceset="VCC" device=""/>
<part name="U$16" library="LED BOARD" deviceset="SK6812" device=""/>
<part name="GND16" library="supply1" library_urn="urn:adsk.eagle:library:371" deviceset="GND" device=""/>
<part name="P+16" library="supply1" library_urn="urn:adsk.eagle:library:371" deviceset="VCC" device=""/>
<part name="U$17" library="LED BOARD" deviceset="SK6812" device=""/>
<part name="GND17" library="supply1" library_urn="urn:adsk.eagle:library:371" deviceset="GND" device=""/>
<part name="P+17" library="supply1" library_urn="urn:adsk.eagle:library:371" deviceset="VCC" device=""/>
<part name="U$18" library="LED BOARD" deviceset="SK6812" device=""/>
<part name="GND18" library="supply1" library_urn="urn:adsk.eagle:library:371" deviceset="GND" device=""/>
<part name="P+18" library="supply1" library_urn="urn:adsk.eagle:library:371" deviceset="VCC" device=""/>
<part name="U$19" library="LED BOARD" deviceset="SK6812" device=""/>
<part name="GND19" library="supply1" library_urn="urn:adsk.eagle:library:371" deviceset="GND" device=""/>
<part name="P+19" library="supply1" library_urn="urn:adsk.eagle:library:371" deviceset="VCC" device=""/>
<part name="U$20" library="LED BOARD" deviceset="SK6812" device=""/>
<part name="GND20" library="supply1" library_urn="urn:adsk.eagle:library:371" deviceset="GND" device=""/>
<part name="P+20" library="supply1" library_urn="urn:adsk.eagle:library:371" deviceset="VCC" device=""/>
<part name="JP2" library="pinhead" library_urn="urn:adsk.eagle:library:325" deviceset="PINHD-1X1" device="" package3d_urn="urn:adsk.eagle:package:22485/2"/>
</parts>
<sheets>
<sheet>
<plain>
</plain>
<instances>
<instance part="U$5" gate="G$1" x="203.2" y="88.9"/>
<instance part="GND5" gate="1" x="215.9" y="78.74"/>
<instance part="P+5" gate="VCC" x="190.5" y="99.06"/>
<instance part="JP1" gate="A" x="233.68" y="88.9"/>
<instance part="P+21" gate="VCC" x="223.52" y="86.36" rot="R90"/>
<instance part="GND22" gate="1" x="223.52" y="91.44" rot="R270"/>
<instance part="U$1" gate="G$1" x="167.64" y="88.9"/>
<instance part="GND1" gate="1" x="180.34" y="78.74"/>
<instance part="P+1" gate="VCC" x="154.94" y="99.06"/>
<instance part="U$2" gate="G$1" x="132.08" y="88.9"/>
<instance part="GND2" gate="1" x="144.78" y="78.74"/>
<instance part="P+2" gate="VCC" x="119.38" y="99.06"/>
<instance part="U$3" gate="G$1" x="96.52" y="88.9"/>
<instance part="GND3" gate="1" x="109.22" y="78.74"/>
<instance part="P+3" gate="VCC" x="83.82" y="99.06"/>
<instance part="U$4" gate="G$1" x="60.96" y="88.9"/>
<instance part="GND4" gate="1" x="73.66" y="78.74"/>
<instance part="P+4" gate="VCC" x="48.26" y="99.06"/>
<instance part="U$6" gate="G$1" x="203.2" y="63.5"/>
<instance part="GND6" gate="1" x="215.9" y="53.34"/>
<instance part="P+6" gate="VCC" x="190.5" y="73.66"/>
<instance part="U$7" gate="G$1" x="167.64" y="63.5"/>
<instance part="GND7" gate="1" x="180.34" y="53.34"/>
<instance part="P+7" gate="VCC" x="154.94" y="73.66"/>
<instance part="U$8" gate="G$1" x="132.08" y="63.5"/>
<instance part="GND8" gate="1" x="144.78" y="53.34"/>
<instance part="P+8" gate="VCC" x="119.38" y="73.66"/>
<instance part="U$9" gate="G$1" x="96.52" y="63.5"/>
<instance part="GND9" gate="1" x="109.22" y="53.34"/>
<instance part="P+9" gate="VCC" x="83.82" y="73.66"/>
<instance part="U$10" gate="G$1" x="60.96" y="63.5"/>
<instance part="GND10" gate="1" x="73.66" y="53.34"/>
<instance part="P+10" gate="VCC" x="48.26" y="73.66"/>
<instance part="U$11" gate="G$1" x="203.2" y="35.56"/>
<instance part="GND11" gate="1" x="215.9" y="25.4"/>
<instance part="P+11" gate="VCC" x="190.5" y="45.72"/>
<instance part="U$12" gate="G$1" x="167.64" y="35.56"/>
<instance part="GND12" gate="1" x="180.34" y="25.4"/>
<instance part="P+12" gate="VCC" x="154.94" y="45.72"/>
<instance part="U$13" gate="G$1" x="132.08" y="35.56"/>
<instance part="GND13" gate="1" x="144.78" y="25.4"/>
<instance part="P+13" gate="VCC" x="119.38" y="45.72"/>
<instance part="U$14" gate="G$1" x="96.52" y="35.56"/>
<instance part="GND14" gate="1" x="109.22" y="25.4"/>
<instance part="P+14" gate="VCC" x="83.82" y="45.72"/>
<instance part="U$15" gate="G$1" x="60.96" y="35.56"/>
<instance part="GND15" gate="1" x="73.66" y="25.4"/>
<instance part="P+15" gate="VCC" x="48.26" y="45.72"/>
<instance part="U$16" gate="G$1" x="203.2" y="5.08"/>
<instance part="GND16" gate="1" x="215.9" y="-5.08"/>
<instance part="P+16" gate="VCC" x="190.5" y="15.24"/>
<instance part="U$17" gate="G$1" x="167.64" y="5.08"/>
<instance part="GND17" gate="1" x="180.34" y="-5.08"/>
<instance part="P+17" gate="VCC" x="154.94" y="15.24"/>
<instance part="U$18" gate="G$1" x="132.08" y="5.08"/>
<instance part="GND18" gate="1" x="144.78" y="-5.08"/>
<instance part="P+18" gate="VCC" x="119.38" y="15.24"/>
<instance part="U$19" gate="G$1" x="96.52" y="5.08"/>
<instance part="GND19" gate="1" x="109.22" y="-5.08"/>
<instance part="P+19" gate="VCC" x="83.82" y="15.24"/>
<instance part="U$20" gate="G$1" x="60.96" y="5.08"/>
<instance part="GND20" gate="1" x="73.66" y="-5.08"/>
<instance part="P+20" gate="VCC" x="48.26" y="15.24"/>
<instance part="JP2" gate="G$1" x="40.64" y="0" rot="R180"/>
</instances>
<busses>
</busses>
<nets>
<net name="N$4" class="0">
<segment>
<wire x1="180.34" y1="93.98" x2="185.42" y2="93.98" width="0.1524" layer="91"/>
<wire x1="185.42" y1="93.98" x2="185.42" y2="83.82" width="0.1524" layer="91"/>
<pinref part="U$5" gate="G$1" pin="4DOUT"/>
<wire x1="185.42" y1="83.82" x2="190.5" y2="83.82" width="0.1524" layer="91"/>
<pinref part="U$1" gate="G$1" pin="2DIN"/>
</segment>
</net>
<net name="GND" class="0">
<segment>
<pinref part="JP1" gate="A" pin="2"/>
<pinref part="GND22" gate="1" pin="GND"/>
<wire x1="226.06" y1="91.44" x2="231.14" y2="91.44" width="0.1524" layer="91"/>
<pinref part="JP1" gate="A" pin="3"/>
<wire x1="226.06" y1="91.44" x2="226.06" y2="88.9" width="0.1524" layer="91"/>
<wire x1="226.06" y1="88.9" x2="231.14" y2="88.9" width="0.1524" layer="91"/>
<junction x="226.06" y="91.44"/>
</segment>
<segment>
<pinref part="U$5" gate="G$1" pin="1VSS"/>
<pinref part="GND5" gate="1" pin="GND"/>
<wire x1="215.9" y1="81.28" x2="215.9" y2="83.82" width="0.1524" layer="91"/>
</segment>
<segment>
<wire x1="180.34" y1="81.28" x2="180.34" y2="83.82" width="0.1524" layer="91"/>
<pinref part="U$1" gate="G$1" pin="1VSS"/>
<pinref part="GND1" gate="1" pin="GND"/>
</segment>
<segment>
<wire x1="144.78" y1="81.28" x2="144.78" y2="83.82" width="0.1524" layer="91"/>
<pinref part="U$2" gate="G$1" pin="1VSS"/>
<pinref part="GND2" gate="1" pin="GND"/>
</segment>
<segment>
<wire x1="109.22" y1="81.28" x2="109.22" y2="83.82" width="0.1524" layer="91"/>
<pinref part="U$3" gate="G$1" pin="1VSS"/>
<pinref part="GND3" gate="1" pin="GND"/>
</segment>
<segment>
<wire x1="73.66" y1="81.28" x2="73.66" y2="83.82" width="0.1524" layer="91"/>
<pinref part="U$4" gate="G$1" pin="1VSS"/>
<pinref part="GND4" gate="1" pin="GND"/>
</segment>
<segment>
<pinref part="U$6" gate="G$1" pin="1VSS"/>
<pinref part="GND6" gate="1" pin="GND"/>
<wire x1="215.9" y1="55.88" x2="215.9" y2="58.42" width="0.1524" layer="91"/>
</segment>
<segment>
<wire x1="180.34" y1="55.88" x2="180.34" y2="58.42" width="0.1524" layer="91"/>
<pinref part="U$7" gate="G$1" pin="1VSS"/>
<pinref part="GND7" gate="1" pin="GND"/>
</segment>
<segment>
<wire x1="144.78" y1="55.88" x2="144.78" y2="58.42" width="0.1524" layer="91"/>
<pinref part="U$8" gate="G$1" pin="1VSS"/>
<pinref part="GND8" gate="1" pin="GND"/>
</segment>
<segment>
<wire x1="109.22" y1="55.88" x2="109.22" y2="58.42" width="0.1524" layer="91"/>
<pinref part="U$9" gate="G$1" pin="1VSS"/>
<pinref part="GND9" gate="1" pin="GND"/>
</segment>
<segment>
<wire x1="73.66" y1="55.88" x2="73.66" y2="58.42" width="0.1524" layer="91"/>
<pinref part="U$10" gate="G$1" pin="1VSS"/>
<pinref part="GND10" gate="1" pin="GND"/>
</segment>
<segment>
<pinref part="U$11" gate="G$1" pin="1VSS"/>
<pinref part="GND11" gate="1" pin="GND"/>
<wire x1="215.9" y1="27.94" x2="215.9" y2="30.48" width="0.1524" layer="91"/>
</segment>
<segment>
<wire x1="180.34" y1="27.94" x2="180.34" y2="30.48" width="0.1524" layer="91"/>
<pinref part="U$12" gate="G$1" pin="1VSS"/>
<pinref part="GND12" gate="1" pin="GND"/>
</segment>
<segment>
<wire x1="144.78" y1="27.94" x2="144.78" y2="30.48" width="0.1524" layer="91"/>
<pinref part="U$13" gate="G$1" pin="1VSS"/>
<pinref part="GND13" gate="1" pin="GND"/>
</segment>
<segment>
<wire x1="109.22" y1="27.94" x2="109.22" y2="30.48" width="0.1524" layer="91"/>
<pinref part="U$14" gate="G$1" pin="1VSS"/>
<pinref part="GND14" gate="1" pin="GND"/>
</segment>
<segment>
<wire x1="73.66" y1="27.94" x2="73.66" y2="30.48" width="0.1524" layer="91"/>
<pinref part="U$15" gate="G$1" pin="1VSS"/>
<pinref part="GND15" gate="1" pin="GND"/>
</segment>
<segment>
<pinref part="U$16" gate="G$1" pin="1VSS"/>
<pinref part="GND16" gate="1" pin="GND"/>
<wire x1="215.9" y1="-2.54" x2="215.9" y2="0" width="0.1524" layer="91"/>
</segment>
<segment>
<wire x1="180.34" y1="-2.54" x2="180.34" y2="0" width="0.1524" layer="91"/>
<pinref part="U$17" gate="G$1" pin="1VSS"/>
<pinref part="GND17" gate="1" pin="GND"/>
</segment>
<segment>
<wire x1="144.78" y1="-2.54" x2="144.78" y2="0" width="0.1524" layer="91"/>
<pinref part="U$18" gate="G$1" pin="1VSS"/>
<pinref part="GND18" gate="1" pin="GND"/>
</segment>
<segment>
<wire x1="109.22" y1="-2.54" x2="109.22" y2="0" width="0.1524" layer="91"/>
<pinref part="U$19" gate="G$1" pin="1VSS"/>
<pinref part="GND19" gate="1" pin="GND"/>
</segment>
<segment>
<wire x1="73.66" y1="-2.54" x2="73.66" y2="0" width="0.1524" layer="91"/>
<pinref part="U$20" gate="G$1" pin="1VSS"/>
<pinref part="GND20" gate="1" pin="GND"/>
</segment>
</net>
<net name="VCC" class="0">
<segment>
<pinref part="JP1" gate="A" pin="4"/>
<pinref part="P+21" gate="VCC" pin="VCC"/>
<wire x1="226.06" y1="86.36" x2="231.14" y2="86.36" width="0.1524" layer="91"/>
</segment>
<segment>
<pinref part="U$5" gate="G$1" pin="3VDD"/>
<pinref part="P+5" gate="VCC" pin="VCC"/>
<wire x1="190.5" y1="96.52" x2="190.5" y2="93.98" width="0.1524" layer="91"/>
</segment>
<segment>
<pinref part="U$1" gate="G$1" pin="3VDD"/>
<pinref part="P+1" gate="VCC" pin="VCC"/>
<wire x1="154.94" y1="96.52" x2="154.94" y2="93.98" width="0.1524" layer="91"/>
</segment>
<segment>
<pinref part="U$2" gate="G$1" pin="3VDD"/>
<pinref part="P+2" gate="VCC" pin="VCC"/>
<wire x1="119.38" y1="96.52" x2="119.38" y2="93.98" width="0.1524" layer="91"/>
</segment>
<segment>
<pinref part="U$3" gate="G$1" pin="3VDD"/>
<pinref part="P+3" gate="VCC" pin="VCC"/>
<wire x1="83.82" y1="96.52" x2="83.82" y2="93.98" width="0.1524" layer="91"/>
</segment>
<segment>
<pinref part="U$4" gate="G$1" pin="3VDD"/>
<pinref part="P+4" gate="VCC" pin="VCC"/>
<wire x1="48.26" y1="96.52" x2="48.26" y2="93.98" width="0.1524" layer="91"/>
</segment>
<segment>
<pinref part="U$6" gate="G$1" pin="3VDD"/>
<pinref part="P+6" gate="VCC" pin="VCC"/>
<wire x1="190.5" y1="71.12" x2="190.5" y2="68.58" width="0.1524" layer="91"/>
</segment>
<segment>
<pinref part="U$7" gate="G$1" pin="3VDD"/>
<pinref part="P+7" gate="VCC" pin="VCC"/>
<wire x1="154.94" y1="71.12" x2="154.94" y2="68.58" width="0.1524" layer="91"/>
</segment>
<segment>
<pinref part="U$8" gate="G$1" pin="3VDD"/>
<pinref part="P+8" gate="VCC" pin="VCC"/>
<wire x1="119.38" y1="71.12" x2="119.38" y2="68.58" width="0.1524" layer="91"/>
</segment>
<segment>
<pinref part="U$9" gate="G$1" pin="3VDD"/>
<pinref part="P+9" gate="VCC" pin="VCC"/>
<wire x1="83.82" y1="71.12" x2="83.82" y2="68.58" width="0.1524" layer="91"/>
</segment>
<segment>
<pinref part="U$10" gate="G$1" pin="3VDD"/>
<pinref part="P+10" gate="VCC" pin="VCC"/>
<wire x1="48.26" y1="71.12" x2="48.26" y2="68.58" width="0.1524" layer="91"/>
</segment>
<segment>
<pinref part="U$11" gate="G$1" pin="3VDD"/>
<pinref part="P+11" gate="VCC" pin="VCC"/>
<wire x1="190.5" y1="43.18" x2="190.5" y2="40.64" width="0.1524" layer="91"/>
</segment>
<segment>
<pinref part="U$12" gate="G$1" pin="3VDD"/>
<pinref part="P+12" gate="VCC" pin="VCC"/>
<wire x1="154.94" y1="43.18" x2="154.94" y2="40.64" width="0.1524" layer="91"/>
</segment>
<segment>
<pinref part="U$13" gate="G$1" pin="3VDD"/>
<pinref part="P+13" gate="VCC" pin="VCC"/>
<wire x1="119.38" y1="43.18" x2="119.38" y2="40.64" width="0.1524" layer="91"/>
</segment>
<segment>
<pinref part="U$14" gate="G$1" pin="3VDD"/>
<pinref part="P+14" gate="VCC" pin="VCC"/>
<wire x1="83.82" y1="43.18" x2="83.82" y2="40.64" width="0.1524" layer="91"/>
</segment>
<segment>
<pinref part="U$15" gate="G$1" pin="3VDD"/>
<pinref part="P+15" gate="VCC" pin="VCC"/>
<wire x1="48.26" y1="43.18" x2="48.26" y2="40.64" width="0.1524" layer="91"/>
</segment>
<segment>
<pinref part="U$16" gate="G$1" pin="3VDD"/>
<pinref part="P+16" gate="VCC" pin="VCC"/>
<wire x1="190.5" y1="12.7" x2="190.5" y2="10.16" width="0.1524" layer="91"/>
</segment>
<segment>
<pinref part="U$17" gate="G$1" pin="3VDD"/>
<pinref part="P+17" gate="VCC" pin="VCC"/>
<wire x1="154.94" y1="12.7" x2="154.94" y2="10.16" width="0.1524" layer="91"/>
</segment>
<segment>
<pinref part="U$18" gate="G$1" pin="3VDD"/>
<pinref part="P+18" gate="VCC" pin="VCC"/>
<wire x1="119.38" y1="12.7" x2="119.38" y2="10.16" width="0.1524" layer="91"/>
</segment>
<segment>
<pinref part="U$19" gate="G$1" pin="3VDD"/>
<pinref part="P+19" gate="VCC" pin="VCC"/>
<wire x1="83.82" y1="12.7" x2="83.82" y2="10.16" width="0.1524" layer="91"/>
</segment>
<segment>
<pinref part="U$20" gate="G$1" pin="3VDD"/>
<pinref part="P+20" gate="VCC" pin="VCC"/>
<wire x1="48.26" y1="12.7" x2="48.26" y2="10.16" width="0.1524" layer="91"/>
</segment>
</net>
<net name="N$20" class="0">
<segment>
<pinref part="JP1" gate="A" pin="1"/>
<pinref part="U$5" gate="G$1" pin="2DIN"/>
<wire x1="231.14" y1="93.98" x2="215.9" y2="93.98" width="0.1524" layer="91"/>
</segment>
</net>
<net name="N$1" class="0">
<segment>
<wire x1="144.78" y1="93.98" x2="149.86" y2="93.98" width="0.1524" layer="91"/>
<wire x1="149.86" y1="93.98" x2="149.86" y2="83.82" width="0.1524" layer="91"/>
<pinref part="U$1" gate="G$1" pin="4DOUT"/>
<wire x1="149.86" y1="83.82" x2="154.94" y2="83.82" width="0.1524" layer="91"/>
<pinref part="U$2" gate="G$1" pin="2DIN"/>
</segment>
</net>
<net name="N$2" class="0">
<segment>
<wire x1="109.22" y1="93.98" x2="114.3" y2="93.98" width="0.1524" layer="91"/>
<wire x1="114.3" y1="93.98" x2="114.3" y2="83.82" width="0.1524" layer="91"/>
<pinref part="U$2" gate="G$1" pin="4DOUT"/>
<wire x1="114.3" y1="83.82" x2="119.38" y2="83.82" width="0.1524" layer="91"/>
<pinref part="U$3" gate="G$1" pin="2DIN"/>
</segment>
</net>
<net name="N$3" class="0">
<segment>
<wire x1="73.66" y1="93.98" x2="78.74" y2="93.98" width="0.1524" layer="91"/>
<wire x1="78.74" y1="93.98" x2="78.74" y2="83.82" width="0.1524" layer="91"/>
<pinref part="U$3" gate="G$1" pin="4DOUT"/>
<wire x1="78.74" y1="83.82" x2="83.82" y2="83.82" width="0.1524" layer="91"/>
<pinref part="U$4" gate="G$1" pin="2DIN"/>
</segment>
</net>
<net name="N$5" class="0">
<segment>
<wire x1="180.34" y1="68.58" x2="185.42" y2="68.58" width="0.1524" layer="91"/>
<wire x1="185.42" y1="68.58" x2="185.42" y2="58.42" width="0.1524" layer="91"/>
<pinref part="U$6" gate="G$1" pin="4DOUT"/>
<wire x1="185.42" y1="58.42" x2="190.5" y2="58.42" width="0.1524" layer="91"/>
<pinref part="U$7" gate="G$1" pin="2DIN"/>
</segment>
</net>
<net name="N$7" class="0">
<segment>
<wire x1="144.78" y1="68.58" x2="149.86" y2="68.58" width="0.1524" layer="91"/>
<wire x1="149.86" y1="68.58" x2="149.86" y2="58.42" width="0.1524" layer="91"/>
<pinref part="U$7" gate="G$1" pin="4DOUT"/>
<wire x1="149.86" y1="58.42" x2="154.94" y2="58.42" width="0.1524" layer="91"/>
<pinref part="U$8" gate="G$1" pin="2DIN"/>
</segment>
</net>
<net name="N$8" class="0">
<segment>
<wire x1="109.22" y1="68.58" x2="114.3" y2="68.58" width="0.1524" layer="91"/>
<wire x1="114.3" y1="68.58" x2="114.3" y2="58.42" width="0.1524" layer="91"/>
<pinref part="U$8" gate="G$1" pin="4DOUT"/>
<wire x1="114.3" y1="58.42" x2="119.38" y2="58.42" width="0.1524" layer="91"/>
<pinref part="U$9" gate="G$1" pin="2DIN"/>
</segment>
</net>
<net name="N$9" class="0">
<segment>
<wire x1="73.66" y1="68.58" x2="78.74" y2="68.58" width="0.1524" layer="91"/>
<wire x1="78.74" y1="68.58" x2="78.74" y2="58.42" width="0.1524" layer="91"/>
<pinref part="U$9" gate="G$1" pin="4DOUT"/>
<wire x1="78.74" y1="58.42" x2="83.82" y2="58.42" width="0.1524" layer="91"/>
<pinref part="U$10" gate="G$1" pin="2DIN"/>
</segment>
</net>
<net name="N$6" class="0">
<segment>
<wire x1="180.34" y1="40.64" x2="185.42" y2="40.64" width="0.1524" layer="91"/>
<wire x1="185.42" y1="40.64" x2="185.42" y2="30.48" width="0.1524" layer="91"/>
<pinref part="U$11" gate="G$1" pin="4DOUT"/>
<wire x1="185.42" y1="30.48" x2="190.5" y2="30.48" width="0.1524" layer="91"/>
<pinref part="U$12" gate="G$1" pin="2DIN"/>
</segment>
</net>
<net name="N$10" class="0">
<segment>
<wire x1="144.78" y1="40.64" x2="149.86" y2="40.64" width="0.1524" layer="91"/>
<wire x1="149.86" y1="40.64" x2="149.86" y2="30.48" width="0.1524" layer="91"/>
<pinref part="U$12" gate="G$1" pin="4DOUT"/>
<wire x1="149.86" y1="30.48" x2="154.94" y2="30.48" width="0.1524" layer="91"/>
<pinref part="U$13" gate="G$1" pin="2DIN"/>
</segment>
</net>
<net name="N$11" class="0">
<segment>
<wire x1="109.22" y1="40.64" x2="114.3" y2="40.64" width="0.1524" layer="91"/>
<wire x1="114.3" y1="40.64" x2="114.3" y2="30.48" width="0.1524" layer="91"/>
<pinref part="U$13" gate="G$1" pin="4DOUT"/>
<wire x1="114.3" y1="30.48" x2="119.38" y2="30.48" width="0.1524" layer="91"/>
<pinref part="U$14" gate="G$1" pin="2DIN"/>
</segment>
</net>
<net name="N$12" class="0">
<segment>
<wire x1="73.66" y1="40.64" x2="78.74" y2="40.64" width="0.1524" layer="91"/>
<wire x1="78.74" y1="40.64" x2="78.74" y2="30.48" width="0.1524" layer="91"/>
<pinref part="U$14" gate="G$1" pin="4DOUT"/>
<wire x1="78.74" y1="30.48" x2="83.82" y2="30.48" width="0.1524" layer="91"/>
<pinref part="U$15" gate="G$1" pin="2DIN"/>
</segment>
</net>
<net name="N$13" class="0">
<segment>
<wire x1="180.34" y1="10.16" x2="185.42" y2="10.16" width="0.1524" layer="91"/>
<wire x1="185.42" y1="10.16" x2="185.42" y2="0" width="0.1524" layer="91"/>
<pinref part="U$16" gate="G$1" pin="4DOUT"/>
<wire x1="185.42" y1="0" x2="190.5" y2="0" width="0.1524" layer="91"/>
<pinref part="U$17" gate="G$1" pin="2DIN"/>
</segment>
</net>
<net name="N$14" class="0">
<segment>
<wire x1="144.78" y1="10.16" x2="149.86" y2="10.16" width="0.1524" layer="91"/>
<wire x1="149.86" y1="10.16" x2="149.86" y2="0" width="0.1524" layer="91"/>
<pinref part="U$17" gate="G$1" pin="4DOUT"/>
<wire x1="149.86" y1="0" x2="154.94" y2="0" width="0.1524" layer="91"/>
<pinref part="U$18" gate="G$1" pin="2DIN"/>
</segment>
</net>
<net name="N$15" class="0">
<segment>
<wire x1="109.22" y1="10.16" x2="114.3" y2="10.16" width="0.1524" layer="91"/>
<wire x1="114.3" y1="10.16" x2="114.3" y2="0" width="0.1524" layer="91"/>
<pinref part="U$18" gate="G$1" pin="4DOUT"/>
<wire x1="114.3" y1="0" x2="119.38" y2="0" width="0.1524" layer="91"/>
<pinref part="U$19" gate="G$1" pin="2DIN"/>
</segment>
</net>
<net name="N$16" class="0">
<segment>
<wire x1="73.66" y1="10.16" x2="78.74" y2="10.16" width="0.1524" layer="91"/>
<wire x1="78.74" y1="10.16" x2="78.74" y2="0" width="0.1524" layer="91"/>
<pinref part="U$19" gate="G$1" pin="4DOUT"/>
<wire x1="78.74" y1="0" x2="83.82" y2="0" width="0.1524" layer="91"/>
<pinref part="U$20" gate="G$1" pin="2DIN"/>
</segment>
</net>
<net name="N$17" class="0">
<segment>
<pinref part="U$4" gate="G$1" pin="4DOUT"/>
<wire x1="48.26" y1="83.82" x2="48.26" y2="76.2" width="0.1524" layer="91"/>
<wire x1="48.26" y1="76.2" x2="215.9" y2="76.2" width="0.1524" layer="91"/>
<pinref part="U$6" gate="G$1" pin="2DIN"/>
<wire x1="215.9" y1="76.2" x2="215.9" y2="68.58" width="0.1524" layer="91"/>
</segment>
</net>
<net name="N$18" class="0">
<segment>
<pinref part="U$10" gate="G$1" pin="4DOUT"/>
<wire x1="48.26" y1="58.42" x2="48.26" y2="50.8" width="0.1524" layer="91"/>
<pinref part="U$11" gate="G$1" pin="2DIN"/>
<wire x1="48.26" y1="50.8" x2="215.9" y2="50.8" width="0.1524" layer="91"/>
<wire x1="215.9" y1="50.8" x2="215.9" y2="40.64" width="0.1524" layer="91"/>
</segment>
</net>
<net name="N$19" class="0">
<segment>
<pinref part="U$15" gate="G$1" pin="4DOUT"/>
<wire x1="48.26" y1="30.48" x2="48.26" y2="20.32" width="0.1524" layer="91"/>
<wire x1="48.26" y1="20.32" x2="215.9" y2="20.32" width="0.1524" layer="91"/>
<pinref part="U$16" gate="G$1" pin="2DIN"/>
<wire x1="215.9" y1="20.32" x2="215.9" y2="10.16" width="0.1524" layer="91"/>
</segment>
</net>
<net name="N$21" class="0">
<segment>
<pinref part="U$20" gate="G$1" pin="4DOUT"/>
<pinref part="JP2" gate="G$1" pin="1"/>
<wire x1="43.18" y1="0" x2="48.26" y2="0" width="0.1524" layer="91"/>
</segment>
</net>
</nets>
</sheet>
</sheets>
</schematic>
</drawing>
<compatibility>
<note version="8.2" severity="warning">
Since Version 8.2, EAGLE supports online libraries. The ids
of those online libraries will not be understood (or retained)
with this version.
</note>
<note version="8.3" severity="warning">
Since Version 8.3, EAGLE supports URNs for individual library
assets (packages, symbols, and devices). The URNs of those assets
will not be understood (or retained) with this version.
</note>
<note version="8.3" severity="warning">
Since Version 8.3, EAGLE supports the association of 3D packages
with devices in libraries, schematics, and board files. Those 3D
packages will not be understood (or retained) with this version.
</note>
</compatibility>
</eagle>
