<?xml version="1.0" encoding="utf-8"?>
<!DOCTYPE eagle SYSTEM "eagle.dtd">
<eagle version="8.5.1">
<drawing>
<settings>
<setting alwaysvectorfont="no"/>
<setting verticaltext="up"/>
</settings>
<grid distance="0.1" unitdist="mm" unit="mm" style="lines" multiple="1" display="no" altdistance="5" altunitdist="mil" altunit="mil"/>
<layers>
<layer number="1" name="Top" color="4" fill="1" visible="yes" active="yes"/>
<layer number="2" name="Route2" color="1" fill="3" visible="no" active="no"/>
<layer number="3" name="Route3" color="4" fill="3" visible="no" active="no"/>
<layer number="4" name="Route4" color="1" fill="4" visible="no" active="no"/>
<layer number="5" name="Route5" color="4" fill="4" visible="no" active="no"/>
<layer number="6" name="Route6" color="1" fill="8" visible="no" active="no"/>
<layer number="7" name="Route7" color="4" fill="8" visible="no" active="no"/>
<layer number="8" name="Route8" color="1" fill="2" visible="no" active="no"/>
<layer number="9" name="Route9" color="4" fill="2" visible="no" active="no"/>
<layer number="10" name="Route10" color="1" fill="7" visible="no" active="no"/>
<layer number="11" name="Route11" color="4" fill="7" visible="no" active="no"/>
<layer number="12" name="Route12" color="1" fill="5" visible="no" active="no"/>
<layer number="13" name="Route13" color="4" fill="5" visible="no" active="no"/>
<layer number="14" name="Route14" color="1" fill="6" visible="no" active="no"/>
<layer number="15" name="Route15" color="4" fill="6" visible="no" active="no"/>
<layer number="16" name="Bottom" color="1" fill="1" visible="yes" active="yes"/>
<layer number="17" name="Pads" color="2" fill="1" visible="yes" active="yes"/>
<layer number="18" name="Vias" color="2" fill="1" visible="yes" active="yes"/>
<layer number="19" name="Unrouted" color="6" fill="1" visible="yes" active="yes"/>
<layer number="20" name="Dimension" color="24" fill="1" visible="yes" active="yes"/>
<layer number="21" name="tPlace" color="7" fill="1" visible="yes" active="yes"/>
<layer number="22" name="bPlace" color="7" fill="1" visible="yes" active="yes"/>
<layer number="23" name="tOrigins" color="15" fill="1" visible="yes" active="yes"/>
<layer number="24" name="bOrigins" color="15" fill="1" visible="yes" active="yes"/>
<layer number="25" name="tNames" color="7" fill="1" visible="yes" active="yes"/>
<layer number="26" name="bNames" color="7" fill="1" visible="yes" active="yes"/>
<layer number="27" name="tValues" color="7" fill="1" visible="yes" active="yes"/>
<layer number="28" name="bValues" color="7" fill="1" visible="yes" active="yes"/>
<layer number="29" name="tStop" color="7" fill="3" visible="no" active="yes"/>
<layer number="30" name="bStop" color="7" fill="6" visible="no" active="yes"/>
<layer number="31" name="tCream" color="7" fill="4" visible="no" active="yes"/>
<layer number="32" name="bCream" color="7" fill="5" visible="no" active="yes"/>
<layer number="33" name="tFinish" color="6" fill="3" visible="no" active="yes"/>
<layer number="34" name="bFinish" color="6" fill="6" visible="no" active="yes"/>
<layer number="35" name="tGlue" color="7" fill="4" visible="no" active="yes"/>
<layer number="36" name="bGlue" color="7" fill="5" visible="no" active="yes"/>
<layer number="37" name="tTest" color="7" fill="1" visible="no" active="yes"/>
<layer number="38" name="bTest" color="7" fill="1" visible="no" active="yes"/>
<layer number="39" name="tKeepout" color="4" fill="11" visible="yes" active="yes"/>
<layer number="40" name="bKeepout" color="1" fill="11" visible="yes" active="yes"/>
<layer number="41" name="tRestrict" color="4" fill="10" visible="yes" active="yes"/>
<layer number="42" name="bRestrict" color="1" fill="10" visible="yes" active="yes"/>
<layer number="43" name="vRestrict" color="2" fill="10" visible="yes" active="yes"/>
<layer number="44" name="Drills" color="7" fill="1" visible="no" active="yes"/>
<layer number="45" name="Holes" color="7" fill="1" visible="yes" active="yes"/>
<layer number="46" name="Milling" color="3" fill="1" visible="no" active="yes"/>
<layer number="47" name="Measures" color="7" fill="1" visible="no" active="yes"/>
<layer number="48" name="Document" color="7" fill="1" visible="yes" active="yes"/>
<layer number="49" name="Reference" color="7" fill="1" visible="yes" active="yes"/>
<layer number="51" name="tDocu" color="7" fill="1" visible="yes" active="yes"/>
<layer number="52" name="bDocu" color="7" fill="1" visible="yes" active="yes"/>
<layer number="88" name="SimResults" color="9" fill="1" visible="no" active="no"/>
<layer number="89" name="SimProbes" color="9" fill="1" visible="no" active="no"/>
<layer number="90" name="Modules" color="5" fill="1" visible="no" active="no"/>
<layer number="91" name="Nets" color="2" fill="1" visible="no" active="no"/>
<layer number="92" name="Busses" color="1" fill="1" visible="no" active="no"/>
<layer number="93" name="Pins" color="2" fill="1" visible="no" active="no"/>
<layer number="94" name="Symbols" color="4" fill="1" visible="no" active="no"/>
<layer number="95" name="Names" color="7" fill="1" visible="no" active="no"/>
<layer number="96" name="Values" color="7" fill="1" visible="no" active="no"/>
<layer number="97" name="Info" color="7" fill="1" visible="no" active="no"/>
<layer number="98" name="Guide" color="6" fill="1" visible="no" active="no"/>
</layers>
<board>
<plain>
<circle x="27.94" y="27.94" radius="28" width="0.1524" layer="20"/>
<circle x="27.94" y="27.94" radius="13.5" width="0.1524" layer="21"/>
</plain>
<libraries>
<library name="pinhead" urn="urn:adsk.eagle:library:325">
<description>&lt;b&gt;Pin Header Connectors&lt;/b&gt;&lt;p&gt;
&lt;author&gt;Created by librarian@cadsoft.de&lt;/author&gt;</description>
<packages>
<package name="1X02" urn="urn:adsk.eagle:footprint:22309/1" library_version="3">
<description>&lt;b&gt;PIN HEADER&lt;/b&gt;</description>
<wire x1="-1.905" y1="1.27" x2="-0.635" y2="1.27" width="0.1524" layer="21"/>
<wire x1="-0.635" y1="1.27" x2="0" y2="0.635" width="0.1524" layer="21"/>
<wire x1="0" y1="0.635" x2="0" y2="-0.635" width="0.1524" layer="21"/>
<wire x1="0" y1="-0.635" x2="-0.635" y2="-1.27" width="0.1524" layer="21"/>
<wire x1="-2.54" y1="0.635" x2="-2.54" y2="-0.635" width="0.1524" layer="21"/>
<wire x1="-1.905" y1="1.27" x2="-2.54" y2="0.635" width="0.1524" layer="21"/>
<wire x1="-2.54" y1="-0.635" x2="-1.905" y2="-1.27" width="0.1524" layer="21"/>
<wire x1="-0.635" y1="-1.27" x2="-1.905" y2="-1.27" width="0.1524" layer="21"/>
<wire x1="0" y1="0.635" x2="0.635" y2="1.27" width="0.1524" layer="21"/>
<wire x1="0.635" y1="1.27" x2="1.905" y2="1.27" width="0.1524" layer="21"/>
<wire x1="1.905" y1="1.27" x2="2.54" y2="0.635" width="0.1524" layer="21"/>
<wire x1="2.54" y1="0.635" x2="2.54" y2="-0.635" width="0.1524" layer="21"/>
<wire x1="2.54" y1="-0.635" x2="1.905" y2="-1.27" width="0.1524" layer="21"/>
<wire x1="1.905" y1="-1.27" x2="0.635" y2="-1.27" width="0.1524" layer="21"/>
<wire x1="0.635" y1="-1.27" x2="0" y2="-0.635" width="0.1524" layer="21"/>
<pad name="1" x="-1.27" y="0" drill="1.016" shape="long" rot="R90"/>
<pad name="2" x="1.27" y="0" drill="1.016" shape="long" rot="R90"/>
<text x="-2.6162" y="1.8288" size="1.27" layer="25" ratio="10">&gt;NAME</text>
<text x="-2.54" y="-3.175" size="1.27" layer="27">&gt;VALUE</text>
<rectangle x1="-1.524" y1="-0.254" x2="-1.016" y2="0.254" layer="51"/>
<rectangle x1="1.016" y1="-0.254" x2="1.524" y2="0.254" layer="51"/>
</package>
<package name="1X01" urn="urn:adsk.eagle:footprint:22382/1" library_version="3">
<description>&lt;b&gt;PIN HEADER&lt;/b&gt;</description>
<wire x1="-0.635" y1="1.27" x2="0.635" y2="1.27" width="0.1524" layer="21"/>
<wire x1="0.635" y1="1.27" x2="1.27" y2="0.635" width="0.1524" layer="21"/>
<wire x1="1.27" y1="0.635" x2="1.27" y2="-0.635" width="0.1524" layer="21"/>
<wire x1="1.27" y1="-0.635" x2="0.635" y2="-1.27" width="0.1524" layer="21"/>
<wire x1="-1.27" y1="0.635" x2="-1.27" y2="-0.635" width="0.1524" layer="21"/>
<wire x1="-0.635" y1="1.27" x2="-1.27" y2="0.635" width="0.1524" layer="21"/>
<wire x1="-1.27" y1="-0.635" x2="-0.635" y2="-1.27" width="0.1524" layer="21"/>
<wire x1="0.635" y1="-1.27" x2="-0.635" y2="-1.27" width="0.1524" layer="21"/>
<pad name="1" x="0" y="0" drill="1.016" shape="octagon"/>
<text x="-1.3462" y="1.8288" size="1.27" layer="25" ratio="10">&gt;NAME</text>
<text x="-1.27" y="-3.175" size="1.27" layer="27">&gt;VALUE</text>
<rectangle x1="-0.254" y1="-0.254" x2="0.254" y2="0.254" layer="51"/>
</package>
</packages>
<packages3d>
<package3d name="1X02" urn="urn:adsk.eagle:package:22435/2" type="model" library_version="3">
<description>PIN HEADER</description>
</package3d>
<package3d name="1X01" urn="urn:adsk.eagle:package:22485/2" type="model" library_version="3">
<description>PIN HEADER</description>
</package3d>
</packages3d>
</library>
<library name="LED BOARD">
<packages>
<package name="SK6812">
<wire x1="-2.5" y1="2.5" x2="2.5" y2="2.5" width="0.127" layer="21"/>
<wire x1="-2.5" y1="-2.5" x2="2.5" y2="-2.5" width="0.127" layer="21"/>
<wire x1="-2.5" y1="2.5" x2="-2.5" y2="-2.5" width="0.127" layer="21"/>
<wire x1="2.5" y1="2.5" x2="2.5" y2="-2.5" width="0.127" layer="21"/>
<smd name="P$1" x="-2.6" y="1.6" dx="1.75" dy="1.2" layer="1"/>
<smd name="P$2" x="-2.6" y="-1.6" dx="1.75" dy="1.2" layer="1"/>
<smd name="P$3" x="2.6" y="1.6" dx="1.75" dy="1.2" layer="1"/>
<smd name="P$4" x="2.6" y="-1.6" dx="1.75" dy="1.2" layer="1"/>
<circle x="1.2" y="-2.2" radius="0.2" width="0.127" layer="21"/>
<text x="3.81" y="-2.54" size="1.27" layer="25">&gt;NAME</text>
</package>
</packages>
</library>
</libraries>
<attributes>
</attributes>
<variantdefs>
</variantdefs>
<classes>
<class number="0" name="default" width="0" drill="0">
</class>
</classes>
<designrules name="default">
<description language="de">&lt;b&gt;EAGLE Design Rules&lt;/b&gt;
&lt;p&gt;
Die Standard-Design-Rules sind so gewählt, dass sie für 
die meisten Anwendungen passen. Sollte ihre Platine 
besondere Anforderungen haben, treffen Sie die erforderlichen
Einstellungen hier und speichern die Design Rules unter 
einem neuen Namen ab.</description>
<description language="en">&lt;b&gt;EAGLE Design Rules&lt;/b&gt;
&lt;p&gt;
The default Design Rules have been set to cover
a wide range of applications. Your particular design
may have different requirements, so please make the
necessary adjustments and save your customized
design rules under a new name.</description>
<param name="layerSetup" value="(1*16)"/>
<param name="mtCopper" value="0.035mm 0.035mm 0.035mm 0.035mm 0.035mm 0.035mm 0.035mm 0.035mm 0.035mm 0.035mm 0.035mm 0.035mm 0.035mm 0.035mm 0.035mm 0.035mm"/>
<param name="mtIsolate" value="1.5mm 0.15mm 0.2mm 0.15mm 0.2mm 0.15mm 0.2mm 0.15mm 0.2mm 0.15mm 0.2mm 0.15mm 0.2mm 0.15mm 0.2mm"/>
<param name="mdWireWire" value="6mil"/>
<param name="mdWirePad" value="6mil"/>
<param name="mdWireVia" value="6mil"/>
<param name="mdPadPad" value="6mil"/>
<param name="mdPadVia" value="6mil"/>
<param name="mdViaVia" value="6mil"/>
<param name="mdSmdPad" value="6mil"/>
<param name="mdSmdVia" value="6mil"/>
<param name="mdSmdSmd" value="6mil"/>
<param name="mdViaViaSameLayer" value="6mil"/>
<param name="mnLayersViaInSmd" value="2"/>
<param name="mdCopperDimension" value="40mil"/>
<param name="mdDrill" value="6mil"/>
<param name="mdSmdStop" value="0mil"/>
<param name="msWidth" value="6mil"/>
<param name="msDrill" value="0.35mm"/>
<param name="msMicroVia" value="9.99mm"/>
<param name="msBlindViaRatio" value="0.5"/>
<param name="rvPadTop" value="0.25"/>
<param name="rvPadInner" value="0.25"/>
<param name="rvPadBottom" value="0.25"/>
<param name="rvViaOuter" value="0.25"/>
<param name="rvViaInner" value="0.25"/>
<param name="rvMicroViaOuter" value="0.25"/>
<param name="rvMicroViaInner" value="0.25"/>
<param name="rlMinPadTop" value="10mil"/>
<param name="rlMaxPadTop" value="20mil"/>
<param name="rlMinPadInner" value="10mil"/>
<param name="rlMaxPadInner" value="20mil"/>
<param name="rlMinPadBottom" value="10mil"/>
<param name="rlMaxPadBottom" value="20mil"/>
<param name="rlMinViaOuter" value="8mil"/>
<param name="rlMaxViaOuter" value="20mil"/>
<param name="rlMinViaInner" value="8mil"/>
<param name="rlMaxViaInner" value="20mil"/>
<param name="rlMinMicroViaOuter" value="4mil"/>
<param name="rlMaxMicroViaOuter" value="20mil"/>
<param name="rlMinMicroViaInner" value="4mil"/>
<param name="rlMaxMicroViaInner" value="20mil"/>
<param name="psTop" value="-1"/>
<param name="psBottom" value="-1"/>
<param name="psFirst" value="-1"/>
<param name="psElongationLong" value="100"/>
<param name="psElongationOffset" value="100"/>
<param name="mvStopFrame" value="1"/>
<param name="mvCreamFrame" value="0"/>
<param name="mlMinStopFrame" value="4mil"/>
<param name="mlMaxStopFrame" value="4mil"/>
<param name="mlMinCreamFrame" value="0mil"/>
<param name="mlMaxCreamFrame" value="0mil"/>
<param name="mlViaStopLimit" value="0mil"/>
<param name="srRoundness" value="0"/>
<param name="srMinRoundness" value="0mil"/>
<param name="srMaxRoundness" value="0mil"/>
<param name="slThermalIsolate" value="10mil"/>
<param name="slThermalsForVias" value="0"/>
<param name="dpMaxLengthDifference" value="10mm"/>
<param name="dpGapFactor" value="2.5"/>
<param name="checkAngle" value="0"/>
<param name="checkFont" value="1"/>
<param name="checkRestrict" value="1"/>
<param name="checkStop" value="0"/>
<param name="checkValues" value="0"/>
<param name="useDiameter" value="13"/>
<param name="maxErrors" value="50"/>
</designrules>
<autorouter>
<pass name="Default">
<param name="RoutingGrid" value="50mil"/>
<param name="AutoGrid" value="1"/>
<param name="Efforts" value="0"/>
<param name="TopRouterVariant" value="1"/>
<param name="tpViaShape" value="round"/>
<param name="PrefDir.1" value="a"/>
<param name="PrefDir.2" value="0"/>
<param name="PrefDir.3" value="0"/>
<param name="PrefDir.4" value="0"/>
<param name="PrefDir.5" value="0"/>
<param name="PrefDir.6" value="0"/>
<param name="PrefDir.7" value="0"/>
<param name="PrefDir.8" value="0"/>
<param name="PrefDir.9" value="0"/>
<param name="PrefDir.10" value="0"/>
<param name="PrefDir.11" value="0"/>
<param name="PrefDir.12" value="0"/>
<param name="PrefDir.13" value="0"/>
<param name="PrefDir.14" value="0"/>
<param name="PrefDir.15" value="0"/>
<param name="PrefDir.16" value="a"/>
<param name="cfVia" value="8"/>
<param name="cfNonPref" value="5"/>
<param name="cfChangeDir" value="2"/>
<param name="cfOrthStep" value="2"/>
<param name="cfDiagStep" value="3"/>
<param name="cfExtdStep" value="0"/>
<param name="cfBonusStep" value="1"/>
<param name="cfMalusStep" value="1"/>
<param name="cfPadImpact" value="4"/>
<param name="cfSmdImpact" value="4"/>
<param name="cfBusImpact" value="0"/>
<param name="cfHugging" value="3"/>
<param name="cfAvoid" value="4"/>
<param name="cfPolygon" value="10"/>
<param name="cfBase.1" value="0"/>
<param name="cfBase.2" value="1"/>
<param name="cfBase.3" value="1"/>
<param name="cfBase.4" value="1"/>
<param name="cfBase.5" value="1"/>
<param name="cfBase.6" value="1"/>
<param name="cfBase.7" value="1"/>
<param name="cfBase.8" value="1"/>
<param name="cfBase.9" value="1"/>
<param name="cfBase.10" value="1"/>
<param name="cfBase.11" value="1"/>
<param name="cfBase.12" value="1"/>
<param name="cfBase.13" value="1"/>
<param name="cfBase.14" value="1"/>
<param name="cfBase.15" value="1"/>
<param name="cfBase.16" value="0"/>
<param name="mnVias" value="20"/>
<param name="mnSegments" value="9999"/>
<param name="mnExtdSteps" value="9999"/>
<param name="mnRipupLevel" value="10"/>
<param name="mnRipupSteps" value="100"/>
<param name="mnRipupTotal" value="100"/>
</pass>
<pass name="Follow-me" refer="Default" active="yes">
</pass>
<pass name="Busses" refer="Default" active="yes">
<param name="cfNonPref" value="4"/>
<param name="cfBusImpact" value="4"/>
<param name="cfHugging" value="0"/>
<param name="mnVias" value="0"/>
</pass>
<pass name="Route" refer="Default" active="yes">
</pass>
<pass name="Optimize1" refer="Default" active="yes">
<param name="cfVia" value="99"/>
<param name="cfExtdStep" value="10"/>
<param name="cfHugging" value="1"/>
<param name="mnExtdSteps" value="1"/>
<param name="mnRipupLevel" value="0"/>
</pass>
<pass name="Optimize2" refer="Optimize1" active="yes">
<param name="cfNonPref" value="0"/>
<param name="cfChangeDir" value="6"/>
<param name="cfExtdStep" value="0"/>
<param name="cfBonusStep" value="2"/>
<param name="cfMalusStep" value="2"/>
<param name="cfPadImpact" value="2"/>
<param name="cfSmdImpact" value="2"/>
<param name="cfHugging" value="0"/>
</pass>
<pass name="Optimize3" refer="Optimize2" active="yes">
<param name="cfChangeDir" value="8"/>
<param name="cfPadImpact" value="0"/>
<param name="cfSmdImpact" value="0"/>
</pass>
<pass name="Optimize4" refer="Optimize3" active="yes">
<param name="cfChangeDir" value="25"/>
</pass>
</autorouter>
<elements>
<element name="JP1" library="pinhead" library_urn="urn:adsk.eagle:library:325" package="1X02" package3d_urn="urn:adsk.eagle:package:22435/2" value="" x="27.49" y="28.14"/>
<element name="JP2" library="pinhead" library_urn="urn:adsk.eagle:library:325" package="1X01" package3d_urn="urn:adsk.eagle:package:22485/2" value="" x="2.83" y="34.75"/>
<element name="U$1" library="LED BOARD" package="SK6812" value="SK6812" x="15.84" y="8.68" rot="R90"/>
<element name="U$10" library="LED BOARD" package="SK6812" value="SK6812" x="49.99" y="23.79" rot="R90"/>
<element name="U$11" library="LED BOARD" package="SK6812" value="SK6812" x="50.39" y="32.29" rot="R90"/>
<element name="U$12" library="LED BOARD" package="SK6812" value="SK6812" x="46.99" y="40.79" rot="R90"/>
<element name="U$13" library="LED BOARD" package="SK6812" value="SK6812" x="40.44" y="46.21" rot="R90"/>
<element name="U$14" library="LED BOARD" package="SK6812" value="SK6812" x="33.44" y="50.11" rot="R90"/>
<element name="U$15" library="LED BOARD" package="SK6812" value="SK6812" x="25.84" y="51.01" rot="R90"/>
<element name="U$16" library="LED BOARD" package="SK6812" value="SK6812" x="19.29" y="49.01" rot="R90"/>
<element name="U$17" library="LED BOARD" package="SK6812" value="SK6812" x="12.49" y="44.71" rot="R90"/>
<element name="U$18" library="LED BOARD" package="SK6812" value="SK6812" x="7.09" y="37.51" rot="R90"/>
<element name="U$19" library="LED BOARD" package="SK6812" value="SK6812" x="17.94" y="25.01" rot="R90"/>
<element name="U$2" library="LED BOARD" package="SK6812" value="SK6812" x="9.89" y="14.08" rot="R90"/>
<element name="U$20" library="LED BOARD" package="SK6812" value="SK6812" x="23.94" y="20.11" rot="R90"/>
<element name="U$21" library="LED BOARD" package="SK6812" value="SK6812" x="30.14" y="19.81" rot="R90"/>
<element name="U$22" library="LED BOARD" package="SK6812" value="SK6812" x="36.19" y="24.21" rot="R90"/>
<element name="U$23" library="LED BOARD" package="SK6812" value="SK6812" x="35.99" y="32.11" rot="R90"/>
<element name="U$24" library="LED BOARD" package="SK6812" value="SK6812" x="30.39" y="37.41" rot="R90"/>
<element name="U$25" library="LED BOARD" package="SK6812" value="SK6812" x="24.44" y="36.21" rot="R90"/>
<element name="U$27" library="LED BOARD" package="SK6812" value="SK6812" x="18.24" y="32.71" rot="R90"/>
<element name="U$3" library="LED BOARD" package="SK6812" value="SK6812" x="5.29" y="21.45" rot="R90"/>
<element name="U$4" library="LED BOARD" package="SK6812" value="SK6812" x="3.68" y="29.21" rot="R90"/>
<element name="U$5" library="LED BOARD" package="SK6812" value="SK6812" x="21.89" y="5.99" rot="R90"/>
<element name="U$6" library="LED BOARD" package="SK6812" value="SK6812" x="27.94" y="4.88" rot="R90"/>
<element name="U$7" library="LED BOARD" package="SK6812" value="SK6812" x="34.14" y="6.65" rot="R90"/>
<element name="U$8" library="LED BOARD" package="SK6812" value="SK6812" x="40.34" y="9.82" rot="R90"/>
<element name="U$9" library="LED BOARD" package="SK6812" value="SK6812" x="46.54" y="15.79" rot="R90"/>
</elements>
<signals>
<signal name="N$1">
<contactref element="U$1" pad="P$3"/>
<contactref element="U$2" pad="P$2"/>
<wire x1="14.0208" y1="11.5824" x2="11.5824" y2="11.5824" width="0.1524" layer="1"/>
<wire x1="14.1732" y1="11.43" x2="14.0208" y2="11.5824" width="0.1524" layer="1"/>
<wire x1="11.5824" y1="11.5824" x2="11.49" y2="11.48" width="0.1524" layer="1"/>
<wire x1="14.1732" y1="11.43" x2="14.24" y2="11.28" width="0.1524" layer="1"/>
</signal>
<signal name="N$2">
<contactref element="U$2" pad="P$3"/>
<contactref element="U$3" pad="P$2"/>
<wire x1="7.0104" y1="17.526" x2="7.0104" y2="18.7452" width="0.1524" layer="1"/>
<wire x1="7.7724" y1="16.764" x2="7.0104" y2="17.526" width="0.1524" layer="1"/>
<wire x1="8.2296" y1="16.764" x2="7.7724" y2="16.764" width="0.1524" layer="1"/>
<wire x1="7.0104" y1="18.7452" x2="6.89" y2="18.85" width="0.1524" layer="1"/>
<wire x1="8.2296" y1="16.764" x2="8.29" y2="16.68" width="0.1524" layer="1"/>
</signal>
<signal name="N$3">
<contactref element="U$3" pad="P$3"/>
<contactref element="U$4" pad="P$2"/>
<wire x1="3.81" y1="25.4508" x2="3.81" y2="24.0792" width="0.1524" layer="1"/>
<wire x1="4.8768" y1="26.5176" x2="3.81" y2="25.4508" width="0.1524" layer="1"/>
<wire x1="5.1816" y1="26.5176" x2="4.8768" y2="26.5176" width="0.1524" layer="1"/>
<wire x1="3.81" y1="24.0792" x2="3.69" y2="24.05" width="0.1524" layer="1"/>
<wire x1="5.1816" y1="26.5176" x2="5.28" y2="26.61" width="0.1524" layer="1"/>
</signal>
<signal name="N$4">
<contactref element="U$5" pad="P$3"/>
<contactref element="U$1" pad="P$2"/>
<wire x1="17.8308" y1="6.096" x2="17.526" y2="6.096" width="0.1524" layer="1"/>
<wire x1="19.05" y1="7.3152" x2="17.8308" y2="6.096" width="0.1524" layer="1"/>
<wire x1="19.05" y1="7.7724" x2="19.05" y2="7.3152" width="0.1524" layer="1"/>
<wire x1="19.812" y1="8.5344" x2="19.05" y2="7.7724" width="0.1524" layer="1"/>
<wire x1="20.2692" y1="8.5344" x2="19.812" y2="8.5344" width="0.1524" layer="1"/>
<wire x1="17.526" y1="6.096" x2="17.44" y2="6.08" width="0.1524" layer="1"/>
<wire x1="20.2692" y1="8.5344" x2="20.29" y2="8.59" width="0.1524" layer="1"/>
</signal>
<signal name="N$5">
<contactref element="U$6" pad="P$3"/>
<contactref element="U$5" pad="P$2"/>
<wire x1="23.9268" y1="3.5052" x2="23.622" y2="3.5052" width="0.1524" layer="1"/>
<wire x1="26.0604" y1="5.6388" x2="23.9268" y2="3.5052" width="0.1524" layer="1"/>
<wire x1="26.0604" y1="7.3152" x2="26.0604" y2="5.6388" width="0.1524" layer="1"/>
<wire x1="26.2128" y1="7.4676" x2="26.0604" y2="7.3152" width="0.1524" layer="1"/>
<wire x1="23.622" y1="3.5052" x2="23.49" y2="3.39" width="0.1524" layer="1"/>
<wire x1="26.2128" y1="7.4676" x2="26.34" y2="7.48" width="0.1524" layer="1"/>
</signal>
<signal name="N$6">
<contactref element="U$7" pad="P$3"/>
<contactref element="U$6" pad="P$2"/>
<wire x1="29.8704" y1="2.286" x2="29.5656" y2="2.286" width="0.1524" layer="1"/>
<wire x1="31.0896" y1="3.5052" x2="29.8704" y2="2.286" width="0.1524" layer="1"/>
<wire x1="31.0896" y1="6.858" x2="31.0896" y2="3.5052" width="0.1524" layer="16"/>
<wire x1="32.004" y1="7.7724" x2="31.0896" y2="6.858" width="0.1524" layer="16"/>
<wire x1="32.6136" y1="8.382" x2="32.004" y2="7.7724" width="0.1524" layer="1"/>
<wire x1="32.6136" y1="9.144" x2="32.6136" y2="8.382" width="0.1524" layer="1"/>
<wire x1="29.5656" y1="2.286" x2="29.54" y2="2.28" width="0.1524" layer="1"/>
<wire x1="32.6136" y1="9.144" x2="32.54" y2="9.25" width="0.1524" layer="1"/>
<via x="31.0896" y="3.5052" extent="1-16" drill="0.35"/>
<via x="32.004" y="7.7724" extent="1-16" drill="0.35"/>
</signal>
<signal name="N$7">
<contactref element="U$8" pad="P$3"/>
<contactref element="U$7" pad="P$2"/>
<wire x1="35.814" y1="6.096" x2="35.814" y2="4.1148" width="0.1524" layer="1"/>
<wire x1="35.814" y1="8.5344" x2="35.814" y2="6.096" width="0.1524" layer="16"/>
<wire x1="38.2524" y1="10.9728" x2="35.814" y2="8.5344" width="0.1524" layer="16"/>
<wire x1="38.862" y1="11.5824" x2="38.2524" y2="10.9728" width="0.1524" layer="1"/>
<wire x1="38.862" y1="12.3444" x2="38.862" y2="11.5824" width="0.1524" layer="1"/>
<wire x1="35.814" y1="4.1148" x2="35.74" y2="4.05" width="0.1524" layer="1"/>
<wire x1="38.862" y1="12.3444" x2="38.74" y2="12.42" width="0.1524" layer="1"/>
<via x="35.814" y="6.096" extent="1-16" drill="0.35"/>
<via x="38.2524" y="10.9728" extent="1-16" drill="0.35"/>
</signal>
<signal name="N$8">
<contactref element="U$9" pad="P$3"/>
<contactref element="U$8" pad="P$2"/>
<wire x1="42.0624" y1="8.2296" x2="42.0624" y2="7.3152" width="0.1524" layer="1"/>
<wire x1="45.5676" y1="11.7348" x2="42.0624" y2="8.2296" width="0.1524" layer="1"/>
<wire x1="45.72" y1="11.7348" x2="45.5676" y2="11.7348" width="0.1524" layer="1"/>
<wire x1="46.1772" y1="12.192" x2="45.72" y2="11.7348" width="0.1524" layer="1"/>
<wire x1="46.1772" y1="16.3068" x2="46.1772" y2="12.192" width="0.1524" layer="1"/>
<wire x1="44.958" y1="17.526" x2="46.1772" y2="16.3068" width="0.1524" layer="1"/>
<wire x1="44.958" y1="18.288" x2="44.958" y2="17.526" width="0.1524" layer="1"/>
<wire x1="42.0624" y1="7.3152" x2="41.94" y2="7.22" width="0.1524" layer="1"/>
<wire x1="44.958" y1="18.288" x2="44.94" y2="18.39" width="0.1524" layer="1"/>
</signal>
<signal name="N$9">
<contactref element="U$10" pad="P$3"/>
<contactref element="U$9" pad="P$2"/>
<wire x1="48.1584" y1="15.8496" x2="48.1584" y2="13.2588" width="0.1524" layer="1"/>
<wire x1="46.7868" y1="17.2212" x2="48.1584" y2="15.8496" width="0.1524" layer="1"/>
<wire x1="46.7868" y1="23.9268" x2="46.7868" y2="17.2212" width="0.1524" layer="1"/>
<wire x1="48.3108" y1="25.4508" x2="46.7868" y2="23.9268" width="0.1524" layer="1"/>
<wire x1="48.3108" y1="26.3652" x2="48.3108" y2="25.4508" width="0.1524" layer="1"/>
<wire x1="48.1584" y1="13.2588" x2="48.14" y2="13.19" width="0.1524" layer="1"/>
<wire x1="48.3108" y1="26.3652" x2="48.39" y2="26.39" width="0.1524" layer="1"/>
</signal>
<signal name="N$10">
<contactref element="U$11" pad="P$3"/>
<contactref element="U$10" pad="P$2"/>
<wire x1="51.6636" y1="23.9268" x2="51.6636" y2="21.336" width="0.1524" layer="1"/>
<wire x1="49.9872" y1="25.6032" x2="51.6636" y2="23.9268" width="0.1524" layer="1"/>
<wire x1="49.9872" y1="32.766" x2="49.9872" y2="25.6032" width="0.1524" layer="1"/>
<wire x1="48.768" y1="33.9852" x2="49.9872" y2="32.766" width="0.1524" layer="1"/>
<wire x1="48.768" y1="34.7472" x2="48.768" y2="33.9852" width="0.1524" layer="1"/>
<wire x1="51.6636" y1="21.336" x2="51.59" y2="21.19" width="0.1524" layer="1"/>
<wire x1="48.768" y1="34.7472" x2="48.79" y2="34.89" width="0.1524" layer="1"/>
</signal>
<signal name="N$11">
<contactref element="U$12" pad="P$3"/>
<contactref element="U$11" pad="P$2"/>
<wire x1="52.1208" y1="32.3088" x2="52.1208" y2="29.718" width="0.1524" layer="1"/>
<wire x1="49.9872" y1="34.4424" x2="52.1208" y2="32.3088" width="0.1524" layer="1"/>
<wire x1="49.9872" y1="39.1668" x2="49.9872" y2="34.4424" width="0.1524" layer="1"/>
<wire x1="45.8724" y1="43.2816" x2="49.9872" y2="39.1668" width="0.1524" layer="1"/>
<wire x1="45.4152" y1="43.2816" x2="45.8724" y2="43.2816" width="0.1524" layer="1"/>
<wire x1="52.1208" y1="29.718" x2="51.99" y2="29.69" width="0.1524" layer="1"/>
<wire x1="45.4152" y1="43.2816" x2="45.39" y2="43.39" width="0.1524" layer="1"/>
</signal>
<signal name="N$12">
<contactref element="U$13" pad="P$3"/>
<contactref element="U$12" pad="P$2"/>
<wire x1="48.1584" y1="38.2524" x2="48.4632" y2="38.2524" width="0.1524" layer="1"/>
<wire x1="43.2816" y1="43.1292" x2="48.1584" y2="38.2524" width="0.1524" layer="1"/>
<wire x1="43.2816" y1="44.6532" x2="43.2816" y2="43.1292" width="0.1524" layer="1"/>
<wire x1="39.1668" y1="48.768" x2="43.2816" y2="44.6532" width="0.1524" layer="1"/>
<wire x1="38.862" y1="48.768" x2="39.1668" y2="48.768" width="0.1524" layer="1"/>
<wire x1="48.4632" y1="38.2524" x2="48.59" y2="38.19" width="0.1524" layer="1"/>
<wire x1="38.862" y1="48.768" x2="38.84" y2="48.81" width="0.1524" layer="1"/>
</signal>
<signal name="N$13">
<contactref element="U$15" pad="P$3"/>
<contactref element="U$14" pad="P$2"/>
<wire x1="25.146" y1="53.4924" x2="24.384" y2="53.4924" width="0.1524" layer="1"/>
<wire x1="29.718" y1="48.9204" x2="25.146" y2="53.4924" width="0.1524" layer="1"/>
<wire x1="33.2232" y1="48.9204" x2="29.718" y2="48.9204" width="0.1524" layer="1"/>
<wire x1="34.5948" y1="47.5488" x2="33.2232" y2="48.9204" width="0.1524" layer="1"/>
<wire x1="34.8996" y1="47.5488" x2="34.5948" y2="47.5488" width="0.1524" layer="1"/>
<wire x1="24.384" y1="53.4924" x2="24.24" y2="53.61" width="0.1524" layer="1"/>
<wire x1="34.8996" y1="47.5488" x2="35.04" y2="47.51" width="0.1524" layer="1"/>
</signal>
<signal name="N$14">
<contactref element="U$16" pad="P$3"/>
<contactref element="U$15" pad="P$2"/>
<wire x1="18.5928" y1="51.5112" x2="17.8308" y2="51.5112" width="0.1524" layer="1"/>
<wire x1="20.2692" y1="49.8348" x2="18.5928" y2="51.5112" width="0.1524" layer="1"/>
<wire x1="25.6032" y1="49.8348" x2="20.2692" y2="49.8348" width="0.1524" layer="1"/>
<wire x1="26.9748" y1="48.4632" x2="25.6032" y2="49.8348" width="0.1524" layer="1"/>
<wire x1="27.432" y1="48.4632" x2="26.9748" y2="48.4632" width="0.1524" layer="1"/>
<wire x1="17.8308" y1="51.5112" x2="17.69" y2="51.61" width="0.1524" layer="1"/>
<wire x1="27.432" y1="48.4632" x2="27.44" y2="48.41" width="0.1524" layer="1"/>
</signal>
<signal name="N$15">
<contactref element="U$17" pad="P$3"/>
<contactref element="U$16" pad="P$2"/>
<wire x1="12.8016" y1="47.3964" x2="10.9728" y2="47.3964" width="0.1524" layer="1"/>
<wire x1="19.05" y1="47.3964" x2="12.8016" y2="47.3964" width="0.1524" layer="16"/>
<wire x1="19.6596" y1="46.7868" x2="19.05" y2="47.3964" width="0.1524" layer="16"/>
<wire x1="20.574" y1="46.7868" x2="19.6596" y2="46.7868" width="0.1524" layer="1"/>
<wire x1="20.8788" y1="46.482" x2="20.574" y2="46.7868" width="0.1524" layer="1"/>
<wire x1="10.9728" y1="47.3964" x2="10.89" y2="47.31" width="0.1524" layer="1"/>
<wire x1="20.8788" y1="46.482" x2="20.89" y2="46.41" width="0.1524" layer="1"/>
<via x="12.8016" y="47.3964" extent="1-16" drill="0.35"/>
<via x="19.6596" y="46.7868" extent="1-16" drill="0.35"/>
</signal>
<signal name="N$16">
<contactref element="U$18" pad="P$3"/>
<contactref element="U$17" pad="P$2"/>
<wire x1="7.3152" y1="40.0812" x2="5.6388" y2="40.0812" width="0.1524" layer="1"/>
<wire x1="11.7348" y1="40.0812" x2="7.3152" y2="40.0812" width="0.1524" layer="16"/>
<wire x1="12.954" y1="41.3004" x2="11.7348" y2="40.0812" width="0.1524" layer="16"/>
<wire x1="13.716" y1="42.0624" x2="12.954" y2="41.3004" width="0.1524" layer="1"/>
<wire x1="14.0208" y1="42.0624" x2="13.716" y2="42.0624" width="0.1524" layer="1"/>
<wire x1="5.6388" y1="40.0812" x2="5.49" y2="40.11" width="0.1524" layer="1"/>
<wire x1="14.0208" y1="42.0624" x2="14.09" y2="42.11" width="0.1524" layer="1"/>
<via x="7.3152" y="40.0812" extent="1-16" drill="0.35"/>
<via x="12.954" y="41.3004" extent="1-16" drill="0.35"/>
</signal>
<signal name="N$17">
<contactref element="U$19" pad="P$3"/>
<contactref element="U$18" pad="P$2"/>
<wire x1="9.144" y1="34.8996" x2="8.8392" y2="34.8996" width="0.1524" layer="1"/>
<wire x1="15.0876" y1="28.956" x2="9.144" y2="34.8996" width="0.1524" layer="1"/>
<wire x1="15.0876" y1="28.4988" x2="15.0876" y2="28.956" width="0.1524" layer="1"/>
<wire x1="15.8496" y1="27.7368" x2="15.0876" y2="28.4988" width="0.1524" layer="1"/>
<wire x1="16.3068" y1="27.7368" x2="15.8496" y2="27.7368" width="0.1524" layer="1"/>
<wire x1="8.8392" y1="34.8996" x2="8.69" y2="34.91" width="0.1524" layer="1"/>
<wire x1="16.3068" y1="27.7368" x2="16.34" y2="27.61" width="0.1524" layer="1"/>
</signal>
<signal name="N$18">
<contactref element="U$20" pad="P$3"/>
<contactref element="U$19" pad="P$2"/>
<wire x1="21.9456" y1="22.4028" x2="19.6596" y2="22.4028" width="0.1524" layer="1"/>
<wire x1="22.2504" y1="22.7076" x2="21.9456" y2="22.4028" width="0.1524" layer="1"/>
<wire x1="19.6596" y1="22.4028" x2="19.54" y2="22.41" width="0.1524" layer="1"/>
<wire x1="22.2504" y1="22.7076" x2="22.34" y2="22.71" width="0.1524" layer="1"/>
</signal>
<signal name="N$19">
<contactref element="U$20" pad="P$2"/>
<contactref element="U$27" pad="P$3"/>
<wire x1="25.6032" y1="20.1168" x2="25.6032" y2="17.526" width="0.1524" layer="1"/>
<wire x1="23.622" y1="22.098" x2="25.6032" y2="20.1168" width="0.1524" layer="1"/>
<wire x1="23.622" y1="23.7744" x2="23.622" y2="22.098" width="0.1524" layer="1"/>
<wire x1="21.336" y1="26.0604" x2="23.622" y2="23.7744" width="0.1524" layer="1"/>
<wire x1="18.5928" y1="26.0604" x2="21.336" y2="26.0604" width="0.1524" layer="1"/>
<wire x1="17.526" y1="27.1272" x2="18.5928" y2="26.0604" width="0.1524" layer="1"/>
<wire x1="17.526" y1="28.3464" x2="17.526" y2="27.1272" width="0.1524" layer="1"/>
<wire x1="17.0688" y1="28.8036" x2="17.526" y2="28.3464" width="0.1524" layer="1"/>
<wire x1="15.6972" y1="28.8036" x2="17.0688" y2="28.8036" width="0.1524" layer="1"/>
<wire x1="15.3924" y1="29.1084" x2="15.6972" y2="28.8036" width="0.1524" layer="1"/>
<wire x1="15.3924" y1="33.0708" x2="15.3924" y2="29.1084" width="0.1524" layer="1"/>
<wire x1="16.764" y1="34.4424" x2="15.3924" y2="33.0708" width="0.1524" layer="1"/>
<wire x1="16.764" y1="35.2044" x2="16.764" y2="34.4424" width="0.1524" layer="1"/>
<wire x1="25.6032" y1="17.526" x2="25.54" y2="17.51" width="0.1524" layer="1"/>
<wire x1="16.764" y1="35.2044" x2="16.64" y2="35.31" width="0.1524" layer="1"/>
</signal>
<signal name="N$25">
<contactref element="U$14" pad="P$3"/>
<contactref element="U$13" pad="P$2"/>
<wire x1="32.766" y1="52.578" x2="31.8516" y2="52.578" width="0.1524" layer="1"/>
<wire x1="41.6052" y1="43.7388" x2="32.766" y2="52.578" width="0.1524" layer="1"/>
<wire x1="41.91" y1="43.7388" x2="41.6052" y2="43.7388" width="0.1524" layer="1"/>
<wire x1="31.8516" y1="52.578" x2="31.84" y2="52.71" width="0.1524" layer="1"/>
<wire x1="41.91" y1="43.7388" x2="42.04" y2="43.61" width="0.1524" layer="1"/>
</signal>
<signal name="VCC">
<contactref element="U$13" pad="P$1"/>
<contactref element="U$12" pad="P$1"/>
<contactref element="U$10" pad="P$1"/>
<contactref element="U$9" pad="P$1"/>
<contactref element="U$8" pad="P$1"/>
<contactref element="U$7" pad="P$1"/>
<contactref element="U$11" pad="P$1"/>
<contactref element="U$6" pad="P$1"/>
<contactref element="U$5" pad="P$1"/>
<contactref element="U$1" pad="P$1"/>
<contactref element="U$2" pad="P$1"/>
<contactref element="U$3" pad="P$1"/>
<contactref element="U$4" pad="P$1"/>
<contactref element="U$14" pad="P$1"/>
<contactref element="U$15" pad="P$1"/>
<contactref element="U$16" pad="P$1"/>
<contactref element="U$17" pad="P$1"/>
<contactref element="U$18" pad="P$1"/>
<contactref element="U$19" pad="P$1"/>
<contactref element="U$20" pad="P$1"/>
<contactref element="JP1" pad="1"/>
<contactref element="U$27" pad="P$1"/>
<contactref element="U$21" pad="P$1"/>
<contactref element="U$22" pad="P$1"/>
<contactref element="U$23" pad="P$1"/>
<contactref element="U$24" pad="P$1"/>
<contactref element="U$25" pad="P$1"/>
<polygon width="0.1524" layer="16">
<vertex x="-21" y="42"/>
<vertex x="-21" y="32"/>
<vertex x="22" y="-11"/>
<vertex x="32" y="-11"/>
<vertex x="81.6" y="40"/>
<vertex x="6.6" y="71"/>
</polygon>
<wire x1="2.1336" y1="21.9456" x2="2.1336" y2="26.5176" width="0.1524" layer="1"/>
<wire x1="3.3528" y1="20.7264" x2="2.1336" y2="21.9456" width="0.1524" layer="1"/>
<wire x1="3.3528" y1="19.2024" x2="3.3528" y2="20.7264" width="0.1524" layer="1"/>
<wire x1="3.6576" y1="18.8976" x2="3.3528" y2="19.2024" width="0.1524" layer="1"/>
<wire x1="2.1336" y1="26.5176" x2="2.08" y2="26.61" width="0.1524" layer="1"/>
<wire x1="3.6576" y1="18.8976" x2="3.69" y2="18.85" width="0.1524" layer="1"/>
<wire x1="21.1836" y1="3.3528" x2="20.4216" y2="3.3528" width="0.1524" layer="1"/>
<wire x1="22.5552" y1="1.9812" x2="21.1836" y2="3.3528" width="0.1524" layer="1"/>
<wire x1="26.0604" y1="1.9812" x2="22.5552" y2="1.9812" width="0.1524" layer="1"/>
<wire x1="26.2128" y1="2.1336" x2="26.0604" y2="1.9812" width="0.1524" layer="1"/>
<wire x1="20.4216" y1="3.3528" x2="20.29" y2="3.39" width="0.1524" layer="1"/>
<wire x1="26.2128" y1="2.1336" x2="26.34" y2="2.28" width="0.1524" layer="1"/>
<wire x1="15.24" y1="5.9436" x2="14.3256" y2="5.9436" width="0.1524" layer="1"/>
<wire x1="17.2212" y1="3.9624" x2="15.24" y2="5.9436" width="0.1524" layer="1"/>
<wire x1="19.812" y1="3.9624" x2="17.2212" y2="3.9624" width="0.1524" layer="1"/>
<wire x1="20.2692" y1="3.5052" x2="19.812" y2="3.9624" width="0.1524" layer="1"/>
<wire x1="14.3256" y1="5.9436" x2="14.24" y2="6.08" width="0.1524" layer="1"/>
<wire x1="20.2692" y1="3.5052" x2="20.29" y2="3.39" width="0.1524" layer="1"/>
<wire x1="8.6868" y1="11.43" x2="8.382" y2="11.43" width="0.1524" layer="1"/>
<wire x1="14.1732" y1="5.9436" x2="8.6868" y2="11.43" width="0.1524" layer="1"/>
<wire x1="8.382" y1="11.43" x2="8.29" y2="11.48" width="0.1524" layer="1"/>
<wire x1="14.1732" y1="5.9436" x2="14.24" y2="6.08" width="0.1524" layer="1"/>
<wire x1="28.4988" y1="4.1148" x2="32.4612" y2="4.1148" width="0.1524" layer="1"/>
<wire x1="26.67" y1="2.286" x2="28.4988" y2="4.1148" width="0.1524" layer="1"/>
<wire x1="26.3652" y1="2.286" x2="26.67" y2="2.286" width="0.1524" layer="1"/>
<wire x1="32.4612" y1="4.1148" x2="32.54" y2="4.05" width="0.1524" layer="1"/>
<wire x1="26.3652" y1="2.286" x2="26.34" y2="2.28" width="0.1524" layer="1"/>
<wire x1="36.1188" y1="7.3152" x2="38.7096" y2="7.3152" width="0.1524" layer="1"/>
<wire x1="32.9184" y1="4.1148" x2="36.1188" y2="7.3152" width="0.1524" layer="1"/>
<wire x1="32.6136" y1="4.1148" x2="32.9184" y2="4.1148" width="0.1524" layer="1"/>
<wire x1="38.7096" y1="7.3152" x2="38.74" y2="7.22" width="0.1524" layer="1"/>
<wire x1="32.6136" y1="4.1148" x2="32.54" y2="4.05" width="0.1524" layer="1"/>
<wire x1="44.5008" y1="13.1064" x2="44.8056" y2="13.1064" width="0.1524" layer="1"/>
<wire x1="43.2816" y1="11.8872" x2="44.5008" y2="13.1064" width="0.1524" layer="1"/>
<wire x1="43.2816" y1="11.2776" x2="43.2816" y2="11.8872" width="0.1524" layer="1"/>
<wire x1="39.3192" y1="7.3152" x2="43.2816" y2="11.2776" width="0.1524" layer="1"/>
<wire x1="38.862" y1="7.3152" x2="39.3192" y2="7.3152" width="0.1524" layer="1"/>
<wire x1="44.8056" y1="13.1064" x2="44.94" y2="13.19" width="0.1524" layer="1"/>
<wire x1="38.862" y1="7.3152" x2="38.74" y2="7.22" width="0.1524" layer="1"/>
<wire x1="3.81" y1="17.0688" x2="3.81" y2="18.7452" width="0.1524" layer="1"/>
<wire x1="7.9248" y1="12.954" x2="3.81" y2="17.0688" width="0.1524" layer="1"/>
<wire x1="7.9248" y1="11.8872" x2="7.9248" y2="12.954" width="0.1524" layer="1"/>
<wire x1="8.2296" y1="11.5824" x2="7.9248" y2="11.8872" width="0.1524" layer="1"/>
<wire x1="3.81" y1="18.7452" x2="3.69" y2="18.85" width="0.1524" layer="1"/>
<wire x1="8.2296" y1="11.5824" x2="8.29" y2="11.48" width="0.1524" layer="1"/>
<wire x1="17.526" y1="30.1752" x2="16.764" y2="30.1752" width="0.1524" layer="1"/>
<wire x1="20.4216" y1="33.0708" x2="17.526" y2="30.1752" width="0.1524" layer="1"/>
<wire x1="22.2504" y1="33.0708" x2="20.4216" y2="33.0708" width="0.1524" layer="1"/>
<wire x1="22.7076" y1="33.528" x2="22.2504" y2="33.0708" width="0.1524" layer="1"/>
<wire x1="16.764" y1="30.1752" x2="16.64" y2="30.11" width="0.1524" layer="1"/>
<wire x1="22.7076" y1="33.528" x2="22.84" y2="33.61" width="0.1524" layer="1"/>
<wire x1="27.1272" y1="34.8996" x2="28.6512" y2="34.8996" width="0.1524" layer="1"/>
<wire x1="26.9748" y1="35.052" x2="27.1272" y2="34.8996" width="0.1524" layer="1"/>
<wire x1="24.6888" y1="35.052" x2="26.9748" y2="35.052" width="0.1524" layer="1"/>
<wire x1="23.3172" y1="33.6804" x2="24.6888" y2="35.052" width="0.1524" layer="1"/>
<wire x1="22.86" y1="33.6804" x2="23.3172" y2="33.6804" width="0.1524" layer="1"/>
<wire x1="28.6512" y1="34.8996" x2="28.79" y2="34.81" width="0.1524" layer="1"/>
<wire x1="22.86" y1="33.6804" x2="22.84" y2="33.61" width="0.1524" layer="1"/>
<wire x1="33.9852" y1="29.5656" x2="34.29" y2="29.5656" width="0.1524" layer="1"/>
<wire x1="30.0228" y1="33.528" x2="30.6324" y2="32.9184" width="0.1524" layer="1"/>
<wire x1="30.6324" y1="32.9184" x2="33.9852" y2="29.5656" width="0.1524" layer="1"/>
<wire x1="30.0228" y1="33.9852" x2="30.0228" y2="33.528" width="0.1524" layer="1"/>
<wire x1="29.2608" y1="34.7472" x2="30.0228" y2="33.9852" width="0.1524" layer="1"/>
<wire x1="28.8036" y1="34.7472" x2="29.2608" y2="34.7472" width="0.1524" layer="1"/>
<wire x1="34.29" y1="29.5656" x2="34.39" y2="29.51" width="0.1524" layer="1"/>
<wire x1="28.8036" y1="34.7472" x2="28.79" y2="34.81" width="0.1524" layer="1"/>
<wire x1="27.432" y1="29.718" x2="30.6324" y2="32.9184" width="0.1524" layer="1"/>
<wire x1="27.2796" y1="29.718" x2="27.432" y2="29.718" width="0.1524" layer="1"/>
<wire x1="26.3652" y1="28.8036" x2="27.2796" y2="29.718" width="0.1524" layer="1"/>
<wire x1="26.3652" y1="28.194" x2="26.3652" y2="28.8036" width="0.1524" layer="1"/>
<wire x1="26.3652" y1="28.194" x2="26.22" y2="28.14" width="0.1524" layer="1"/>
<wire x1="23.3172" y1="17.3736" x2="22.4028" y2="17.3736" width="0.1524" layer="1"/>
<wire x1="24.6888" y1="16.002" x2="23.3172" y2="17.3736" width="0.1524" layer="1"/>
<wire x1="26.9748" y1="16.002" x2="24.6888" y2="16.002" width="0.1524" layer="1"/>
<wire x1="28.0416" y1="17.0688" x2="26.9748" y2="16.002" width="0.1524" layer="1"/>
<wire x1="28.4988" y1="17.0688" x2="28.0416" y2="17.0688" width="0.1524" layer="1"/>
<wire x1="22.4028" y1="17.3736" x2="22.34" y2="17.51" width="0.1524" layer="1"/>
<wire x1="28.4988" y1="17.0688" x2="28.54" y2="17.21" width="0.1524" layer="1"/>
<wire x1="17.0688" y1="22.4028" x2="16.4592" y2="22.4028" width="0.1524" layer="1"/>
<wire x1="21.9456" y1="17.526" x2="17.0688" y2="22.4028" width="0.1524" layer="1"/>
<wire x1="22.2504" y1="17.526" x2="21.9456" y2="17.526" width="0.1524" layer="1"/>
<wire x1="16.4592" y1="22.4028" x2="16.34" y2="22.41" width="0.1524" layer="1"/>
<wire x1="22.2504" y1="17.526" x2="22.34" y2="17.51" width="0.1524" layer="1"/>
<wire x1="33.3756" y1="21.6408" x2="34.29" y2="21.6408" width="0.1524" layer="1"/>
<wire x1="34.29" y1="21.6408" x2="34.4424" y2="21.6408" width="0.1524" layer="1"/>
<wire x1="28.956" y1="17.2212" x2="33.3756" y2="21.6408" width="0.1524" layer="1"/>
<wire x1="28.6512" y1="17.2212" x2="28.956" y2="17.2212" width="0.1524" layer="1"/>
<wire x1="34.4424" y1="21.6408" x2="34.59" y2="21.61" width="0.1524" layer="1"/>
<wire x1="28.6512" y1="17.2212" x2="28.54" y2="17.21" width="0.1524" layer="1"/>
<wire x1="33.2232" y1="28.8036" x2="33.9852" y2="29.5656" width="0.1524" layer="1"/>
<wire x1="33.2232" y1="23.9268" x2="33.2232" y2="28.8036" width="0.1524" layer="1"/>
<wire x1="34.29" y1="22.86" x2="33.2232" y2="23.9268" width="0.1524" layer="1"/>
<wire x1="34.29" y1="21.6408" x2="34.29" y2="22.86" width="0.1524" layer="1"/>
<wire x1="33.9852" y1="29.5656" x2="34.39" y2="29.51" width="0.1524" layer="1"/>
<wire x1="34.29" y1="21.6408" x2="34.59" y2="21.61" width="0.1524" layer="1"/>
<wire x1="18.4404" y1="46.482" x2="17.8308" y2="46.482" width="0.1524" layer="1"/>
<wire x1="19.812" y1="47.8536" x2="18.4404" y2="46.482" width="0.1524" layer="1"/>
<wire x1="23.7744" y1="47.8536" x2="19.812" y2="47.8536" width="0.1524" layer="1"/>
<wire x1="24.2316" y1="48.3108" x2="23.7744" y2="47.8536" width="0.1524" layer="1"/>
<wire x1="17.8308" y1="46.482" x2="17.69" y2="46.41" width="0.1524" layer="1"/>
<wire x1="24.2316" y1="48.3108" x2="24.24" y2="48.41" width="0.1524" layer="1"/>
<wire x1="6.096" y1="35.052" x2="5.6388" y2="35.052" width="0.1524" layer="1"/>
<wire x1="10.5156" y1="39.4716" x2="6.096" y2="35.052" width="0.1524" layer="1"/>
<wire x1="10.5156" y1="41.7576" x2="10.5156" y2="39.4716" width="0.1524" layer="1"/>
<wire x1="10.8204" y1="42.0624" x2="10.5156" y2="41.7576" width="0.1524" layer="1"/>
<wire x1="5.6388" y1="35.052" x2="5.49" y2="34.91" width="0.1524" layer="1"/>
<wire x1="10.8204" y1="42.0624" x2="10.89" y2="42.11" width="0.1524" layer="1"/>
<wire x1="15.6972" y1="46.482" x2="17.6784" y2="46.482" width="0.1524" layer="1"/>
<wire x1="11.43" y1="42.2148" x2="15.6972" y2="46.482" width="0.1524" layer="1"/>
<wire x1="10.9728" y1="42.2148" x2="11.43" y2="42.2148" width="0.1524" layer="1"/>
<wire x1="17.6784" y1="46.482" x2="17.69" y2="46.41" width="0.1524" layer="1"/>
<wire x1="10.9728" y1="42.2148" x2="10.89" y2="42.11" width="0.1524" layer="1"/>
<wire x1="48.4632" y1="24.2316" x2="48.4632" y2="21.336" width="0.1524" layer="1"/>
<wire x1="49.53" y1="25.2984" x2="48.4632" y2="24.2316" width="0.1524" layer="1"/>
<wire x1="49.53" y1="28.0416" x2="49.53" y2="25.2984" width="0.1524" layer="1"/>
<wire x1="48.768" y1="28.8036" x2="49.53" y2="28.0416" width="0.1524" layer="1"/>
<wire x1="48.768" y1="29.5656" x2="48.768" y2="28.8036" width="0.1524" layer="1"/>
<wire x1="48.4632" y1="21.336" x2="48.39" y2="21.19" width="0.1524" layer="1"/>
<wire x1="48.768" y1="29.5656" x2="48.79" y2="29.69" width="0.1524" layer="1"/>
<wire x1="44.5008" y1="38.2524" x2="45.2628" y2="38.2524" width="0.1524" layer="1"/>
<wire x1="39.1668" y1="43.5864" x2="44.5008" y2="38.2524" width="0.1524" layer="1"/>
<wire x1="38.862" y1="43.5864" x2="39.1668" y2="43.5864" width="0.1524" layer="1"/>
<wire x1="45.2628" y1="38.2524" x2="45.39" y2="38.19" width="0.1524" layer="1"/>
<wire x1="38.862" y1="43.5864" x2="38.84" y2="43.61" width="0.1524" layer="1"/>
<wire x1="32.9184" y1="47.3964" x2="31.8516" y2="47.3964" width="0.1524" layer="1"/>
<wire x1="36.1188" y1="44.196" x2="32.9184" y2="47.3964" width="0.1524" layer="1"/>
<wire x1="38.2524" y1="44.196" x2="36.1188" y2="44.196" width="0.1524" layer="1"/>
<wire x1="38.7096" y1="43.7388" x2="38.2524" y2="44.196" width="0.1524" layer="1"/>
<wire x1="31.8516" y1="47.3964" x2="31.84" y2="47.51" width="0.1524" layer="1"/>
<wire x1="38.7096" y1="43.7388" x2="38.84" y2="43.61" width="0.1524" layer="1"/>
<wire x1="48.9204" y1="32.4612" x2="48.9204" y2="29.718" width="0.1524" layer="1"/>
<wire x1="45.72" y1="35.6616" x2="48.9204" y2="32.4612" width="0.1524" layer="1"/>
<wire x1="45.72" y1="37.7952" x2="45.72" y2="35.6616" width="0.1524" layer="1"/>
<wire x1="45.4152" y1="38.1" x2="45.72" y2="37.7952" width="0.1524" layer="1"/>
<wire x1="48.9204" y1="29.718" x2="48.79" y2="29.69" width="0.1524" layer="1"/>
<wire x1="45.4152" y1="38.1" x2="45.39" y2="38.19" width="0.1524" layer="1"/>
<wire x1="25.2984" y1="48.3108" x2="24.384" y2="48.3108" width="0.1524" layer="1"/>
<wire x1="26.67" y1="46.9392" x2="25.2984" y2="48.3108" width="0.1524" layer="1"/>
<wire x1="31.242" y1="46.9392" x2="26.67" y2="46.9392" width="0.1524" layer="1"/>
<wire x1="31.6992" y1="47.3964" x2="31.242" y2="46.9392" width="0.1524" layer="1"/>
<wire x1="24.384" y1="48.3108" x2="24.24" y2="48.41" width="0.1524" layer="1"/>
<wire x1="31.6992" y1="47.3964" x2="31.84" y2="47.51" width="0.1524" layer="1"/>
<wire x1="2.1336" y1="29.5656" x2="2.1336" y2="26.67" width="0.1524" layer="1"/>
<wire x1="3.9624" y1="31.3944" x2="2.1336" y2="29.5656" width="0.1524" layer="1"/>
<wire x1="3.9624" y1="33.6804" x2="3.9624" y2="31.3944" width="0.1524" layer="1"/>
<wire x1="5.1816" y1="34.8996" x2="3.9624" y2="33.6804" width="0.1524" layer="1"/>
<wire x1="5.4864" y1="34.8996" x2="5.1816" y2="34.8996" width="0.1524" layer="1"/>
<wire x1="2.1336" y1="26.67" x2="2.08" y2="26.61" width="0.1524" layer="1"/>
<wire x1="5.4864" y1="34.8996" x2="5.49" y2="34.91" width="0.1524" layer="1"/>
<via x="26.67" y="46.9392" extent="1-16" drill="0.35"/>
</signal>
<signal name="GND">
<contactref element="U$13" pad="P$4"/>
<contactref element="U$12" pad="P$4"/>
<contactref element="U$11" pad="P$4"/>
<contactref element="U$10" pad="P$4"/>
<contactref element="U$9" pad="P$4"/>
<contactref element="U$8" pad="P$4"/>
<contactref element="U$7" pad="P$4"/>
<contactref element="U$6" pad="P$4"/>
<contactref element="U$5" pad="P$4"/>
<contactref element="U$1" pad="P$4"/>
<contactref element="U$2" pad="P$4"/>
<contactref element="U$3" pad="P$4"/>
<contactref element="U$4" pad="P$4"/>
<contactref element="U$14" pad="P$4"/>
<contactref element="U$15" pad="P$4"/>
<contactref element="U$16" pad="P$4"/>
<contactref element="U$17" pad="P$4"/>
<contactref element="U$18" pad="P$4"/>
<contactref element="U$19" pad="P$4"/>
<contactref element="U$20" pad="P$4"/>
<contactref element="JP1" pad="2"/>
<contactref element="U$27" pad="P$4"/>
<contactref element="U$21" pad="P$4"/>
<contactref element="U$22" pad="P$4"/>
<contactref element="U$23" pad="P$4"/>
<contactref element="U$24" pad="P$4"/>
<contactref element="U$25" pad="P$4"/>
<polygon width="0.1524" layer="1">
<vertex x="38.7" y="60.5"/>
<vertex x="-4.4" y="60.5"/>
<vertex x="-4.4" y="2.5"/>
<vertex x="-4.4" y="-2.1"/>
<vertex x="5.5" y="-2.1"/>
<vertex x="61" y="-2.1"/>
<vertex x="61" y="57.8"/>
<vertex x="61" y="60.5"/>
<vertex x="38.8" y="60.5"/>
</polygon>
<wire x1="20.89" y1="51.61" x2="23.1" y2="51.61" width="0.1524" layer="1"/>
<wire x1="23.1" y1="51.61" x2="23.1" y2="51.3" width="0.1524" layer="1"/>
<via x="23.1" y="51.3" extent="1-16" drill="0.35"/>
<wire x1="23.1" y1="51.3" x2="23.1" y2="46.1" width="0.1524" layer="16"/>
<wire x1="23.1" y1="46.1" x2="23.2" y2="46.1" width="0.1524" layer="16"/>
<via x="23.2" y="46.1" extent="1-16" drill="0.35"/>
<wire x1="14.09" y1="47.31" x2="14.09" y2="45.7" width="0.1524" layer="1"/>
<wire x1="14.09" y1="45.7" x2="13.1" y2="45.7" width="0.1524" layer="1"/>
<via x="13.1" y="45.7" extent="1-16" drill="0.35"/>
<wire x1="13.1" y1="45.7" x2="13.1" y2="44.2" width="0.1524" layer="16"/>
<wire x1="13.1" y1="44.2" x2="16.9" y2="44.2" width="0.1524" layer="16"/>
<via x="16.9" y="44.2" extent="1-16" drill="0.35"/>
</signal>
<signal name="N$26">
<contactref element="U$4" pad="P$3"/>
<contactref element="JP2" pad="1"/>
<wire x1="2.1336" y1="32.9184" x2="2.1336" y2="31.8516" width="0.1524" layer="1"/>
<wire x1="2.8956" y1="33.6804" x2="2.1336" y2="32.9184" width="0.1524" layer="1"/>
<wire x1="2.8956" y1="34.7472" x2="2.8956" y2="33.6804" width="0.1524" layer="1"/>
<wire x1="2.1336" y1="31.8516" x2="2.08" y2="31.81" width="0.1524" layer="1"/>
<wire x1="2.8956" y1="34.7472" x2="2.83" y2="34.75" width="0.1524" layer="1"/>
</signal>
<signal name="N$20">
<contactref element="U$21" pad="P$3"/>
<contactref element="U$27" pad="P$2"/>
<wire x1="20.7264" y1="30.0228" x2="19.9644" y2="30.0228" width="0.1524" layer="1"/>
<wire x1="27.2796" y1="23.4696" x2="20.7264" y2="30.0228" width="0.1524" layer="1"/>
<wire x1="27.2796" y1="23.3172" x2="27.2796" y2="23.4696" width="0.1524" layer="1"/>
<wire x1="28.0416" y1="22.5552" x2="27.2796" y2="23.3172" width="0.1524" layer="1"/>
<wire x1="28.4988" y1="22.5552" x2="28.0416" y2="22.5552" width="0.1524" layer="1"/>
<wire x1="19.9644" y1="30.0228" x2="19.84" y2="30.11" width="0.1524" layer="1"/>
<wire x1="28.4988" y1="22.5552" x2="28.54" y2="22.41" width="0.1524" layer="1"/>
</signal>
<signal name="N$21">
<contactref element="U$22" pad="P$3"/>
<contactref element="U$21" pad="P$2"/>
<wire x1="32.4612" y1="17.2212" x2="31.8516" y2="17.2212" width="0.1524" layer="1"/>
<wire x1="35.814" y1="20.574" x2="32.4612" y2="17.2212" width="0.1524" layer="1"/>
<wire x1="35.814" y1="24.6888" x2="35.814" y2="20.574" width="0.1524" layer="1"/>
<wire x1="34.5948" y1="25.908" x2="35.814" y2="24.6888" width="0.1524" layer="1"/>
<wire x1="34.5948" y1="26.67" x2="34.5948" y2="25.908" width="0.1524" layer="1"/>
<wire x1="31.8516" y1="17.2212" x2="31.74" y2="17.21" width="0.1524" layer="1"/>
<wire x1="34.5948" y1="26.67" x2="34.59" y2="26.81" width="0.1524" layer="1"/>
</signal>
<signal name="N$22">
<contactref element="U$23" pad="P$3"/>
<contactref element="U$22" pad="P$2"/>
<wire x1="37.7952" y1="24.384" x2="37.7952" y2="21.6408" width="0.1524" layer="1"/>
<wire x1="35.814" y1="26.3652" x2="37.7952" y2="24.384" width="0.1524" layer="1"/>
<wire x1="35.814" y1="32.3088" x2="35.814" y2="26.3652" width="0.1524" layer="1"/>
<wire x1="34.29" y1="33.8328" x2="35.814" y2="32.3088" width="0.1524" layer="1"/>
<wire x1="34.29" y1="34.5948" x2="34.29" y2="33.8328" width="0.1524" layer="1"/>
<wire x1="37.7952" y1="21.6408" x2="37.79" y2="21.61" width="0.1524" layer="1"/>
<wire x1="34.29" y1="34.5948" x2="34.39" y2="34.71" width="0.1524" layer="1"/>
</signal>
<signal name="N$23">
<contactref element="U$24" pad="P$3"/>
<contactref element="U$23" pad="P$2"/>
<wire x1="37.6428" y1="32.1564" x2="37.6428" y2="29.5656" width="0.1524" layer="1"/>
<wire x1="35.6616" y1="34.1376" x2="37.6428" y2="32.1564" width="0.1524" layer="1"/>
<wire x1="35.6616" y1="35.814" x2="35.6616" y2="34.1376" width="0.1524" layer="1"/>
<wire x1="33.0708" y1="38.4048" x2="35.6616" y2="35.814" width="0.1524" layer="1"/>
<wire x1="30.7848" y1="38.4048" x2="33.0708" y2="38.4048" width="0.1524" layer="1"/>
<wire x1="29.2608" y1="39.9288" x2="30.7848" y2="38.4048" width="0.1524" layer="1"/>
<wire x1="28.8036" y1="39.9288" x2="29.2608" y2="39.9288" width="0.1524" layer="1"/>
<wire x1="37.6428" y1="29.5656" x2="37.59" y2="29.51" width="0.1524" layer="1"/>
<wire x1="28.8036" y1="39.9288" x2="28.79" y2="40.01" width="0.1524" layer="1"/>
</signal>
<signal name="N$24">
<contactref element="U$25" pad="P$3"/>
<contactref element="U$24" pad="P$2"/>
<wire x1="23.622" y1="38.7096" x2="22.86" y2="38.7096" width="0.1524" layer="1"/>
<wire x1="26.0604" y1="36.2712" x2="23.622" y2="38.7096" width="0.1524" layer="1"/>
<wire x1="30.1752" y1="36.2712" x2="26.0604" y2="36.2712" width="0.1524" layer="1"/>
<wire x1="31.5468" y1="34.8996" x2="30.1752" y2="36.2712" width="0.1524" layer="1"/>
<wire x1="31.8516" y1="34.8996" x2="31.5468" y2="34.8996" width="0.1524" layer="1"/>
<wire x1="22.86" y1="38.7096" x2="22.84" y2="38.81" width="0.1524" layer="1"/>
<wire x1="31.8516" y1="34.8996" x2="31.99" y2="34.81" width="0.1524" layer="1"/>
</signal>
<signal name="N$27">
<via x="7.4" y="43.4" extent="1-16" drill="2.1"/>
</signal>
<signal name="N$28">
<via x="45.5" y="46.8" extent="1-16" drill="2.1"/>
</signal>
<signal name="N$29">
<via x="51.4" y="17.4" extent="1-16" drill="2.1"/>
</signal>
</signals>
</board>
</drawing>
<compatibility>
<note version="8.2" severity="warning">
Since Version 8.2, EAGLE supports online libraries. The ids
of those online libraries will not be understood (or retained)
with this version.
</note>
<note version="8.3" severity="warning">
Since Version 8.3, EAGLE supports URNs for individual library
assets (packages, symbols, and devices). The URNs of those assets
will not be understood (or retained) with this version.
</note>
<note version="8.3" severity="warning">
Since Version 8.3, EAGLE supports the association of 3D packages
with devices in libraries, schematics, and board files. Those 3D
packages will not be understood (or retained) with this version.
</note>
</compatibility>
</eagle>
