<?xml version="1.0" encoding="utf-8"?>
<!DOCTYPE eagle SYSTEM "eagle.dtd">
<eagle version="9.1.3">
<drawing>
<settings>
<setting alwaysvectorfont="no"/>
<setting verticaltext="up"/>
</settings>
<grid distance="0.1" unitdist="inch" unit="inch" style="lines" multiple="1" display="no" altdistance="0.01" altunitdist="inch" altunit="inch"/>
<layers>
<layer number="1" name="Top" color="4" fill="1" visible="no" active="no"/>
<layer number="2" name="Route2" color="1" fill="3" visible="no" active="no"/>
<layer number="3" name="Route3" color="4" fill="3" visible="no" active="no"/>
<layer number="4" name="Route4" color="1" fill="4" visible="no" active="no"/>
<layer number="5" name="Route5" color="4" fill="4" visible="no" active="no"/>
<layer number="6" name="Route6" color="1" fill="8" visible="no" active="no"/>
<layer number="7" name="Route7" color="4" fill="8" visible="no" active="no"/>
<layer number="8" name="Route8" color="1" fill="2" visible="no" active="no"/>
<layer number="9" name="Route9" color="4" fill="2" visible="no" active="no"/>
<layer number="10" name="Route10" color="1" fill="7" visible="no" active="no"/>
<layer number="11" name="Route11" color="4" fill="7" visible="no" active="no"/>
<layer number="12" name="Route12" color="1" fill="5" visible="no" active="no"/>
<layer number="13" name="Route13" color="4" fill="5" visible="no" active="no"/>
<layer number="14" name="Route14" color="1" fill="6" visible="no" active="no"/>
<layer number="15" name="Route15" color="4" fill="6" visible="no" active="no"/>
<layer number="16" name="Bottom" color="1" fill="1" visible="no" active="no"/>
<layer number="17" name="Pads" color="2" fill="1" visible="no" active="no"/>
<layer number="18" name="Vias" color="2" fill="1" visible="no" active="no"/>
<layer number="19" name="Unrouted" color="6" fill="1" visible="no" active="no"/>
<layer number="20" name="Dimension" color="24" fill="1" visible="no" active="no"/>
<layer number="21" name="tPlace" color="7" fill="1" visible="no" active="no"/>
<layer number="22" name="bPlace" color="7" fill="1" visible="no" active="no"/>
<layer number="23" name="tOrigins" color="15" fill="1" visible="no" active="no"/>
<layer number="24" name="bOrigins" color="15" fill="1" visible="no" active="no"/>
<layer number="25" name="tNames" color="7" fill="1" visible="no" active="no"/>
<layer number="26" name="bNames" color="7" fill="1" visible="no" active="no"/>
<layer number="27" name="tValues" color="7" fill="1" visible="no" active="no"/>
<layer number="28" name="bValues" color="7" fill="1" visible="no" active="no"/>
<layer number="29" name="tStop" color="7" fill="3" visible="no" active="no"/>
<layer number="30" name="bStop" color="7" fill="6" visible="no" active="no"/>
<layer number="31" name="tCream" color="7" fill="4" visible="no" active="no"/>
<layer number="32" name="bCream" color="7" fill="5" visible="no" active="no"/>
<layer number="33" name="tFinish" color="6" fill="3" visible="no" active="no"/>
<layer number="34" name="bFinish" color="6" fill="6" visible="no" active="no"/>
<layer number="35" name="tGlue" color="7" fill="4" visible="no" active="no"/>
<layer number="36" name="bGlue" color="7" fill="5" visible="no" active="no"/>
<layer number="37" name="tTest" color="7" fill="1" visible="no" active="no"/>
<layer number="38" name="bTest" color="7" fill="1" visible="no" active="no"/>
<layer number="39" name="tKeepout" color="4" fill="11" visible="no" active="no"/>
<layer number="40" name="bKeepout" color="1" fill="11" visible="no" active="no"/>
<layer number="41" name="tRestrict" color="4" fill="10" visible="no" active="no"/>
<layer number="42" name="bRestrict" color="1" fill="10" visible="no" active="no"/>
<layer number="43" name="vRestrict" color="2" fill="10" visible="no" active="no"/>
<layer number="44" name="Drills" color="7" fill="1" visible="no" active="no"/>
<layer number="45" name="Holes" color="7" fill="1" visible="no" active="no"/>
<layer number="46" name="Milling" color="3" fill="1" visible="no" active="no"/>
<layer number="47" name="Measures" color="7" fill="1" visible="no" active="no"/>
<layer number="48" name="Document" color="7" fill="1" visible="no" active="no"/>
<layer number="49" name="Reference" color="7" fill="1" visible="no" active="no"/>
<layer number="51" name="tDocu" color="7" fill="1" visible="no" active="no"/>
<layer number="52" name="bDocu" color="7" fill="1" visible="no" active="no"/>
<layer number="88" name="SimResults" color="9" fill="1" visible="yes" active="yes"/>
<layer number="89" name="SimProbes" color="9" fill="1" visible="yes" active="yes"/>
<layer number="90" name="Modules" color="5" fill="1" visible="yes" active="yes"/>
<layer number="91" name="Nets" color="2" fill="1" visible="yes" active="yes"/>
<layer number="92" name="Busses" color="1" fill="1" visible="yes" active="yes"/>
<layer number="93" name="Pins" color="2" fill="1" visible="no" active="yes"/>
<layer number="94" name="Symbols" color="4" fill="1" visible="yes" active="yes"/>
<layer number="95" name="Names" color="7" fill="1" visible="yes" active="yes"/>
<layer number="96" name="Values" color="7" fill="1" visible="yes" active="yes"/>
<layer number="97" name="Info" color="7" fill="1" visible="yes" active="yes"/>
<layer number="98" name="Guide" color="6" fill="1" visible="yes" active="yes"/>
<layer number="99" name="SpiceOrder" color="5" fill="1" visible="yes" active="yes"/>
</layers>
<schematic xreflabel="%F%N/%S.%C%R" xrefpart="/%S.%C%R">
<libraries>
<library name="BMS">
<packages>
<package name="BATTERY-HOLDER-QUAD">
<wire x1="0" y1="0" x2="0" y2="20" width="0.127" layer="21"/>
<wire x1="0" y1="20" x2="0" y2="39" width="0.127" layer="21"/>
<wire x1="0" y1="39" x2="0" y2="59" width="0.127" layer="21"/>
<wire x1="0" y1="59" x2="0" y2="78.74" width="0.127" layer="21"/>
<wire x1="0" y1="0" x2="77.98" y2="0" width="0.127" layer="21"/>
<wire x1="77.98" y1="78.84" x2="77.98" y2="0.1" width="0.127" layer="21"/>
<wire x1="77.98" y1="78.84" x2="0" y2="78.84" width="0.127" layer="21"/>
<wire x1="0" y1="20" x2="78" y2="20" width="0.127" layer="21"/>
<wire x1="0" y1="39" x2="78" y2="39" width="0.127" layer="21"/>
<wire x1="0" y1="59" x2="78" y2="59" width="0.127" layer="21"/>
<pad name="P$9" x="2.5" y="10.35" drill="1.8" shape="long"/>
<pad name="P$10" x="2.5" y="29.65" drill="1.8" shape="long"/>
<pad name="P$11" x="2.5" y="48.95" drill="1.8" shape="long"/>
<pad name="P$12" x="2.5" y="68.25" drill="1.8" shape="long"/>
<pad name="P$13" x="75.4" y="10.35" drill="1.9" shape="long"/>
<pad name="P$14" x="75.4" y="29.65" drill="1.8" shape="long"/>
<pad name="P$15" x="75.4" y="48.95" drill="1.8" shape="long"/>
<pad name="P$16" x="75.4" y="68.25" drill="1.8" shape="long"/>
<hole x="11.22" y="10.31" drill="3.2"/>
<hole x="66.83" y="10.31" drill="3.2"/>
<hole x="11.22" y="29.61" drill="3.2"/>
<hole x="66.83" y="29.61" drill="3.2"/>
<hole x="11.22" y="48.91" drill="3.2"/>
<hole x="66.83" y="48.91" drill="3.2"/>
<hole x="11.22" y="68.21" drill="3.2"/>
<hole x="66.83" y="68.21" drill="3.2"/>
<text x="-0.3" y="-6.2" size="3.81" layer="21">+</text>
<text x="76.2" y="-7.4" size="3.81" layer="21">-</text>
</package>
<package name="KF7.62-2P">
<wire x1="0" y1="0" x2="7.62" y2="0" width="0.127" layer="21"/>
<wire x1="7.62" y1="0" x2="7.62" y2="12" width="0.127" layer="21"/>
<wire x1="7.62" y1="12" x2="0" y2="12" width="0.127" layer="21"/>
<wire x1="0" y1="12" x2="0" y2="0" width="0.127" layer="21"/>
<wire x1="0" y1="0" x2="-7.62" y2="0" width="0.127" layer="21"/>
<wire x1="-7.62" y1="0" x2="-7.62" y2="12" width="0.127" layer="21"/>
<wire x1="-7.62" y1="12" x2="0" y2="12" width="0.127" layer="21"/>
<pad name="P$1" x="3.81" y="2" drill="1.5" shape="octagon"/>
<pad name="P$2" x="-3.81" y="2" drill="1.5" shape="octagon"/>
</package>
</packages>
<symbols>
<symbol name="QUADBATTERY">
<wire x1="-2.54" y1="7.62" x2="-2.54" y2="2.54" width="0.254" layer="94"/>
<wire x1="0" y1="10.16" x2="0" y2="0" width="0.254" layer="94"/>
<pin name="P$1" x="-7.62" y="5.08" length="middle"/>
<pin name="P$2" x="5.08" y="5.08" length="middle" rot="R180"/>
<wire x1="-2.54" y1="-5.08" x2="-2.54" y2="-10.16" width="0.254" layer="94"/>
<wire x1="0" y1="-2.54" x2="0" y2="-12.7" width="0.254" layer="94"/>
<pin name="P$3" x="-7.62" y="-7.62" length="middle"/>
<pin name="P$4" x="5.08" y="-7.62" length="middle" rot="R180"/>
<wire x1="-2.54" y1="-17.78" x2="-2.54" y2="-22.86" width="0.254" layer="94"/>
<wire x1="0" y1="-15.24" x2="0" y2="-25.4" width="0.254" layer="94"/>
<pin name="P$5" x="-7.62" y="-20.32" length="middle"/>
<pin name="P$6" x="5.08" y="-20.32" length="middle" rot="R180"/>
<wire x1="-2.54" y1="-30.48" x2="-2.54" y2="-35.56" width="0.254" layer="94"/>
<wire x1="0" y1="-27.94" x2="0" y2="-38.1" width="0.254" layer="94"/>
<pin name="P$7" x="-7.62" y="-33.02" length="middle"/>
<pin name="P$8" x="5.08" y="-33.02" length="middle" rot="R180"/>
</symbol>
<symbol name="PINHD2">
<wire x1="1.27" y1="0" x2="8.89" y2="0" width="0.4064" layer="94"/>
<wire x1="8.89" y1="0" x2="8.89" y2="7.62" width="0.4064" layer="94"/>
<wire x1="8.89" y1="7.62" x2="1.27" y2="7.62" width="0.4064" layer="94"/>
<wire x1="1.27" y1="7.62" x2="1.27" y2="0" width="0.4064" layer="94"/>
<text x="1.27" y="8.255" size="1.778" layer="95">&gt;NAME</text>
<text x="1.27" y="-2.54" size="1.778" layer="96">&gt;VALUE</text>
<pin name="1" x="5.08" y="5.08" visible="pad" length="short" direction="pas" function="dot"/>
<pin name="2" x="5.08" y="2.54" visible="pad" length="short" direction="pas" function="dot"/>
</symbol>
</symbols>
<devicesets>
<deviceset name="BATTERYQUAD">
<gates>
<gate name="G$1" symbol="QUADBATTERY" x="0" y="33.02"/>
</gates>
<devices>
<device name="" package="BATTERY-HOLDER-QUAD">
<connects>
<connect gate="G$1" pin="P$1" pad="P$13"/>
<connect gate="G$1" pin="P$2" pad="P$9"/>
<connect gate="G$1" pin="P$3" pad="P$14"/>
<connect gate="G$1" pin="P$4" pad="P$10"/>
<connect gate="G$1" pin="P$5" pad="P$15"/>
<connect gate="G$1" pin="P$6" pad="P$11"/>
<connect gate="G$1" pin="P$7" pad="P$16"/>
<connect gate="G$1" pin="P$8" pad="P$12"/>
</connects>
<technologies>
<technology name=""/>
</technologies>
</device>
</devices>
</deviceset>
<deviceset name="KF7.62-2P">
<gates>
<gate name="G$1" symbol="PINHD2" x="-5.08" y="-2.54"/>
</gates>
<devices>
<device name="" package="KF7.62-2P">
<connects>
<connect gate="G$1" pin="1" pad="P$1"/>
<connect gate="G$1" pin="2" pad="P$2"/>
</connects>
<technologies>
<technology name=""/>
</technologies>
</device>
</devices>
</deviceset>
</devicesets>
</library>
<library name="eagle-ltspice" urn="urn:adsk.eagle:library:217">
<description>Default symbols for import LTspice schematics&lt;p&gt;
2012-10-29 alf@cadsoft.de&lt;br&gt;</description>
<packages>
<package name="0204/7" urn="urn:adsk.eagle:footprint:13215/1" library_version="2">
<description>&lt;b&gt;RESISTOR&lt;/b&gt;&lt;p&gt;
type 0204, grid 7.5 mm</description>
<wire x1="3.81" y1="0" x2="2.921" y2="0" width="0.508" layer="51"/>
<wire x1="-3.81" y1="0" x2="-2.921" y2="0" width="0.508" layer="51"/>
<wire x1="-2.54" y1="0.762" x2="-2.286" y2="1.016" width="0.1524" layer="21" curve="-90"/>
<wire x1="-2.54" y1="-0.762" x2="-2.286" y2="-1.016" width="0.1524" layer="21" curve="90"/>
<wire x1="2.286" y1="-1.016" x2="2.54" y2="-0.762" width="0.1524" layer="21" curve="90"/>
<wire x1="2.286" y1="1.016" x2="2.54" y2="0.762" width="0.1524" layer="21" curve="-90"/>
<wire x1="-2.54" y1="-0.762" x2="-2.54" y2="0.762" width="0.1524" layer="21"/>
<wire x1="-2.286" y1="1.016" x2="-1.905" y2="1.016" width="0.1524" layer="21"/>
<wire x1="-1.778" y1="0.889" x2="-1.905" y2="1.016" width="0.1524" layer="21"/>
<wire x1="-2.286" y1="-1.016" x2="-1.905" y2="-1.016" width="0.1524" layer="21"/>
<wire x1="-1.778" y1="-0.889" x2="-1.905" y2="-1.016" width="0.1524" layer="21"/>
<wire x1="1.778" y1="0.889" x2="1.905" y2="1.016" width="0.1524" layer="21"/>
<wire x1="1.778" y1="0.889" x2="-1.778" y2="0.889" width="0.1524" layer="21"/>
<wire x1="1.778" y1="-0.889" x2="1.905" y2="-1.016" width="0.1524" layer="21"/>
<wire x1="1.778" y1="-0.889" x2="-1.778" y2="-0.889" width="0.1524" layer="21"/>
<wire x1="2.286" y1="1.016" x2="1.905" y2="1.016" width="0.1524" layer="21"/>
<wire x1="2.286" y1="-1.016" x2="1.905" y2="-1.016" width="0.1524" layer="21"/>
<wire x1="2.54" y1="-0.762" x2="2.54" y2="0.762" width="0.1524" layer="21"/>
<rectangle x1="2.54" y1="-0.254" x2="2.921" y2="0.254" layer="21"/>
<rectangle x1="-2.921" y1="-0.254" x2="-2.54" y2="0.254" layer="21"/>
<pad name="1" x="-3.81" y="0" drill="0.8128" shape="octagon"/>
<pad name="2" x="3.81" y="0" drill="0.8128" shape="octagon"/>
<text x="-2.54" y="1.2954" size="0.9906" layer="25" ratio="10">&gt;NAME</text>
<text x="-1.6256" y="-0.4826" size="0.9906" layer="27" ratio="10">&gt;VALUE</text>
</package>
<package name="0207/10" urn="urn:adsk.eagle:footprint:13216/1" library_version="2">
<description>&lt;b&gt;RESISTOR&lt;/b&gt;&lt;p&gt;
type 0207, grid 10 mm</description>
<wire x1="5.08" y1="0" x2="4.064" y2="0" width="0.6096" layer="51"/>
<wire x1="-5.08" y1="0" x2="-4.064" y2="0" width="0.6096" layer="51"/>
<wire x1="-3.175" y1="0.889" x2="-2.921" y2="1.143" width="0.1524" layer="21" curve="-90"/>
<wire x1="-3.175" y1="-0.889" x2="-2.921" y2="-1.143" width="0.1524" layer="21" curve="90"/>
<wire x1="2.921" y1="-1.143" x2="3.175" y2="-0.889" width="0.1524" layer="21" curve="90"/>
<wire x1="2.921" y1="1.143" x2="3.175" y2="0.889" width="0.1524" layer="21" curve="-90"/>
<wire x1="-3.175" y1="-0.889" x2="-3.175" y2="0.889" width="0.1524" layer="21"/>
<wire x1="-2.921" y1="1.143" x2="-2.54" y2="1.143" width="0.1524" layer="21"/>
<wire x1="-2.413" y1="1.016" x2="-2.54" y2="1.143" width="0.1524" layer="21"/>
<wire x1="-2.921" y1="-1.143" x2="-2.54" y2="-1.143" width="0.1524" layer="21"/>
<wire x1="-2.413" y1="-1.016" x2="-2.54" y2="-1.143" width="0.1524" layer="21"/>
<wire x1="2.413" y1="1.016" x2="2.54" y2="1.143" width="0.1524" layer="21"/>
<wire x1="2.413" y1="1.016" x2="-2.413" y2="1.016" width="0.1524" layer="21"/>
<wire x1="2.413" y1="-1.016" x2="2.54" y2="-1.143" width="0.1524" layer="21"/>
<wire x1="2.413" y1="-1.016" x2="-2.413" y2="-1.016" width="0.1524" layer="21"/>
<wire x1="2.921" y1="1.143" x2="2.54" y2="1.143" width="0.1524" layer="21"/>
<wire x1="2.921" y1="-1.143" x2="2.54" y2="-1.143" width="0.1524" layer="21"/>
<wire x1="3.175" y1="-0.889" x2="3.175" y2="0.889" width="0.1524" layer="21"/>
<rectangle x1="3.175" y1="-0.3048" x2="4.0386" y2="0.3048" layer="21"/>
<rectangle x1="-4.0386" y1="-0.3048" x2="-3.175" y2="0.3048" layer="21"/>
<pad name="1" x="-5.08" y="0" drill="0.8128" shape="octagon"/>
<pad name="2" x="5.08" y="0" drill="0.8128" shape="octagon"/>
<text x="-3.048" y="1.524" size="1.27" layer="25" ratio="10">&gt;NAME</text>
<text x="-2.2606" y="-0.635" size="1.27" layer="27" ratio="10">&gt;VALUE</text>
</package>
<package name="R0201" urn="urn:adsk.eagle:footprint:13233/1" library_version="2">
<description>&lt;b&gt;RESISTOR&lt;/b&gt; chip&lt;p&gt;
Source: http://www.vishay.com/docs/20008/dcrcw.pdf</description>
<rectangle x1="-0.3" y1="-0.15" x2="-0.15" y2="0.15" layer="51"/>
<rectangle x1="0.15" y1="-0.15" x2="0.3" y2="0.15" layer="51"/>
<rectangle x1="-0.15" y1="-0.15" x2="0.15" y2="0.15" layer="21"/>
<smd name="1" x="-0.255" y="0" dx="0.28" dy="0.43" layer="1"/>
<smd name="2" x="0.255" y="0" dx="0.28" dy="0.43" layer="1"/>
<text x="-0.635" y="0.635" size="1.27" layer="25">&gt;NAME</text>
<text x="-0.635" y="-1.905" size="1.27" layer="27">&gt;VALUE</text>
</package>
<package name="R0402" urn="urn:adsk.eagle:footprint:13234/1" library_version="2">
<description>&lt;b&gt;RESISTOR&lt;/b&gt;</description>
<wire x1="-0.245" y1="0.224" x2="0.245" y2="0.224" width="0.1524" layer="51"/>
<wire x1="0.245" y1="-0.224" x2="-0.245" y2="-0.224" width="0.1524" layer="51"/>
<wire x1="-1.473" y1="0.483" x2="1.473" y2="0.483" width="0.0508" layer="39"/>
<wire x1="1.473" y1="0.483" x2="1.473" y2="-0.483" width="0.0508" layer="39"/>
<wire x1="1.473" y1="-0.483" x2="-1.473" y2="-0.483" width="0.0508" layer="39"/>
<wire x1="-1.473" y1="-0.483" x2="-1.473" y2="0.483" width="0.0508" layer="39"/>
<rectangle x1="-0.554" y1="-0.3048" x2="-0.254" y2="0.2951" layer="51"/>
<rectangle x1="0.2588" y1="-0.3048" x2="0.5588" y2="0.2951" layer="51"/>
<rectangle x1="-0.1999" y1="-0.4001" x2="0.1999" y2="0.4001" layer="35"/>
<smd name="1" x="-0.65" y="0" dx="0.7" dy="0.9" layer="1"/>
<smd name="2" x="0.65" y="0" dx="0.7" dy="0.9" layer="1"/>
<text x="-0.635" y="0.635" size="1.27" layer="25">&gt;NAME</text>
<text x="-0.635" y="-1.905" size="1.27" layer="27">&gt;VALUE</text>
</package>
<package name="R0603" urn="urn:adsk.eagle:footprint:13235/1" library_version="2">
<description>&lt;b&gt;RESISTOR&lt;/b&gt;</description>
<wire x1="-0.432" y1="-0.356" x2="0.432" y2="-0.356" width="0.1524" layer="51"/>
<wire x1="0.432" y1="0.356" x2="-0.432" y2="0.356" width="0.1524" layer="51"/>
<wire x1="-1.473" y1="0.983" x2="1.473" y2="0.983" width="0.0508" layer="39"/>
<wire x1="1.473" y1="0.983" x2="1.473" y2="-0.983" width="0.0508" layer="39"/>
<wire x1="1.473" y1="-0.983" x2="-1.473" y2="-0.983" width="0.0508" layer="39"/>
<wire x1="-1.473" y1="-0.983" x2="-1.473" y2="0.983" width="0.0508" layer="39"/>
<rectangle x1="0.4318" y1="-0.4318" x2="0.8382" y2="0.4318" layer="51"/>
<rectangle x1="-0.8382" y1="-0.4318" x2="-0.4318" y2="0.4318" layer="51"/>
<rectangle x1="-0.1999" y1="-0.4001" x2="0.1999" y2="0.4001" layer="35"/>
<smd name="1" x="-0.85" y="0" dx="1" dy="1.1" layer="1"/>
<smd name="2" x="0.85" y="0" dx="1" dy="1.1" layer="1"/>
<text x="-0.635" y="0.635" size="1.27" layer="25">&gt;NAME</text>
<text x="-0.635" y="-1.905" size="1.27" layer="27">&gt;VALUE</text>
</package>
<package name="R0805" urn="urn:adsk.eagle:footprint:13236/1" library_version="2">
<description>&lt;b&gt;RESISTOR&lt;/b&gt;&lt;p&gt;</description>
<wire x1="-0.41" y1="0.635" x2="0.41" y2="0.635" width="0.1524" layer="51"/>
<wire x1="-0.41" y1="-0.635" x2="0.41" y2="-0.635" width="0.1524" layer="51"/>
<wire x1="-1.973" y1="0.983" x2="1.973" y2="0.983" width="0.0508" layer="39"/>
<wire x1="1.973" y1="0.983" x2="1.973" y2="-0.983" width="0.0508" layer="39"/>
<wire x1="1.973" y1="-0.983" x2="-1.973" y2="-0.983" width="0.0508" layer="39"/>
<wire x1="-1.973" y1="-0.983" x2="-1.973" y2="0.983" width="0.0508" layer="39"/>
<rectangle x1="0.4064" y1="-0.6985" x2="1.0564" y2="0.7015" layer="51"/>
<rectangle x1="-1.0668" y1="-0.6985" x2="-0.4168" y2="0.7015" layer="51"/>
<rectangle x1="-0.1999" y1="-0.5001" x2="0.1999" y2="0.5001" layer="35"/>
<smd name="1" x="-0.95" y="0" dx="1.3" dy="1.5" layer="1"/>
<smd name="2" x="0.95" y="0" dx="1.3" dy="1.5" layer="1"/>
<text x="-0.635" y="1.27" size="1.27" layer="25">&gt;NAME</text>
<text x="-0.635" y="-2.54" size="1.27" layer="27">&gt;VALUE</text>
</package>
<package name="R1005" urn="urn:adsk.eagle:footprint:13237/1" library_version="2">
<description>&lt;b&gt;RESISTOR&lt;/b&gt;</description>
<wire x1="-0.245" y1="0.224" x2="0.245" y2="0.224" width="0.1524" layer="51"/>
<wire x1="0.245" y1="-0.224" x2="-0.245" y2="-0.224" width="0.1524" layer="51"/>
<wire x1="-1.473" y1="0.483" x2="1.473" y2="0.483" width="0.0508" layer="39"/>
<wire x1="1.473" y1="0.483" x2="1.473" y2="-0.483" width="0.0508" layer="39"/>
<wire x1="1.473" y1="-0.483" x2="-1.473" y2="-0.483" width="0.0508" layer="39"/>
<wire x1="-1.473" y1="-0.483" x2="-1.473" y2="0.483" width="0.0508" layer="39"/>
<rectangle x1="-0.554" y1="-0.3048" x2="-0.254" y2="0.2951" layer="51"/>
<rectangle x1="0.2588" y1="-0.3048" x2="0.5588" y2="0.2951" layer="51"/>
<rectangle x1="-0.1999" y1="-0.3" x2="0.1999" y2="0.3" layer="35"/>
<smd name="1" x="-0.65" y="0" dx="0.7" dy="0.9" layer="1"/>
<smd name="2" x="0.65" y="0" dx="0.7" dy="0.9" layer="1"/>
<text x="-0.635" y="0.635" size="1.27" layer="25">&gt;NAME</text>
<text x="-0.635" y="-1.905" size="1.27" layer="27">&gt;VALUE</text>
</package>
<package name="R1206" urn="urn:adsk.eagle:footprint:13238/1" library_version="2">
<description>&lt;b&gt;RESISTOR&lt;/b&gt;</description>
<wire x1="0.9525" y1="-0.8128" x2="-0.9652" y2="-0.8128" width="0.1524" layer="51"/>
<wire x1="0.9525" y1="0.8128" x2="-0.9652" y2="0.8128" width="0.1524" layer="51"/>
<wire x1="-2.473" y1="0.983" x2="2.473" y2="0.983" width="0.0508" layer="39"/>
<wire x1="2.473" y1="0.983" x2="2.473" y2="-0.983" width="0.0508" layer="39"/>
<wire x1="2.473" y1="-0.983" x2="-2.473" y2="-0.983" width="0.0508" layer="39"/>
<wire x1="-2.473" y1="-0.983" x2="-2.473" y2="0.983" width="0.0508" layer="39"/>
<rectangle x1="-1.6891" y1="-0.8763" x2="-0.9525" y2="0.8763" layer="51"/>
<rectangle x1="0.9525" y1="-0.8763" x2="1.6891" y2="0.8763" layer="51"/>
<rectangle x1="-0.3" y1="-0.7" x2="0.3" y2="0.7" layer="35"/>
<smd name="1" x="-1.422" y="0" dx="1.6" dy="1.803" layer="1"/>
<smd name="2" x="1.422" y="0" dx="1.6" dy="1.803" layer="1"/>
<text x="-1.27" y="1.27" size="1.27" layer="25">&gt;NAME</text>
<text x="-1.27" y="-2.54" size="1.27" layer="27">&gt;VALUE</text>
</package>
<package name="R1210" urn="urn:adsk.eagle:footprint:13239/1" library_version="2">
<description>&lt;b&gt;RESISTOR&lt;/b&gt;</description>
<wire x1="-0.913" y1="1.219" x2="0.939" y2="1.219" width="0.1524" layer="51"/>
<wire x1="-0.913" y1="-1.219" x2="0.939" y2="-1.219" width="0.1524" layer="51"/>
<wire x1="-2.473" y1="1.483" x2="2.473" y2="1.483" width="0.0508" layer="39"/>
<wire x1="2.473" y1="1.483" x2="2.473" y2="-1.483" width="0.0508" layer="39"/>
<wire x1="2.473" y1="-1.483" x2="-2.473" y2="-1.483" width="0.0508" layer="39"/>
<wire x1="-2.473" y1="-1.483" x2="-2.473" y2="1.483" width="0.0508" layer="39"/>
<rectangle x1="-1.651" y1="-1.3081" x2="-0.9009" y2="1.2918" layer="51"/>
<rectangle x1="0.9144" y1="-1.3081" x2="1.6645" y2="1.2918" layer="51"/>
<rectangle x1="-0.3" y1="-0.8999" x2="0.3" y2="0.8999" layer="35"/>
<smd name="1" x="-1.4" y="0" dx="1.6" dy="2.7" layer="1"/>
<smd name="2" x="1.4" y="0" dx="1.6" dy="2.7" layer="1"/>
<text x="-2.54" y="1.905" size="1.27" layer="25">&gt;NAME</text>
<text x="-2.54" y="-3.175" size="1.27" layer="27">&gt;VALUE</text>
</package>
<package name="R1218" urn="urn:adsk.eagle:footprint:13240/1" library_version="2">
<description>&lt;b&gt;CRCW1218 Thick Film, Rectangular Chip Resistors&lt;/b&gt;&lt;p&gt;
Source: http://www.vishay.com .. dcrcw.pdf</description>
<wire x1="-0.913" y1="-2.219" x2="0.939" y2="-2.219" width="0.1524" layer="51"/>
<wire x1="0.913" y1="2.219" x2="-0.939" y2="2.219" width="0.1524" layer="51"/>
<rectangle x1="-1.651" y1="-2.3" x2="-0.9009" y2="2.3" layer="51"/>
<rectangle x1="0.9144" y1="-2.3" x2="1.6645" y2="2.3" layer="51"/>
<smd name="1" x="-1.475" y="0" dx="1.05" dy="4.9" layer="1"/>
<smd name="2" x="1.475" y="0" dx="1.05" dy="4.9" layer="1"/>
<text x="-2.54" y="2.54" size="1.27" layer="25">&gt;NAME</text>
<text x="-2.54" y="-3.81" size="1.27" layer="27">&gt;VALUE</text>
</package>
<package name="R2010" urn="urn:adsk.eagle:footprint:13241/1" library_version="2">
<description>&lt;b&gt;RESISTOR&lt;/b&gt;</description>
<wire x1="-1.662" y1="1.245" x2="1.662" y2="1.245" width="0.1524" layer="51"/>
<wire x1="-1.637" y1="-1.245" x2="1.687" y2="-1.245" width="0.1524" layer="51"/>
<wire x1="-3.473" y1="1.483" x2="3.473" y2="1.483" width="0.0508" layer="39"/>
<wire x1="3.473" y1="1.483" x2="3.473" y2="-1.483" width="0.0508" layer="39"/>
<wire x1="3.473" y1="-1.483" x2="-3.473" y2="-1.483" width="0.0508" layer="39"/>
<wire x1="-3.473" y1="-1.483" x2="-3.473" y2="1.483" width="0.0508" layer="39"/>
<rectangle x1="-2.4892" y1="-1.3208" x2="-1.6393" y2="1.3292" layer="51"/>
<rectangle x1="1.651" y1="-1.3208" x2="2.5009" y2="1.3292" layer="51"/>
<smd name="1" x="-2.2" y="0" dx="1.8" dy="2.7" layer="1"/>
<smd name="2" x="2.2" y="0" dx="1.8" dy="2.7" layer="1"/>
<text x="-3.175" y="1.905" size="1.27" layer="25">&gt;NAME</text>
<text x="-3.175" y="-3.175" size="1.27" layer="27">&gt;VALUE</text>
</package>
<package name="R2012" urn="urn:adsk.eagle:footprint:13242/1" library_version="2">
<description>&lt;b&gt;RESISTOR&lt;/b&gt;</description>
<wire x1="-0.41" y1="0.635" x2="0.41" y2="0.635" width="0.1524" layer="51"/>
<wire x1="-0.41" y1="-0.635" x2="0.41" y2="-0.635" width="0.1524" layer="51"/>
<wire x1="-1.973" y1="0.983" x2="1.973" y2="0.983" width="0.0508" layer="39"/>
<wire x1="1.973" y1="0.983" x2="1.973" y2="-0.983" width="0.0508" layer="39"/>
<wire x1="1.973" y1="-0.983" x2="-1.973" y2="-0.983" width="0.0508" layer="39"/>
<wire x1="-1.973" y1="-0.983" x2="-1.973" y2="0.983" width="0.0508" layer="39"/>
<rectangle x1="0.4064" y1="-0.6985" x2="1.0564" y2="0.7015" layer="51"/>
<rectangle x1="-1.0668" y1="-0.6985" x2="-0.4168" y2="0.7015" layer="51"/>
<rectangle x1="-0.1001" y1="-0.5999" x2="0.1001" y2="0.5999" layer="35"/>
<smd name="1" x="-0.85" y="0" dx="1.3" dy="1.5" layer="1"/>
<smd name="2" x="0.85" y="0" dx="1.3" dy="1.5" layer="1"/>
<text x="-0.635" y="1.27" size="1.27" layer="25">&gt;NAME</text>
<text x="-0.635" y="-2.54" size="1.27" layer="27">&gt;VALUE</text>
</package>
<package name="R2512" urn="urn:adsk.eagle:footprint:13243/1" library_version="2">
<description>&lt;b&gt;RESISTOR&lt;/b&gt;</description>
<wire x1="-2.362" y1="1.473" x2="2.387" y2="1.473" width="0.1524" layer="51"/>
<wire x1="-2.362" y1="-1.473" x2="2.387" y2="-1.473" width="0.1524" layer="51"/>
<wire x1="-3.973" y1="1.983" x2="3.973" y2="1.983" width="0.0508" layer="39"/>
<wire x1="3.973" y1="1.983" x2="3.973" y2="-1.983" width="0.0508" layer="39"/>
<wire x1="3.973" y1="-1.983" x2="-3.973" y2="-1.983" width="0.0508" layer="39"/>
<wire x1="-3.973" y1="-1.983" x2="-3.973" y2="1.983" width="0.0508" layer="39"/>
<rectangle x1="-3.2004" y1="-1.5494" x2="-2.3505" y2="1.5507" layer="51"/>
<rectangle x1="2.3622" y1="-1.5494" x2="3.2121" y2="1.5507" layer="51"/>
<rectangle x1="-0.5001" y1="-1" x2="0.5001" y2="1" layer="35"/>
<smd name="1" x="-2.8" y="0" dx="1.8" dy="3.2" layer="1"/>
<smd name="2" x="2.8" y="0" dx="1.8" dy="3.2" layer="1"/>
<text x="-2.54" y="1.905" size="1.27" layer="25">&gt;NAME</text>
<text x="-2.54" y="-3.175" size="1.27" layer="27">&gt;VALUE</text>
</package>
<package name="R3216" urn="urn:adsk.eagle:footprint:13244/1" library_version="2">
<description>&lt;b&gt;RESISTOR&lt;/b&gt;</description>
<wire x1="-0.913" y1="0.8" x2="0.888" y2="0.8" width="0.1524" layer="51"/>
<wire x1="-0.913" y1="-0.8" x2="0.888" y2="-0.8" width="0.1524" layer="51"/>
<wire x1="-2.473" y1="0.983" x2="2.473" y2="0.983" width="0.0508" layer="39"/>
<wire x1="2.473" y1="0.983" x2="2.473" y2="-0.983" width="0.0508" layer="39"/>
<wire x1="2.473" y1="-0.983" x2="-2.473" y2="-0.983" width="0.0508" layer="39"/>
<wire x1="-2.473" y1="-0.983" x2="-2.473" y2="0.983" width="0.0508" layer="39"/>
<rectangle x1="-1.651" y1="-0.8763" x2="-0.9009" y2="0.8738" layer="51"/>
<rectangle x1="0.889" y1="-0.8763" x2="1.6391" y2="0.8738" layer="51"/>
<rectangle x1="-0.3" y1="-0.7" x2="0.3" y2="0.7" layer="35"/>
<smd name="1" x="-1.4" y="0" dx="1.6" dy="1.8" layer="1"/>
<smd name="2" x="1.4" y="0" dx="1.6" dy="1.8" layer="1"/>
<text x="-1.905" y="1.27" size="1.27" layer="25">&gt;NAME</text>
<text x="-1.905" y="-2.54" size="1.27" layer="27">&gt;VALUE</text>
</package>
<package name="R3225" urn="urn:adsk.eagle:footprint:13245/1" library_version="2">
<description>&lt;b&gt;RESISTOR&lt;/b&gt;</description>
<wire x1="-0.913" y1="1.219" x2="0.939" y2="1.219" width="0.1524" layer="51"/>
<wire x1="-0.913" y1="-1.219" x2="0.939" y2="-1.219" width="0.1524" layer="51"/>
<wire x1="-2.473" y1="1.483" x2="2.473" y2="1.483" width="0.0508" layer="39"/>
<wire x1="2.473" y1="1.483" x2="2.473" y2="-1.483" width="0.0508" layer="39"/>
<wire x1="2.473" y1="-1.483" x2="-2.473" y2="-1.483" width="0.0508" layer="39"/>
<wire x1="-2.473" y1="-1.483" x2="-2.473" y2="1.483" width="0.0508" layer="39"/>
<rectangle x1="-1.651" y1="-1.3081" x2="-0.9009" y2="1.2918" layer="51"/>
<rectangle x1="0.9144" y1="-1.3081" x2="1.6645" y2="1.2918" layer="51"/>
<rectangle x1="-0.3" y1="-1" x2="0.3" y2="1" layer="35"/>
<smd name="1" x="-1.4" y="0" dx="1.6" dy="2.7" layer="1"/>
<smd name="2" x="1.4" y="0" dx="1.6" dy="2.7" layer="1"/>
<text x="-2.54" y="1.905" size="1.27" layer="25">&gt;NAME</text>
<text x="-2.54" y="-3.175" size="1.27" layer="27">&gt;VALUE</text>
</package>
<package name="R4527" urn="urn:adsk.eagle:footprint:13246/1" library_version="2">
<description>&lt;b&gt;Package 4527&lt;/b&gt;&lt;p&gt;
Source: http://www.vishay.com/docs/31059/wsrhigh.pdf</description>
<wire x1="-5.675" y1="-3.375" x2="5.65" y2="-3.375" width="0.2032" layer="21"/>
<wire x1="5.65" y1="-3.375" x2="5.65" y2="3.375" width="0.2032" layer="51"/>
<wire x1="5.65" y1="3.375" x2="-5.675" y2="3.375" width="0.2032" layer="21"/>
<wire x1="-5.675" y1="3.375" x2="-5.675" y2="-3.375" width="0.2032" layer="51"/>
<smd name="1" x="-4.575" y="0" dx="3.94" dy="5.84" layer="1"/>
<smd name="2" x="4.575" y="0" dx="3.94" dy="5.84" layer="1"/>
<text x="-5.715" y="3.81" size="1.27" layer="25">&gt;NAME</text>
<text x="-5.715" y="-5.08" size="1.27" layer="27">&gt;VALUE</text>
</package>
<package name="R5025" urn="urn:adsk.eagle:footprint:13247/1" library_version="2">
<description>&lt;b&gt;RESISTOR&lt;/b&gt;</description>
<wire x1="-1.662" y1="1.245" x2="1.662" y2="1.245" width="0.1524" layer="51"/>
<wire x1="-1.637" y1="-1.245" x2="1.687" y2="-1.245" width="0.1524" layer="51"/>
<wire x1="-3.473" y1="1.483" x2="3.473" y2="1.483" width="0.0508" layer="39"/>
<wire x1="3.473" y1="1.483" x2="3.473" y2="-1.483" width="0.0508" layer="39"/>
<wire x1="3.473" y1="-1.483" x2="-3.473" y2="-1.483" width="0.0508" layer="39"/>
<wire x1="-3.473" y1="-1.483" x2="-3.473" y2="1.483" width="0.0508" layer="39"/>
<rectangle x1="-2.4892" y1="-1.3208" x2="-1.6393" y2="1.3292" layer="51"/>
<rectangle x1="1.651" y1="-1.3208" x2="2.5009" y2="1.3292" layer="51"/>
<rectangle x1="-0.5001" y1="-1" x2="0.5001" y2="1" layer="35"/>
<smd name="1" x="-2.2" y="0" dx="1.8" dy="2.7" layer="1"/>
<smd name="2" x="2.2" y="0" dx="1.8" dy="2.7" layer="1"/>
<text x="-3.175" y="1.905" size="1.27" layer="25">&gt;NAME</text>
<text x="-3.175" y="-3.175" size="1.27" layer="27">&gt;VALUE</text>
</package>
<package name="R6332" urn="urn:adsk.eagle:footprint:13248/1" library_version="2">
<description>&lt;b&gt;RESISTOR&lt;/b&gt;&lt;p&gt;
Source: http://download.siliconexpert.com/pdfs/2005/02/24/Semi_Ap/2/VSH/Resistor/dcrcwfre.pdf</description>
<wire x1="-2.362" y1="1.473" x2="2.387" y2="1.473" width="0.1524" layer="51"/>
<wire x1="-2.362" y1="-1.473" x2="2.387" y2="-1.473" width="0.1524" layer="51"/>
<wire x1="-3.973" y1="1.983" x2="3.973" y2="1.983" width="0.0508" layer="39"/>
<wire x1="3.973" y1="1.983" x2="3.973" y2="-1.983" width="0.0508" layer="39"/>
<wire x1="3.973" y1="-1.983" x2="-3.973" y2="-1.983" width="0.0508" layer="39"/>
<wire x1="-3.973" y1="-1.983" x2="-3.973" y2="1.983" width="0.0508" layer="39"/>
<rectangle x1="-3.2004" y1="-1.5494" x2="-2.3505" y2="1.5507" layer="51"/>
<rectangle x1="2.3622" y1="-1.5494" x2="3.2121" y2="1.5507" layer="51"/>
<rectangle x1="-0.5001" y1="-1" x2="0.5001" y2="1" layer="35"/>
<smd name="1" x="-3.1" y="0" dx="1" dy="3.2" layer="1"/>
<smd name="2" x="3.1" y="0" dx="1" dy="3.2" layer="1"/>
<text x="-2.54" y="1.905" size="1.27" layer="25">&gt;NAME</text>
<text x="-2.54" y="-3.175" size="1.27" layer="27">&gt;VALUE</text>
</package>
</packages>
<packages3d>
<package3d name="0204/7" urn="urn:adsk.eagle:package:13274/1" type="box" library_version="2">
<description>RESISTOR
type 0204, grid 7.5 mm</description>
<packageinstances>
<packageinstance name="0204/7"/>
</packageinstances>
</package3d>
<package3d name="0207/10" urn="urn:adsk.eagle:package:13275/1" type="box" library_version="2">
<description>RESISTOR
type 0207, grid 10 mm</description>
<packageinstances>
<packageinstance name="0207/10"/>
</packageinstances>
</package3d>
<package3d name="R0201" urn="urn:adsk.eagle:package:13294/1" type="box" library_version="2">
<description>RESISTOR chip
Source: http://www.vishay.com/docs/20008/dcrcw.pdf</description>
<packageinstances>
<packageinstance name="R0201"/>
</packageinstances>
</package3d>
<package3d name="R0402" urn="urn:adsk.eagle:package:13296/1" type="box" library_version="2">
<description>RESISTOR</description>
<packageinstances>
<packageinstance name="R0402"/>
</packageinstances>
</package3d>
<package3d name="R0603" urn="urn:adsk.eagle:package:13302/1" type="box" library_version="2">
<description>RESISTOR</description>
<packageinstances>
<packageinstance name="R0603"/>
</packageinstances>
</package3d>
<package3d name="R0805" urn="urn:adsk.eagle:package:13300/1" type="box" library_version="2">
<description>RESISTOR</description>
<packageinstances>
<packageinstance name="R0805"/>
</packageinstances>
</package3d>
<package3d name="R1005" urn="urn:adsk.eagle:package:13297/1" type="box" library_version="2">
<description>RESISTOR</description>
<packageinstances>
<packageinstance name="R1005"/>
</packageinstances>
</package3d>
<package3d name="R1206" urn="urn:adsk.eagle:package:13301/1" type="box" library_version="2">
<description>RESISTOR</description>
<packageinstances>
<packageinstance name="R1206"/>
</packageinstances>
</package3d>
<package3d name="R1210" urn="urn:adsk.eagle:package:13299/1" type="box" library_version="2">
<description>RESISTOR</description>
<packageinstances>
<packageinstance name="R1210"/>
</packageinstances>
</package3d>
<package3d name="R1218" urn="urn:adsk.eagle:package:13303/1" type="box" library_version="2">
<description>CRCW1218 Thick Film, Rectangular Chip Resistors
Source: http://www.vishay.com .. dcrcw.pdf</description>
<packageinstances>
<packageinstance name="R1218"/>
</packageinstances>
</package3d>
<package3d name="R2010" urn="urn:adsk.eagle:package:13309/1" type="box" library_version="2">
<description>RESISTOR</description>
<packageinstances>
<packageinstance name="R2010"/>
</packageinstances>
</package3d>
<package3d name="R2012" urn="urn:adsk.eagle:package:13306/1" type="box" library_version="2">
<description>RESISTOR</description>
<packageinstances>
<packageinstance name="R2012"/>
</packageinstances>
</package3d>
<package3d name="R2512" urn="urn:adsk.eagle:package:13304/1" type="box" library_version="2">
<description>RESISTOR</description>
<packageinstances>
<packageinstance name="R2512"/>
</packageinstances>
</package3d>
<package3d name="R3216" urn="urn:adsk.eagle:package:13305/1" type="box" library_version="2">
<description>RESISTOR</description>
<packageinstances>
<packageinstance name="R3216"/>
</packageinstances>
</package3d>
<package3d name="R3225" urn="urn:adsk.eagle:package:13311/1" type="box" library_version="2">
<description>RESISTOR</description>
<packageinstances>
<packageinstance name="R3225"/>
</packageinstances>
</package3d>
<package3d name="R4527" urn="urn:adsk.eagle:package:13310/1" type="box" library_version="2">
<description>Package 4527
Source: http://www.vishay.com/docs/31059/wsrhigh.pdf</description>
<packageinstances>
<packageinstance name="R4527"/>
</packageinstances>
</package3d>
<package3d name="R5025" urn="urn:adsk.eagle:package:13308/1" type="box" library_version="2">
<description>RESISTOR</description>
<packageinstances>
<packageinstance name="R5025"/>
</packageinstances>
</package3d>
<package3d name="R6332" urn="urn:adsk.eagle:package:13307/1" type="box" library_version="2">
<description>RESISTOR
Source: http://download.siliconexpert.com/pdfs/2005/02/24/Semi_Ap/2/VSH/Resistor/dcrcwfre.pdf</description>
<packageinstances>
<packageinstance name="R6332"/>
</packageinstances>
</package3d>
</packages3d>
<symbols>
<symbol name="R" urn="urn:adsk.eagle:symbol:13232/1" library_version="2">
<wire x1="-2.54" y1="-0.889" x2="2.54" y2="-0.889" width="0.254" layer="94"/>
<wire x1="2.54" y1="0.889" x2="-2.54" y2="0.889" width="0.254" layer="94"/>
<wire x1="2.54" y1="-0.889" x2="2.54" y2="0.889" width="0.254" layer="94"/>
<wire x1="-2.54" y1="-0.889" x2="-2.54" y2="0.889" width="0.254" layer="94"/>
<pin name="1" x="-5.08" y="0" visible="off" length="short" direction="pas" swaplevel="1"/>
<pin name="2" x="5.08" y="0" visible="off" length="short" direction="pas" swaplevel="1" rot="R180"/>
<text x="-3.81" y="1.4986" size="1.778" layer="95">&gt;NAME</text>
<text x="-3.81" y="-3.302" size="1.778" layer="96">&gt;VALUE</text>
<text x="-5.08" y="0" size="0.4064" layer="99" align="center">SpiceOrder 1</text>
<text x="5.08" y="0" size="0.4064" layer="99" align="center">SpiceOrder 2</text>
</symbol>
</symbols>
<devicesets>
<deviceset name="R" urn="urn:adsk.eagle:component:13322/1" prefix="R" uservalue="yes" library_version="2">
<description>&lt;B&gt;RESISTOR&lt;/B&gt;, European symbol</description>
<gates>
<gate name="G$1" symbol="R" x="0" y="0"/>
</gates>
<devices>
<device name="0204/7" package="0204/7">
<connects>
<connect gate="G$1" pin="1" pad="1"/>
<connect gate="G$1" pin="2" pad="2"/>
</connects>
<package3dinstances>
<package3dinstance package3d_urn="urn:adsk.eagle:package:13274/1"/>
</package3dinstances>
<technologies>
<technology name="">
<attribute name="SPICEMODEL" value="NONE" constant="no"/>
<attribute name="SPICEPREFIX" value="R" constant="no"/>
</technology>
</technologies>
</device>
<device name="0207/10" package="0207/10">
<connects>
<connect gate="G$1" pin="1" pad="1"/>
<connect gate="G$1" pin="2" pad="2"/>
</connects>
<package3dinstances>
<package3dinstance package3d_urn="urn:adsk.eagle:package:13275/1"/>
</package3dinstances>
<technologies>
<technology name="">
<attribute name="SPICEMODEL" value="NONE" constant="no"/>
<attribute name="SPICEPREFIX" value="R" constant="no"/>
</technology>
</technologies>
</device>
<device name="R0201" package="R0201">
<connects>
<connect gate="G$1" pin="1" pad="1"/>
<connect gate="G$1" pin="2" pad="2"/>
</connects>
<package3dinstances>
<package3dinstance package3d_urn="urn:adsk.eagle:package:13294/1"/>
</package3dinstances>
<technologies>
<technology name="">
<attribute name="SPICEMODEL" value="NONE" constant="no"/>
<attribute name="SPICEPREFIX" value="R" constant="no"/>
</technology>
</technologies>
</device>
<device name="R0402" package="R0402">
<connects>
<connect gate="G$1" pin="1" pad="1"/>
<connect gate="G$1" pin="2" pad="2"/>
</connects>
<package3dinstances>
<package3dinstance package3d_urn="urn:adsk.eagle:package:13296/1"/>
</package3dinstances>
<technologies>
<technology name="">
<attribute name="SPICEMODEL" value="NONE" constant="no"/>
<attribute name="SPICEPREFIX" value="R" constant="no"/>
</technology>
</technologies>
</device>
<device name="R0603" package="R0603">
<connects>
<connect gate="G$1" pin="1" pad="1"/>
<connect gate="G$1" pin="2" pad="2"/>
</connects>
<package3dinstances>
<package3dinstance package3d_urn="urn:adsk.eagle:package:13302/1"/>
</package3dinstances>
<technologies>
<technology name="">
<attribute name="SPICEMODEL" value="NONE" constant="no"/>
<attribute name="SPICEPREFIX" value="R" constant="no"/>
</technology>
</technologies>
</device>
<device name="" package="R0805">
<connects>
<connect gate="G$1" pin="1" pad="1"/>
<connect gate="G$1" pin="2" pad="2"/>
</connects>
<package3dinstances>
<package3dinstance package3d_urn="urn:adsk.eagle:package:13300/1"/>
</package3dinstances>
<technologies>
<technology name="">
<attribute name="SPICEMODEL" value="NONE" constant="no"/>
<attribute name="SPICEPREFIX" value="R" constant="no"/>
</technology>
</technologies>
</device>
<device name="R1005" package="R1005">
<connects>
<connect gate="G$1" pin="1" pad="1"/>
<connect gate="G$1" pin="2" pad="2"/>
</connects>
<package3dinstances>
<package3dinstance package3d_urn="urn:adsk.eagle:package:13297/1"/>
</package3dinstances>
<technologies>
<technology name="">
<attribute name="SPICEMODEL" value="NONE" constant="no"/>
<attribute name="SPICEPREFIX" value="R" constant="no"/>
</technology>
</technologies>
</device>
<device name="R1206" package="R1206">
<connects>
<connect gate="G$1" pin="1" pad="1"/>
<connect gate="G$1" pin="2" pad="2"/>
</connects>
<package3dinstances>
<package3dinstance package3d_urn="urn:adsk.eagle:package:13301/1"/>
</package3dinstances>
<technologies>
<technology name="">
<attribute name="SPICEMODEL" value="NONE" constant="no"/>
<attribute name="SPICEPREFIX" value="R" constant="no"/>
</technology>
</technologies>
</device>
<device name="R1210" package="R1210">
<connects>
<connect gate="G$1" pin="1" pad="1"/>
<connect gate="G$1" pin="2" pad="2"/>
</connects>
<package3dinstances>
<package3dinstance package3d_urn="urn:adsk.eagle:package:13299/1"/>
</package3dinstances>
<technologies>
<technology name="">
<attribute name="SPICEMODEL" value="NONE" constant="no"/>
<attribute name="SPICEPREFIX" value="R" constant="no"/>
</technology>
</technologies>
</device>
<device name="R1218" package="R1218">
<connects>
<connect gate="G$1" pin="1" pad="1"/>
<connect gate="G$1" pin="2" pad="2"/>
</connects>
<package3dinstances>
<package3dinstance package3d_urn="urn:adsk.eagle:package:13303/1"/>
</package3dinstances>
<technologies>
<technology name="">
<attribute name="SPICEMODEL" value="NONE" constant="no"/>
<attribute name="SPICEPREFIX" value="R" constant="no"/>
</technology>
</technologies>
</device>
<device name="R2010" package="R2010">
<connects>
<connect gate="G$1" pin="1" pad="1"/>
<connect gate="G$1" pin="2" pad="2"/>
</connects>
<package3dinstances>
<package3dinstance package3d_urn="urn:adsk.eagle:package:13309/1"/>
</package3dinstances>
<technologies>
<technology name="">
<attribute name="SPICEMODEL" value="NONE" constant="no"/>
<attribute name="SPICEPREFIX" value="R" constant="no"/>
</technology>
</technologies>
</device>
<device name="R2012" package="R2012">
<connects>
<connect gate="G$1" pin="1" pad="1"/>
<connect gate="G$1" pin="2" pad="2"/>
</connects>
<package3dinstances>
<package3dinstance package3d_urn="urn:adsk.eagle:package:13306/1"/>
</package3dinstances>
<technologies>
<technology name="">
<attribute name="SPICEMODEL" value="NONE" constant="no"/>
<attribute name="SPICEPREFIX" value="R" constant="no"/>
</technology>
</technologies>
</device>
<device name="R2512" package="R2512">
<connects>
<connect gate="G$1" pin="1" pad="1"/>
<connect gate="G$1" pin="2" pad="2"/>
</connects>
<package3dinstances>
<package3dinstance package3d_urn="urn:adsk.eagle:package:13304/1"/>
</package3dinstances>
<technologies>
<technology name="">
<attribute name="SPICEMODEL" value="NONE" constant="no"/>
<attribute name="SPICEPREFIX" value="R" constant="no"/>
</technology>
</technologies>
</device>
<device name="R3216" package="R3216">
<connects>
<connect gate="G$1" pin="1" pad="1"/>
<connect gate="G$1" pin="2" pad="2"/>
</connects>
<package3dinstances>
<package3dinstance package3d_urn="urn:adsk.eagle:package:13305/1"/>
</package3dinstances>
<technologies>
<technology name="">
<attribute name="SPICEMODEL" value="NONE" constant="no"/>
<attribute name="SPICEPREFIX" value="R" constant="no"/>
</technology>
</technologies>
</device>
<device name="R3225" package="R3225">
<connects>
<connect gate="G$1" pin="1" pad="1"/>
<connect gate="G$1" pin="2" pad="2"/>
</connects>
<package3dinstances>
<package3dinstance package3d_urn="urn:adsk.eagle:package:13311/1"/>
</package3dinstances>
<technologies>
<technology name="">
<attribute name="SPICEMODEL" value="NONE" constant="no"/>
<attribute name="SPICEPREFIX" value="R" constant="no"/>
</technology>
</technologies>
</device>
<device name="R4527" package="R4527">
<connects>
<connect gate="G$1" pin="1" pad="1"/>
<connect gate="G$1" pin="2" pad="2"/>
</connects>
<package3dinstances>
<package3dinstance package3d_urn="urn:adsk.eagle:package:13310/1"/>
</package3dinstances>
<technologies>
<technology name="">
<attribute name="SPICEMODEL" value="NONE" constant="no"/>
<attribute name="SPICEPREFIX" value="R" constant="no"/>
</technology>
</technologies>
</device>
<device name="R5025" package="R5025">
<connects>
<connect gate="G$1" pin="1" pad="1"/>
<connect gate="G$1" pin="2" pad="2"/>
</connects>
<package3dinstances>
<package3dinstance package3d_urn="urn:adsk.eagle:package:13308/1"/>
</package3dinstances>
<technologies>
<technology name="">
<attribute name="SPICEMODEL" value="NONE" constant="no"/>
<attribute name="SPICEPREFIX" value="R" constant="no"/>
</technology>
</technologies>
</device>
<device name="R6332" package="R6332">
<connects>
<connect gate="G$1" pin="1" pad="1"/>
<connect gate="G$1" pin="2" pad="2"/>
</connects>
<package3dinstances>
<package3dinstance package3d_urn="urn:adsk.eagle:package:13307/1"/>
</package3dinstances>
<technologies>
<technology name="">
<attribute name="SPICEMODEL" value="NONE" constant="no"/>
<attribute name="SPICEPREFIX" value="R" constant="no"/>
</technology>
</technologies>
</device>
</devices>
</deviceset>
</devicesets>
</library>
<library name="supply2" urn="urn:adsk.eagle:library:372">
<description>&lt;b&gt;Supply Symbols&lt;/b&gt;&lt;p&gt;
GND, VCC, 0V, +5V, -5V, etc.&lt;p&gt;
Please keep in mind, that these devices are necessary for the
automatic wiring of the supply signals.&lt;p&gt;
The pin name defined in the symbol is identical to the net which is to be wired automatically.&lt;p&gt;
In this library the device names are the same as the pin names of the symbols, therefore the correct signal names appear next to the supply symbols in the schematic.&lt;p&gt;
&lt;author&gt;Created by librarian@cadsoft.de&lt;/author&gt;</description>
<packages>
</packages>
<symbols>
<symbol name="GND" urn="urn:adsk.eagle:symbol:26990/1" library_version="2">
<wire x1="-1.27" y1="0" x2="1.27" y2="0" width="0.254" layer="94"/>
<wire x1="1.27" y1="0" x2="0" y2="-1.27" width="0.254" layer="94"/>
<wire x1="0" y1="-1.27" x2="-1.27" y2="0" width="0.254" layer="94"/>
<text x="-1.905" y="-3.175" size="1.778" layer="96">&gt;VALUE</text>
<pin name="GND" x="0" y="2.54" visible="off" length="short" direction="sup" rot="R270"/>
</symbol>
</symbols>
<devicesets>
<deviceset name="GND" urn="urn:adsk.eagle:component:27037/1" prefix="SUPPLY" library_version="2">
<description>&lt;b&gt;SUPPLY SYMBOL&lt;/b&gt;</description>
<gates>
<gate name="GND" symbol="GND" x="0" y="0"/>
</gates>
<devices>
<device name="">
<technologies>
<technology name=""/>
</technologies>
</device>
</devices>
</deviceset>
</devicesets>
</library>
<library name="supply1" urn="urn:adsk.eagle:library:371">
<description>&lt;b&gt;Supply Symbols&lt;/b&gt;&lt;p&gt;
 GND, VCC, 0V, +5V, -5V, etc.&lt;p&gt;
 Please keep in mind, that these devices are necessary for the
 automatic wiring of the supply signals.&lt;p&gt;
 The pin name defined in the symbol is identical to the net which is to be wired automatically.&lt;p&gt;
 In this library the device names are the same as the pin names of the symbols, therefore the correct signal names appear next to the supply symbols in the schematic.&lt;p&gt;
 &lt;author&gt;Created by librarian@cadsoft.de&lt;/author&gt;</description>
<packages>
</packages>
<symbols>
<symbol name="VCC" urn="urn:adsk.eagle:symbol:26928/1" library_version="1">
<wire x1="1.27" y1="-1.905" x2="0" y2="0" width="0.254" layer="94"/>
<wire x1="0" y1="0" x2="-1.27" y2="-1.905" width="0.254" layer="94"/>
<text x="-2.54" y="-2.54" size="1.778" layer="96" rot="R90">&gt;VALUE</text>
<pin name="VCC" x="0" y="-2.54" visible="off" length="short" direction="sup" rot="R90"/>
</symbol>
</symbols>
<devicesets>
<deviceset name="VCC" urn="urn:adsk.eagle:component:26957/1" prefix="P+" library_version="1">
<description>&lt;b&gt;SUPPLY SYMBOL&lt;/b&gt;</description>
<gates>
<gate name="VCC" symbol="VCC" x="0" y="0"/>
</gates>
<devices>
<device name="">
<technologies>
<technology name=""/>
</technologies>
</device>
</devices>
</deviceset>
</devicesets>
</library>
</libraries>
<attributes>
</attributes>
<variantdefs>
</variantdefs>
<classes>
<class number="0" name="default" width="0" drill="0">
</class>
</classes>
<parts>
<part name="U$1" library="BMS" deviceset="BATTERYQUAD" device=""/>
<part name="R1" library="eagle-ltspice" library_urn="urn:adsk.eagle:library:217" deviceset="R" device="R2512" package3d_urn="urn:adsk.eagle:package:13304/1"/>
<part name="R2" library="eagle-ltspice" library_urn="urn:adsk.eagle:library:217" deviceset="R" device="R2512" package3d_urn="urn:adsk.eagle:package:13304/1"/>
<part name="R3" library="eagle-ltspice" library_urn="urn:adsk.eagle:library:217" deviceset="R" device="R2512" package3d_urn="urn:adsk.eagle:package:13304/1"/>
<part name="R4" library="eagle-ltspice" library_urn="urn:adsk.eagle:library:217" deviceset="R" device="R2512" package3d_urn="urn:adsk.eagle:package:13304/1"/>
<part name="SUPPLY1" library="supply2" library_urn="urn:adsk.eagle:library:372" deviceset="GND" device=""/>
<part name="U$2" library="BMS" deviceset="KF7.62-2P" device=""/>
<part name="P+1" library="supply1" library_urn="urn:adsk.eagle:library:371" deviceset="VCC" device=""/>
<part name="P+2" library="supply1" library_urn="urn:adsk.eagle:library:371" deviceset="VCC" device=""/>
<part name="SUPPLY2" library="supply2" library_urn="urn:adsk.eagle:library:372" deviceset="GND" device=""/>
<part name="R5" library="eagle-ltspice" library_urn="urn:adsk.eagle:library:217" deviceset="R" device="R2512" package3d_urn="urn:adsk.eagle:package:13304/1"/>
<part name="R6" library="eagle-ltspice" library_urn="urn:adsk.eagle:library:217" deviceset="R" device="R2512" package3d_urn="urn:adsk.eagle:package:13304/1"/>
<part name="R7" library="eagle-ltspice" library_urn="urn:adsk.eagle:library:217" deviceset="R" device="R2512" package3d_urn="urn:adsk.eagle:package:13304/1"/>
<part name="R8" library="eagle-ltspice" library_urn="urn:adsk.eagle:library:217" deviceset="R" device="R2512" package3d_urn="urn:adsk.eagle:package:13304/1"/>
</parts>
<sheets>
<sheet>
<plain>
</plain>
<instances>
<instance part="U$1" gate="G$1" x="8.89" y="59.69"/>
<instance part="R1" gate="G$1" x="25.4" y="64.77"/>
<instance part="R2" gate="G$1" x="25.4" y="52.07"/>
<instance part="R3" gate="G$1" x="25.4" y="39.37"/>
<instance part="R4" gate="G$1" x="25.4" y="26.67"/>
<instance part="SUPPLY1" gate="GND" x="1.27" y="24.13"/>
<instance part="U$2" gate="G$1" x="46.99" y="46.99" rot="R180"/>
<instance part="P+1" gate="VCC" x="30.48" y="67.31"/>
<instance part="P+2" gate="VCC" x="49.53" y="46.99"/>
<instance part="SUPPLY2" gate="GND" x="49.53" y="39.37"/>
<instance part="R5" gate="G$1" x="25.4" y="62.23"/>
<instance part="R6" gate="G$1" x="25.4" y="49.53"/>
<instance part="R7" gate="G$1" x="25.4" y="36.83"/>
<instance part="R8" gate="G$1" x="25.4" y="22.86"/>
</instances>
<busses>
</busses>
<nets>
<net name="N$1" class="0">
<segment>
<pinref part="U$1" gate="G$1" pin="P$2"/>
<pinref part="R1" gate="G$1" pin="1"/>
<wire x1="20.32" y1="64.77" x2="13.97" y2="64.77" width="0.1524" layer="91"/>
<pinref part="R5" gate="G$1" pin="1"/>
<wire x1="20.32" y1="62.23" x2="20.32" y2="64.77" width="0.1524" layer="91"/>
<junction x="20.32" y="64.77"/>
</segment>
</net>
<net name="N$2" class="0">
<segment>
<pinref part="U$1" gate="G$1" pin="P$4"/>
<pinref part="R2" gate="G$1" pin="1"/>
<wire x1="20.32" y1="52.07" x2="13.97" y2="52.07" width="0.1524" layer="91"/>
<pinref part="R6" gate="G$1" pin="1"/>
<wire x1="20.32" y1="49.53" x2="20.32" y2="52.07" width="0.1524" layer="91"/>
<junction x="20.32" y="52.07"/>
</segment>
</net>
<net name="N$3" class="0">
<segment>
<pinref part="U$1" gate="G$1" pin="P$6"/>
<pinref part="R3" gate="G$1" pin="1"/>
<wire x1="20.32" y1="39.37" x2="13.97" y2="39.37" width="0.1524" layer="91"/>
<pinref part="R7" gate="G$1" pin="1"/>
<wire x1="20.32" y1="36.83" x2="20.32" y2="39.37" width="0.1524" layer="91"/>
<junction x="20.32" y="39.37"/>
</segment>
</net>
<net name="N$4" class="0">
<segment>
<pinref part="U$1" gate="G$1" pin="P$8"/>
<pinref part="R4" gate="G$1" pin="1"/>
<wire x1="20.32" y1="26.67" x2="13.97" y2="26.67" width="0.1524" layer="91"/>
<pinref part="R8" gate="G$1" pin="1"/>
<wire x1="20.32" y1="22.86" x2="20.32" y2="26.67" width="0.1524" layer="91"/>
<junction x="20.32" y="26.67"/>
</segment>
</net>
<net name="GND" class="0">
<segment>
<pinref part="U$1" gate="G$1" pin="P$1"/>
<pinref part="U$1" gate="G$1" pin="P$3"/>
<wire x1="1.27" y1="64.77" x2="1.27" y2="52.07" width="0.1524" layer="91"/>
<pinref part="U$1" gate="G$1" pin="P$5"/>
<wire x1="1.27" y1="52.07" x2="1.27" y2="39.37" width="0.1524" layer="91"/>
<junction x="1.27" y="52.07"/>
<pinref part="U$1" gate="G$1" pin="P$7"/>
<wire x1="1.27" y1="39.37" x2="1.27" y2="26.67" width="0.1524" layer="91"/>
<junction x="1.27" y="39.37"/>
<pinref part="SUPPLY1" gate="GND" pin="GND"/>
<junction x="1.27" y="26.67"/>
</segment>
<segment>
<pinref part="SUPPLY2" gate="GND" pin="GND"/>
<pinref part="U$2" gate="G$1" pin="1"/>
<wire x1="49.53" y1="41.91" x2="41.91" y2="41.91" width="0.1524" layer="91"/>
</segment>
</net>
<net name="VCC" class="0">
<segment>
<pinref part="R1" gate="G$1" pin="2"/>
<pinref part="R2" gate="G$1" pin="2"/>
<wire x1="30.48" y1="64.77" x2="30.48" y2="62.23" width="0.1524" layer="91"/>
<pinref part="R3" gate="G$1" pin="2"/>
<wire x1="30.48" y1="62.23" x2="30.48" y2="52.07" width="0.1524" layer="91"/>
<wire x1="30.48" y1="52.07" x2="30.48" y2="49.53" width="0.1524" layer="91"/>
<junction x="30.48" y="52.07"/>
<pinref part="R4" gate="G$1" pin="2"/>
<wire x1="30.48" y1="49.53" x2="30.48" y2="39.37" width="0.1524" layer="91"/>
<wire x1="30.48" y1="39.37" x2="30.48" y2="36.83" width="0.1524" layer="91"/>
<junction x="30.48" y="39.37"/>
<pinref part="P+1" gate="VCC" pin="VCC"/>
<junction x="30.48" y="64.77"/>
<pinref part="R5" gate="G$1" pin="2"/>
<junction x="30.48" y="62.23"/>
<pinref part="R6" gate="G$1" pin="2"/>
<junction x="30.48" y="49.53"/>
<pinref part="R7" gate="G$1" pin="2"/>
<wire x1="30.48" y1="36.83" x2="30.48" y2="26.67" width="0.1524" layer="91"/>
<junction x="30.48" y="36.83"/>
<pinref part="R8" gate="G$1" pin="2"/>
<wire x1="30.48" y1="22.86" x2="30.48" y2="26.67" width="0.1524" layer="91"/>
<junction x="30.48" y="26.67"/>
</segment>
<segment>
<pinref part="U$2" gate="G$1" pin="2"/>
<pinref part="P+2" gate="VCC" pin="VCC"/>
<wire x1="49.53" y1="44.45" x2="41.91" y2="44.45" width="0.1524" layer="91"/>
</segment>
</net>
</nets>
</sheet>
</sheets>
</schematic>
</drawing>
<compatibility>
<note version="8.2" severity="warning">
Since Version 8.2, EAGLE supports online libraries. The ids
of those online libraries will not be understood (or retained)
with this version.
</note>
<note version="8.3" severity="warning">
Since Version 8.3, EAGLE supports URNs for individual library
assets (packages, symbols, and devices). The URNs of those assets
will not be understood (or retained) with this version.
</note>
<note version="8.3" severity="warning">
Since Version 8.3, EAGLE supports the association of 3D packages
with devices in libraries, schematics, and board files. Those 3D
packages will not be understood (or retained) with this version.
</note>
</compatibility>
</eagle>
