<?xml version="1.0" encoding="utf-8"?>
<!DOCTYPE eagle SYSTEM "eagle.dtd">
<eagle version="8.5.1">
<drawing>
<settings>
<setting alwaysvectorfont="no"/>
<setting verticaltext="up"/>
</settings>
<grid distance="0.1" unitdist="inch" unit="inch" style="lines" multiple="1" display="no" altdistance="0.01" altunitdist="inch" altunit="inch"/>
<layers>
<layer number="1" name="Top" color="4" fill="1" visible="no" active="no"/>
<layer number="2" name="Route2" color="1" fill="3" visible="no" active="no"/>
<layer number="3" name="Route3" color="4" fill="3" visible="no" active="no"/>
<layer number="4" name="Route4" color="1" fill="4" visible="no" active="no"/>
<layer number="5" name="Route5" color="4" fill="4" visible="no" active="no"/>
<layer number="6" name="Route6" color="1" fill="8" visible="no" active="no"/>
<layer number="7" name="Route7" color="4" fill="8" visible="no" active="no"/>
<layer number="8" name="Route8" color="1" fill="2" visible="no" active="no"/>
<layer number="9" name="Route9" color="4" fill="2" visible="no" active="no"/>
<layer number="10" name="Route10" color="1" fill="7" visible="no" active="no"/>
<layer number="11" name="Route11" color="4" fill="7" visible="no" active="no"/>
<layer number="12" name="Route12" color="1" fill="5" visible="no" active="no"/>
<layer number="13" name="Route13" color="4" fill="5" visible="no" active="no"/>
<layer number="14" name="Route14" color="1" fill="6" visible="no" active="no"/>
<layer number="15" name="Route15" color="4" fill="6" visible="no" active="no"/>
<layer number="16" name="Bottom" color="1" fill="1" visible="no" active="no"/>
<layer number="17" name="Pads" color="2" fill="1" visible="no" active="no"/>
<layer number="18" name="Vias" color="2" fill="1" visible="no" active="no"/>
<layer number="19" name="Unrouted" color="6" fill="1" visible="no" active="no"/>
<layer number="20" name="Dimension" color="24" fill="1" visible="no" active="no"/>
<layer number="21" name="tPlace" color="7" fill="1" visible="no" active="no"/>
<layer number="22" name="bPlace" color="7" fill="1" visible="no" active="no"/>
<layer number="23" name="tOrigins" color="15" fill="1" visible="no" active="no"/>
<layer number="24" name="bOrigins" color="15" fill="1" visible="no" active="no"/>
<layer number="25" name="tNames" color="7" fill="1" visible="no" active="no"/>
<layer number="26" name="bNames" color="7" fill="1" visible="no" active="no"/>
<layer number="27" name="tValues" color="7" fill="1" visible="no" active="no"/>
<layer number="28" name="bValues" color="7" fill="1" visible="no" active="no"/>
<layer number="29" name="tStop" color="7" fill="3" visible="no" active="no"/>
<layer number="30" name="bStop" color="7" fill="6" visible="no" active="no"/>
<layer number="31" name="tCream" color="7" fill="4" visible="no" active="no"/>
<layer number="32" name="bCream" color="7" fill="5" visible="no" active="no"/>
<layer number="33" name="tFinish" color="6" fill="3" visible="no" active="no"/>
<layer number="34" name="bFinish" color="6" fill="6" visible="no" active="no"/>
<layer number="35" name="tGlue" color="7" fill="4" visible="no" active="no"/>
<layer number="36" name="bGlue" color="7" fill="5" visible="no" active="no"/>
<layer number="37" name="tTest" color="7" fill="1" visible="no" active="no"/>
<layer number="38" name="bTest" color="7" fill="1" visible="no" active="no"/>
<layer number="39" name="tKeepout" color="4" fill="11" visible="no" active="no"/>
<layer number="40" name="bKeepout" color="1" fill="11" visible="no" active="no"/>
<layer number="41" name="tRestrict" color="4" fill="10" visible="no" active="no"/>
<layer number="42" name="bRestrict" color="1" fill="10" visible="no" active="no"/>
<layer number="43" name="vRestrict" color="2" fill="10" visible="no" active="no"/>
<layer number="44" name="Drills" color="7" fill="1" visible="no" active="no"/>
<layer number="45" name="Holes" color="7" fill="1" visible="no" active="no"/>
<layer number="46" name="Milling" color="3" fill="1" visible="no" active="no"/>
<layer number="47" name="Measures" color="7" fill="1" visible="no" active="no"/>
<layer number="48" name="Document" color="7" fill="1" visible="no" active="no"/>
<layer number="49" name="Reference" color="7" fill="1" visible="no" active="no"/>
<layer number="51" name="tDocu" color="7" fill="1" visible="no" active="no"/>
<layer number="52" name="bDocu" color="7" fill="1" visible="no" active="no"/>
<layer number="88" name="SimResults" color="9" fill="1" visible="yes" active="yes"/>
<layer number="89" name="SimProbes" color="9" fill="1" visible="yes" active="yes"/>
<layer number="90" name="Modules" color="5" fill="1" visible="yes" active="yes"/>
<layer number="91" name="Nets" color="2" fill="1" visible="yes" active="yes"/>
<layer number="92" name="Busses" color="1" fill="1" visible="yes" active="yes"/>
<layer number="93" name="Pins" color="2" fill="1" visible="no" active="yes"/>
<layer number="94" name="Symbols" color="4" fill="1" visible="yes" active="yes"/>
<layer number="95" name="Names" color="7" fill="1" visible="yes" active="yes"/>
<layer number="96" name="Values" color="7" fill="1" visible="yes" active="yes"/>
<layer number="97" name="Info" color="7" fill="1" visible="yes" active="yes"/>
<layer number="98" name="Guide" color="6" fill="1" visible="yes" active="yes"/>
<layer number="99" name="SpiceOrder" color="5" fill="1" visible="yes" active="yes"/>
</layers>
<schematic xreflabel="%F%N/%S.%C%R" xrefpart="/%S.%C%R">
<libraries>
<library name="eagle-ltspice" urn="urn:adsk.eagle:library:217">
<description>Default symbols for import LTspice schematics&lt;p&gt;
2012-10-29 alf@cadsoft.de&lt;br&gt;</description>
<packages>
<package name="0204/7" urn="urn:adsk.eagle:footprint:13215/1" library_version="1">
<description>&lt;b&gt;RESISTOR&lt;/b&gt;&lt;p&gt;
type 0204, grid 7.5 mm</description>
<wire x1="3.81" y1="0" x2="2.921" y2="0" width="0.508" layer="51"/>
<wire x1="-3.81" y1="0" x2="-2.921" y2="0" width="0.508" layer="51"/>
<wire x1="-2.54" y1="0.762" x2="-2.286" y2="1.016" width="0.1524" layer="21" curve="-90"/>
<wire x1="-2.54" y1="-0.762" x2="-2.286" y2="-1.016" width="0.1524" layer="21" curve="90"/>
<wire x1="2.286" y1="-1.016" x2="2.54" y2="-0.762" width="0.1524" layer="21" curve="90"/>
<wire x1="2.286" y1="1.016" x2="2.54" y2="0.762" width="0.1524" layer="21" curve="-90"/>
<wire x1="-2.54" y1="-0.762" x2="-2.54" y2="0.762" width="0.1524" layer="21"/>
<wire x1="-2.286" y1="1.016" x2="-1.905" y2="1.016" width="0.1524" layer="21"/>
<wire x1="-1.778" y1="0.889" x2="-1.905" y2="1.016" width="0.1524" layer="21"/>
<wire x1="-2.286" y1="-1.016" x2="-1.905" y2="-1.016" width="0.1524" layer="21"/>
<wire x1="-1.778" y1="-0.889" x2="-1.905" y2="-1.016" width="0.1524" layer="21"/>
<wire x1="1.778" y1="0.889" x2="1.905" y2="1.016" width="0.1524" layer="21"/>
<wire x1="1.778" y1="0.889" x2="-1.778" y2="0.889" width="0.1524" layer="21"/>
<wire x1="1.778" y1="-0.889" x2="1.905" y2="-1.016" width="0.1524" layer="21"/>
<wire x1="1.778" y1="-0.889" x2="-1.778" y2="-0.889" width="0.1524" layer="21"/>
<wire x1="2.286" y1="1.016" x2="1.905" y2="1.016" width="0.1524" layer="21"/>
<wire x1="2.286" y1="-1.016" x2="1.905" y2="-1.016" width="0.1524" layer="21"/>
<wire x1="2.54" y1="-0.762" x2="2.54" y2="0.762" width="0.1524" layer="21"/>
<rectangle x1="2.54" y1="-0.254" x2="2.921" y2="0.254" layer="21"/>
<rectangle x1="-2.921" y1="-0.254" x2="-2.54" y2="0.254" layer="21"/>
<pad name="1" x="-3.81" y="0" drill="0.8128" shape="octagon"/>
<pad name="2" x="3.81" y="0" drill="0.8128" shape="octagon"/>
<text x="-2.54" y="1.2954" size="0.9906" layer="25" ratio="10">&gt;NAME</text>
<text x="-1.6256" y="-0.4826" size="0.9906" layer="27" ratio="10">&gt;VALUE</text>
</package>
<package name="0207/10" urn="urn:adsk.eagle:footprint:13216/1" library_version="1">
<description>&lt;b&gt;RESISTOR&lt;/b&gt;&lt;p&gt;
type 0207, grid 10 mm</description>
<wire x1="5.08" y1="0" x2="4.064" y2="0" width="0.6096" layer="51"/>
<wire x1="-5.08" y1="0" x2="-4.064" y2="0" width="0.6096" layer="51"/>
<wire x1="-3.175" y1="0.889" x2="-2.921" y2="1.143" width="0.1524" layer="21" curve="-90"/>
<wire x1="-3.175" y1="-0.889" x2="-2.921" y2="-1.143" width="0.1524" layer="21" curve="90"/>
<wire x1="2.921" y1="-1.143" x2="3.175" y2="-0.889" width="0.1524" layer="21" curve="90"/>
<wire x1="2.921" y1="1.143" x2="3.175" y2="0.889" width="0.1524" layer="21" curve="-90"/>
<wire x1="-3.175" y1="-0.889" x2="-3.175" y2="0.889" width="0.1524" layer="21"/>
<wire x1="-2.921" y1="1.143" x2="-2.54" y2="1.143" width="0.1524" layer="21"/>
<wire x1="-2.413" y1="1.016" x2="-2.54" y2="1.143" width="0.1524" layer="21"/>
<wire x1="-2.921" y1="-1.143" x2="-2.54" y2="-1.143" width="0.1524" layer="21"/>
<wire x1="-2.413" y1="-1.016" x2="-2.54" y2="-1.143" width="0.1524" layer="21"/>
<wire x1="2.413" y1="1.016" x2="2.54" y2="1.143" width="0.1524" layer="21"/>
<wire x1="2.413" y1="1.016" x2="-2.413" y2="1.016" width="0.1524" layer="21"/>
<wire x1="2.413" y1="-1.016" x2="2.54" y2="-1.143" width="0.1524" layer="21"/>
<wire x1="2.413" y1="-1.016" x2="-2.413" y2="-1.016" width="0.1524" layer="21"/>
<wire x1="2.921" y1="1.143" x2="2.54" y2="1.143" width="0.1524" layer="21"/>
<wire x1="2.921" y1="-1.143" x2="2.54" y2="-1.143" width="0.1524" layer="21"/>
<wire x1="3.175" y1="-0.889" x2="3.175" y2="0.889" width="0.1524" layer="21"/>
<rectangle x1="3.175" y1="-0.3048" x2="4.0386" y2="0.3048" layer="21"/>
<rectangle x1="-4.0386" y1="-0.3048" x2="-3.175" y2="0.3048" layer="21"/>
<pad name="1" x="-5.08" y="0" drill="0.8128" shape="octagon"/>
<pad name="2" x="5.08" y="0" drill="0.8128" shape="octagon"/>
<text x="-3.048" y="1.524" size="1.27" layer="25" ratio="10">&gt;NAME</text>
<text x="-2.2606" y="-0.635" size="1.27" layer="27" ratio="10">&gt;VALUE</text>
</package>
<package name="R0201" urn="urn:adsk.eagle:footprint:13233/1" library_version="1">
<description>&lt;b&gt;RESISTOR&lt;/b&gt; chip&lt;p&gt;
Source: http://www.vishay.com/docs/20008/dcrcw.pdf</description>
<rectangle x1="-0.3" y1="-0.15" x2="-0.15" y2="0.15" layer="51"/>
<rectangle x1="0.15" y1="-0.15" x2="0.3" y2="0.15" layer="51"/>
<rectangle x1="-0.15" y1="-0.15" x2="0.15" y2="0.15" layer="21"/>
<smd name="1" x="-0.255" y="0" dx="0.28" dy="0.43" layer="1"/>
<smd name="2" x="0.255" y="0" dx="0.28" dy="0.43" layer="1"/>
<text x="-0.635" y="0.635" size="1.27" layer="25">&gt;NAME</text>
<text x="-0.635" y="-1.905" size="1.27" layer="27">&gt;VALUE</text>
</package>
<package name="R0402" urn="urn:adsk.eagle:footprint:13234/1" library_version="1">
<description>&lt;b&gt;RESISTOR&lt;/b&gt;</description>
<wire x1="-0.245" y1="0.224" x2="0.245" y2="0.224" width="0.1524" layer="51"/>
<wire x1="0.245" y1="-0.224" x2="-0.245" y2="-0.224" width="0.1524" layer="51"/>
<wire x1="-1.473" y1="0.483" x2="1.473" y2="0.483" width="0.0508" layer="39"/>
<wire x1="1.473" y1="0.483" x2="1.473" y2="-0.483" width="0.0508" layer="39"/>
<wire x1="1.473" y1="-0.483" x2="-1.473" y2="-0.483" width="0.0508" layer="39"/>
<wire x1="-1.473" y1="-0.483" x2="-1.473" y2="0.483" width="0.0508" layer="39"/>
<rectangle x1="-0.554" y1="-0.3048" x2="-0.254" y2="0.2951" layer="51"/>
<rectangle x1="0.2588" y1="-0.3048" x2="0.5588" y2="0.2951" layer="51"/>
<rectangle x1="-0.1999" y1="-0.4001" x2="0.1999" y2="0.4001" layer="35"/>
<smd name="1" x="-0.65" y="0" dx="0.7" dy="0.9" layer="1"/>
<smd name="2" x="0.65" y="0" dx="0.7" dy="0.9" layer="1"/>
<text x="-0.635" y="0.635" size="1.27" layer="25">&gt;NAME</text>
<text x="-0.635" y="-1.905" size="1.27" layer="27">&gt;VALUE</text>
</package>
<package name="R0603" urn="urn:adsk.eagle:footprint:13235/1" library_version="1">
<description>&lt;b&gt;RESISTOR&lt;/b&gt;</description>
<wire x1="-0.432" y1="-0.356" x2="0.432" y2="-0.356" width="0.1524" layer="51"/>
<wire x1="0.432" y1="0.356" x2="-0.432" y2="0.356" width="0.1524" layer="51"/>
<wire x1="-1.473" y1="0.983" x2="1.473" y2="0.983" width="0.0508" layer="39"/>
<wire x1="1.473" y1="0.983" x2="1.473" y2="-0.983" width="0.0508" layer="39"/>
<wire x1="1.473" y1="-0.983" x2="-1.473" y2="-0.983" width="0.0508" layer="39"/>
<wire x1="-1.473" y1="-0.983" x2="-1.473" y2="0.983" width="0.0508" layer="39"/>
<rectangle x1="0.4318" y1="-0.4318" x2="0.8382" y2="0.4318" layer="51"/>
<rectangle x1="-0.8382" y1="-0.4318" x2="-0.4318" y2="0.4318" layer="51"/>
<rectangle x1="-0.1999" y1="-0.4001" x2="0.1999" y2="0.4001" layer="35"/>
<smd name="1" x="-0.85" y="0" dx="1" dy="1.1" layer="1"/>
<smd name="2" x="0.85" y="0" dx="1" dy="1.1" layer="1"/>
<text x="-0.635" y="0.635" size="1.27" layer="25">&gt;NAME</text>
<text x="-0.635" y="-1.905" size="1.27" layer="27">&gt;VALUE</text>
</package>
<package name="R0805" urn="urn:adsk.eagle:footprint:13236/1" library_version="1">
<description>&lt;b&gt;RESISTOR&lt;/b&gt;&lt;p&gt;</description>
<wire x1="-0.41" y1="0.635" x2="0.41" y2="0.635" width="0.1524" layer="51"/>
<wire x1="-0.41" y1="-0.635" x2="0.41" y2="-0.635" width="0.1524" layer="51"/>
<wire x1="-1.973" y1="0.983" x2="1.973" y2="0.983" width="0.0508" layer="39"/>
<wire x1="1.973" y1="0.983" x2="1.973" y2="-0.983" width="0.0508" layer="39"/>
<wire x1="1.973" y1="-0.983" x2="-1.973" y2="-0.983" width="0.0508" layer="39"/>
<wire x1="-1.973" y1="-0.983" x2="-1.973" y2="0.983" width="0.0508" layer="39"/>
<rectangle x1="0.4064" y1="-0.6985" x2="1.0564" y2="0.7015" layer="51"/>
<rectangle x1="-1.0668" y1="-0.6985" x2="-0.4168" y2="0.7015" layer="51"/>
<rectangle x1="-0.1999" y1="-0.5001" x2="0.1999" y2="0.5001" layer="35"/>
<smd name="1" x="-0.95" y="0" dx="1.3" dy="1.5" layer="1"/>
<smd name="2" x="0.95" y="0" dx="1.3" dy="1.5" layer="1"/>
<text x="-0.635" y="1.27" size="1.27" layer="25">&gt;NAME</text>
<text x="-0.635" y="-2.54" size="1.27" layer="27">&gt;VALUE</text>
</package>
<package name="R1005" urn="urn:adsk.eagle:footprint:13237/1" library_version="1">
<description>&lt;b&gt;RESISTOR&lt;/b&gt;</description>
<wire x1="-0.245" y1="0.224" x2="0.245" y2="0.224" width="0.1524" layer="51"/>
<wire x1="0.245" y1="-0.224" x2="-0.245" y2="-0.224" width="0.1524" layer="51"/>
<wire x1="-1.473" y1="0.483" x2="1.473" y2="0.483" width="0.0508" layer="39"/>
<wire x1="1.473" y1="0.483" x2="1.473" y2="-0.483" width="0.0508" layer="39"/>
<wire x1="1.473" y1="-0.483" x2="-1.473" y2="-0.483" width="0.0508" layer="39"/>
<wire x1="-1.473" y1="-0.483" x2="-1.473" y2="0.483" width="0.0508" layer="39"/>
<rectangle x1="-0.554" y1="-0.3048" x2="-0.254" y2="0.2951" layer="51"/>
<rectangle x1="0.2588" y1="-0.3048" x2="0.5588" y2="0.2951" layer="51"/>
<rectangle x1="-0.1999" y1="-0.3" x2="0.1999" y2="0.3" layer="35"/>
<smd name="1" x="-0.65" y="0" dx="0.7" dy="0.9" layer="1"/>
<smd name="2" x="0.65" y="0" dx="0.7" dy="0.9" layer="1"/>
<text x="-0.635" y="0.635" size="1.27" layer="25">&gt;NAME</text>
<text x="-0.635" y="-1.905" size="1.27" layer="27">&gt;VALUE</text>
</package>
<package name="R1206" urn="urn:adsk.eagle:footprint:13238/1" library_version="1">
<description>&lt;b&gt;RESISTOR&lt;/b&gt;</description>
<wire x1="0.9525" y1="-0.8128" x2="-0.9652" y2="-0.8128" width="0.1524" layer="51"/>
<wire x1="0.9525" y1="0.8128" x2="-0.9652" y2="0.8128" width="0.1524" layer="51"/>
<wire x1="-2.473" y1="0.983" x2="2.473" y2="0.983" width="0.0508" layer="39"/>
<wire x1="2.473" y1="0.983" x2="2.473" y2="-0.983" width="0.0508" layer="39"/>
<wire x1="2.473" y1="-0.983" x2="-2.473" y2="-0.983" width="0.0508" layer="39"/>
<wire x1="-2.473" y1="-0.983" x2="-2.473" y2="0.983" width="0.0508" layer="39"/>
<rectangle x1="-1.6891" y1="-0.8763" x2="-0.9525" y2="0.8763" layer="51"/>
<rectangle x1="0.9525" y1="-0.8763" x2="1.6891" y2="0.8763" layer="51"/>
<rectangle x1="-0.3" y1="-0.7" x2="0.3" y2="0.7" layer="35"/>
<smd name="1" x="-1.422" y="0" dx="1.6" dy="1.803" layer="1"/>
<smd name="2" x="1.422" y="0" dx="1.6" dy="1.803" layer="1"/>
<text x="-1.27" y="1.27" size="1.27" layer="25">&gt;NAME</text>
<text x="-1.27" y="-2.54" size="1.27" layer="27">&gt;VALUE</text>
</package>
<package name="R1210" urn="urn:adsk.eagle:footprint:13239/1" library_version="1">
<description>&lt;b&gt;RESISTOR&lt;/b&gt;</description>
<wire x1="-0.913" y1="1.219" x2="0.939" y2="1.219" width="0.1524" layer="51"/>
<wire x1="-0.913" y1="-1.219" x2="0.939" y2="-1.219" width="0.1524" layer="51"/>
<wire x1="-2.473" y1="1.483" x2="2.473" y2="1.483" width="0.0508" layer="39"/>
<wire x1="2.473" y1="1.483" x2="2.473" y2="-1.483" width="0.0508" layer="39"/>
<wire x1="2.473" y1="-1.483" x2="-2.473" y2="-1.483" width="0.0508" layer="39"/>
<wire x1="-2.473" y1="-1.483" x2="-2.473" y2="1.483" width="0.0508" layer="39"/>
<rectangle x1="-1.651" y1="-1.3081" x2="-0.9009" y2="1.2918" layer="51"/>
<rectangle x1="0.9144" y1="-1.3081" x2="1.6645" y2="1.2918" layer="51"/>
<rectangle x1="-0.3" y1="-0.8999" x2="0.3" y2="0.8999" layer="35"/>
<smd name="1" x="-1.4" y="0" dx="1.6" dy="2.7" layer="1"/>
<smd name="2" x="1.4" y="0" dx="1.6" dy="2.7" layer="1"/>
<text x="-2.54" y="1.905" size="1.27" layer="25">&gt;NAME</text>
<text x="-2.54" y="-3.175" size="1.27" layer="27">&gt;VALUE</text>
</package>
<package name="R1218" urn="urn:adsk.eagle:footprint:13240/1" library_version="1">
<description>&lt;b&gt;CRCW1218 Thick Film, Rectangular Chip Resistors&lt;/b&gt;&lt;p&gt;
Source: http://www.vishay.com .. dcrcw.pdf</description>
<wire x1="-0.913" y1="-2.219" x2="0.939" y2="-2.219" width="0.1524" layer="51"/>
<wire x1="0.913" y1="2.219" x2="-0.939" y2="2.219" width="0.1524" layer="51"/>
<rectangle x1="-1.651" y1="-2.3" x2="-0.9009" y2="2.3" layer="51"/>
<rectangle x1="0.9144" y1="-2.3" x2="1.6645" y2="2.3" layer="51"/>
<smd name="1" x="-1.475" y="0" dx="1.05" dy="4.9" layer="1"/>
<smd name="2" x="1.475" y="0" dx="1.05" dy="4.9" layer="1"/>
<text x="-2.54" y="2.54" size="1.27" layer="25">&gt;NAME</text>
<text x="-2.54" y="-3.81" size="1.27" layer="27">&gt;VALUE</text>
</package>
<package name="R2010" urn="urn:adsk.eagle:footprint:13241/1" library_version="1">
<description>&lt;b&gt;RESISTOR&lt;/b&gt;</description>
<wire x1="-1.662" y1="1.245" x2="1.662" y2="1.245" width="0.1524" layer="51"/>
<wire x1="-1.637" y1="-1.245" x2="1.687" y2="-1.245" width="0.1524" layer="51"/>
<wire x1="-3.473" y1="1.483" x2="3.473" y2="1.483" width="0.0508" layer="39"/>
<wire x1="3.473" y1="1.483" x2="3.473" y2="-1.483" width="0.0508" layer="39"/>
<wire x1="3.473" y1="-1.483" x2="-3.473" y2="-1.483" width="0.0508" layer="39"/>
<wire x1="-3.473" y1="-1.483" x2="-3.473" y2="1.483" width="0.0508" layer="39"/>
<rectangle x1="-2.4892" y1="-1.3208" x2="-1.6393" y2="1.3292" layer="51"/>
<rectangle x1="1.651" y1="-1.3208" x2="2.5009" y2="1.3292" layer="51"/>
<smd name="1" x="-2.2" y="0" dx="1.8" dy="2.7" layer="1"/>
<smd name="2" x="2.2" y="0" dx="1.8" dy="2.7" layer="1"/>
<text x="-3.175" y="1.905" size="1.27" layer="25">&gt;NAME</text>
<text x="-3.175" y="-3.175" size="1.27" layer="27">&gt;VALUE</text>
</package>
<package name="R2012" urn="urn:adsk.eagle:footprint:13242/1" library_version="1">
<description>&lt;b&gt;RESISTOR&lt;/b&gt;</description>
<wire x1="-0.41" y1="0.635" x2="0.41" y2="0.635" width="0.1524" layer="51"/>
<wire x1="-0.41" y1="-0.635" x2="0.41" y2="-0.635" width="0.1524" layer="51"/>
<wire x1="-1.973" y1="0.983" x2="1.973" y2="0.983" width="0.0508" layer="39"/>
<wire x1="1.973" y1="0.983" x2="1.973" y2="-0.983" width="0.0508" layer="39"/>
<wire x1="1.973" y1="-0.983" x2="-1.973" y2="-0.983" width="0.0508" layer="39"/>
<wire x1="-1.973" y1="-0.983" x2="-1.973" y2="0.983" width="0.0508" layer="39"/>
<rectangle x1="0.4064" y1="-0.6985" x2="1.0564" y2="0.7015" layer="51"/>
<rectangle x1="-1.0668" y1="-0.6985" x2="-0.4168" y2="0.7015" layer="51"/>
<rectangle x1="-0.1001" y1="-0.5999" x2="0.1001" y2="0.5999" layer="35"/>
<smd name="1" x="-0.85" y="0" dx="1.3" dy="1.5" layer="1"/>
<smd name="2" x="0.85" y="0" dx="1.3" dy="1.5" layer="1"/>
<text x="-0.635" y="1.27" size="1.27" layer="25">&gt;NAME</text>
<text x="-0.635" y="-2.54" size="1.27" layer="27">&gt;VALUE</text>
</package>
<package name="R2512" urn="urn:adsk.eagle:footprint:13243/1" library_version="1">
<description>&lt;b&gt;RESISTOR&lt;/b&gt;</description>
<wire x1="-2.362" y1="1.473" x2="2.387" y2="1.473" width="0.1524" layer="51"/>
<wire x1="-2.362" y1="-1.473" x2="2.387" y2="-1.473" width="0.1524" layer="51"/>
<wire x1="-3.973" y1="1.983" x2="3.973" y2="1.983" width="0.0508" layer="39"/>
<wire x1="3.973" y1="1.983" x2="3.973" y2="-1.983" width="0.0508" layer="39"/>
<wire x1="3.973" y1="-1.983" x2="-3.973" y2="-1.983" width="0.0508" layer="39"/>
<wire x1="-3.973" y1="-1.983" x2="-3.973" y2="1.983" width="0.0508" layer="39"/>
<rectangle x1="-3.2004" y1="-1.5494" x2="-2.3505" y2="1.5507" layer="51"/>
<rectangle x1="2.3622" y1="-1.5494" x2="3.2121" y2="1.5507" layer="51"/>
<rectangle x1="-0.5001" y1="-1" x2="0.5001" y2="1" layer="35"/>
<smd name="1" x="-2.8" y="0" dx="1.8" dy="3.2" layer="1"/>
<smd name="2" x="2.8" y="0" dx="1.8" dy="3.2" layer="1"/>
<text x="-2.54" y="1.905" size="1.27" layer="25">&gt;NAME</text>
<text x="-2.54" y="-3.175" size="1.27" layer="27">&gt;VALUE</text>
</package>
<package name="R3216" urn="urn:adsk.eagle:footprint:13244/1" library_version="1">
<description>&lt;b&gt;RESISTOR&lt;/b&gt;</description>
<wire x1="-0.913" y1="0.8" x2="0.888" y2="0.8" width="0.1524" layer="51"/>
<wire x1="-0.913" y1="-0.8" x2="0.888" y2="-0.8" width="0.1524" layer="51"/>
<wire x1="-2.473" y1="0.983" x2="2.473" y2="0.983" width="0.0508" layer="39"/>
<wire x1="2.473" y1="0.983" x2="2.473" y2="-0.983" width="0.0508" layer="39"/>
<wire x1="2.473" y1="-0.983" x2="-2.473" y2="-0.983" width="0.0508" layer="39"/>
<wire x1="-2.473" y1="-0.983" x2="-2.473" y2="0.983" width="0.0508" layer="39"/>
<rectangle x1="-1.651" y1="-0.8763" x2="-0.9009" y2="0.8738" layer="51"/>
<rectangle x1="0.889" y1="-0.8763" x2="1.6391" y2="0.8738" layer="51"/>
<rectangle x1="-0.3" y1="-0.7" x2="0.3" y2="0.7" layer="35"/>
<smd name="1" x="-1.4" y="0" dx="1.6" dy="1.8" layer="1"/>
<smd name="2" x="1.4" y="0" dx="1.6" dy="1.8" layer="1"/>
<text x="-1.905" y="1.27" size="1.27" layer="25">&gt;NAME</text>
<text x="-1.905" y="-2.54" size="1.27" layer="27">&gt;VALUE</text>
</package>
<package name="R3225" urn="urn:adsk.eagle:footprint:13245/1" library_version="1">
<description>&lt;b&gt;RESISTOR&lt;/b&gt;</description>
<wire x1="-0.913" y1="1.219" x2="0.939" y2="1.219" width="0.1524" layer="51"/>
<wire x1="-0.913" y1="-1.219" x2="0.939" y2="-1.219" width="0.1524" layer="51"/>
<wire x1="-2.473" y1="1.483" x2="2.473" y2="1.483" width="0.0508" layer="39"/>
<wire x1="2.473" y1="1.483" x2="2.473" y2="-1.483" width="0.0508" layer="39"/>
<wire x1="2.473" y1="-1.483" x2="-2.473" y2="-1.483" width="0.0508" layer="39"/>
<wire x1="-2.473" y1="-1.483" x2="-2.473" y2="1.483" width="0.0508" layer="39"/>
<rectangle x1="-1.651" y1="-1.3081" x2="-0.9009" y2="1.2918" layer="51"/>
<rectangle x1="0.9144" y1="-1.3081" x2="1.6645" y2="1.2918" layer="51"/>
<rectangle x1="-0.3" y1="-1" x2="0.3" y2="1" layer="35"/>
<smd name="1" x="-1.4" y="0" dx="1.6" dy="2.7" layer="1"/>
<smd name="2" x="1.4" y="0" dx="1.6" dy="2.7" layer="1"/>
<text x="-2.54" y="1.905" size="1.27" layer="25">&gt;NAME</text>
<text x="-2.54" y="-3.175" size="1.27" layer="27">&gt;VALUE</text>
</package>
<package name="R4527" urn="urn:adsk.eagle:footprint:13246/1" library_version="1">
<description>&lt;b&gt;Package 4527&lt;/b&gt;&lt;p&gt;
Source: http://www.vishay.com/docs/31059/wsrhigh.pdf</description>
<wire x1="-5.675" y1="-3.375" x2="5.65" y2="-3.375" width="0.2032" layer="21"/>
<wire x1="5.65" y1="-3.375" x2="5.65" y2="3.375" width="0.2032" layer="51"/>
<wire x1="5.65" y1="3.375" x2="-5.675" y2="3.375" width="0.2032" layer="21"/>
<wire x1="-5.675" y1="3.375" x2="-5.675" y2="-3.375" width="0.2032" layer="51"/>
<smd name="1" x="-4.575" y="0" dx="3.94" dy="5.84" layer="1"/>
<smd name="2" x="4.575" y="0" dx="3.94" dy="5.84" layer="1"/>
<text x="-5.715" y="3.81" size="1.27" layer="25">&gt;NAME</text>
<text x="-5.715" y="-5.08" size="1.27" layer="27">&gt;VALUE</text>
</package>
<package name="R5025" urn="urn:adsk.eagle:footprint:13247/1" library_version="1">
<description>&lt;b&gt;RESISTOR&lt;/b&gt;</description>
<wire x1="-1.662" y1="1.245" x2="1.662" y2="1.245" width="0.1524" layer="51"/>
<wire x1="-1.637" y1="-1.245" x2="1.687" y2="-1.245" width="0.1524" layer="51"/>
<wire x1="-3.473" y1="1.483" x2="3.473" y2="1.483" width="0.0508" layer="39"/>
<wire x1="3.473" y1="1.483" x2="3.473" y2="-1.483" width="0.0508" layer="39"/>
<wire x1="3.473" y1="-1.483" x2="-3.473" y2="-1.483" width="0.0508" layer="39"/>
<wire x1="-3.473" y1="-1.483" x2="-3.473" y2="1.483" width="0.0508" layer="39"/>
<rectangle x1="-2.4892" y1="-1.3208" x2="-1.6393" y2="1.3292" layer="51"/>
<rectangle x1="1.651" y1="-1.3208" x2="2.5009" y2="1.3292" layer="51"/>
<rectangle x1="-0.5001" y1="-1" x2="0.5001" y2="1" layer="35"/>
<smd name="1" x="-2.2" y="0" dx="1.8" dy="2.7" layer="1"/>
<smd name="2" x="2.2" y="0" dx="1.8" dy="2.7" layer="1"/>
<text x="-3.175" y="1.905" size="1.27" layer="25">&gt;NAME</text>
<text x="-3.175" y="-3.175" size="1.27" layer="27">&gt;VALUE</text>
</package>
<package name="R6332" urn="urn:adsk.eagle:footprint:13248/1" library_version="1">
<description>&lt;b&gt;RESISTOR&lt;/b&gt;&lt;p&gt;
Source: http://download.siliconexpert.com/pdfs/2005/02/24/Semi_Ap/2/VSH/Resistor/dcrcwfre.pdf</description>
<wire x1="-2.362" y1="1.473" x2="2.387" y2="1.473" width="0.1524" layer="51"/>
<wire x1="-2.362" y1="-1.473" x2="2.387" y2="-1.473" width="0.1524" layer="51"/>
<wire x1="-3.973" y1="1.983" x2="3.973" y2="1.983" width="0.0508" layer="39"/>
<wire x1="3.973" y1="1.983" x2="3.973" y2="-1.983" width="0.0508" layer="39"/>
<wire x1="3.973" y1="-1.983" x2="-3.973" y2="-1.983" width="0.0508" layer="39"/>
<wire x1="-3.973" y1="-1.983" x2="-3.973" y2="1.983" width="0.0508" layer="39"/>
<rectangle x1="-3.2004" y1="-1.5494" x2="-2.3505" y2="1.5507" layer="51"/>
<rectangle x1="2.3622" y1="-1.5494" x2="3.2121" y2="1.5507" layer="51"/>
<rectangle x1="-0.5001" y1="-1" x2="0.5001" y2="1" layer="35"/>
<smd name="1" x="-3.1" y="0" dx="1" dy="3.2" layer="1"/>
<smd name="2" x="3.1" y="0" dx="1" dy="3.2" layer="1"/>
<text x="-2.54" y="1.905" size="1.27" layer="25">&gt;NAME</text>
<text x="-2.54" y="-3.175" size="1.27" layer="27">&gt;VALUE</text>
</package>
<package name="C0201" urn="urn:adsk.eagle:footprint:13195/1" library_version="1">
<description>Source: http://www.avxcorp.com/docs/catalogs/cx5r.pdf</description>
<rectangle x1="-0.3" y1="-0.15" x2="-0.15" y2="0.15" layer="51"/>
<rectangle x1="0.15" y1="-0.15" x2="0.3" y2="0.15" layer="51"/>
<rectangle x1="-0.15" y1="0.1" x2="0.15" y2="0.15" layer="51"/>
<rectangle x1="-0.15" y1="-0.15" x2="0.15" y2="-0.1" layer="51"/>
<smd name="1" x="-0.25" y="0" dx="0.25" dy="0.35" layer="1"/>
<smd name="2" x="0.25" y="0" dx="0.25" dy="0.35" layer="1"/>
<text x="-0.635" y="0.635" size="1.27" layer="25">&gt;NAME</text>
<text x="-0.635" y="-1.905" size="1.27" layer="27">&gt;VALUE</text>
</package>
<package name="C0402" urn="urn:adsk.eagle:footprint:13196/1" library_version="1">
<description>&lt;b&gt;CAPACITOR&lt;/b&gt;</description>
<wire x1="-0.245" y1="0.224" x2="0.245" y2="0.224" width="0.1524" layer="51"/>
<wire x1="0.245" y1="-0.224" x2="-0.245" y2="-0.224" width="0.1524" layer="51"/>
<wire x1="-1.473" y1="0.483" x2="1.473" y2="0.483" width="0.0508" layer="39"/>
<wire x1="1.473" y1="0.483" x2="1.473" y2="-0.483" width="0.0508" layer="39"/>
<wire x1="1.473" y1="-0.483" x2="-1.473" y2="-0.483" width="0.0508" layer="39"/>
<wire x1="-1.473" y1="-0.483" x2="-1.473" y2="0.483" width="0.0508" layer="39"/>
<rectangle x1="-0.554" y1="-0.3048" x2="-0.254" y2="0.2951" layer="51"/>
<rectangle x1="0.2588" y1="-0.3048" x2="0.5588" y2="0.2951" layer="51"/>
<rectangle x1="-0.1999" y1="-0.3" x2="0.1999" y2="0.3" layer="35"/>
<smd name="1" x="-0.65" y="0" dx="0.7" dy="0.9" layer="1"/>
<smd name="2" x="0.65" y="0" dx="0.7" dy="0.9" layer="1"/>
<text x="-0.635" y="0.635" size="1.27" layer="25">&gt;NAME</text>
<text x="-0.635" y="-1.905" size="1.27" layer="27">&gt;VALUE</text>
</package>
<package name="C0504" urn="urn:adsk.eagle:footprint:13197/1" library_version="1">
<description>&lt;b&gt;CAPACITOR&lt;/b&gt;</description>
<wire x1="-1.473" y1="0.983" x2="1.473" y2="0.983" width="0.0508" layer="39"/>
<wire x1="1.473" y1="0.983" x2="1.473" y2="-0.983" width="0.0508" layer="39"/>
<wire x1="1.473" y1="-0.983" x2="-1.473" y2="-0.983" width="0.0508" layer="39"/>
<wire x1="-1.473" y1="-0.983" x2="-1.473" y2="0.983" width="0.0508" layer="39"/>
<wire x1="-0.294" y1="0.559" x2="0.294" y2="0.559" width="0.1016" layer="51"/>
<wire x1="-0.294" y1="-0.559" x2="0.294" y2="-0.559" width="0.1016" layer="51"/>
<rectangle x1="-0.6604" y1="-0.6223" x2="-0.2804" y2="0.6276" layer="51"/>
<rectangle x1="0.2794" y1="-0.6223" x2="0.6594" y2="0.6276" layer="51"/>
<rectangle x1="-0.1001" y1="-0.4001" x2="0.1001" y2="0.4001" layer="35"/>
<smd name="1" x="-0.7" y="0" dx="1" dy="1.3" layer="1"/>
<smd name="2" x="0.7" y="0" dx="1" dy="1.3" layer="1"/>
<text x="-0.635" y="1.27" size="1.27" layer="25">&gt;NAME</text>
<text x="-0.635" y="-2.54" size="1.27" layer="27">&gt;VALUE</text>
</package>
<package name="C0603" urn="urn:adsk.eagle:footprint:13198/1" library_version="1">
<description>&lt;b&gt;CAPACITOR&lt;/b&gt;</description>
<wire x1="-1.473" y1="0.983" x2="1.473" y2="0.983" width="0.0508" layer="39"/>
<wire x1="1.473" y1="0.983" x2="1.473" y2="-0.983" width="0.0508" layer="39"/>
<wire x1="1.473" y1="-0.983" x2="-1.473" y2="-0.983" width="0.0508" layer="39"/>
<wire x1="-1.473" y1="-0.983" x2="-1.473" y2="0.983" width="0.0508" layer="39"/>
<wire x1="-0.356" y1="0.432" x2="0.356" y2="0.432" width="0.1016" layer="51"/>
<wire x1="-0.356" y1="-0.419" x2="0.356" y2="-0.419" width="0.1016" layer="51"/>
<rectangle x1="-0.8382" y1="-0.4699" x2="-0.3381" y2="0.4801" layer="51"/>
<rectangle x1="0.3302" y1="-0.4699" x2="0.8303" y2="0.4801" layer="51"/>
<rectangle x1="-0.1999" y1="-0.3" x2="0.1999" y2="0.3" layer="35"/>
<smd name="1" x="-0.85" y="0" dx="1.1" dy="1" layer="1"/>
<smd name="2" x="0.85" y="0" dx="1.1" dy="1" layer="1"/>
<text x="-0.635" y="0.635" size="1.27" layer="25">&gt;NAME</text>
<text x="-0.635" y="-1.905" size="1.27" layer="27">&gt;VALUE</text>
</package>
<package name="C0805" urn="urn:adsk.eagle:footprint:13199/1" library_version="1">
<description>&lt;b&gt;CAPACITOR&lt;/b&gt;&lt;p&gt;</description>
<wire x1="-1.973" y1="0.983" x2="1.973" y2="0.983" width="0.0508" layer="39"/>
<wire x1="1.973" y1="-0.983" x2="-1.973" y2="-0.983" width="0.0508" layer="39"/>
<wire x1="-1.973" y1="-0.983" x2="-1.973" y2="0.983" width="0.0508" layer="39"/>
<wire x1="-0.381" y1="0.66" x2="0.381" y2="0.66" width="0.1016" layer="51"/>
<wire x1="-0.356" y1="-0.66" x2="0.381" y2="-0.66" width="0.1016" layer="51"/>
<wire x1="1.973" y1="0.983" x2="1.973" y2="-0.983" width="0.0508" layer="39"/>
<rectangle x1="-1.0922" y1="-0.7239" x2="-0.3421" y2="0.7262" layer="51"/>
<rectangle x1="0.3556" y1="-0.7239" x2="1.1057" y2="0.7262" layer="51"/>
<rectangle x1="-0.1001" y1="-0.4001" x2="0.1001" y2="0.4001" layer="35"/>
<smd name="1" x="-0.95" y="0" dx="1.3" dy="1.5" layer="1"/>
<smd name="2" x="0.95" y="0" dx="1.3" dy="1.5" layer="1"/>
<text x="-1.27" y="1.27" size="1.27" layer="25">&gt;NAME</text>
<text x="-1.27" y="-2.54" size="1.27" layer="27">&gt;VALUE</text>
</package>
<package name="C1005" urn="urn:adsk.eagle:footprint:13200/1" library_version="1">
<description>&lt;b&gt;CAPACITOR&lt;/b&gt;</description>
<wire x1="-0.245" y1="0.224" x2="0.245" y2="0.224" width="0.1524" layer="51"/>
<wire x1="0.245" y1="-0.224" x2="-0.245" y2="-0.224" width="0.1524" layer="51"/>
<wire x1="-1.473" y1="0.483" x2="1.473" y2="0.483" width="0.0508" layer="39"/>
<wire x1="1.473" y1="0.483" x2="1.473" y2="-0.483" width="0.0508" layer="39"/>
<wire x1="1.473" y1="-0.483" x2="-1.473" y2="-0.483" width="0.0508" layer="39"/>
<wire x1="-1.473" y1="-0.483" x2="-1.473" y2="0.483" width="0.0508" layer="39"/>
<rectangle x1="-0.554" y1="-0.3048" x2="-0.254" y2="0.2951" layer="51"/>
<rectangle x1="0.2588" y1="-0.3048" x2="0.5588" y2="0.2951" layer="51"/>
<rectangle x1="-0.1999" y1="-0.3" x2="0.1999" y2="0.3" layer="35"/>
<smd name="1" x="-0.65" y="0" dx="0.7" dy="0.9" layer="1"/>
<smd name="2" x="0.65" y="0" dx="0.7" dy="0.9" layer="1"/>
<text x="-0.635" y="0.635" size="1.27" layer="25">&gt;NAME</text>
<text x="-0.635" y="-1.905" size="1.27" layer="27">&gt;VALUE</text>
</package>
<package name="C1206" urn="urn:adsk.eagle:footprint:13201/1" library_version="1">
<description>&lt;b&gt;CAPACITOR&lt;/b&gt;</description>
<wire x1="-2.473" y1="0.983" x2="2.473" y2="0.983" width="0.0508" layer="39"/>
<wire x1="2.473" y1="-0.983" x2="-2.473" y2="-0.983" width="0.0508" layer="39"/>
<wire x1="-2.473" y1="-0.983" x2="-2.473" y2="0.983" width="0.0508" layer="39"/>
<wire x1="2.473" y1="0.983" x2="2.473" y2="-0.983" width="0.0508" layer="39"/>
<wire x1="-0.965" y1="0.787" x2="0.965" y2="0.787" width="0.1016" layer="51"/>
<wire x1="-0.965" y1="-0.787" x2="0.965" y2="-0.787" width="0.1016" layer="51"/>
<rectangle x1="-1.7018" y1="-0.8509" x2="-0.9517" y2="0.8491" layer="51"/>
<rectangle x1="0.9517" y1="-0.8491" x2="1.7018" y2="0.8509" layer="51"/>
<rectangle x1="-0.1999" y1="-0.4001" x2="0.1999" y2="0.4001" layer="35"/>
<smd name="1" x="-1.4" y="0" dx="1.6" dy="1.8" layer="1"/>
<smd name="2" x="1.4" y="0" dx="1.6" dy="1.8" layer="1"/>
<text x="-1.27" y="1.27" size="1.27" layer="25">&gt;NAME</text>
<text x="-1.27" y="-2.54" size="1.27" layer="27">&gt;VALUE</text>
</package>
<package name="C1210" urn="urn:adsk.eagle:footprint:13202/1" library_version="1">
<description>&lt;b&gt;CAPACITOR&lt;/b&gt;</description>
<wire x1="-2.473" y1="1.483" x2="2.473" y2="1.483" width="0.0508" layer="39"/>
<wire x1="2.473" y1="-1.483" x2="-2.473" y2="-1.483" width="0.0508" layer="39"/>
<wire x1="-2.473" y1="-1.483" x2="-2.473" y2="1.483" width="0.0508" layer="39"/>
<wire x1="-0.9652" y1="1.2446" x2="0.9652" y2="1.2446" width="0.1016" layer="51"/>
<wire x1="-0.9652" y1="-1.2446" x2="0.9652" y2="-1.2446" width="0.1016" layer="51"/>
<wire x1="2.473" y1="1.483" x2="2.473" y2="-1.483" width="0.0508" layer="39"/>
<rectangle x1="-1.7018" y1="-1.2954" x2="-0.9517" y2="1.3045" layer="51"/>
<rectangle x1="0.9517" y1="-1.3045" x2="1.7018" y2="1.2954" layer="51"/>
<rectangle x1="-0.1999" y1="-0.4001" x2="0.1999" y2="0.4001" layer="35"/>
<smd name="1" x="-1.4" y="0" dx="1.6" dy="2.7" layer="1"/>
<smd name="2" x="1.4" y="0" dx="1.6" dy="2.7" layer="1"/>
<text x="-1.905" y="1.905" size="1.27" layer="25">&gt;NAME</text>
<text x="-1.905" y="-3.175" size="1.27" layer="27">&gt;VALUE</text>
</package>
<package name="C1310" urn="urn:adsk.eagle:footprint:13203/1" library_version="1">
<description>&lt;b&gt;CAPACITOR&lt;/b&gt;</description>
<wire x1="-1.473" y1="0.983" x2="1.473" y2="0.983" width="0.0508" layer="39"/>
<wire x1="1.473" y1="0.983" x2="1.473" y2="-0.983" width="0.0508" layer="39"/>
<wire x1="1.473" y1="-0.983" x2="-1.473" y2="-0.983" width="0.0508" layer="39"/>
<wire x1="-1.473" y1="-0.983" x2="-1.473" y2="0.983" width="0.0508" layer="39"/>
<wire x1="-0.294" y1="0.559" x2="0.294" y2="0.559" width="0.1016" layer="51"/>
<wire x1="-0.294" y1="-0.559" x2="0.294" y2="-0.559" width="0.1016" layer="51"/>
<rectangle x1="-0.6604" y1="-0.6223" x2="-0.2804" y2="0.6276" layer="51"/>
<rectangle x1="0.2794" y1="-0.6223" x2="0.6594" y2="0.6276" layer="51"/>
<rectangle x1="-0.1001" y1="-0.3" x2="0.1001" y2="0.3" layer="35"/>
<smd name="1" x="-0.7" y="0" dx="1" dy="1.3" layer="1"/>
<smd name="2" x="0.7" y="0" dx="1" dy="1.3" layer="1"/>
<text x="-0.635" y="1.27" size="1.27" layer="25">&gt;NAME</text>
<text x="-0.635" y="-2.54" size="1.27" layer="27">&gt;VALUE</text>
</package>
<package name="C1608" urn="urn:adsk.eagle:footprint:13204/1" library_version="1">
<description>&lt;b&gt;CAPACITOR&lt;/b&gt;</description>
<wire x1="-1.473" y1="0.983" x2="1.473" y2="0.983" width="0.0508" layer="39"/>
<wire x1="1.473" y1="0.983" x2="1.473" y2="-0.983" width="0.0508" layer="39"/>
<wire x1="1.473" y1="-0.983" x2="-1.473" y2="-0.983" width="0.0508" layer="39"/>
<wire x1="-1.473" y1="-0.983" x2="-1.473" y2="0.983" width="0.0508" layer="39"/>
<wire x1="-0.356" y1="0.432" x2="0.356" y2="0.432" width="0.1016" layer="51"/>
<wire x1="-0.356" y1="-0.419" x2="0.356" y2="-0.419" width="0.1016" layer="51"/>
<rectangle x1="-0.8382" y1="-0.4699" x2="-0.3381" y2="0.4801" layer="51"/>
<rectangle x1="0.3302" y1="-0.4699" x2="0.8303" y2="0.4801" layer="51"/>
<rectangle x1="-0.1999" y1="-0.3" x2="0.1999" y2="0.3" layer="35"/>
<smd name="1" x="-0.85" y="0" dx="1.1" dy="1" layer="1"/>
<smd name="2" x="0.85" y="0" dx="1.1" dy="1" layer="1"/>
<text x="-0.635" y="0.635" size="1.27" layer="25">&gt;NAME</text>
<text x="-0.635" y="-1.905" size="1.27" layer="27">&gt;VALUE</text>
</package>
<package name="C1808" urn="urn:adsk.eagle:footprint:13205/1" library_version="1">
<description>&lt;b&gt;CAPACITOR&lt;/b&gt;&lt;p&gt;
Source: AVX .. aphvc.pdf</description>
<wire x1="-1.4732" y1="0.9502" x2="1.4732" y2="0.9502" width="0.1016" layer="51"/>
<wire x1="-1.4478" y1="-0.9502" x2="1.4732" y2="-0.9502" width="0.1016" layer="51"/>
<rectangle x1="-2.275" y1="-1.015" x2="-1.225" y2="1.015" layer="51"/>
<rectangle x1="1.225" y1="-1.015" x2="2.275" y2="1.015" layer="51"/>
<smd name="1" x="-1.95" y="0" dx="1.6" dy="2.2" layer="1"/>
<smd name="2" x="1.95" y="0" dx="1.6" dy="2.2" layer="1"/>
<text x="-2.233" y="1.827" size="1.27" layer="25">&gt;NAME</text>
<text x="-2.233" y="-2.842" size="1.27" layer="27">&gt;VALUE</text>
</package>
<package name="C1812" urn="urn:adsk.eagle:footprint:13206/1" library_version="1">
<description>&lt;b&gt;CAPACITOR&lt;/b&gt;</description>
<wire x1="-2.973" y1="1.983" x2="2.973" y2="1.983" width="0.0508" layer="39"/>
<wire x1="2.973" y1="-1.983" x2="-2.973" y2="-1.983" width="0.0508" layer="39"/>
<wire x1="-2.973" y1="-1.983" x2="-2.973" y2="1.983" width="0.0508" layer="39"/>
<wire x1="-1.4732" y1="1.6002" x2="1.4732" y2="1.6002" width="0.1016" layer="51"/>
<wire x1="-1.4478" y1="-1.6002" x2="1.4732" y2="-1.6002" width="0.1016" layer="51"/>
<wire x1="2.973" y1="1.983" x2="2.973" y2="-1.983" width="0.0508" layer="39"/>
<rectangle x1="-2.3876" y1="-1.651" x2="-1.4376" y2="1.649" layer="51"/>
<rectangle x1="1.4478" y1="-1.651" x2="2.3978" y2="1.649" layer="51"/>
<rectangle x1="-0.3" y1="-0.4001" x2="0.3" y2="0.4001" layer="35"/>
<smd name="1" x="-1.95" y="0" dx="1.9" dy="3.4" layer="1"/>
<smd name="2" x="1.95" y="0" dx="1.9" dy="3.4" layer="1"/>
<text x="-1.905" y="2.54" size="1.27" layer="25">&gt;NAME</text>
<text x="-1.905" y="-3.81" size="1.27" layer="27">&gt;VALUE</text>
</package>
<package name="C1825" urn="urn:adsk.eagle:footprint:13207/1" library_version="1">
<description>&lt;b&gt;CAPACITOR&lt;/b&gt;</description>
<wire x1="-2.973" y1="3.483" x2="2.973" y2="3.483" width="0.0508" layer="39"/>
<wire x1="2.973" y1="-3.483" x2="-2.973" y2="-3.483" width="0.0508" layer="39"/>
<wire x1="-2.973" y1="-3.483" x2="-2.973" y2="3.483" width="0.0508" layer="39"/>
<wire x1="-1.4986" y1="3.2766" x2="1.4732" y2="3.2766" width="0.1016" layer="51"/>
<wire x1="-1.4732" y1="-3.2766" x2="1.4986" y2="-3.2766" width="0.1016" layer="51"/>
<wire x1="2.973" y1="3.483" x2="2.973" y2="-3.483" width="0.0508" layer="39"/>
<rectangle x1="-2.413" y1="-3.3528" x2="-1.463" y2="3.3472" layer="51"/>
<rectangle x1="1.4478" y1="-3.3528" x2="2.3978" y2="3.3472" layer="51"/>
<rectangle x1="-0.7" y1="-0.7" x2="0.7" y2="0.7" layer="35"/>
<smd name="1" x="-1.95" y="0" dx="1.9" dy="6.8" layer="1"/>
<smd name="2" x="1.95" y="0" dx="1.9" dy="6.8" layer="1"/>
<text x="-1.905" y="3.81" size="1.27" layer="25">&gt;NAME</text>
<text x="-1.905" y="-5.08" size="1.27" layer="27">&gt;VALUE</text>
</package>
<package name="C2012" urn="urn:adsk.eagle:footprint:13208/1" library_version="1">
<description>&lt;b&gt;CAPACITOR&lt;/b&gt;</description>
<wire x1="-1.973" y1="0.983" x2="1.973" y2="0.983" width="0.0508" layer="39"/>
<wire x1="1.973" y1="0.983" x2="1.973" y2="-0.983" width="0.0508" layer="39"/>
<wire x1="1.973" y1="-0.983" x2="-1.973" y2="-0.983" width="0.0508" layer="39"/>
<wire x1="-1.973" y1="-0.983" x2="-1.973" y2="0.983" width="0.0508" layer="39"/>
<wire x1="-0.381" y1="0.66" x2="0.381" y2="0.66" width="0.1016" layer="51"/>
<wire x1="-0.356" y1="-0.66" x2="0.381" y2="-0.66" width="0.1016" layer="51"/>
<rectangle x1="-1.0922" y1="-0.7239" x2="-0.3421" y2="0.7262" layer="51"/>
<rectangle x1="0.3556" y1="-0.7239" x2="1.1057" y2="0.7262" layer="51"/>
<rectangle x1="-0.1001" y1="-0.4001" x2="0.1001" y2="0.4001" layer="35"/>
<smd name="1" x="-0.85" y="0" dx="1.3" dy="1.5" layer="1"/>
<smd name="2" x="0.85" y="0" dx="1.3" dy="1.5" layer="1"/>
<text x="-1.27" y="1.27" size="1.27" layer="25">&gt;NAME</text>
<text x="-1.27" y="-2.54" size="1.27" layer="27">&gt;VALUE</text>
</package>
<package name="C3216" urn="urn:adsk.eagle:footprint:13209/1" library_version="1">
<description>&lt;b&gt;CAPACITOR&lt;/b&gt;</description>
<wire x1="-2.473" y1="0.983" x2="2.473" y2="0.983" width="0.0508" layer="39"/>
<wire x1="2.473" y1="-0.983" x2="-2.473" y2="-0.983" width="0.0508" layer="39"/>
<wire x1="-2.473" y1="-0.983" x2="-2.473" y2="0.983" width="0.0508" layer="39"/>
<wire x1="2.473" y1="0.983" x2="2.473" y2="-0.983" width="0.0508" layer="39"/>
<wire x1="-0.965" y1="0.787" x2="0.965" y2="0.787" width="0.1016" layer="51"/>
<wire x1="-0.965" y1="-0.787" x2="0.965" y2="-0.787" width="0.1016" layer="51"/>
<rectangle x1="-1.7018" y1="-0.8509" x2="-0.9517" y2="0.8491" layer="51"/>
<rectangle x1="0.9517" y1="-0.8491" x2="1.7018" y2="0.8509" layer="51"/>
<rectangle x1="-0.3" y1="-0.5001" x2="0.3" y2="0.5001" layer="35"/>
<smd name="1" x="-1.4" y="0" dx="1.6" dy="1.8" layer="1"/>
<smd name="2" x="1.4" y="0" dx="1.6" dy="1.8" layer="1"/>
<text x="-1.27" y="1.27" size="1.27" layer="25">&gt;NAME</text>
<text x="-1.27" y="-2.54" size="1.27" layer="27">&gt;VALUE</text>
</package>
<package name="C3225" urn="urn:adsk.eagle:footprint:13210/1" library_version="1">
<description>&lt;b&gt;CAPACITOR&lt;/b&gt;</description>
<wire x1="-2.473" y1="1.483" x2="2.473" y2="1.483" width="0.0508" layer="39"/>
<wire x1="2.473" y1="-1.483" x2="-2.473" y2="-1.483" width="0.0508" layer="39"/>
<wire x1="-2.473" y1="-1.483" x2="-2.473" y2="1.483" width="0.0508" layer="39"/>
<wire x1="-0.9652" y1="1.2446" x2="0.9652" y2="1.2446" width="0.1016" layer="51"/>
<wire x1="-0.9652" y1="-1.2446" x2="0.9652" y2="-1.2446" width="0.1016" layer="51"/>
<wire x1="2.473" y1="1.483" x2="2.473" y2="-1.483" width="0.0508" layer="39"/>
<rectangle x1="-1.7018" y1="-1.2954" x2="-0.9517" y2="1.3045" layer="51"/>
<rectangle x1="0.9517" y1="-1.3045" x2="1.7018" y2="1.2954" layer="51"/>
<rectangle x1="-0.1999" y1="-0.5001" x2="0.1999" y2="0.5001" layer="35"/>
<smd name="1" x="-1.4" y="0" dx="1.6" dy="2.7" layer="1"/>
<smd name="2" x="1.4" y="0" dx="1.6" dy="2.7" layer="1"/>
<text x="-1.905" y="1.905" size="1.27" layer="25">&gt;NAME</text>
<text x="-1.905" y="-3.175" size="1.27" layer="27">&gt;VALUE</text>
</package>
<package name="C3640" urn="urn:adsk.eagle:footprint:13211/1" library_version="1">
<description>&lt;b&gt;CAPACITOR&lt;/b&gt;&lt;p&gt;
Source: AVX .. aphvc.pdf</description>
<wire x1="-3.8322" y1="5.0496" x2="3.8322" y2="5.0496" width="0.1016" layer="51"/>
<wire x1="-3.8322" y1="-5.0496" x2="3.8322" y2="-5.0496" width="0.1016" layer="51"/>
<rectangle x1="-4.57" y1="-5.1" x2="-3.05" y2="5.1" layer="51"/>
<rectangle x1="3.05" y1="-5.1" x2="4.5688" y2="5.1" layer="51"/>
<smd name="1" x="-4.267" y="0" dx="2.6" dy="10.7" layer="1"/>
<smd name="2" x="4.267" y="0" dx="2.6" dy="10.7" layer="1"/>
<text x="-4.647" y="6.465" size="1.27" layer="25">&gt;NAME</text>
<text x="-4.647" y="-7.255" size="1.27" layer="27">&gt;VALUE</text>
</package>
<package name="C4532" urn="urn:adsk.eagle:footprint:13212/1" library_version="1">
<description>&lt;b&gt;CAPACITOR&lt;/b&gt;</description>
<wire x1="-2.973" y1="1.983" x2="2.973" y2="1.983" width="0.0508" layer="39"/>
<wire x1="2.973" y1="-1.983" x2="-2.973" y2="-1.983" width="0.0508" layer="39"/>
<wire x1="-2.973" y1="-1.983" x2="-2.973" y2="1.983" width="0.0508" layer="39"/>
<wire x1="-1.4732" y1="1.6002" x2="1.4732" y2="1.6002" width="0.1016" layer="51"/>
<wire x1="-1.4478" y1="-1.6002" x2="1.4732" y2="-1.6002" width="0.1016" layer="51"/>
<wire x1="2.973" y1="1.983" x2="2.973" y2="-1.983" width="0.0508" layer="39"/>
<rectangle x1="-2.3876" y1="-1.651" x2="-1.4376" y2="1.649" layer="51"/>
<rectangle x1="1.4478" y1="-1.651" x2="2.3978" y2="1.649" layer="51"/>
<rectangle x1="-0.4001" y1="-0.7" x2="0.4001" y2="0.7" layer="35"/>
<smd name="1" x="-1.95" y="0" dx="1.9" dy="3.4" layer="1"/>
<smd name="2" x="1.95" y="0" dx="1.9" dy="3.4" layer="1"/>
<text x="-1.905" y="2.54" size="1.27" layer="25">&gt;NAME</text>
<text x="-1.905" y="-3.81" size="1.27" layer="27">&gt;VALUE</text>
</package>
<package name="C4564" urn="urn:adsk.eagle:footprint:13213/1" library_version="1">
<description>&lt;b&gt;CAPACITOR&lt;/b&gt;</description>
<wire x1="-2.973" y1="3.483" x2="2.973" y2="3.483" width="0.0508" layer="39"/>
<wire x1="2.973" y1="-3.483" x2="-2.973" y2="-3.483" width="0.0508" layer="39"/>
<wire x1="-2.973" y1="-3.483" x2="-2.973" y2="3.483" width="0.0508" layer="39"/>
<wire x1="-1.4986" y1="3.2766" x2="1.4732" y2="3.2766" width="0.1016" layer="51"/>
<wire x1="-1.4732" y1="-3.2766" x2="1.4986" y2="-3.2766" width="0.1016" layer="51"/>
<wire x1="2.973" y1="3.483" x2="2.973" y2="-3.483" width="0.0508" layer="39"/>
<rectangle x1="-2.413" y1="-3.3528" x2="-1.463" y2="3.3472" layer="51"/>
<rectangle x1="1.4478" y1="-3.3528" x2="2.3978" y2="3.3472" layer="51"/>
<rectangle x1="-0.5001" y1="-1" x2="0.5001" y2="1" layer="35"/>
<smd name="1" x="-1.95" y="0" dx="1.9" dy="6.8" layer="1"/>
<smd name="2" x="1.95" y="0" dx="1.9" dy="6.8" layer="1"/>
<text x="-1.905" y="3.81" size="1.27" layer="25">&gt;NAME</text>
<text x="-1.905" y="-5.08" size="1.27" layer="27">&gt;VALUE</text>
</package>
</packages>
<packages3d>
<package3d name="0204/7" urn="urn:adsk.eagle:package:13274/1" type="box" library_version="1">
<description>RESISTOR
type 0204, grid 7.5 mm</description>
</package3d>
<package3d name="0207/10" urn="urn:adsk.eagle:package:13275/1" type="box" library_version="1">
<description>RESISTOR
type 0207, grid 10 mm</description>
</package3d>
<package3d name="R0201" urn="urn:adsk.eagle:package:13294/1" type="box" library_version="1">
<description>RESISTOR chip
Source: http://www.vishay.com/docs/20008/dcrcw.pdf</description>
</package3d>
<package3d name="R0402" urn="urn:adsk.eagle:package:13296/1" type="box" library_version="1">
<description>RESISTOR</description>
</package3d>
<package3d name="R0603" urn="urn:adsk.eagle:package:13302/1" type="box" library_version="1">
<description>RESISTOR</description>
</package3d>
<package3d name="R0805" urn="urn:adsk.eagle:package:13300/1" type="box" library_version="1">
<description>RESISTOR</description>
</package3d>
<package3d name="R1005" urn="urn:adsk.eagle:package:13297/1" type="box" library_version="1">
<description>RESISTOR</description>
</package3d>
<package3d name="R1206" urn="urn:adsk.eagle:package:13301/1" type="box" library_version="1">
<description>RESISTOR</description>
</package3d>
<package3d name="R1210" urn="urn:adsk.eagle:package:13299/1" type="box" library_version="1">
<description>RESISTOR</description>
</package3d>
<package3d name="R1218" urn="urn:adsk.eagle:package:13303/1" type="box" library_version="1">
<description>CRCW1218 Thick Film, Rectangular Chip Resistors
Source: http://www.vishay.com .. dcrcw.pdf</description>
</package3d>
<package3d name="R2010" urn="urn:adsk.eagle:package:13309/1" type="box" library_version="1">
<description>RESISTOR</description>
</package3d>
<package3d name="R2012" urn="urn:adsk.eagle:package:13306/1" type="box" library_version="1">
<description>RESISTOR</description>
</package3d>
<package3d name="R2512" urn="urn:adsk.eagle:package:13304/1" type="box" library_version="1">
<description>RESISTOR</description>
</package3d>
<package3d name="R3216" urn="urn:adsk.eagle:package:13305/1" type="box" library_version="1">
<description>RESISTOR</description>
</package3d>
<package3d name="R3225" urn="urn:adsk.eagle:package:13311/1" type="box" library_version="1">
<description>RESISTOR</description>
</package3d>
<package3d name="R4527" urn="urn:adsk.eagle:package:13310/1" type="box" library_version="1">
<description>Package 4527
Source: http://www.vishay.com/docs/31059/wsrhigh.pdf</description>
</package3d>
<package3d name="R5025" urn="urn:adsk.eagle:package:13308/1" type="box" library_version="1">
<description>RESISTOR</description>
</package3d>
<package3d name="R6332" urn="urn:adsk.eagle:package:13307/1" type="box" library_version="1">
<description>RESISTOR
Source: http://download.siliconexpert.com/pdfs/2005/02/24/Semi_Ap/2/VSH/Resistor/dcrcwfre.pdf</description>
</package3d>
<package3d name="C0201" urn="urn:adsk.eagle:package:13260/1" type="box" library_version="1">
<description>Source: http://www.avxcorp.com/docs/catalogs/cx5r.pdf</description>
</package3d>
<package3d name="C0402" urn="urn:adsk.eagle:package:13264/1" type="box" library_version="1">
<description>CAPACITOR</description>
</package3d>
<package3d name="C0504" urn="urn:adsk.eagle:package:13261/1" type="box" library_version="1">
<description>CAPACITOR</description>
</package3d>
<package3d name="C0603" urn="urn:adsk.eagle:package:13262/1" type="box" library_version="1">
<description>CAPACITOR</description>
</package3d>
<package3d name="C0805" urn="urn:adsk.eagle:package:13265/1" type="box" library_version="1">
<description>CAPACITOR</description>
</package3d>
<package3d name="C1005" urn="urn:adsk.eagle:package:13270/1" type="box" library_version="1">
<description>CAPACITOR</description>
</package3d>
<package3d name="C1206" urn="urn:adsk.eagle:package:13279/1" type="box" library_version="1">
<description>CAPACITOR</description>
</package3d>
<package3d name="C1210" urn="urn:adsk.eagle:package:13278/1" type="box" library_version="1">
<description>CAPACITOR</description>
</package3d>
<package3d name="C1310" urn="urn:adsk.eagle:package:13271/1" type="box" library_version="1">
<description>CAPACITOR</description>
</package3d>
<package3d name="C1608" urn="urn:adsk.eagle:package:13263/1" type="box" library_version="1">
<description>CAPACITOR</description>
</package3d>
<package3d name="C1808" urn="urn:adsk.eagle:package:13266/1" type="box" library_version="1">
<description>CAPACITOR
Source: AVX .. aphvc.pdf</description>
</package3d>
<package3d name="C1812" urn="urn:adsk.eagle:package:13267/1" type="box" library_version="1">
<description>CAPACITOR</description>
</package3d>
<package3d name="C1825" urn="urn:adsk.eagle:package:13268/1" type="box" library_version="1">
<description>CAPACITOR</description>
</package3d>
<package3d name="C2012" urn="urn:adsk.eagle:package:13273/1" type="box" library_version="1">
<description>CAPACITOR</description>
</package3d>
<package3d name="C3216" urn="urn:adsk.eagle:package:13287/1" type="box" library_version="1">
<description>CAPACITOR</description>
</package3d>
<package3d name="C3225" urn="urn:adsk.eagle:package:13292/1" type="box" library_version="1">
<description>CAPACITOR</description>
</package3d>
<package3d name="C3640" urn="urn:adsk.eagle:package:13269/1" type="box" library_version="1">
<description>CAPACITOR
Source: AVX .. aphvc.pdf</description>
</package3d>
<package3d name="C4532" urn="urn:adsk.eagle:package:13281/1" type="box" library_version="1">
<description>CAPACITOR</description>
</package3d>
<package3d name="C4564" urn="urn:adsk.eagle:package:13272/1" type="box" library_version="1">
<description>CAPACITOR</description>
</package3d>
</packages3d>
<symbols>
<symbol name="R" urn="urn:adsk.eagle:symbol:13232/1" library_version="1">
<wire x1="-2.54" y1="-0.889" x2="2.54" y2="-0.889" width="0.254" layer="94"/>
<wire x1="2.54" y1="0.889" x2="-2.54" y2="0.889" width="0.254" layer="94"/>
<wire x1="2.54" y1="-0.889" x2="2.54" y2="0.889" width="0.254" layer="94"/>
<wire x1="-2.54" y1="-0.889" x2="-2.54" y2="0.889" width="0.254" layer="94"/>
<pin name="1" x="-5.08" y="0" visible="off" length="short" direction="pas" swaplevel="1"/>
<pin name="2" x="5.08" y="0" visible="off" length="short" direction="pas" swaplevel="1" rot="R180"/>
<text x="-3.81" y="1.4986" size="1.778" layer="95">&gt;NAME</text>
<text x="-3.81" y="-3.302" size="1.778" layer="96">&gt;VALUE</text>
<text x="-5.08" y="0" size="0.4064" layer="99" align="center">SpiceOrder 1</text>
<text x="5.08" y="0" size="0.4064" layer="99" align="center">SpiceOrder 2</text>
</symbol>
<symbol name="C" urn="urn:adsk.eagle:symbol:13194/1" library_version="1">
<rectangle x1="-2.032" y1="-2.032" x2="2.032" y2="-1.524" layer="94"/>
<rectangle x1="-2.032" y1="-1.016" x2="2.032" y2="-0.508" layer="94"/>
<wire x1="0" y1="0" x2="0" y2="-0.508" width="0.1524" layer="94"/>
<wire x1="0" y1="-2.54" x2="0" y2="-2.032" width="0.1524" layer="94"/>
<pin name="1" x="0" y="2.54" visible="off" length="short" direction="pas" swaplevel="1" rot="R270"/>
<pin name="2" x="0" y="-5.08" visible="off" length="short" direction="pas" swaplevel="1" rot="R90"/>
<text x="1.524" y="0.381" size="1.778" layer="95">&gt;NAME</text>
<text x="1.524" y="-4.699" size="1.778" layer="96">&gt;VALUE</text>
<text x="0" y="2.54" size="0.4064" layer="99" align="center">SpiceOrder 1</text>
<text x="0" y="-5.08" size="0.4064" layer="99" align="center">SpiceOrder 2</text>
</symbol>
</symbols>
<devicesets>
<deviceset name="R" urn="urn:adsk.eagle:component:13322/1" prefix="R" uservalue="yes" library_version="1">
<description>&lt;B&gt;RESISTOR&lt;/B&gt;, European symbol</description>
<gates>
<gate name="G$1" symbol="R" x="0" y="0"/>
</gates>
<devices>
<device name="0204/7" package="0204/7">
<connects>
<connect gate="G$1" pin="1" pad="1"/>
<connect gate="G$1" pin="2" pad="2"/>
</connects>
<package3dinstances>
<package3dinstance package3d_urn="urn:adsk.eagle:package:13274/1"/>
</package3dinstances>
<technologies>
<technology name="">
<attribute name="SPICEMODEL" value="NONE" constant="no"/>
<attribute name="SPICEPREFIX" value="R" constant="no"/>
</technology>
</technologies>
</device>
<device name="0207/10" package="0207/10">
<connects>
<connect gate="G$1" pin="1" pad="1"/>
<connect gate="G$1" pin="2" pad="2"/>
</connects>
<package3dinstances>
<package3dinstance package3d_urn="urn:adsk.eagle:package:13275/1"/>
</package3dinstances>
<technologies>
<technology name="">
<attribute name="SPICEMODEL" value="NONE" constant="no"/>
<attribute name="SPICEPREFIX" value="R" constant="no"/>
</technology>
</technologies>
</device>
<device name="R0201" package="R0201">
<connects>
<connect gate="G$1" pin="1" pad="1"/>
<connect gate="G$1" pin="2" pad="2"/>
</connects>
<package3dinstances>
<package3dinstance package3d_urn="urn:adsk.eagle:package:13294/1"/>
</package3dinstances>
<technologies>
<technology name="">
<attribute name="SPICEMODEL" value="NONE" constant="no"/>
<attribute name="SPICEPREFIX" value="R" constant="no"/>
</technology>
</technologies>
</device>
<device name="R0402" package="R0402">
<connects>
<connect gate="G$1" pin="1" pad="1"/>
<connect gate="G$1" pin="2" pad="2"/>
</connects>
<package3dinstances>
<package3dinstance package3d_urn="urn:adsk.eagle:package:13296/1"/>
</package3dinstances>
<technologies>
<technology name="">
<attribute name="SPICEMODEL" value="NONE" constant="no"/>
<attribute name="SPICEPREFIX" value="R" constant="no"/>
</technology>
</technologies>
</device>
<device name="R0603" package="R0603">
<connects>
<connect gate="G$1" pin="1" pad="1"/>
<connect gate="G$1" pin="2" pad="2"/>
</connects>
<package3dinstances>
<package3dinstance package3d_urn="urn:adsk.eagle:package:13302/1"/>
</package3dinstances>
<technologies>
<technology name="">
<attribute name="SPICEMODEL" value="NONE" constant="no"/>
<attribute name="SPICEPREFIX" value="R" constant="no"/>
</technology>
</technologies>
</device>
<device name="" package="R0805">
<connects>
<connect gate="G$1" pin="1" pad="1"/>
<connect gate="G$1" pin="2" pad="2"/>
</connects>
<package3dinstances>
<package3dinstance package3d_urn="urn:adsk.eagle:package:13300/1"/>
</package3dinstances>
<technologies>
<technology name="">
<attribute name="SPICEMODEL" value="NONE" constant="no"/>
<attribute name="SPICEPREFIX" value="R" constant="no"/>
</technology>
</technologies>
</device>
<device name="R1005" package="R1005">
<connects>
<connect gate="G$1" pin="1" pad="1"/>
<connect gate="G$1" pin="2" pad="2"/>
</connects>
<package3dinstances>
<package3dinstance package3d_urn="urn:adsk.eagle:package:13297/1"/>
</package3dinstances>
<technologies>
<technology name="">
<attribute name="SPICEMODEL" value="NONE" constant="no"/>
<attribute name="SPICEPREFIX" value="R" constant="no"/>
</technology>
</technologies>
</device>
<device name="R1206" package="R1206">
<connects>
<connect gate="G$1" pin="1" pad="1"/>
<connect gate="G$1" pin="2" pad="2"/>
</connects>
<package3dinstances>
<package3dinstance package3d_urn="urn:adsk.eagle:package:13301/1"/>
</package3dinstances>
<technologies>
<technology name="">
<attribute name="SPICEMODEL" value="NONE" constant="no"/>
<attribute name="SPICEPREFIX" value="R" constant="no"/>
</technology>
</technologies>
</device>
<device name="R1210" package="R1210">
<connects>
<connect gate="G$1" pin="1" pad="1"/>
<connect gate="G$1" pin="2" pad="2"/>
</connects>
<package3dinstances>
<package3dinstance package3d_urn="urn:adsk.eagle:package:13299/1"/>
</package3dinstances>
<technologies>
<technology name="">
<attribute name="SPICEMODEL" value="NONE" constant="no"/>
<attribute name="SPICEPREFIX" value="R" constant="no"/>
</technology>
</technologies>
</device>
<device name="R1218" package="R1218">
<connects>
<connect gate="G$1" pin="1" pad="1"/>
<connect gate="G$1" pin="2" pad="2"/>
</connects>
<package3dinstances>
<package3dinstance package3d_urn="urn:adsk.eagle:package:13303/1"/>
</package3dinstances>
<technologies>
<technology name="">
<attribute name="SPICEMODEL" value="NONE" constant="no"/>
<attribute name="SPICEPREFIX" value="R" constant="no"/>
</technology>
</technologies>
</device>
<device name="R2010" package="R2010">
<connects>
<connect gate="G$1" pin="1" pad="1"/>
<connect gate="G$1" pin="2" pad="2"/>
</connects>
<package3dinstances>
<package3dinstance package3d_urn="urn:adsk.eagle:package:13309/1"/>
</package3dinstances>
<technologies>
<technology name="">
<attribute name="SPICEMODEL" value="NONE" constant="no"/>
<attribute name="SPICEPREFIX" value="R" constant="no"/>
</technology>
</technologies>
</device>
<device name="R2012" package="R2012">
<connects>
<connect gate="G$1" pin="1" pad="1"/>
<connect gate="G$1" pin="2" pad="2"/>
</connects>
<package3dinstances>
<package3dinstance package3d_urn="urn:adsk.eagle:package:13306/1"/>
</package3dinstances>
<technologies>
<technology name="">
<attribute name="SPICEMODEL" value="NONE" constant="no"/>
<attribute name="SPICEPREFIX" value="R" constant="no"/>
</technology>
</technologies>
</device>
<device name="R2512" package="R2512">
<connects>
<connect gate="G$1" pin="1" pad="1"/>
<connect gate="G$1" pin="2" pad="2"/>
</connects>
<package3dinstances>
<package3dinstance package3d_urn="urn:adsk.eagle:package:13304/1"/>
</package3dinstances>
<technologies>
<technology name="">
<attribute name="SPICEMODEL" value="NONE" constant="no"/>
<attribute name="SPICEPREFIX" value="R" constant="no"/>
</technology>
</technologies>
</device>
<device name="R3216" package="R3216">
<connects>
<connect gate="G$1" pin="1" pad="1"/>
<connect gate="G$1" pin="2" pad="2"/>
</connects>
<package3dinstances>
<package3dinstance package3d_urn="urn:adsk.eagle:package:13305/1"/>
</package3dinstances>
<technologies>
<technology name="">
<attribute name="SPICEMODEL" value="NONE" constant="no"/>
<attribute name="SPICEPREFIX" value="R" constant="no"/>
</technology>
</technologies>
</device>
<device name="R3225" package="R3225">
<connects>
<connect gate="G$1" pin="1" pad="1"/>
<connect gate="G$1" pin="2" pad="2"/>
</connects>
<package3dinstances>
<package3dinstance package3d_urn="urn:adsk.eagle:package:13311/1"/>
</package3dinstances>
<technologies>
<technology name="">
<attribute name="SPICEMODEL" value="NONE" constant="no"/>
<attribute name="SPICEPREFIX" value="R" constant="no"/>
</technology>
</technologies>
</device>
<device name="R4527" package="R4527">
<connects>
<connect gate="G$1" pin="1" pad="1"/>
<connect gate="G$1" pin="2" pad="2"/>
</connects>
<package3dinstances>
<package3dinstance package3d_urn="urn:adsk.eagle:package:13310/1"/>
</package3dinstances>
<technologies>
<technology name="">
<attribute name="SPICEMODEL" value="NONE" constant="no"/>
<attribute name="SPICEPREFIX" value="R" constant="no"/>
</technology>
</technologies>
</device>
<device name="R5025" package="R5025">
<connects>
<connect gate="G$1" pin="1" pad="1"/>
<connect gate="G$1" pin="2" pad="2"/>
</connects>
<package3dinstances>
<package3dinstance package3d_urn="urn:adsk.eagle:package:13308/1"/>
</package3dinstances>
<technologies>
<technology name="">
<attribute name="SPICEMODEL" value="NONE" constant="no"/>
<attribute name="SPICEPREFIX" value="R" constant="no"/>
</technology>
</technologies>
</device>
<device name="R6332" package="R6332">
<connects>
<connect gate="G$1" pin="1" pad="1"/>
<connect gate="G$1" pin="2" pad="2"/>
</connects>
<package3dinstances>
<package3dinstance package3d_urn="urn:adsk.eagle:package:13307/1"/>
</package3dinstances>
<technologies>
<technology name="">
<attribute name="SPICEMODEL" value="NONE" constant="no"/>
<attribute name="SPICEPREFIX" value="R" constant="no"/>
</technology>
</technologies>
</device>
</devices>
</deviceset>
<deviceset name="C" urn="urn:adsk.eagle:component:13320/1" prefix="C" uservalue="yes" library_version="1">
<description>&lt;B&gt;CAPACITOR&lt;/B&gt;, European symbol</description>
<gates>
<gate name="G$1" symbol="C" x="0" y="0"/>
</gates>
<devices>
<device name="C0201" package="C0201">
<connects>
<connect gate="G$1" pin="1" pad="1"/>
<connect gate="G$1" pin="2" pad="2"/>
</connects>
<package3dinstances>
<package3dinstance package3d_urn="urn:adsk.eagle:package:13260/1"/>
</package3dinstances>
<technologies>
<technology name="">
<attribute name="SPICEMODEL" value="NONE" constant="no"/>
<attribute name="SPICEPREFIX" value="C" constant="no"/>
</technology>
</technologies>
</device>
<device name="C0402" package="C0402">
<connects>
<connect gate="G$1" pin="1" pad="1"/>
<connect gate="G$1" pin="2" pad="2"/>
</connects>
<package3dinstances>
<package3dinstance package3d_urn="urn:adsk.eagle:package:13264/1"/>
</package3dinstances>
<technologies>
<technology name="">
<attribute name="SPICEMODEL" value="NONE" constant="no"/>
<attribute name="SPICEPREFIX" value="C" constant="no"/>
</technology>
</technologies>
</device>
<device name="C0504" package="C0504">
<connects>
<connect gate="G$1" pin="1" pad="1"/>
<connect gate="G$1" pin="2" pad="2"/>
</connects>
<package3dinstances>
<package3dinstance package3d_urn="urn:adsk.eagle:package:13261/1"/>
</package3dinstances>
<technologies>
<technology name="">
<attribute name="SPICEMODEL" value="NONE" constant="no"/>
<attribute name="SPICEPREFIX" value="C" constant="no"/>
</technology>
</technologies>
</device>
<device name="C0603" package="C0603">
<connects>
<connect gate="G$1" pin="1" pad="1"/>
<connect gate="G$1" pin="2" pad="2"/>
</connects>
<package3dinstances>
<package3dinstance package3d_urn="urn:adsk.eagle:package:13262/1"/>
</package3dinstances>
<technologies>
<technology name="">
<attribute name="SPICEMODEL" value="NONE" constant="no"/>
<attribute name="SPICEPREFIX" value="C" constant="no"/>
</technology>
</technologies>
</device>
<device name="" package="C0805">
<connects>
<connect gate="G$1" pin="1" pad="1"/>
<connect gate="G$1" pin="2" pad="2"/>
</connects>
<package3dinstances>
<package3dinstance package3d_urn="urn:adsk.eagle:package:13265/1"/>
</package3dinstances>
<technologies>
<technology name="">
<attribute name="SPICEMODEL" value="NONE"/>
<attribute name="SPICEPREFIX" value="C" constant="no"/>
</technology>
</technologies>
</device>
<device name="C1005" package="C1005">
<connects>
<connect gate="G$1" pin="1" pad="1"/>
<connect gate="G$1" pin="2" pad="2"/>
</connects>
<package3dinstances>
<package3dinstance package3d_urn="urn:adsk.eagle:package:13270/1"/>
</package3dinstances>
<technologies>
<technology name="">
<attribute name="SPICEMODEL" value="NONE" constant="no"/>
<attribute name="SPICEPREFIX" value="C" constant="no"/>
</technology>
</technologies>
</device>
<device name="C1206" package="C1206">
<connects>
<connect gate="G$1" pin="1" pad="1"/>
<connect gate="G$1" pin="2" pad="2"/>
</connects>
<package3dinstances>
<package3dinstance package3d_urn="urn:adsk.eagle:package:13279/1"/>
</package3dinstances>
<technologies>
<technology name="">
<attribute name="SPICEMODEL" value="NONE" constant="no"/>
<attribute name="SPICEPREFIX" value="C" constant="no"/>
</technology>
</technologies>
</device>
<device name="C1210" package="C1210">
<connects>
<connect gate="G$1" pin="1" pad="1"/>
<connect gate="G$1" pin="2" pad="2"/>
</connects>
<package3dinstances>
<package3dinstance package3d_urn="urn:adsk.eagle:package:13278/1"/>
</package3dinstances>
<technologies>
<technology name="">
<attribute name="SPICEMODEL" value="NONE" constant="no"/>
<attribute name="SPICEPREFIX" value="C" constant="no"/>
</technology>
</technologies>
</device>
<device name="C1310" package="C1310">
<connects>
<connect gate="G$1" pin="1" pad="1"/>
<connect gate="G$1" pin="2" pad="2"/>
</connects>
<package3dinstances>
<package3dinstance package3d_urn="urn:adsk.eagle:package:13271/1"/>
</package3dinstances>
<technologies>
<technology name="">
<attribute name="SPICEMODEL" value="NONE" constant="no"/>
<attribute name="SPICEPREFIX" value="C" constant="no"/>
</technology>
</technologies>
</device>
<device name="C1608" package="C1608">
<connects>
<connect gate="G$1" pin="1" pad="1"/>
<connect gate="G$1" pin="2" pad="2"/>
</connects>
<package3dinstances>
<package3dinstance package3d_urn="urn:adsk.eagle:package:13263/1"/>
</package3dinstances>
<technologies>
<technology name="">
<attribute name="SPICEMODEL" value="NONE" constant="no"/>
<attribute name="SPICEPREFIX" value="C" constant="no"/>
</technology>
</technologies>
</device>
<device name="C1808" package="C1808">
<connects>
<connect gate="G$1" pin="1" pad="1"/>
<connect gate="G$1" pin="2" pad="2"/>
</connects>
<package3dinstances>
<package3dinstance package3d_urn="urn:adsk.eagle:package:13266/1"/>
</package3dinstances>
<technologies>
<technology name="">
<attribute name="SPICEMODEL" value="NONE" constant="no"/>
<attribute name="SPICEPREFIX" value="C" constant="no"/>
</technology>
</technologies>
</device>
<device name="C1812" package="C1812">
<connects>
<connect gate="G$1" pin="1" pad="1"/>
<connect gate="G$1" pin="2" pad="2"/>
</connects>
<package3dinstances>
<package3dinstance package3d_urn="urn:adsk.eagle:package:13267/1"/>
</package3dinstances>
<technologies>
<technology name="">
<attribute name="SPICEMODEL" value="NONE" constant="no"/>
<attribute name="SPICEPREFIX" value="C" constant="no"/>
</technology>
</technologies>
</device>
<device name="C1825" package="C1825">
<connects>
<connect gate="G$1" pin="1" pad="1"/>
<connect gate="G$1" pin="2" pad="2"/>
</connects>
<package3dinstances>
<package3dinstance package3d_urn="urn:adsk.eagle:package:13268/1"/>
</package3dinstances>
<technologies>
<technology name="">
<attribute name="SPICEMODEL" value="NONE" constant="no"/>
<attribute name="SPICEPREFIX" value="C" constant="no"/>
</technology>
</technologies>
</device>
<device name="C2012" package="C2012">
<connects>
<connect gate="G$1" pin="1" pad="1"/>
<connect gate="G$1" pin="2" pad="2"/>
</connects>
<package3dinstances>
<package3dinstance package3d_urn="urn:adsk.eagle:package:13273/1"/>
</package3dinstances>
<technologies>
<technology name="">
<attribute name="SPICEMODEL" value="NONE" constant="no"/>
<attribute name="SPICEPREFIX" value="C" constant="no"/>
</technology>
</technologies>
</device>
<device name="C3216" package="C3216">
<connects>
<connect gate="G$1" pin="1" pad="1"/>
<connect gate="G$1" pin="2" pad="2"/>
</connects>
<package3dinstances>
<package3dinstance package3d_urn="urn:adsk.eagle:package:13287/1"/>
</package3dinstances>
<technologies>
<technology name="">
<attribute name="SPICEMODEL" value="NONE" constant="no"/>
<attribute name="SPICEPREFIX" value="C" constant="no"/>
</technology>
</technologies>
</device>
<device name="C3225" package="C3225">
<connects>
<connect gate="G$1" pin="1" pad="1"/>
<connect gate="G$1" pin="2" pad="2"/>
</connects>
<package3dinstances>
<package3dinstance package3d_urn="urn:adsk.eagle:package:13292/1"/>
</package3dinstances>
<technologies>
<technology name="">
<attribute name="SPICEMODEL" value="NONE" constant="no"/>
<attribute name="SPICEPREFIX" value="C" constant="no"/>
</technology>
</technologies>
</device>
<device name="C3640" package="C3640">
<connects>
<connect gate="G$1" pin="1" pad="1"/>
<connect gate="G$1" pin="2" pad="2"/>
</connects>
<package3dinstances>
<package3dinstance package3d_urn="urn:adsk.eagle:package:13269/1"/>
</package3dinstances>
<technologies>
<technology name="">
<attribute name="SPICEMODEL" value="NONE" constant="no"/>
<attribute name="SPICEPREFIX" value="C" constant="no"/>
</technology>
</technologies>
</device>
<device name="C4532" package="C4532">
<connects>
<connect gate="G$1" pin="1" pad="1"/>
<connect gate="G$1" pin="2" pad="2"/>
</connects>
<package3dinstances>
<package3dinstance package3d_urn="urn:adsk.eagle:package:13281/1"/>
</package3dinstances>
<technologies>
<technology name="">
<attribute name="SPICEMODEL" value="NONE" constant="no"/>
<attribute name="SPICEPREFIX" value="C" constant="no"/>
</technology>
</technologies>
</device>
<device name="C4564" package="C4564">
<connects>
<connect gate="G$1" pin="1" pad="1"/>
<connect gate="G$1" pin="2" pad="2"/>
</connects>
<package3dinstances>
<package3dinstance package3d_urn="urn:adsk.eagle:package:13272/1"/>
</package3dinstances>
<technologies>
<technology name="">
<attribute name="SPICEMODEL" value="NONE" constant="no"/>
<attribute name="SPICEPREFIX" value="C" constant="no"/>
</technology>
</technologies>
</device>
</devices>
</deviceset>
</devicesets>
</library>
<library name="supply2" urn="urn:adsk.eagle:library:372">
<description>&lt;b&gt;Supply Symbols&lt;/b&gt;&lt;p&gt;
GND, VCC, 0V, +5V, -5V, etc.&lt;p&gt;
Please keep in mind, that these devices are necessary for the
automatic wiring of the supply signals.&lt;p&gt;
The pin name defined in the symbol is identical to the net which is to be wired automatically.&lt;p&gt;
In this library the device names are the same as the pin names of the symbols, therefore the correct signal names appear next to the supply symbols in the schematic.&lt;p&gt;
&lt;author&gt;Created by librarian@cadsoft.de&lt;/author&gt;</description>
<packages>
</packages>
<symbols>
<symbol name="GND" urn="urn:adsk.eagle:symbol:26990/1" library_version="2">
<wire x1="-1.27" y1="0" x2="1.27" y2="0" width="0.254" layer="94"/>
<wire x1="1.27" y1="0" x2="0" y2="-1.27" width="0.254" layer="94"/>
<wire x1="0" y1="-1.27" x2="-1.27" y2="0" width="0.254" layer="94"/>
<text x="-1.905" y="-3.175" size="1.778" layer="96">&gt;VALUE</text>
<pin name="GND" x="0" y="2.54" visible="off" length="short" direction="sup" rot="R270"/>
</symbol>
</symbols>
<devicesets>
<deviceset name="GND" urn="urn:adsk.eagle:component:27037/1" prefix="SUPPLY" library_version="2">
<description>&lt;b&gt;SUPPLY SYMBOL&lt;/b&gt;</description>
<gates>
<gate name="GND" symbol="GND" x="0" y="0"/>
</gates>
<devices>
<device name="">
<technologies>
<technology name=""/>
</technologies>
</device>
</devices>
</deviceset>
</devicesets>
</library>
<library name="bss138_10">
<description>&lt;b&gt;Fairchild BSS138 Field Effect Transistor&lt;/b&gt;&lt;br&gt;
&lt;br&gt;
Version 1.0&lt;br&gt;
&amp;copy; 2015 Samuel Lourenço</description>
<packages>
<package name="SOT23">
<description>&lt;b&gt;SOT-23 Plastic Small Outline&lt;/b&gt;</description>
<wire x1="1.45" y1="0.65" x2="1.45" y2="-0.37" width="0.1524" layer="21"/>
<wire x1="1.45" y1="-0.37" x2="1.45" y2="-0.65" width="0.1524" layer="51"/>
<wire x1="-0.37" y1="-0.65" x2="0.37" y2="-0.65" width="0.1524" layer="21"/>
<wire x1="-1.45" y1="-0.65" x2="-1.45" y2="-0.37" width="0.1524" layer="51"/>
<wire x1="-1.45" y1="-0.37" x2="-1.45" y2="0.65" width="0.1524" layer="21"/>
<wire x1="-1.45" y1="0.65" x2="-0.58" y2="0.65" width="0.1524" layer="21"/>
<wire x1="0.58" y1="0.65" x2="1.45" y2="0.65" width="0.1524" layer="21"/>
<smd name="1" x="-0.95" y="-1" dx="0.8" dy="0.9" layer="1"/>
<smd name="2" x="0.95" y="-1" dx="0.8" dy="0.9" layer="1"/>
<smd name="3" x="0" y="1" dx="0.8" dy="0.9" layer="1"/>
<text x="-1.85" y="-0.6" size="1.27" layer="25" rot="R90">&gt;NAME</text>
<text x="3.15" y="-0.6" size="1.27" layer="27" rot="R90">&gt;VALUE</text>
<rectangle x1="-1.15" y1="-1.2" x2="-0.75" y2="-0.65" layer="51"/>
<rectangle x1="-0.2" y1="0.65" x2="0.2" y2="1.2" layer="51"/>
<rectangle x1="0.75" y1="-1.2" x2="1.15" y2="-0.65" layer="51"/>
<wire x1="-1.45" y1="-0.65" x2="-0.37" y2="-0.65" width="0.1524" layer="51"/>
<wire x1="0.37" y1="-0.65" x2="1.45" y2="-0.65" width="0.1524" layer="51"/>
<wire x1="-0.58" y1="0.65" x2="0.58" y2="0.65" width="0.1524" layer="51"/>
<rectangle x1="-0.6" y1="-0.4" x2="0.6" y2="0.4" layer="35"/>
</package>
</packages>
<symbols>
<symbol name="N-MOSFET">
<wire x1="0.762" y1="0.762" x2="0.762" y2="0" width="0.254" layer="94"/>
<wire x1="0.762" y1="0" x2="0.762" y2="-0.762" width="0.254" layer="94"/>
<wire x1="0.762" y1="3.175" x2="0.762" y2="2.54" width="0.254" layer="94"/>
<wire x1="0.762" y1="2.54" x2="0.762" y2="1.905" width="0.254" layer="94"/>
<wire x1="0.762" y1="0" x2="2.54" y2="0" width="0.1524" layer="94"/>
<wire x1="2.54" y1="0" x2="2.54" y2="-2.54" width="0.1524" layer="94"/>
<wire x1="0.762" y1="-1.905" x2="0.762" y2="-2.54" width="0.254" layer="94"/>
<wire x1="0.762" y1="-2.54" x2="0.762" y2="-3.175" width="0.254" layer="94"/>
<wire x1="0" y1="2.54" x2="0" y2="-2.54" width="0.254" layer="94"/>
<wire x1="2.54" y1="-2.54" x2="0.762" y2="-2.54" width="0.1524" layer="94"/>
<wire x1="3.81" y1="2.54" x2="3.81" y2="0.508" width="0.1524" layer="94"/>
<wire x1="3.81" y1="0.508" x2="3.81" y2="-2.54" width="0.1524" layer="94"/>
<wire x1="2.54" y1="-2.54" x2="3.81" y2="-2.54" width="0.1524" layer="94"/>
<wire x1="0.762" y1="2.54" x2="3.81" y2="2.54" width="0.1524" layer="94"/>
<wire x1="4.572" y1="0.762" x2="4.318" y2="0.508" width="0.1524" layer="94"/>
<wire x1="4.318" y1="0.508" x2="3.81" y2="0.508" width="0.1524" layer="94"/>
<wire x1="3.81" y1="0.508" x2="3.302" y2="0.508" width="0.1524" layer="94"/>
<wire x1="3.302" y1="0.508" x2="3.048" y2="0.254" width="0.1524" layer="94"/>
<circle x="2.54" y="-2.54" radius="0.3592" width="0" layer="94"/>
<circle x="2.54" y="2.54" radius="0.3592" width="0" layer="94"/>
<text x="-11.43" y="0" size="1.778" layer="96">&gt;VALUE</text>
<text x="-11.43" y="2.54" size="1.778" layer="95">&gt;NAME</text>
<pin name="S" x="2.54" y="-5.08" visible="off" length="short" direction="pas" rot="R90"/>
<pin name="G" x="-2.54" y="-2.54" visible="off" length="short" direction="pas"/>
<pin name="D" x="2.54" y="5.08" visible="off" length="short" direction="pas" rot="R270"/>
<polygon width="0.1524" layer="94">
<vertex x="3.81" y="0.508"/>
<vertex x="3.302" y="-0.254"/>
<vertex x="4.318" y="-0.254"/>
</polygon>
<polygon width="0.1524" layer="94">
<vertex x="1.016" y="0"/>
<vertex x="2.032" y="0.762"/>
<vertex x="2.032" y="-0.762"/>
</polygon>
</symbol>
</symbols>
<devicesets>
<deviceset name="BSS138" prefix="Q">
<description>&lt;b&gt;BSS138&lt;/b&gt; N-Channel Logic Level Enhancement Mode Field Effect Transistor&lt;br&gt;
&lt;br&gt;
Source: &lt;a href="http://www.fairchildsemi.com/datasheets/BS/BSS138.pdf"&gt;http://www.fairchildsemi.com/datasheets/BS/BSS138.pdf&lt;/a&gt;</description>
<gates>
<gate name="G$1" symbol="N-MOSFET" x="0" y="0"/>
</gates>
<devices>
<device name="" package="SOT23">
<connects>
<connect gate="G$1" pin="D" pad="3"/>
<connect gate="G$1" pin="G" pad="1"/>
<connect gate="G$1" pin="S" pad="2"/>
</connects>
<technologies>
<technology name="">
<attribute name="MF" value="Fairchild" constant="no"/>
<attribute name="MPN" value="BSS138" constant="no"/>
<attribute name="OC_FARNELL" value="9845330" constant="no"/>
<attribute name="OC_NEWARK" value="67R2009" constant="no"/>
</technology>
</technologies>
</device>
</devices>
</deviceset>
</devicesets>
</library>
<library name="diode" urn="urn:adsk.eagle:library:210">
<description>&lt;b&gt;Diodes&lt;/b&gt;&lt;p&gt;
Based on the following sources:
&lt;ul&gt;
&lt;li&gt;Motorola : www.onsemi.com
&lt;li&gt;Fairchild : www.fairchildsemi.com
&lt;li&gt;Philips : www.semiconductors.com
&lt;li&gt;Vishay : www.vishay.de
&lt;/ul&gt;
&lt;author&gt;Created by librarian@cadsoft.de&lt;/author&gt;</description>
<packages>
<package name="DO35-10" urn="urn:adsk.eagle:footprint:43092/1" library_version="2">
<description>&lt;B&gt;DIODE&lt;/B&gt;&lt;p&gt;
diameter 2 mm, horizontal, grid 10.16 mm</description>
<wire x1="5.08" y1="0" x2="4.191" y2="0" width="0.508" layer="51"/>
<wire x1="-5.08" y1="0" x2="-4.191" y2="0" width="0.508" layer="51"/>
<wire x1="-0.635" y1="0" x2="0" y2="0" width="0.1524" layer="21"/>
<wire x1="1.016" y1="0.635" x2="1.016" y2="-0.635" width="0.1524" layer="21"/>
<wire x1="1.016" y1="-0.635" x2="0" y2="0" width="0.1524" layer="21"/>
<wire x1="0" y1="0" x2="1.524" y2="0" width="0.1524" layer="21"/>
<wire x1="0" y1="0" x2="1.016" y2="0.635" width="0.1524" layer="21"/>
<wire x1="0" y1="0.635" x2="0" y2="0" width="0.1524" layer="21"/>
<wire x1="0" y1="0" x2="0" y2="-0.635" width="0.1524" layer="21"/>
<wire x1="2.032" y1="1.016" x2="2.286" y2="0.762" width="0.1524" layer="21" curve="-90"/>
<wire x1="-2.286" y1="0.762" x2="-2.032" y2="1.016" width="0.1524" layer="21" curve="-90"/>
<wire x1="-2.286" y1="-0.762" x2="-2.032" y2="-1.016" width="0.1524" layer="21" curve="90"/>
<wire x1="2.032" y1="-1.016" x2="2.286" y2="-0.762" width="0.1524" layer="21" curve="90"/>
<wire x1="2.286" y1="-0.762" x2="2.286" y2="0.762" width="0.1524" layer="21"/>
<wire x1="-2.286" y1="0.762" x2="-2.286" y2="-0.762" width="0.1524" layer="21"/>
<wire x1="-2.032" y1="1.016" x2="2.032" y2="1.016" width="0.1524" layer="21"/>
<wire x1="-2.032" y1="-1.016" x2="2.032" y2="-1.016" width="0.1524" layer="21"/>
<pad name="C" x="-5.08" y="0" drill="0.8128" shape="long"/>
<pad name="A" x="5.08" y="0" drill="0.8128" shape="long"/>
<text x="-2.159" y="1.27" size="1.27" layer="25" ratio="10">&gt;NAME</text>
<text x="-2.159" y="-2.667" size="1.27" layer="27" ratio="10">&gt;VALUE</text>
<rectangle x1="-1.905" y1="-1.016" x2="-1.397" y2="1.016" layer="21"/>
<rectangle x1="2.286" y1="-0.254" x2="4.191" y2="0.254" layer="21"/>
<rectangle x1="-4.191" y1="-0.254" x2="-2.286" y2="0.254" layer="21"/>
</package>
<package name="DO35-7" urn="urn:adsk.eagle:footprint:43093/1" library_version="2">
<description>&lt;B&gt;DIODE&lt;/B&gt;&lt;p&gt;
diameter 2 mm, horizontal, grid 7.62 mm</description>
<wire x1="3.81" y1="0" x2="2.921" y2="0" width="0.508" layer="51"/>
<wire x1="-3.81" y1="0" x2="-2.921" y2="0" width="0.508" layer="51"/>
<wire x1="-0.635" y1="0" x2="0" y2="0" width="0.1524" layer="21"/>
<wire x1="1.016" y1="0.635" x2="1.016" y2="-0.635" width="0.1524" layer="21"/>
<wire x1="1.016" y1="-0.635" x2="0" y2="0" width="0.1524" layer="21"/>
<wire x1="0" y1="0" x2="1.524" y2="0" width="0.1524" layer="21"/>
<wire x1="0" y1="0" x2="1.016" y2="0.635" width="0.1524" layer="21"/>
<wire x1="0" y1="0.635" x2="0" y2="0" width="0.1524" layer="21"/>
<wire x1="0" y1="0" x2="0" y2="-0.635" width="0.1524" layer="21"/>
<wire x1="2.032" y1="1.016" x2="2.286" y2="0.762" width="0.1524" layer="21" curve="-90"/>
<wire x1="2.286" y1="0.762" x2="2.286" y2="-0.762" width="0.1524" layer="21"/>
<wire x1="2.032" y1="-1.016" x2="2.286" y2="-0.762" width="0.1524" layer="21" curve="90"/>
<wire x1="-2.286" y1="0.762" x2="-2.032" y2="1.016" width="0.1524" layer="21" curve="-90"/>
<wire x1="-2.286" y1="-0.762" x2="-2.032" y2="-1.016" width="0.1524" layer="21" curve="90"/>
<wire x1="-2.032" y1="-1.016" x2="2.032" y2="-1.016" width="0.1524" layer="21"/>
<wire x1="-2.286" y1="0.762" x2="-2.286" y2="-0.762" width="0.1524" layer="21"/>
<wire x1="-2.032" y1="1.016" x2="2.032" y2="1.016" width="0.1524" layer="21"/>
<pad name="C" x="-3.81" y="0" drill="0.8128" shape="long"/>
<pad name="A" x="3.81" y="0" drill="0.8128" shape="long"/>
<text x="-2.286" y="1.27" size="1.27" layer="25" ratio="10">&gt;NAME</text>
<text x="-2.286" y="-2.667" size="1.27" layer="27" ratio="10">&gt;VALUE</text>
<rectangle x1="-1.905" y1="-1.016" x2="-1.397" y2="1.016" layer="21"/>
<rectangle x1="2.286" y1="-0.254" x2="2.921" y2="0.254" layer="21"/>
<rectangle x1="-2.921" y1="-0.254" x2="-2.286" y2="0.254" layer="21"/>
</package>
</packages>
<packages3d>
<package3d name="DO35-10" urn="urn:adsk.eagle:package:43344/2" type="model" library_version="2">
<description>DIODE
diameter 2 mm, horizontal, grid 10.16 mm</description>
</package3d>
<package3d name="DO35-7" urn="urn:adsk.eagle:package:43339/1" type="box" library_version="2">
<description>DIODE
diameter 2 mm, horizontal, grid 7.62 mm</description>
</package3d>
</packages3d>
<symbols>
<symbol name="D" urn="urn:adsk.eagle:symbol:43091/1" library_version="2">
<wire x1="-1.27" y1="-1.27" x2="1.27" y2="0" width="0.254" layer="94"/>
<wire x1="1.27" y1="0" x2="-1.27" y2="1.27" width="0.254" layer="94"/>
<wire x1="1.27" y1="1.27" x2="1.27" y2="0" width="0.254" layer="94"/>
<wire x1="-1.27" y1="1.27" x2="-1.27" y2="-1.27" width="0.254" layer="94"/>
<wire x1="1.27" y1="0" x2="1.27" y2="-1.27" width="0.254" layer="94"/>
<text x="2.54" y="0.4826" size="1.778" layer="95">&gt;NAME</text>
<text x="2.54" y="-2.3114" size="1.778" layer="96">&gt;VALUE</text>
<text x="-2.54" y="0" size="0.4064" layer="99" align="center">SpiceOrder 1</text>
<text x="2.54" y="0" size="0.4064" layer="99" align="center">SpiceOrder 2</text>
<pin name="A" x="-2.54" y="0" visible="off" length="short" direction="pas"/>
<pin name="C" x="2.54" y="0" visible="off" length="short" direction="pas" rot="R180"/>
</symbol>
</symbols>
<devicesets>
<deviceset name="1N4148" urn="urn:adsk.eagle:component:43496/2" prefix="D" library_version="2">
<description>&lt;B&gt;DIODE&lt;/B&gt;&lt;p&gt;
high speed (Philips)</description>
<gates>
<gate name="G$1" symbol="D" x="0" y="0"/>
</gates>
<devices>
<device name="DO35-10" package="DO35-10">
<connects>
<connect gate="G$1" pin="A" pad="A"/>
<connect gate="G$1" pin="C" pad="C"/>
</connects>
<package3dinstances>
<package3dinstance package3d_urn="urn:adsk.eagle:package:43344/2"/>
</package3dinstances>
<technologies>
<technology name=""/>
</technologies>
</device>
<device name="DO35-7" package="DO35-7">
<connects>
<connect gate="G$1" pin="A" pad="A"/>
<connect gate="G$1" pin="C" pad="C"/>
</connects>
<package3dinstances>
<package3dinstance package3d_urn="urn:adsk.eagle:package:43339/1"/>
</package3dinstances>
<technologies>
<technology name=""/>
</technologies>
</device>
</devices>
</deviceset>
</devicesets>
</library>
</libraries>
<attributes>
</attributes>
<variantdefs>
</variantdefs>
<classes>
<class number="0" name="default" width="0" drill="0">
</class>
</classes>
<parts>
<part name="R1" library="eagle-ltspice" library_urn="urn:adsk.eagle:library:217" deviceset="R" device="R1206" package3d_urn="urn:adsk.eagle:package:13301/1" value="100Ω"/>
<part name="C1" library="eagle-ltspice" library_urn="urn:adsk.eagle:library:217" deviceset="C" device="C1206" package3d_urn="urn:adsk.eagle:package:13279/1"/>
<part name="SUPPLY1" library="supply2" library_urn="urn:adsk.eagle:library:372" deviceset="GND" device=""/>
<part name="U$4" library="bss138_10" deviceset="BSS138" device=""/>
<part name="D1" library="diode" library_urn="urn:adsk.eagle:library:210" deviceset="1N4148" device="DO35-7" package3d_urn="urn:adsk.eagle:package:43339/1"/>
<part name="R2" library="eagle-ltspice" library_urn="urn:adsk.eagle:library:217" deviceset="R" device="R1206" package3d_urn="urn:adsk.eagle:package:13301/1" value="39Ω"/>
<part name="R4" library="eagle-ltspice" library_urn="urn:adsk.eagle:library:217" deviceset="R" device="R1206" package3d_urn="urn:adsk.eagle:package:13301/1" value="100kΩ"/>
<part name="R3" library="eagle-ltspice" library_urn="urn:adsk.eagle:library:217" deviceset="R" device="R1206" package3d_urn="urn:adsk.eagle:package:13301/1" value="1.69kΩ"/>
</parts>
<sheets>
<sheet>
<plain>
</plain>
<instances>
<instance part="R1" gate="G$1" x="53.34" y="68.58"/>
<instance part="C1" gate="G$1" x="53.34" y="73.66" rot="R90"/>
<instance part="SUPPLY1" gate="GND" x="48.26" y="73.66" rot="R270"/>
<instance part="U$4" gate="G$1" x="27.94" y="63.5" rot="R180"/>
<instance part="D1" gate="G$1" x="58.42" y="60.96" rot="R90"/>
<instance part="R2" gate="G$1" x="35.56" y="68.58" rot="R180"/>
<instance part="R4" gate="G$1" x="33.02" y="58.42" rot="R90"/>
<instance part="R3" gate="G$1" x="43.18" y="66.04" rot="R180"/>
</instances>
<busses>
</busses>
<nets>
<net name="VSENSE" class="0">
<segment>
<pinref part="C1" gate="G$1" pin="2"/>
<pinref part="D1" gate="G$1" pin="C"/>
<wire x1="58.42" y1="73.66" x2="58.42" y2="68.58" width="0.1524" layer="91"/>
<pinref part="R1" gate="G$1" pin="2"/>
<wire x1="58.42" y1="68.58" x2="58.42" y2="63.5" width="0.1524" layer="91"/>
<junction x="58.42" y="68.58"/>
<wire x1="58.42" y1="68.58" x2="60.96" y2="68.58" width="0.1524" layer="91"/>
</segment>
</net>
<net name="GND" class="0">
<segment>
<pinref part="C1" gate="G$1" pin="1"/>
<pinref part="SUPPLY1" gate="GND" pin="GND"/>
</segment>
</net>
<net name="+TERMINAL" class="0">
<segment>
<pinref part="R2" gate="G$1" pin="2"/>
<pinref part="U$4" gate="G$1" pin="S"/>
<wire x1="30.48" y1="68.58" x2="25.4" y2="68.58" width="0.1524" layer="91"/>
<wire x1="25.4" y1="68.58" x2="25.4" y2="71.12" width="0.1524" layer="91"/>
<junction x="25.4" y="68.58"/>
</segment>
</net>
<net name="N$3" class="0">
<segment>
<pinref part="R2" gate="G$1" pin="1"/>
<pinref part="R1" gate="G$1" pin="1"/>
<wire x1="40.64" y1="68.58" x2="48.26" y2="68.58" width="0.1524" layer="91"/>
</segment>
</net>
<net name="-TERMINAL" class="0">
<segment>
<pinref part="U$4" gate="G$1" pin="D"/>
<pinref part="R4" gate="G$1" pin="1"/>
<wire x1="25.4" y1="58.42" x2="25.4" y2="53.34" width="0.1524" layer="91"/>
<wire x1="25.4" y1="53.34" x2="33.02" y2="53.34" width="0.1524" layer="91"/>
<pinref part="D1" gate="G$1" pin="A"/>
<wire x1="33.02" y1="53.34" x2="58.42" y2="53.34" width="0.1524" layer="91"/>
<wire x1="58.42" y1="53.34" x2="58.42" y2="58.42" width="0.1524" layer="91"/>
<junction x="33.02" y="53.34"/>
<wire x1="25.4" y1="53.34" x2="25.4" y2="50.8" width="0.1524" layer="91"/>
<junction x="25.4" y="53.34"/>
</segment>
</net>
<net name="N$4" class="0">
<segment>
<pinref part="R4" gate="G$1" pin="2"/>
<pinref part="U$4" gate="G$1" pin="G"/>
<wire x1="33.02" y1="63.5" x2="33.02" y2="66.04" width="0.1524" layer="91"/>
<wire x1="33.02" y1="66.04" x2="30.48" y2="66.04" width="0.1524" layer="91"/>
<pinref part="R3" gate="G$1" pin="2"/>
<wire x1="38.1" y1="66.04" x2="33.02" y2="66.04" width="0.1524" layer="91"/>
<junction x="33.02" y="66.04"/>
</segment>
</net>
<net name="GATE" class="0">
<segment>
<pinref part="R3" gate="G$1" pin="1"/>
<wire x1="48.26" y1="66.04" x2="50.8" y2="66.04" width="0.1524" layer="91"/>
</segment>
</net>
</nets>
</sheet>
</sheets>
</schematic>
</drawing>
<compatibility>
<note version="8.2" severity="warning">
Since Version 8.2, EAGLE supports online libraries. The ids
of those online libraries will not be understood (or retained)
with this version.
</note>
<note version="8.3" severity="warning">
Since Version 8.3, EAGLE supports URNs for individual library
assets (packages, symbols, and devices). The URNs of those assets
will not be understood (or retained) with this version.
</note>
<note version="8.3" severity="warning">
Since Version 8.3, EAGLE supports the association of 3D packages
with devices in libraries, schematics, and board files. Those 3D
packages will not be understood (or retained) with this version.
</note>
</compatibility>
</eagle>
