<?xml version="1.0" encoding="utf-8"?>
<!DOCTYPE eagle SYSTEM "eagle.dtd">
<eagle version="8.5.1">
<drawing>
<settings>
<setting alwaysvectorfont="no"/>
<setting verticaltext="up"/>
</settings>
<grid distance="0.5" unitdist="mm" unit="mm" style="lines" multiple="1" display="no" altdistance="5" altunitdist="mil" altunit="mil"/>
<layers>
<layer number="1" name="Top" color="4" fill="1" visible="yes" active="yes"/>
<layer number="2" name="Route2" color="1" fill="3" visible="no" active="no"/>
<layer number="3" name="Route3" color="4" fill="3" visible="no" active="no"/>
<layer number="4" name="Route4" color="1" fill="4" visible="no" active="no"/>
<layer number="5" name="Route5" color="4" fill="4" visible="no" active="no"/>
<layer number="6" name="Route6" color="1" fill="8" visible="no" active="no"/>
<layer number="7" name="Route7" color="4" fill="8" visible="no" active="no"/>
<layer number="8" name="Route8" color="1" fill="2" visible="no" active="no"/>
<layer number="9" name="Route9" color="4" fill="2" visible="no" active="no"/>
<layer number="10" name="Route10" color="1" fill="7" visible="no" active="no"/>
<layer number="11" name="Route11" color="4" fill="7" visible="no" active="no"/>
<layer number="12" name="Route12" color="1" fill="5" visible="no" active="no"/>
<layer number="13" name="Route13" color="4" fill="5" visible="no" active="no"/>
<layer number="14" name="Route14" color="1" fill="6" visible="no" active="no"/>
<layer number="15" name="Route15" color="4" fill="6" visible="no" active="no"/>
<layer number="16" name="Bottom" color="1" fill="1" visible="yes" active="yes"/>
<layer number="17" name="Pads" color="2" fill="1" visible="yes" active="yes"/>
<layer number="18" name="Vias" color="2" fill="1" visible="yes" active="yes"/>
<layer number="19" name="Unrouted" color="6" fill="1" visible="yes" active="yes"/>
<layer number="20" name="Dimension" color="24" fill="1" visible="yes" active="yes"/>
<layer number="21" name="tPlace" color="7" fill="1" visible="yes" active="yes"/>
<layer number="22" name="bPlace" color="7" fill="1" visible="yes" active="yes"/>
<layer number="23" name="tOrigins" color="15" fill="1" visible="yes" active="yes"/>
<layer number="24" name="bOrigins" color="15" fill="1" visible="yes" active="yes"/>
<layer number="25" name="tNames" color="7" fill="1" visible="yes" active="yes"/>
<layer number="26" name="bNames" color="7" fill="1" visible="yes" active="yes"/>
<layer number="27" name="tValues" color="7" fill="1" visible="yes" active="yes"/>
<layer number="28" name="bValues" color="7" fill="1" visible="yes" active="yes"/>
<layer number="29" name="tStop" color="7" fill="3" visible="no" active="yes"/>
<layer number="30" name="bStop" color="7" fill="6" visible="no" active="yes"/>
<layer number="31" name="tCream" color="7" fill="4" visible="no" active="yes"/>
<layer number="32" name="bCream" color="7" fill="5" visible="no" active="yes"/>
<layer number="33" name="tFinish" color="6" fill="3" visible="no" active="yes"/>
<layer number="34" name="bFinish" color="6" fill="6" visible="no" active="yes"/>
<layer number="35" name="tGlue" color="7" fill="4" visible="no" active="yes"/>
<layer number="36" name="bGlue" color="7" fill="5" visible="no" active="yes"/>
<layer number="37" name="tTest" color="7" fill="1" visible="no" active="yes"/>
<layer number="38" name="bTest" color="7" fill="1" visible="no" active="yes"/>
<layer number="39" name="tKeepout" color="4" fill="11" visible="yes" active="yes"/>
<layer number="40" name="bKeepout" color="1" fill="11" visible="yes" active="yes"/>
<layer number="41" name="tRestrict" color="4" fill="10" visible="yes" active="yes"/>
<layer number="42" name="bRestrict" color="1" fill="10" visible="yes" active="yes"/>
<layer number="43" name="vRestrict" color="2" fill="10" visible="yes" active="yes"/>
<layer number="44" name="Drills" color="7" fill="1" visible="no" active="yes"/>
<layer number="45" name="Holes" color="7" fill="1" visible="no" active="yes"/>
<layer number="46" name="Milling" color="3" fill="1" visible="no" active="yes"/>
<layer number="47" name="Measures" color="7" fill="1" visible="no" active="yes"/>
<layer number="48" name="Document" color="7" fill="1" visible="yes" active="yes"/>
<layer number="49" name="Reference" color="7" fill="1" visible="yes" active="yes"/>
<layer number="51" name="tDocu" color="7" fill="1" visible="yes" active="yes"/>
<layer number="52" name="bDocu" color="7" fill="1" visible="yes" active="yes"/>
<layer number="88" name="SimResults" color="9" fill="1" visible="no" active="no"/>
<layer number="89" name="SimProbes" color="9" fill="1" visible="no" active="no"/>
<layer number="90" name="Modules" color="5" fill="1" visible="no" active="no"/>
<layer number="91" name="Nets" color="2" fill="1" visible="no" active="no"/>
<layer number="92" name="Busses" color="1" fill="1" visible="no" active="no"/>
<layer number="93" name="Pins" color="2" fill="1" visible="no" active="no"/>
<layer number="94" name="Symbols" color="4" fill="1" visible="no" active="no"/>
<layer number="95" name="Names" color="7" fill="1" visible="no" active="no"/>
<layer number="96" name="Values" color="7" fill="1" visible="no" active="no"/>
<layer number="97" name="Info" color="7" fill="1" visible="no" active="no"/>
<layer number="98" name="Guide" color="6" fill="1" visible="no" active="no"/>
<layer number="99" name="SpiceOrder" color="5" fill="1" visible="no" active="no"/>
</layers>
<board>
<plain>
<wire x1="0" y1="0" x2="100" y2="0" width="0" layer="20"/>
<wire x1="100" y1="0" x2="100" y2="66.5" width="0" layer="20"/>
<wire x1="100" y1="66.5" x2="0" y2="66.5" width="0" layer="20"/>
<wire x1="0" y1="66.5" x2="0" y2="0" width="0" layer="20"/>
<text x="7.5" y="51.5" size="1.778" layer="21">SEM
Illini EV Concept
Logan Rosenmayer
2/4/18
BMS 7.0</text>
<text x="11.5" y="12" size="1.778" layer="21" rot="R90">SS Relays</text>
<text x="45" y="39.5" size="1.4224" layer="21">Voltage Divider Pots</text>
<text x="15" y="48.5" size="1.4224" layer="21">Analog Mux</text>
<text x="75.5" y="47.5" size="1.4224" layer="21">Analog Mux</text>
<text x="46" y="62" size="1.4224" layer="21">ADC 16-Bit</text>
<text x="7" y="12" size="1.4224" layer="21" rot="R180">GND</text>
<text x="7" y="24.5" size="1.4224" layer="21" rot="R180">VCC</text>
<text x="11" y="1.5" size="1.4224" layer="21" rot="R90">Battery 0-</text>
<text x="93.5" y="3" size="1.4224" layer="21" rot="R90">Battery13+</text>
<text x="55.5" y="64.5" size="1.4224" layer="21">SCL</text>
<text x="59.5" y="64.5" size="1.4224" layer="21">SDA</text>
<text x="51.5" y="42" size="1.4224" layer="21" rot="R90">SEL_A</text>
<text x="54" y="42" size="1.4224" layer="21" rot="R90">SEL_B</text>
</plain>
<libraries>
<library name="pinhead" urn="urn:adsk.eagle:library:325">
<description>&lt;b&gt;Pin Header Connectors&lt;/b&gt;&lt;p&gt;
&lt;author&gt;Created by librarian@cadsoft.de&lt;/author&gt;</description>
<packages>
<package name="1X01" urn="urn:adsk.eagle:footprint:22382/1" library_version="3">
<description>&lt;b&gt;PIN HEADER&lt;/b&gt;</description>
<wire x1="-0.635" y1="1.27" x2="0.635" y2="1.27" width="0.1524" layer="21"/>
<wire x1="0.635" y1="1.27" x2="1.27" y2="0.635" width="0.1524" layer="21"/>
<wire x1="1.27" y1="0.635" x2="1.27" y2="-0.635" width="0.1524" layer="21"/>
<wire x1="1.27" y1="-0.635" x2="0.635" y2="-1.27" width="0.1524" layer="21"/>
<wire x1="-1.27" y1="0.635" x2="-1.27" y2="-0.635" width="0.1524" layer="21"/>
<wire x1="-0.635" y1="1.27" x2="-1.27" y2="0.635" width="0.1524" layer="21"/>
<wire x1="-1.27" y1="-0.635" x2="-0.635" y2="-1.27" width="0.1524" layer="21"/>
<wire x1="0.635" y1="-1.27" x2="-0.635" y2="-1.27" width="0.1524" layer="21"/>
<pad name="1" x="0" y="0" drill="1.016" shape="octagon"/>
<text x="-1.3462" y="1.8288" size="1.27" layer="25" ratio="10">&gt;NAME</text>
<text x="-1.27" y="-3.175" size="1.27" layer="27">&gt;VALUE</text>
<rectangle x1="-0.254" y1="-0.254" x2="0.254" y2="0.254" layer="51"/>
</package>
<package name="1X02" urn="urn:adsk.eagle:footprint:22309/1" library_version="3">
<description>&lt;b&gt;PIN HEADER&lt;/b&gt;</description>
<wire x1="-1.905" y1="1.27" x2="-0.635" y2="1.27" width="0.1524" layer="21"/>
<wire x1="-0.635" y1="1.27" x2="0" y2="0.635" width="0.1524" layer="21"/>
<wire x1="0" y1="0.635" x2="0" y2="-0.635" width="0.1524" layer="21"/>
<wire x1="0" y1="-0.635" x2="-0.635" y2="-1.27" width="0.1524" layer="21"/>
<wire x1="-2.54" y1="0.635" x2="-2.54" y2="-0.635" width="0.1524" layer="21"/>
<wire x1="-1.905" y1="1.27" x2="-2.54" y2="0.635" width="0.1524" layer="21"/>
<wire x1="-2.54" y1="-0.635" x2="-1.905" y2="-1.27" width="0.1524" layer="21"/>
<wire x1="-0.635" y1="-1.27" x2="-1.905" y2="-1.27" width="0.1524" layer="21"/>
<wire x1="0" y1="0.635" x2="0.635" y2="1.27" width="0.1524" layer="21"/>
<wire x1="0.635" y1="1.27" x2="1.905" y2="1.27" width="0.1524" layer="21"/>
<wire x1="1.905" y1="1.27" x2="2.54" y2="0.635" width="0.1524" layer="21"/>
<wire x1="2.54" y1="0.635" x2="2.54" y2="-0.635" width="0.1524" layer="21"/>
<wire x1="2.54" y1="-0.635" x2="1.905" y2="-1.27" width="0.1524" layer="21"/>
<wire x1="1.905" y1="-1.27" x2="0.635" y2="-1.27" width="0.1524" layer="21"/>
<wire x1="0.635" y1="-1.27" x2="0" y2="-0.635" width="0.1524" layer="21"/>
<pad name="1" x="-1.27" y="0" drill="1.016" shape="long" rot="R90"/>
<pad name="2" x="1.27" y="0" drill="1.016" shape="long" rot="R90"/>
<text x="-2.6162" y="1.8288" size="1.27" layer="25" ratio="10">&gt;NAME</text>
<text x="-2.54" y="-3.175" size="1.27" layer="27">&gt;VALUE</text>
<rectangle x1="-1.524" y1="-0.254" x2="-1.016" y2="0.254" layer="51"/>
<rectangle x1="1.016" y1="-0.254" x2="1.524" y2="0.254" layer="51"/>
</package>
</packages>
<packages3d>
<package3d name="1X01" urn="urn:adsk.eagle:package:22485/2" type="model" library_version="3">
<description>PIN HEADER</description>
</package3d>
<package3d name="1X02" urn="urn:adsk.eagle:package:22435/2" type="model" library_version="3">
<description>PIN HEADER</description>
</package3d>
</packages3d>
</library>
<library name="eagle-ltspice" urn="urn:adsk.eagle:library:217">
<description>Default symbols for import LTspice schematics&lt;p&gt;
2012-10-29 alf@cadsoft.de&lt;br&gt;</description>
<packages>
<package name="R1206" urn="urn:adsk.eagle:footprint:13238/1" library_version="1">
<description>&lt;b&gt;RESISTOR&lt;/b&gt;</description>
<wire x1="0.9525" y1="-0.8128" x2="-0.9652" y2="-0.8128" width="0.1524" layer="51"/>
<wire x1="0.9525" y1="0.8128" x2="-0.9652" y2="0.8128" width="0.1524" layer="51"/>
<wire x1="-2.473" y1="0.983" x2="2.473" y2="0.983" width="0.0508" layer="39"/>
<wire x1="2.473" y1="0.983" x2="2.473" y2="-0.983" width="0.0508" layer="39"/>
<wire x1="2.473" y1="-0.983" x2="-2.473" y2="-0.983" width="0.0508" layer="39"/>
<wire x1="-2.473" y1="-0.983" x2="-2.473" y2="0.983" width="0.0508" layer="39"/>
<rectangle x1="-1.6891" y1="-0.8763" x2="-0.9525" y2="0.8763" layer="51"/>
<rectangle x1="0.9525" y1="-0.8763" x2="1.6891" y2="0.8763" layer="51"/>
<rectangle x1="-0.3" y1="-0.7" x2="0.3" y2="0.7" layer="35"/>
<smd name="1" x="-1.422" y="0" dx="1.6" dy="1.803" layer="1"/>
<smd name="2" x="1.422" y="0" dx="1.6" dy="1.803" layer="1"/>
<text x="-1.27" y="1.27" size="1.27" layer="25">&gt;NAME</text>
<text x="-1.27" y="-2.54" size="1.27" layer="27">&gt;VALUE</text>
</package>
<package name="C1206" urn="urn:adsk.eagle:footprint:13201/1" library_version="1">
<description>&lt;b&gt;CAPACITOR&lt;/b&gt;</description>
<wire x1="-2.473" y1="0.983" x2="2.473" y2="0.983" width="0.0508" layer="39"/>
<wire x1="2.473" y1="-0.983" x2="-2.473" y2="-0.983" width="0.0508" layer="39"/>
<wire x1="-2.473" y1="-0.983" x2="-2.473" y2="0.983" width="0.0508" layer="39"/>
<wire x1="2.473" y1="0.983" x2="2.473" y2="-0.983" width="0.0508" layer="39"/>
<wire x1="-0.965" y1="0.787" x2="0.965" y2="0.787" width="0.1016" layer="51"/>
<wire x1="-0.965" y1="-0.787" x2="0.965" y2="-0.787" width="0.1016" layer="51"/>
<rectangle x1="-1.7018" y1="-0.8509" x2="-0.9517" y2="0.8491" layer="51"/>
<rectangle x1="0.9517" y1="-0.8491" x2="1.7018" y2="0.8509" layer="51"/>
<rectangle x1="-0.1999" y1="-0.4001" x2="0.1999" y2="0.4001" layer="35"/>
<smd name="1" x="-1.4" y="0" dx="1.6" dy="1.8" layer="1"/>
<smd name="2" x="1.4" y="0" dx="1.6" dy="1.8" layer="1"/>
<text x="-1.27" y="1.27" size="1.27" layer="25">&gt;NAME</text>
<text x="-1.27" y="-2.54" size="1.27" layer="27">&gt;VALUE</text>
</package>
</packages>
<packages3d>
<package3d name="R1206" urn="urn:adsk.eagle:package:13301/1" type="box" library_version="1">
<description>RESISTOR</description>
</package3d>
<package3d name="C1206" urn="urn:adsk.eagle:package:13279/1" type="box" library_version="1">
<description>CAPACITOR</description>
</package3d>
</packages3d>
</library>
<library name="BMS">
<packages>
<package name="CPC1002N">
<wire x1="4.089" y1="0" x2="0" y2="0" width="0.127" layer="21"/>
<wire x1="0" y1="0" x2="0" y2="3.81" width="0.127" layer="21"/>
<wire x1="4.089" y1="0" x2="4.089" y2="3.81" width="0.127" layer="21"/>
<wire x1="4.089" y1="3.81" x2="0" y2="3.81" width="0.127" layer="21"/>
<smd name="P$1" x="0.7" y="-1.1" dx="2" dy="0.7" layer="1" rot="R90"/>
<smd name="P$2" x="3.24" y="-1.1" dx="2" dy="0.7" layer="1" rot="R90"/>
<smd name="P$3" x="3.24" y="4.9" dx="2" dy="0.7" layer="1" rot="R270"/>
<smd name="P$4" x="0.7" y="4.9" dx="2" dy="0.7" layer="1" rot="R270"/>
<circle x="0.4" y="0.5" radius="0.2" width="0.127" layer="21"/>
<text x="0.7" y="1.8" size="0.4" layer="21">CPC1002N</text>
</package>
<package name="PHOENIX-2PIN">
<pad name="P$1" x="0" y="0" drill="1.6" shape="long" rot="R90"/>
<pad name="P$2" x="5" y="0" drill="1.6" shape="long" rot="R90"/>
<wire x1="-2.5" y1="3" x2="-2.5" y2="-3" width="0.127" layer="21"/>
<wire x1="-2.5" y1="-3" x2="7.5" y2="-3" width="0.127" layer="21"/>
<wire x1="7.5" y1="-3" x2="7.5" y2="3" width="0.127" layer="21"/>
<wire x1="7.5" y1="3" x2="-2.5" y2="3" width="0.127" layer="21"/>
</package>
<package name="SN74LV4052A">
<wire x1="0" y1="0" x2="10.16" y2="0" width="0.127" layer="21"/>
<wire x1="10.16" y1="0" x2="10.16" y2="5.3" width="0.127" layer="21"/>
<wire x1="10.16" y1="5.3" x2="0" y2="5.3" width="0.127" layer="21"/>
<wire x1="0" y1="5.3" x2="0" y2="0" width="0.127" layer="21"/>
<smd name="P$1" x="0.635" y="-1.27" dx="3" dy="0.635" layer="1" rot="R90"/>
<smd name="P$2" x="1.905" y="-1.27" dx="3" dy="0.635" layer="1" rot="R90"/>
<smd name="P$3" x="3.175" y="-1.27" dx="3" dy="0.635" layer="1" rot="R90"/>
<smd name="P$4" x="4.445" y="-1.27" dx="3" dy="0.635" layer="1" rot="R90"/>
<smd name="P$5" x="5.715" y="-1.27" dx="3" dy="0.635" layer="1" rot="R90"/>
<smd name="P$6" x="6.985" y="-1.27" dx="3" dy="0.635" layer="1" rot="R90"/>
<smd name="P$7" x="8.255" y="-1.27" dx="3" dy="0.635" layer="1" rot="R90"/>
<smd name="P$8" x="9.525" y="-1.27" dx="3" dy="0.635" layer="1" rot="R90"/>
<text x="1.27" y="2.54" size="1" layer="21">sn74lv4052a</text>
<smd name="P$9" x="9.525" y="6.35" dx="3" dy="0.635" layer="1" rot="R270"/>
<smd name="P$10" x="8.255" y="6.35" dx="3" dy="0.635" layer="1" rot="R270"/>
<smd name="P$11" x="6.985" y="6.35" dx="3" dy="0.635" layer="1" rot="R270"/>
<smd name="P$12" x="5.715" y="6.35" dx="3" dy="0.635" layer="1" rot="R270"/>
<smd name="P$13" x="4.445" y="6.35" dx="3" dy="0.635" layer="1" rot="R270"/>
<smd name="P$14" x="3.175" y="6.35" dx="3" dy="0.635" layer="1" rot="R270"/>
<smd name="P$15" x="1.905" y="6.35" dx="3" dy="0.635" layer="1" rot="R270"/>
<smd name="P$16" x="0.635" y="6.35" dx="3" dy="0.635" layer="1" rot="R270"/>
<circle x="1.27" y="1.27" radius="0.635" width="0.127" layer="21"/>
</package>
<package name="ADC1115">
<wire x1="0" y1="0" x2="0" y2="3" width="0.127" layer="21"/>
<wire x1="0" y1="3" x2="3" y2="3" width="0.127" layer="21"/>
<wire x1="3" y1="3" x2="3" y2="0" width="0.127" layer="21"/>
<wire x1="3" y1="0" x2="0" y2="0" width="0.127" layer="21"/>
<circle x="0.4" y="0.4" radius="0.2" width="0.127" layer="21"/>
<smd name="P$1" x="0.5" y="-1.1" dx="2" dy="0.3" layer="1" rot="R90"/>
<smd name="P$2" x="1" y="-1.1" dx="2" dy="0.3" layer="1" rot="R90"/>
<smd name="P$3" x="1.5" y="-1.1" dx="2" dy="0.3" layer="1" rot="R90"/>
<smd name="P$4" x="2" y="-1.1" dx="2" dy="0.3" layer="1" rot="R90"/>
<smd name="P$5" x="2.5" y="-1.1" dx="2" dy="0.3" layer="1" rot="R90"/>
<smd name="P$6" x="2.5" y="4.1" dx="2" dy="0.3" layer="1" rot="R270"/>
<smd name="P$7" x="2" y="4.1" dx="2" dy="0.3" layer="1" rot="R270"/>
<smd name="P$8" x="1.5" y="4.1" dx="2" dy="0.3" layer="1" rot="R270"/>
<smd name="P$9" x="1" y="4.1" dx="2" dy="0.3" layer="1" rot="R270"/>
<smd name="P$10" x="0.5" y="4.1" dx="2" dy="0.3" layer="1" rot="R270"/>
<text x="0.1" y="1.3" size="0.5" layer="21">ADC1115</text>
</package>
</packages>
</library>
<library name="pot" urn="urn:adsk.eagle:library:331">
<description>&lt;b&gt;Potentiometers&lt;/b&gt;&lt;p&gt;
Beckman, Copal, Piher, Spectrol, Schukat&lt;p&gt;
&lt;author&gt;Created by librarian@cadsoft.de&lt;/author&gt;</description>
<packages>
<package name="S64W" urn="urn:adsk.eagle:footprint:22652/1" library_version="1">
<description>&lt;b&gt;POTENTIOMETER&lt;/b&gt;&lt;p&gt;
Spectrol</description>
<wire x1="-4.826" y1="-1.27" x2="4.826" y2="-1.27" width="0.1524" layer="21"/>
<wire x1="4.064" y1="0.508" x2="3.048" y2="-0.508" width="0.3048" layer="21"/>
<wire x1="-4.826" y1="3.81" x2="4.826" y2="3.81" width="0.1524" layer="21"/>
<wire x1="4.826" y1="3.81" x2="4.826" y2="-1.27" width="0.1524" layer="21"/>
<wire x1="-4.826" y1="-1.27" x2="-4.826" y2="3.81" width="0.1524" layer="21"/>
<wire x1="-2.032" y1="0" x2="-2.413" y2="0" width="0.1524" layer="51"/>
<wire x1="-2.032" y1="0" x2="-2.159" y2="-0.127" width="0.1524" layer="51"/>
<wire x1="-2.032" y1="0" x2="-2.159" y2="0.127" width="0.1524" layer="51"/>
<wire x1="-2.286" y1="-0.254" x2="-2.286" y2="0.254" width="0.1524" layer="51"/>
<wire x1="-2.286" y1="-0.254" x2="-2.413" y2="-0.381" width="0.1524" layer="51"/>
<wire x1="-2.286" y1="0.254" x2="-2.413" y2="0.381" width="0.1524" layer="51"/>
<wire x1="-2.159" y1="-0.127" x2="-2.159" y2="0.127" width="0.1524" layer="51"/>
<wire x1="-2.159" y1="-0.127" x2="-2.286" y2="-0.254" width="0.1524" layer="51"/>
<wire x1="-2.159" y1="0.127" x2="-2.286" y2="0.254" width="0.1524" layer="51"/>
<wire x1="-2.413" y1="0" x2="-2.413" y2="0.381" width="0.1524" layer="51"/>
<wire x1="-2.413" y1="-0.381" x2="-2.413" y2="0" width="0.1524" layer="51"/>
<wire x1="-2.54" y1="-0.508" x2="-2.413" y2="-0.381" width="0.1524" layer="51"/>
<wire x1="-2.413" y1="0.381" x2="-2.54" y2="0.508" width="0.1524" layer="51"/>
<wire x1="-2.54" y1="0.508" x2="-2.54" y2="-0.508" width="0.1524" layer="51"/>
<wire x1="-4.318" y1="0" x2="-2.413" y2="0" width="0.1524" layer="51"/>
<circle x="3.556" y="0" radius="0.889" width="0.1524" layer="51"/>
<circle x="3.556" y="0" radius="0.635" width="0.0508" layer="21"/>
<pad name="A" x="2.54" y="1.27" drill="0.8128" shape="long" rot="R90"/>
<pad name="E" x="-2.54" y="1.27" drill="0.8128" shape="long" rot="R90"/>
<pad name="S" x="0" y="1.27" drill="0.8128" shape="long" rot="R90"/>
<text x="-4.826" y="4.1402" size="1.27" layer="25" ratio="10">&gt;NAME</text>
<text x="-4.8006" y="-2.921" size="1.27" layer="27" ratio="10">&gt;VALUE</text>
<text x="-4.445" y="1.905" size="1.27" layer="21" ratio="10">3</text>
<text x="3.556" y="1.905" size="1.27" layer="21" ratio="10">1</text>
<text x="-1.905" y="-0.635" size="1.27" layer="51" ratio="10">3</text>
</package>
</packages>
<packages3d>
<package3d name="S64W" urn="urn:adsk.eagle:package:22708/1" type="box" library_version="1">
<description>POTENTIOMETER
Spectrol</description>
</package3d>
</packages3d>
</library>
</libraries>
<attributes>
</attributes>
<variantdefs>
</variantdefs>
<classes>
<class number="0" name="default" width="0" drill="0">
</class>
</classes>
<designrules name="default">
<description language="de">&lt;b&gt;EAGLE Design Rules&lt;/b&gt;
&lt;p&gt;
Die Standard-Design-Rules sind so gewählt, dass sie für 
die meisten Anwendungen passen. Sollte ihre Platine 
besondere Anforderungen haben, treffen Sie die erforderlichen
Einstellungen hier und speichern die Design Rules unter 
einem neuen Namen ab.</description>
<description language="en">&lt;b&gt;EAGLE Design Rules&lt;/b&gt;
&lt;p&gt;
The default Design Rules have been set to cover
a wide range of applications. Your particular design
may have different requirements, so please make the
necessary adjustments and save your customized
design rules under a new name.</description>
<param name="layerSetup" value="(1*16)"/>
<param name="mtCopper" value="0.035mm 0.035mm 0.035mm 0.035mm 0.035mm 0.035mm 0.035mm 0.035mm 0.035mm 0.035mm 0.035mm 0.035mm 0.035mm 0.035mm 0.035mm 0.035mm"/>
<param name="mtIsolate" value="1.5mm 0.15mm 0.2mm 0.15mm 0.2mm 0.15mm 0.2mm 0.15mm 0.2mm 0.15mm 0.2mm 0.15mm 0.2mm 0.15mm 0.2mm"/>
<param name="mdWireWire" value="6mil"/>
<param name="mdWirePad" value="6mil"/>
<param name="mdWireVia" value="6mil"/>
<param name="mdPadPad" value="6mil"/>
<param name="mdPadVia" value="6mil"/>
<param name="mdViaVia" value="6mil"/>
<param name="mdSmdPad" value="6mil"/>
<param name="mdSmdVia" value="6mil"/>
<param name="mdSmdSmd" value="6mil"/>
<param name="mdViaViaSameLayer" value="6mil"/>
<param name="mnLayersViaInSmd" value="2"/>
<param name="mdCopperDimension" value="40mil"/>
<param name="mdDrill" value="6mil"/>
<param name="mdSmdStop" value="0mil"/>
<param name="msWidth" value="6mil"/>
<param name="msDrill" value="0.35mm"/>
<param name="msMicroVia" value="9.99mm"/>
<param name="msBlindViaRatio" value="0.5"/>
<param name="rvPadTop" value="0.25"/>
<param name="rvPadInner" value="0.25"/>
<param name="rvPadBottom" value="0.25"/>
<param name="rvViaOuter" value="0.25"/>
<param name="rvViaInner" value="0.25"/>
<param name="rvMicroViaOuter" value="0.25"/>
<param name="rvMicroViaInner" value="0.25"/>
<param name="rlMinPadTop" value="10mil"/>
<param name="rlMaxPadTop" value="20mil"/>
<param name="rlMinPadInner" value="10mil"/>
<param name="rlMaxPadInner" value="20mil"/>
<param name="rlMinPadBottom" value="10mil"/>
<param name="rlMaxPadBottom" value="20mil"/>
<param name="rlMinViaOuter" value="8mil"/>
<param name="rlMaxViaOuter" value="20mil"/>
<param name="rlMinViaInner" value="8mil"/>
<param name="rlMaxViaInner" value="20mil"/>
<param name="rlMinMicroViaOuter" value="4mil"/>
<param name="rlMaxMicroViaOuter" value="20mil"/>
<param name="rlMinMicroViaInner" value="4mil"/>
<param name="rlMaxMicroViaInner" value="20mil"/>
<param name="psTop" value="-1"/>
<param name="psBottom" value="-1"/>
<param name="psFirst" value="-1"/>
<param name="psElongationLong" value="100"/>
<param name="psElongationOffset" value="100"/>
<param name="mvStopFrame" value="1"/>
<param name="mvCreamFrame" value="0"/>
<param name="mlMinStopFrame" value="4mil"/>
<param name="mlMaxStopFrame" value="4mil"/>
<param name="mlMinCreamFrame" value="0mil"/>
<param name="mlMaxCreamFrame" value="0mil"/>
<param name="mlViaStopLimit" value="0mil"/>
<param name="srRoundness" value="0"/>
<param name="srMinRoundness" value="0mil"/>
<param name="srMaxRoundness" value="0mil"/>
<param name="slThermalIsolate" value="10mil"/>
<param name="slThermalsForVias" value="0"/>
<param name="dpMaxLengthDifference" value="10mm"/>
<param name="dpGapFactor" value="2.5"/>
<param name="checkAngle" value="0"/>
<param name="checkFont" value="1"/>
<param name="checkRestrict" value="1"/>
<param name="checkStop" value="0"/>
<param name="checkValues" value="0"/>
<param name="useDiameter" value="13"/>
<param name="maxErrors" value="50"/>
</designrules>
<autorouter>
<pass name="Default">
<param name="RoutingGrid" value="50mil"/>
<param name="AutoGrid" value="1"/>
<param name="Efforts" value="0"/>
<param name="TopRouterVariant" value="1"/>
<param name="tpViaShape" value="round"/>
<param name="PrefDir.1" value="a"/>
<param name="PrefDir.2" value="0"/>
<param name="PrefDir.3" value="0"/>
<param name="PrefDir.4" value="0"/>
<param name="PrefDir.5" value="0"/>
<param name="PrefDir.6" value="0"/>
<param name="PrefDir.7" value="0"/>
<param name="PrefDir.8" value="0"/>
<param name="PrefDir.9" value="0"/>
<param name="PrefDir.10" value="0"/>
<param name="PrefDir.11" value="0"/>
<param name="PrefDir.12" value="0"/>
<param name="PrefDir.13" value="0"/>
<param name="PrefDir.14" value="0"/>
<param name="PrefDir.15" value="0"/>
<param name="PrefDir.16" value="a"/>
<param name="cfVia" value="8"/>
<param name="cfNonPref" value="5"/>
<param name="cfChangeDir" value="2"/>
<param name="cfOrthStep" value="2"/>
<param name="cfDiagStep" value="3"/>
<param name="cfExtdStep" value="0"/>
<param name="cfBonusStep" value="1"/>
<param name="cfMalusStep" value="1"/>
<param name="cfPadImpact" value="4"/>
<param name="cfSmdImpact" value="4"/>
<param name="cfBusImpact" value="0"/>
<param name="cfHugging" value="3"/>
<param name="cfAvoid" value="4"/>
<param name="cfPolygon" value="10"/>
<param name="cfBase.1" value="0"/>
<param name="cfBase.2" value="1"/>
<param name="cfBase.3" value="1"/>
<param name="cfBase.4" value="1"/>
<param name="cfBase.5" value="1"/>
<param name="cfBase.6" value="1"/>
<param name="cfBase.7" value="1"/>
<param name="cfBase.8" value="1"/>
<param name="cfBase.9" value="1"/>
<param name="cfBase.10" value="1"/>
<param name="cfBase.11" value="1"/>
<param name="cfBase.12" value="1"/>
<param name="cfBase.13" value="1"/>
<param name="cfBase.14" value="1"/>
<param name="cfBase.15" value="1"/>
<param name="cfBase.16" value="0"/>
<param name="mnVias" value="20"/>
<param name="mnSegments" value="9999"/>
<param name="mnExtdSteps" value="9999"/>
<param name="mnRipupLevel" value="10"/>
<param name="mnRipupSteps" value="100"/>
<param name="mnRipupTotal" value="100"/>
</pass>
<pass name="Follow-me" refer="Default" active="yes">
</pass>
<pass name="Busses" refer="Default" active="yes">
<param name="cfNonPref" value="4"/>
<param name="cfBusImpact" value="4"/>
<param name="cfHugging" value="0"/>
<param name="mnVias" value="0"/>
</pass>
<pass name="Route" refer="Default" active="yes">
</pass>
<pass name="Optimize1" refer="Default" active="yes">
<param name="cfVia" value="99"/>
<param name="cfExtdStep" value="10"/>
<param name="cfHugging" value="1"/>
<param name="mnExtdSteps" value="1"/>
<param name="mnRipupLevel" value="0"/>
</pass>
<pass name="Optimize2" refer="Optimize1" active="yes">
<param name="cfNonPref" value="0"/>
<param name="cfChangeDir" value="6"/>
<param name="cfExtdStep" value="0"/>
<param name="cfBonusStep" value="2"/>
<param name="cfMalusStep" value="2"/>
<param name="cfPadImpact" value="2"/>
<param name="cfSmdImpact" value="2"/>
<param name="cfHugging" value="0"/>
</pass>
<pass name="Optimize3" refer="Optimize2" active="yes">
<param name="cfChangeDir" value="8"/>
<param name="cfPadImpact" value="0"/>
<param name="cfSmdImpact" value="0"/>
</pass>
<pass name="Optimize4" refer="Optimize3" active="yes">
<param name="cfChangeDir" value="25"/>
</pass>
</autorouter>
<elements>
<element name="BATTERYSHORTER10:JP3" library="pinhead" library_urn="urn:adsk.eagle:library:325" package="1X01" package3d_urn="urn:adsk.eagle:package:22485/2" value="" x="45.5" y="24.5"/>
<element name="BATTERYSHORTER10:R1" library="eagle-ltspice" library_urn="urn:adsk.eagle:library:217" package="R1206" package3d_urn="urn:adsk.eagle:package:13301/1" value="" x="47" y="13">
<attribute name="SPICEMODEL" value="NONE" x="47" y="13" size="1.778" layer="27" display="off"/>
<attribute name="SPICEPREFIX" value="R" x="47" y="13" size="1.778" layer="27" display="off"/>
</element>
<element name="BATTERYSHORTER10:R7" library="eagle-ltspice" library_urn="urn:adsk.eagle:library:217" package="R1206" package3d_urn="urn:adsk.eagle:package:13301/1" value="" x="47" y="10">
<attribute name="SPICEMODEL" value="NONE" x="47" y="10" size="1.778" layer="27" display="off"/>
<attribute name="SPICEPREFIX" value="R" x="47" y="10" size="1.778" layer="27" display="off"/>
</element>
<element name="BATTERYSHORTER10:U$12" library="BMS" package="CPC1002N" value="CPC1002N" x="46" y="20" rot="R180"/>
<element name="BATTERYSHORTER11:JP3" library="pinhead" library_urn="urn:adsk.eagle:library:325" package="1X01" package3d_urn="urn:adsk.eagle:package:22485/2" value="" x="39.5" y="24.5"/>
<element name="BATTERYSHORTER11:R1" library="eagle-ltspice" library_urn="urn:adsk.eagle:library:217" package="R1206" package3d_urn="urn:adsk.eagle:package:13301/1" value="" x="41" y="12.5">
<attribute name="SPICEMODEL" value="NONE" x="41" y="12.5" size="1.778" layer="27" display="off"/>
<attribute name="SPICEPREFIX" value="R" x="41" y="12.5" size="1.778" layer="27" display="off"/>
</element>
<element name="BATTERYSHORTER11:R7" library="eagle-ltspice" library_urn="urn:adsk.eagle:library:217" package="R1206" package3d_urn="urn:adsk.eagle:package:13301/1" value="" x="41" y="10">
<attribute name="SPICEMODEL" value="NONE" x="41" y="10" size="1.778" layer="27" display="off"/>
<attribute name="SPICEPREFIX" value="R" x="41" y="10" size="1.778" layer="27" display="off"/>
</element>
<element name="BATTERYSHORTER11:U$12" library="BMS" package="CPC1002N" value="CPC1002N" x="40" y="20" rot="R180"/>
<element name="BATTERYSHORTER12:JP3" library="pinhead" library_urn="urn:adsk.eagle:library:325" package="1X01" package3d_urn="urn:adsk.eagle:package:22485/2" value="" x="33.5" y="24.5"/>
<element name="BATTERYSHORTER12:R1" library="eagle-ltspice" library_urn="urn:adsk.eagle:library:217" package="R1206" package3d_urn="urn:adsk.eagle:package:13301/1" value="" x="35.5" y="10">
<attribute name="SPICEMODEL" value="NONE" x="35.5" y="10" size="1.778" layer="27" display="off"/>
<attribute name="SPICEPREFIX" value="R" x="35.5" y="10" size="1.778" layer="27" display="off"/>
</element>
<element name="BATTERYSHORTER12:R7" library="eagle-ltspice" library_urn="urn:adsk.eagle:library:217" package="R1206" package3d_urn="urn:adsk.eagle:package:13301/1" value="" x="35.5" y="12.5">
<attribute name="SPICEMODEL" value="NONE" x="35.5" y="12.5" size="1.778" layer="27" display="off"/>
<attribute name="SPICEPREFIX" value="R" x="35.5" y="12.5" size="1.778" layer="27" display="off"/>
</element>
<element name="BATTERYSHORTER12:U$12" library="BMS" package="CPC1002N" value="CPC1002N" x="34.5" y="20" rot="R180"/>
<element name="BATTERYSHORTER13:JP3" library="pinhead" library_urn="urn:adsk.eagle:library:325" package="1X01" package3d_urn="urn:adsk.eagle:package:22485/2" value="" x="28" y="24.5"/>
<element name="BATTERYSHORTER13:R1" library="eagle-ltspice" library_urn="urn:adsk.eagle:library:217" package="R1206" package3d_urn="urn:adsk.eagle:package:13301/1" value="" x="29.5" y="12.5">
<attribute name="SPICEMODEL" value="NONE" x="29.5" y="12.5" size="1.778" layer="27" display="off"/>
<attribute name="SPICEPREFIX" value="R" x="29.5" y="12.5" size="1.778" layer="27" display="off"/>
</element>
<element name="BATTERYSHORTER13:R7" library="eagle-ltspice" library_urn="urn:adsk.eagle:library:217" package="R1206" package3d_urn="urn:adsk.eagle:package:13301/1" value="" x="29.5" y="10">
<attribute name="SPICEMODEL" value="NONE" x="29.5" y="10" size="1.778" layer="27" display="off"/>
<attribute name="SPICEPREFIX" value="R" x="29.5" y="10" size="1.778" layer="27" display="off"/>
</element>
<element name="BATTERYSHORTER13:U$12" library="BMS" package="CPC1002N" value="CPC1002N" x="28.5" y="20" rot="R180"/>
<element name="BATTERYSHORTER14:JP3" library="pinhead" library_urn="urn:adsk.eagle:library:325" package="1X01" package3d_urn="urn:adsk.eagle:package:22485/2" value="" x="22" y="24.5"/>
<element name="BATTERYSHORTER14:R1" library="eagle-ltspice" library_urn="urn:adsk.eagle:library:217" package="R1206" package3d_urn="urn:adsk.eagle:package:13301/1" value="" x="24" y="12.5">
<attribute name="SPICEMODEL" value="NONE" x="24" y="12.5" size="1.778" layer="27" display="off"/>
<attribute name="SPICEPREFIX" value="R" x="24" y="12.5" size="1.778" layer="27" display="off"/>
</element>
<element name="BATTERYSHORTER14:R7" library="eagle-ltspice" library_urn="urn:adsk.eagle:library:217" package="R1206" package3d_urn="urn:adsk.eagle:package:13301/1" value="" x="24" y="10">
<attribute name="SPICEMODEL" value="NONE" x="24" y="10" size="1.778" layer="27" display="off"/>
<attribute name="SPICEPREFIX" value="R" x="24" y="10" size="1.778" layer="27" display="off"/>
</element>
<element name="BATTERYSHORTER14:U$12" library="BMS" package="CPC1002N" value="CPC1002N" x="22.5" y="20" rot="R180"/>
<element name="BATTERYSHORTER15:JP3" library="pinhead" library_urn="urn:adsk.eagle:library:325" package="1X01" package3d_urn="urn:adsk.eagle:package:22485/2" value="" x="16.5" y="24.5"/>
<element name="BATTERYSHORTER15:R1" library="eagle-ltspice" library_urn="urn:adsk.eagle:library:217" package="R1206" package3d_urn="urn:adsk.eagle:package:13301/1" value="" x="18" y="10">
<attribute name="SPICEMODEL" value="NONE" x="18" y="10" size="1.778" layer="27" display="off"/>
<attribute name="SPICEPREFIX" value="R" x="18" y="10" size="1.778" layer="27" display="off"/>
</element>
<element name="BATTERYSHORTER15:R7" library="eagle-ltspice" library_urn="urn:adsk.eagle:library:217" package="R1206" package3d_urn="urn:adsk.eagle:package:13301/1" value="" x="18" y="12.5">
<attribute name="SPICEMODEL" value="NONE" x="18" y="12.5" size="1.778" layer="27" display="off"/>
<attribute name="SPICEPREFIX" value="R" x="18" y="12.5" size="1.778" layer="27" display="off"/>
</element>
<element name="BATTERYSHORTER15:U$12" library="BMS" package="CPC1002N" value="CPC1002N" x="17" y="20" rot="R180"/>
<element name="BATTERYSHORTER3:JP3" library="pinhead" library_urn="urn:adsk.eagle:library:325" package="1X01" package3d_urn="urn:adsk.eagle:package:22485/2" value="" x="85.5" y="24.5"/>
<element name="BATTERYSHORTER3:R1" library="eagle-ltspice" library_urn="urn:adsk.eagle:library:217" package="R1206" package3d_urn="urn:adsk.eagle:package:13301/1" value="" x="87" y="10">
<attribute name="SPICEMODEL" value="NONE" x="87" y="10" size="1.778" layer="27" display="off"/>
<attribute name="SPICEPREFIX" value="R" x="87" y="10" size="1.778" layer="27" display="off"/>
</element>
<element name="BATTERYSHORTER3:R7" library="eagle-ltspice" library_urn="urn:adsk.eagle:library:217" package="R1206" package3d_urn="urn:adsk.eagle:package:13301/1" value="" x="87" y="12.5">
<attribute name="SPICEMODEL" value="NONE" x="87" y="12.5" size="1.778" layer="27" display="off"/>
<attribute name="SPICEPREFIX" value="R" x="87" y="12.5" size="1.778" layer="27" display="off"/>
</element>
<element name="BATTERYSHORTER3:U$12" library="BMS" package="CPC1002N" value="CPC1002N" x="86" y="20" rot="R180"/>
<element name="BATTERYSHORTER4:JP3" library="pinhead" library_urn="urn:adsk.eagle:library:325" package="1X01" package3d_urn="urn:adsk.eagle:package:22485/2" value="" x="80" y="24.5"/>
<element name="BATTERYSHORTER4:R1" library="eagle-ltspice" library_urn="urn:adsk.eagle:library:217" package="R1206" package3d_urn="urn:adsk.eagle:package:13301/1" value="" x="81.5" y="10">
<attribute name="SPICEMODEL" value="NONE" x="81.5" y="10" size="1.778" layer="27" display="off"/>
<attribute name="SPICEPREFIX" value="R" x="81.5" y="10" size="1.778" layer="27" display="off"/>
</element>
<element name="BATTERYSHORTER4:R7" library="eagle-ltspice" library_urn="urn:adsk.eagle:library:217" package="R1206" package3d_urn="urn:adsk.eagle:package:13301/1" value="" x="81.5" y="12.5">
<attribute name="SPICEMODEL" value="NONE" x="81.5" y="12.5" size="1.778" layer="27" display="off"/>
<attribute name="SPICEPREFIX" value="R" x="81.5" y="12.5" size="1.778" layer="27" display="off"/>
</element>
<element name="BATTERYSHORTER4:U$12" library="BMS" package="CPC1002N" value="CPC1002N" x="80.5" y="20" rot="R180"/>
<element name="BATTERYSHORTER5:JP3" library="pinhead" library_urn="urn:adsk.eagle:library:325" package="1X01" package3d_urn="urn:adsk.eagle:package:22485/2" value="" x="74.5" y="24.5"/>
<element name="BATTERYSHORTER5:R1" library="eagle-ltspice" library_urn="urn:adsk.eagle:library:217" package="R1206" package3d_urn="urn:adsk.eagle:package:13301/1" value="" x="75.5" y="12.5">
<attribute name="SPICEMODEL" value="NONE" x="75.5" y="12.5" size="1.778" layer="27" display="off"/>
<attribute name="SPICEPREFIX" value="R" x="75.5" y="12.5" size="1.778" layer="27" display="off"/>
</element>
<element name="BATTERYSHORTER5:R7" library="eagle-ltspice" library_urn="urn:adsk.eagle:library:217" package="R1206" package3d_urn="urn:adsk.eagle:package:13301/1" value="" x="75.5" y="10">
<attribute name="SPICEMODEL" value="NONE" x="75.5" y="10" size="1.778" layer="27" display="off"/>
<attribute name="SPICEPREFIX" value="R" x="75.5" y="10" size="1.778" layer="27" display="off"/>
</element>
<element name="BATTERYSHORTER5:U$12" library="BMS" package="CPC1002N" value="CPC1002N" x="75" y="20" rot="R180"/>
<element name="BATTERYSHORTER6:JP3" library="pinhead" library_urn="urn:adsk.eagle:library:325" package="1X01" package3d_urn="urn:adsk.eagle:package:22485/2" value="" x="68.5" y="24.5"/>
<element name="BATTERYSHORTER6:R1" library="eagle-ltspice" library_urn="urn:adsk.eagle:library:217" package="R1206" package3d_urn="urn:adsk.eagle:package:13301/1" value="" x="70" y="12.5">
<attribute name="SPICEMODEL" value="NONE" x="70" y="12.5" size="1.778" layer="27" display="off"/>
<attribute name="SPICEPREFIX" value="R" x="70" y="12.5" size="1.778" layer="27" display="off"/>
</element>
<element name="BATTERYSHORTER6:R7" library="eagle-ltspice" library_urn="urn:adsk.eagle:library:217" package="R1206" package3d_urn="urn:adsk.eagle:package:13301/1" value="" x="70" y="10">
<attribute name="SPICEMODEL" value="NONE" x="70" y="10" size="1.778" layer="27" display="off"/>
<attribute name="SPICEPREFIX" value="R" x="70" y="10" size="1.778" layer="27" display="off"/>
</element>
<element name="BATTERYSHORTER6:U$12" library="BMS" package="CPC1002N" value="CPC1002N" x="69" y="20" rot="R180"/>
<element name="BATTERYSHORTER7:JP3" library="pinhead" library_urn="urn:adsk.eagle:library:325" package="1X01" package3d_urn="urn:adsk.eagle:package:22485/2" value="" x="62.5" y="24.5"/>
<element name="BATTERYSHORTER7:R1" library="eagle-ltspice" library_urn="urn:adsk.eagle:library:217" package="R1206" package3d_urn="urn:adsk.eagle:package:13301/1" value="" x="64" y="12.5">
<attribute name="SPICEMODEL" value="NONE" x="64" y="12.5" size="1.778" layer="27" display="off"/>
<attribute name="SPICEPREFIX" value="R" x="64" y="12.5" size="1.778" layer="27" display="off"/>
</element>
<element name="BATTERYSHORTER7:R7" library="eagle-ltspice" library_urn="urn:adsk.eagle:library:217" package="R1206" package3d_urn="urn:adsk.eagle:package:13301/1" value="" x="64" y="10">
<attribute name="SPICEMODEL" value="NONE" x="64" y="10" size="1.778" layer="27" display="off"/>
<attribute name="SPICEPREFIX" value="R" x="64" y="10" size="1.778" layer="27" display="off"/>
</element>
<element name="BATTERYSHORTER7:U$12" library="BMS" package="CPC1002N" value="CPC1002N" x="63" y="20" rot="R180"/>
<element name="BATTERYSHORTER8:JP3" library="pinhead" library_urn="urn:adsk.eagle:library:325" package="1X01" package3d_urn="urn:adsk.eagle:package:22485/2" value="" x="57" y="24.5"/>
<element name="BATTERYSHORTER8:R1" library="eagle-ltspice" library_urn="urn:adsk.eagle:library:217" package="R1206" package3d_urn="urn:adsk.eagle:package:13301/1" value="" x="58.5" y="12.5">
<attribute name="SPICEMODEL" value="NONE" x="58.5" y="12.5" size="1.778" layer="27" display="off"/>
<attribute name="SPICEPREFIX" value="R" x="58.5" y="12.5" size="1.778" layer="27" display="off"/>
</element>
<element name="BATTERYSHORTER8:R7" library="eagle-ltspice" library_urn="urn:adsk.eagle:library:217" package="R1206" package3d_urn="urn:adsk.eagle:package:13301/1" value="" x="58.5" y="10">
<attribute name="SPICEMODEL" value="NONE" x="58.5" y="10" size="1.778" layer="27" display="off"/>
<attribute name="SPICEPREFIX" value="R" x="58.5" y="10" size="1.778" layer="27" display="off"/>
</element>
<element name="BATTERYSHORTER8:U$12" library="BMS" package="CPC1002N" value="CPC1002N" x="57.5" y="20" rot="R180"/>
<element name="BATTERYSHORTER9:JP3" library="pinhead" library_urn="urn:adsk.eagle:library:325" package="1X01" package3d_urn="urn:adsk.eagle:package:22485/2" value="" x="51" y="24.5"/>
<element name="BATTERYSHORTER9:R1" library="eagle-ltspice" library_urn="urn:adsk.eagle:library:217" package="R1206" package3d_urn="urn:adsk.eagle:package:13301/1" value="" x="52.5" y="12.5">
<attribute name="SPICEMODEL" value="NONE" x="52.5" y="12.5" size="1.778" layer="27" display="off"/>
<attribute name="SPICEPREFIX" value="R" x="52.5" y="12.5" size="1.778" layer="27" display="off"/>
</element>
<element name="BATTERYSHORTER9:R7" library="eagle-ltspice" library_urn="urn:adsk.eagle:library:217" package="R1206" package3d_urn="urn:adsk.eagle:package:13301/1" value="" x="52.5" y="10">
<attribute name="SPICEMODEL" value="NONE" x="52.5" y="10" size="1.778" layer="27" display="off"/>
<attribute name="SPICEPREFIX" value="R" x="52.5" y="10" size="1.778" layer="27" display="off"/>
</element>
<element name="BATTERYSHORTER9:U$12" library="BMS" package="CPC1002N" value="CPC1002N" x="51.5" y="20" rot="R180"/>
<element name="C1" library="eagle-ltspice" library_urn="urn:adsk.eagle:library:217" package="C1206" package3d_urn="urn:adsk.eagle:package:13279/1" value="" x="39.38" y="60.02" rot="R180">
<attribute name="SPICEMODEL" value="NONE" x="39.38" y="60.02" size="1.778" layer="27" rot="R180" display="off"/>
<attribute name="SPICEPREFIX" value="C" x="39.38" y="60.02" size="1.778" layer="27" rot="R180" display="off"/>
</element>
<element name="C2" library="eagle-ltspice" library_urn="urn:adsk.eagle:library:217" package="C1206" package3d_urn="urn:adsk.eagle:package:13279/1" value="" x="39.35" y="56.74" rot="R180">
<attribute name="SPICEMODEL" value="NONE" x="39.35" y="56.74" size="1.778" layer="27" rot="R180" display="off"/>
<attribute name="SPICEPREFIX" value="C" x="39.35" y="56.74" size="1.778" layer="27" rot="R180" display="off"/>
</element>
<element name="C3" library="eagle-ltspice" library_urn="urn:adsk.eagle:library:217" package="C1206" package3d_urn="urn:adsk.eagle:package:13279/1" value="" x="58.37" y="56.56">
<attribute name="SPICEMODEL" value="NONE" x="58.37" y="56.56" size="1.778" layer="27" display="off"/>
<attribute name="SPICEPREFIX" value="C" x="58.37" y="56.56" size="1.778" layer="27" display="off"/>
</element>
<element name="C4" library="eagle-ltspice" library_urn="urn:adsk.eagle:library:217" package="C1206" package3d_urn="urn:adsk.eagle:package:13279/1" value="" x="66.36" y="57.81" rot="R135">
<attribute name="SPICEMODEL" value="NONE" x="66.36" y="57.81" size="1.778" layer="27" rot="R135" display="off"/>
<attribute name="SPICEPREFIX" value="C" x="66.36" y="57.81" size="1.778" layer="27" rot="R135" display="off"/>
</element>
<element name="C5" library="eagle-ltspice" library_urn="urn:adsk.eagle:library:217" package="C1206" package3d_urn="urn:adsk.eagle:package:13279/1" value="" x="45.01" y="55.26">
<attribute name="SPICEMODEL" value="NONE" x="45.01" y="55.26" size="1.778" layer="27" display="off"/>
<attribute name="SPICEPREFIX" value="C" x="45.01" y="55.26" size="1.778" layer="27" display="off"/>
</element>
<element name="C6" library="eagle-ltspice" library_urn="urn:adsk.eagle:library:217" package="C1206" package3d_urn="urn:adsk.eagle:package:13279/1" value="" x="77.73" y="53.76">
<attribute name="SPICEMODEL" value="NONE" x="77.73" y="53.76" size="1.778" layer="27" display="off"/>
<attribute name="SPICEPREFIX" value="C" x="77.73" y="53.76" size="1.778" layer="27" display="off"/>
</element>
<element name="C7" library="eagle-ltspice" library_urn="urn:adsk.eagle:library:217" package="C1206" package3d_urn="urn:adsk.eagle:package:13279/1" value="" x="65.75" y="61.86">
<attribute name="SPICEMODEL" value="NONE" x="65.75" y="61.86" size="1.778" layer="27" display="off"/>
<attribute name="SPICEPREFIX" value="C" x="65.75" y="61.86" size="1.778" layer="27" display="off"/>
</element>
<element name="JP1" library="pinhead" library_urn="urn:adsk.eagle:library:325" package="1X02" package3d_urn="urn:adsk.eagle:package:22435/2" value="" x="52.33" y="49.15"/>
<element name="JP2" library="pinhead" library_urn="urn:adsk.eagle:library:325" package="1X02" package3d_urn="urn:adsk.eagle:package:22435/2" value="" x="59.18" y="62.35" smashed="yes">
<attribute name="VALUE" x="56.64" y="59.175" size="1.27" layer="27"/>
</element>
<element name="JP3" library="pinhead" library_urn="urn:adsk.eagle:library:325" package="1X01" package3d_urn="urn:adsk.eagle:package:22485/2" value="" x="44.8" y="60.48" smashed="yes">
<attribute name="VALUE" x="43.53" y="57.305" size="1.27" layer="27"/>
</element>
<element name="R1" library="pot" library_urn="urn:adsk.eagle:library:331" package="S64W" package3d_urn="urn:adsk.eagle:package:22708/1" value="" x="25.29" y="33.87" rot="R90"/>
<element name="R10" library="pot" library_urn="urn:adsk.eagle:library:331" package="S64W" package3d_urn="urn:adsk.eagle:package:22708/1" value="" x="65.93" y="33.87" rot="R90"/>
<element name="R11" library="pot" library_urn="urn:adsk.eagle:library:331" package="S64W" package3d_urn="urn:adsk.eagle:package:22708/1" value="" x="71.01" y="33.87" rot="R90"/>
<element name="R12" library="pot" library_urn="urn:adsk.eagle:library:331" package="S64W" package3d_urn="urn:adsk.eagle:package:22708/1" value="" x="77.36" y="33.87" rot="R90"/>
<element name="R13" library="pot" library_urn="urn:adsk.eagle:library:331" package="S64W" package3d_urn="urn:adsk.eagle:package:22708/1" value="" x="82.44" y="33.87" rot="R90"/>
<element name="R2" library="pot" library_urn="urn:adsk.eagle:library:331" package="S64W" package3d_urn="urn:adsk.eagle:package:22708/1" value="" x="31.64" y="33.87" rot="R90"/>
<element name="R3" library="pot" library_urn="urn:adsk.eagle:library:331" package="S64W" package3d_urn="urn:adsk.eagle:package:22708/1" value="" x="36.72" y="33.87" rot="R90"/>
<element name="R4" library="pot" library_urn="urn:adsk.eagle:library:331" package="S64W" package3d_urn="urn:adsk.eagle:package:22708/1" value="" x="43.07" y="33.87" rot="R90"/>
<element name="R5" library="pot" library_urn="urn:adsk.eagle:library:331" package="S64W" package3d_urn="urn:adsk.eagle:package:22708/1" value="" x="48.15" y="33.87" rot="R90"/>
<element name="R6" library="pot" library_urn="urn:adsk.eagle:library:331" package="S64W" package3d_urn="urn:adsk.eagle:package:22708/1" value="" x="54.5" y="33.87" rot="R90"/>
<element name="R8" library="pot" library_urn="urn:adsk.eagle:library:331" package="S64W" package3d_urn="urn:adsk.eagle:package:22708/1" value="" x="20.21" y="33.87" rot="R90"/>
<element name="R9" library="pot" library_urn="urn:adsk.eagle:library:331" package="S64W" package3d_urn="urn:adsk.eagle:package:22708/1" value="" x="59.58" y="33.87" rot="R90"/>
<element name="U$1" library="BMS" package="PHOENIX-2PIN" value="PHOENIX-2PIN" x="14.41" y="5.31"/>
<element name="U$10" library="BMS" package="SN74LV4052A" value="SN74LV4052A" x="65.93" y="54.19" rot="R270"/>
<element name="U$11" library="BMS" package="ADC1115" value="ADC1115" x="49.42" y="60.54" rot="R270"/>
<element name="U$2" library="BMS" package="PHOENIX-2PIN" value="PHOENIX-2PIN" x="25.84" y="5.31"/>
<element name="U$3" library="BMS" package="PHOENIX-2PIN" value="PHOENIX-2PIN" x="37.27" y="5.31"/>
<element name="U$4" library="BMS" package="PHOENIX-2PIN" value="PHOENIX-2PIN" x="48.7" y="5.31"/>
<element name="U$5" library="BMS" package="PHOENIX-2PIN" value="PHOENIX-2PIN" x="60.13" y="5.31"/>
<element name="U$6" library="BMS" package="PHOENIX-2PIN" value="PHOENIX-2PIN" x="71.56" y="5.31"/>
<element name="U$7" library="BMS" package="PHOENIX-2PIN" value="PHOENIX-2PIN" x="82.99" y="5.31"/>
<element name="U$8" library="BMS" package="PHOENIX-2PIN" value="PHOENIX-2PIN" x="5.19" y="14.98" rot="R90"/>
<element name="U$9" library="BMS" package="SN74LV4052A" value="SN74LV4052A" x="29.1" y="55.46" rot="R270"/>
</elements>
<signals>
<signal name="VCC">
<contactref element="U$8" pad="P$2"/>
<contactref element="U$9" pad="P$16"/>
<contactref element="C5" pad="1"/>
<contactref element="U$10" pad="P$16"/>
<contactref element="C6" pad="1"/>
<contactref element="U$11" pad="P$8"/>
<contactref element="C7" pad="1"/>
<wire x1="53.52" y1="59.04" x2="61.84" y2="59.04" width="0.3048" layer="1"/>
<wire x1="68.856825" y1="56.978175" x2="72.28" y2="53.555" width="0.3048" layer="1"/>
<wire x1="68.856825" y1="57.0170125" x2="68.856825" y2="56.978175" width="0.3048" layer="1"/>
<wire x1="65.5670125" y1="60.306825" x2="68.856825" y2="57.0170125" width="0.3048" layer="1"/>
<wire x1="63.106825" y1="60.306825" x2="65.5670125" y2="60.306825" width="0.3048" layer="1"/>
<wire x1="61.84" y1="59.04" x2="63.106825" y2="60.306825" width="0.3048" layer="1"/>
<wire x1="35.45" y1="54.825" x2="43.175" y2="54.825" width="0.3048" layer="1"/>
<wire x1="43.175" y1="54.825" x2="43.61" y2="55.26" width="0.3048" layer="1"/>
<wire x1="72.28" y1="53.555" x2="76.125" y2="53.555" width="0.3048" layer="1"/>
<wire x1="76.125" y1="53.555" x2="76.33" y2="53.76" width="0.3048" layer="1"/>
<wire x1="63.106825" y1="60.306825" x2="64.35" y2="61.55" width="0.3048" layer="1"/>
<wire x1="64.35" y1="61.55" x2="64.35" y2="61.86" width="0.3048" layer="1"/>
<polygon width="0.3048" layer="16">
<vertex x="0" y="66.5"/>
<vertex x="100" y="66.5"/>
<vertex x="100" y="0"/>
<vertex x="0" y="0"/>
</polygon>
<wire x1="43.61" y1="55.26" x2="44" y2="55.65" width="0.3048" layer="1"/>
<wire x1="44" y1="55.65" x2="44" y2="57" width="0.3048" layer="1"/>
<via x="44" y="57" extent="1-16" drill="0.35"/>
<wire x1="76.33" y1="53.76" x2="76" y2="54.09" width="0.3048" layer="1"/>
<wire x1="76" y1="54.09" x2="76" y2="55.5" width="0.3048" layer="1"/>
<via x="76" y="55.5" extent="1-16" drill="0.35"/>
</signal>
<signal name="GND">
<contactref element="U$8" pad="P$1"/>
<contactref element="U$1" pad="P$1"/>
<contactref element="U$9" pad="P$7"/>
<contactref element="U$9" pad="P$8"/>
<contactref element="U$9" pad="P$6"/>
<contactref element="U$10" pad="P$7"/>
<contactref element="U$10" pad="P$8"/>
<contactref element="U$10" pad="P$6"/>
<contactref element="R8" pad="A"/>
<contactref element="R1" pad="A"/>
<contactref element="R2" pad="A"/>
<contactref element="R9" pad="A"/>
<contactref element="R10" pad="A"/>
<contactref element="R11" pad="A"/>
<contactref element="R12" pad="A"/>
<contactref element="R13" pad="A"/>
<contactref element="R6" pad="A"/>
<contactref element="R5" pad="A"/>
<contactref element="R4" pad="A"/>
<contactref element="R3" pad="A"/>
<contactref element="U$11" pad="P$1"/>
<contactref element="U$11" pad="P$3"/>
<contactref element="C1" pad="2"/>
<contactref element="C2" pad="2"/>
<contactref element="C4" pad="2"/>
<contactref element="C3" pad="2"/>
<contactref element="C6" pad="2"/>
<contactref element="BATTERYSHORTER3:U$12" pad="P$2"/>
<contactref element="BATTERYSHORTER4:U$12" pad="P$2"/>
<contactref element="BATTERYSHORTER5:U$12" pad="P$2"/>
<contactref element="BATTERYSHORTER6:U$12" pad="P$2"/>
<contactref element="BATTERYSHORTER7:U$12" pad="P$2"/>
<contactref element="BATTERYSHORTER8:U$12" pad="P$2"/>
<contactref element="BATTERYSHORTER9:U$12" pad="P$2"/>
<contactref element="BATTERYSHORTER10:U$12" pad="P$2"/>
<contactref element="BATTERYSHORTER11:U$12" pad="P$2"/>
<contactref element="BATTERYSHORTER12:U$12" pad="P$2"/>
<contactref element="BATTERYSHORTER13:U$12" pad="P$2"/>
<contactref element="BATTERYSHORTER14:U$12" pad="P$2"/>
<contactref element="BATTERYSHORTER15:U$12" pad="P$2"/>
<contactref element="BATTERYSHORTER15:U$12" pad="P$3"/>
<wire x1="27.83" y1="48.475" x2="27.83" y2="47.205" width="0.3048" layer="1"/>
<wire x1="27.83" y1="47.205" x2="27.83" y2="45.935" width="0.3048" layer="1"/>
<wire x1="48.32" y1="60.04" x2="49.76" y2="60.04" width="0.3048" layer="1"/>
<wire x1="49.9" y1="59.9" x2="49.76" y2="60.04" width="0.3048" layer="1"/>
<wire x1="48.32" y1="59.04" x2="49.74" y2="59.04" width="0.3048" layer="1"/>
<wire x1="49.74" y1="59.04" x2="49.9" y2="59.2" width="0.3048" layer="1"/>
<wire x1="49.9" y1="59.2" x2="49.9" y2="59.9" width="0.3048" layer="1"/>
<contactref element="C7" pad="2"/>
<contactref element="C5" pad="2"/>
<wire x1="13.76" y1="15.1" x2="13.76" y2="5.96" width="0.3048" layer="1"/>
<wire x1="13.76" y1="5.96" x2="14.41" y2="5.31" width="0.3048" layer="1"/>
<wire x1="5.19" y1="14.98" x2="12.77" y2="15.1" width="0.3048" layer="1"/>
<wire x1="12.77" y1="15.1" x2="13.76" y2="15.1" width="0.3048" layer="1"/>
<polygon width="0.3048" layer="1">
<vertex x="0" y="66.5"/>
<vertex x="0" y="0"/>
<vertex x="100" y="0"/>
<vertex x="100" y="66.5"/>
</polygon>
<wire x1="65.37005" y1="58.799946875" x2="64.200053125" y2="58.799946875" width="0.3048" layer="1"/>
<wire x1="64.200053125" y1="58.799946875" x2="63.5" y2="59.5" width="0.3048" layer="1"/>
<via x="63.5" y="59.5" extent="1-16" drill="0.35"/>
<wire x1="63.5" y1="59.5" x2="62.5" y2="60.5" width="0.3048" layer="16"/>
<wire x1="62.5" y1="60.5" x2="62.5" y2="61.5" width="0.3048" layer="16"/>
<via x="62.5" y="61.5" extent="1-16" drill="0.35"/>
</signal>
<signal name="SEL_B">
<contactref element="JP1" pad="2"/>
<contactref element="U$9" pad="P$9"/>
<contactref element="U$10" pad="P$9"/>
<wire x1="35.45" y1="45.935" x2="35.5" y2="45.885" width="0.3048" layer="1"/>
<wire x1="35.5" y1="45.885" x2="35.5" y2="44.8" width="0.3048" layer="1"/>
<via x="35.5" y="44.8" extent="1-16" drill="0.35"/>
<wire x1="37.117" y1="47.4829125" x2="42.4242875" y2="52.7902" width="0.3048" layer="16"/>
<wire x1="35.5" y1="44.8" x2="37.117" y2="46.417" width="0.3048" layer="16"/>
<wire x1="37.117" y1="46.417" x2="37.117" y2="47.4829125" width="0.3048" layer="16"/>
<wire x1="67.8098" y1="52.7902" x2="75.3" y2="45.3" width="0.3048" layer="16"/>
<via x="75.3" y="45.3" extent="1-16" drill="0.35"/>
<wire x1="75.3" y1="45.3" x2="74.665" y2="44.665" width="0.3048" layer="1"/>
<wire x1="74.665" y1="44.665" x2="72.28" y2="44.665" width="0.3048" layer="1"/>
<wire x1="42.4242875" y1="52.7902" x2="52.6902" y2="52.7902" width="0.3048" layer="16"/>
<wire x1="52.6902" y1="52.7902" x2="67.8098" y2="52.7902" width="0.3048" layer="16"/>
<wire x1="53.6" y1="49.15" x2="53.6" y2="53.1" width="0.3048" layer="1"/>
<wire x1="53.6" y1="53.1" x2="53.3" y2="53.4" width="0.3048" layer="1"/>
<via x="53.3" y="53.4" extent="1-16" drill="0.35"/>
<wire x1="53.3" y1="53.4" x2="52.6902" y2="52.7902" width="0.3048" layer="16"/>
</signal>
<signal name="SEL_A">
<contactref element="U$9" pad="P$10"/>
<contactref element="JP1" pad="1"/>
<contactref element="U$10" pad="P$10"/>
<wire x1="72.28" y1="45.935" x2="70.235" y2="45.935" width="0.3048" layer="1"/>
<wire x1="70.235" y1="45.935" x2="70.2" y2="45.9" width="0.3048" layer="1"/>
<via x="70.2" y="45.9" extent="1-16" drill="0.35"/>
<via x="37.8" y="47.2" extent="1-16" drill="0.35"/>
<wire x1="70.2" y1="45.9" x2="68.8359125" y2="45.9" width="0.3048" layer="16"/>
<wire x1="68.8359125" y1="45.9" x2="62.4029125" y2="52.333" width="0.3048" layer="16"/>
<wire x1="62.4029125" y1="52.333" x2="50.7" y2="52.333" width="0.3048" layer="16"/>
<wire x1="50.7" y1="52.333" x2="42.7870875" y2="52.333" width="0.3048" layer="16"/>
<wire x1="42.7870875" y1="52.333" x2="38.577" y2="48.1229125" width="0.3048" layer="16"/>
<wire x1="38.577" y1="48.1229125" x2="38.577" y2="47.977" width="0.3048" layer="16"/>
<wire x1="38.577" y1="47.977" x2="37.8" y2="47.2" width="0.3048" layer="16"/>
<wire x1="37.8" y1="47.2" x2="37.795" y2="47.205" width="0.3048" layer="1"/>
<wire x1="37.795" y1="47.205" x2="35.45" y2="47.205" width="0.3048" layer="1"/>
<wire x1="51.06" y1="49.15" x2="50.7" y2="49.51" width="0.3048" layer="16"/>
<wire x1="50.7" y1="49.51" x2="50.7" y2="52.333" width="0.3048" layer="16"/>
</signal>
<signal name="N$1">
<contactref element="U$1" pad="P$2"/>
<contactref element="U$9" pad="P$1"/>
<contactref element="BATTERYSHORTER14:U$12" pad="P$3"/>
<contactref element="BATTERYSHORTER15:R7" pad="2"/>
<contactref element="BATTERYSHORTER15:R1" pad="2"/>
<wire x1="19.422" y1="12.5" x2="19.422" y2="14.938" width="0.3048" layer="1"/>
<wire x1="19.422" y1="14.938" x2="19.26" y2="15.1" width="0.3048" layer="1"/>
<wire x1="19.422" y1="10" x2="19.422" y2="12.5" width="0.3048" layer="1"/>
<wire x1="19.41" y1="5.31" x2="19.41" y2="9.988" width="0.3048" layer="1"/>
<wire x1="19.41" y1="9.988" x2="19.422" y2="10" width="0.3048" layer="1"/>
<wire x1="27.83" y1="54.825" x2="22.325" y2="54.825" width="0.3048" layer="1"/>
<wire x1="15" y1="47.5" x2="15" y2="29.5" width="0.3048" layer="1"/>
<wire x1="19.26" y1="19.31895" x2="19.26" y2="15.1" width="0.3048" layer="1"/>
<wire x1="19.9148" y1="19.97375" x2="19.26" y2="19.31895" width="0.3048" layer="1"/>
<wire x1="15" y1="29.5" x2="19.9148" y2="24.5852" width="0.3048" layer="1"/>
<wire x1="19.9148" y1="24.5852" x2="19.9148" y2="19.97375" width="0.3048" layer="1"/>
<wire x1="22.325" y1="54.825" x2="15" y2="47.5" width="0.3048" layer="1"/>
</signal>
<signal name="N$2">
<contactref element="U$2" pad="P$1"/>
<contactref element="R8" pad="E"/>
<contactref element="BATTERYSHORTER13:U$12" pad="P$3"/>
<contactref element="BATTERYSHORTER14:R7" pad="2"/>
<contactref element="BATTERYSHORTER14:R1" pad="2"/>
<wire x1="25.26" y1="15.1" x2="25.26" y2="12.662" width="0.3048" layer="1"/>
<wire x1="25.26" y1="12.662" x2="25.422" y2="12.5" width="0.3048" layer="1"/>
<wire x1="25.422" y1="12.5" x2="25.422" y2="10" width="0.3048" layer="1"/>
<wire x1="25.422" y1="10" x2="25.422" y2="5.728" width="0.3048" layer="1"/>
<wire x1="25.422" y1="5.728" x2="25.84" y2="5.31" width="0.3048" layer="1"/>
<wire x1="25.26" y1="19.31895" x2="25.26" y2="15.1" width="0.3048" layer="1"/>
<wire x1="25.9148" y1="19.97375" x2="25.26" y2="19.31895" width="0.3048" layer="1"/>
<wire x1="18.94" y1="31.33" x2="25.9148" y2="24.3552" width="0.3048" layer="1"/>
<wire x1="25.9148" y1="24.3552" x2="25.9148" y2="19.97375" width="0.3048" layer="1"/>
</signal>
<signal name="N$3">
<contactref element="R1" pad="E"/>
<contactref element="U$2" pad="P$2"/>
<contactref element="BATTERYSHORTER12:U$12" pad="P$3"/>
<contactref element="BATTERYSHORTER13:R7" pad="2"/>
<contactref element="BATTERYSHORTER13:R1" pad="2"/>
<wire x1="31.26" y1="15.1" x2="31.26" y2="12.26" width="0.3048" layer="1"/>
<wire x1="31.26" y1="12.26" x2="31" y2="12" width="0.3048" layer="1"/>
<wire x1="31" y1="12" x2="30.922" y2="12.078" width="0.3048" layer="1"/>
<wire x1="30.922" y1="12.078" x2="30.922" y2="12.5" width="0.3048" layer="1"/>
<wire x1="30.922" y1="12.5" x2="30.922" y2="10" width="0.3048" layer="1"/>
<wire x1="30.922" y1="10" x2="30.922" y2="5.392" width="0.3048" layer="1"/>
<wire x1="30.922" y1="5.392" x2="30.84" y2="5.31" width="0.3048" layer="1"/>
<wire x1="31.26" y1="19.31895" x2="31.26" y2="15.1" width="0.3048" layer="1"/>
<wire x1="31.9148" y1="19.97375" x2="31.26" y2="19.31895" width="0.3048" layer="1"/>
<wire x1="24.02" y1="31.33" x2="31.9148" y2="23.4352" width="0.3048" layer="1"/>
<wire x1="31.9148" y1="23.4352" x2="31.9148" y2="19.97375" width="0.3048" layer="1"/>
</signal>
<signal name="N$4">
<contactref element="R2" pad="E"/>
<contactref element="U$3" pad="P$1"/>
<contactref element="BATTERYSHORTER11:U$12" pad="P$3"/>
<contactref element="BATTERYSHORTER12:R7" pad="2"/>
<contactref element="BATTERYSHORTER12:R1" pad="2"/>
<wire x1="36.76" y1="15.1" x2="36.76" y2="12.662" width="0.3048" layer="1"/>
<wire x1="36.76" y1="12.662" x2="36.922" y2="12.5" width="0.3048" layer="1"/>
<wire x1="36.922" y1="12.5" x2="36.922" y2="10" width="0.3048" layer="1"/>
<wire x1="36.922" y1="10" x2="36.922" y2="5.658" width="0.3048" layer="1"/>
<wire x1="36.922" y1="5.658" x2="37.27" y2="5.31" width="0.3048" layer="1"/>
<wire x1="36.76" y1="19.31895" x2="36.76" y2="15.1" width="0.3048" layer="1"/>
<wire x1="37.4148" y1="19.97375" x2="36.76" y2="19.31895" width="0.3048" layer="1"/>
<wire x1="30.37" y1="31.33" x2="37.4148" y2="24.2852" width="0.3048" layer="1"/>
<wire x1="37.4148" y1="24.2852" x2="37.4148" y2="19.97375" width="0.3048" layer="1"/>
</signal>
<signal name="N$5">
<contactref element="R2" pad="S"/>
<contactref element="U$9" pad="P$4"/>
<wire x1="27.83" y1="51.015" x2="29.735" y2="51.015" width="0.3048" layer="1"/>
<wire x1="30.37" y1="34.3846" x2="30.37" y2="33.87" width="0.3048" layer="1"/>
<wire x1="31.9956" y1="36.0102" x2="30.37" y2="34.3846" width="0.3048" layer="1"/>
<wire x1="31.9956" y1="48.7544" x2="31.9956" y2="36.0102" width="0.3048" layer="1"/>
<wire x1="29.735" y1="51.015" x2="31.9956" y2="48.7544" width="0.3048" layer="1"/>
</signal>
<signal name="N$6">
<contactref element="R8" pad="S"/>
<contactref element="U$9" pad="P$5"/>
<wire x1="27.83" y1="49.745" x2="25.925" y2="49.745" width="0.3048" layer="1"/>
<wire x1="18.94" y1="34.3846" x2="18.94" y2="33.87" width="0.3048" layer="1"/>
<wire x1="20.5656" y1="36.0102" x2="18.94" y2="34.3846" width="0.3048" layer="1"/>
<wire x1="20.5656" y1="44.3856" x2="20.5656" y2="36.0102" width="0.3048" layer="1"/>
<wire x1="25.925" y1="49.745" x2="20.5656" y2="44.3856" width="0.3048" layer="1"/>
</signal>
<signal name="N$7">
<contactref element="R1" pad="S"/>
<contactref element="U$9" pad="P$2"/>
<wire x1="27.83" y1="53.555" x2="24.655" y2="53.555" width="0.3048" layer="1"/>
<wire x1="24.655" y1="53.555" x2="24.02" y2="52.92" width="0.3048" layer="1"/>
<via x="24.02" y="52.92" extent="1-16" drill="0.35"/>
<wire x1="25.6456" y1="36.8098" x2="25.6456" y2="36.0102" width="0.3048" layer="16"/>
<wire x1="24.02" y1="52.92" x2="24.02" y2="38.4354" width="0.3048" layer="16"/>
<wire x1="24.02" y1="34.3846" x2="24.02" y2="33.87" width="0.3048" layer="16"/>
<wire x1="24.02" y1="38.4354" x2="25.6456" y2="36.8098" width="0.3048" layer="16"/>
<wire x1="25.6456" y1="36.0102" x2="24.02" y2="34.3846" width="0.3048" layer="16"/>
</signal>
<signal name="N$8">
<contactref element="U$3" pad="P$2"/>
<contactref element="R3" pad="E"/>
<contactref element="BATTERYSHORTER10:U$12" pad="P$3"/>
<contactref element="BATTERYSHORTER11:R7" pad="2"/>
<contactref element="BATTERYSHORTER11:R1" pad="2"/>
<wire x1="42.76" y1="15.1" x2="42.76" y2="12.838" width="0.3048" layer="1"/>
<wire x1="42.76" y1="12.838" x2="42.422" y2="12.5" width="0.3048" layer="1"/>
<wire x1="42.422" y1="12.5" x2="42.422" y2="10" width="0.3048" layer="1"/>
<wire x1="42.422" y1="10" x2="42.422" y2="5.462" width="0.3048" layer="1"/>
<wire x1="42.422" y1="5.462" x2="42.27" y2="5.31" width="0.3048" layer="1"/>
<wire x1="42.76" y1="19.31895" x2="42.76" y2="15.1" width="0.3048" layer="1"/>
<wire x1="43.4148" y1="19.97375" x2="42.76" y2="19.31895" width="0.3048" layer="1"/>
<wire x1="35.45" y1="31.33" x2="43.4148" y2="23.3652" width="0.3048" layer="1"/>
<wire x1="43.4148" y1="23.3652" x2="43.4148" y2="19.97375" width="0.3048" layer="1"/>
</signal>
<signal name="N$9">
<contactref element="R4" pad="E"/>
<contactref element="U$4" pad="P$1"/>
<contactref element="BATTERYSHORTER9:U$12" pad="P$3"/>
<contactref element="BATTERYSHORTER10:R7" pad="2"/>
<contactref element="BATTERYSHORTER10:R1" pad="2"/>
<wire x1="48.7" y1="5.31" x2="48.402" y2="5.608" width="0.3048" layer="1"/>
<wire x1="48.402" y1="5.608" x2="48.422" y2="10" width="0.3048" layer="1"/>
<wire x1="48.422" y1="13" x2="48.402" y2="13.03" width="0.3048" layer="1"/>
<wire x1="48.402" y1="13.03" x2="48.422" y2="10" width="0.3048" layer="1"/>
<wire x1="48.26" y1="19.31895" x2="48.26" y2="15.1" width="0.3048" layer="1"/>
<wire x1="48.9148" y1="19.97375" x2="48.26" y2="19.31895" width="0.3048" layer="1"/>
<wire x1="41.8" y1="31.33" x2="48.9148" y2="24.2152" width="0.3048" layer="1"/>
<wire x1="48.9148" y1="24.2152" x2="48.9148" y2="19.97375" width="0.3048" layer="1"/>
<wire x1="48.26" y1="15.1" x2="48.402" y2="14.958" width="0.3048" layer="1"/>
<wire x1="48.402" y1="14.958" x2="48.402" y2="13.03" width="0.3048" layer="1"/>
</signal>
<signal name="N$10">
<contactref element="U$4" pad="P$2"/>
<contactref element="R5" pad="E"/>
<contactref element="BATTERYSHORTER8:U$12" pad="P$3"/>
<contactref element="BATTERYSHORTER9:R7" pad="2"/>
<contactref element="BATTERYSHORTER9:R1" pad="2"/>
<wire x1="54" y1="10" x2="54" y2="9.5" width="0.3048" layer="1"/>
<wire x1="54.26" y1="19.31895" x2="54.26" y2="15.1" width="0.3048" layer="1"/>
<wire x1="54.9148" y1="19.97375" x2="54.26" y2="19.31895" width="0.3048" layer="1"/>
<wire x1="46.88" y1="31.33" x2="54.9148" y2="23.2952" width="0.3048" layer="1"/>
<wire x1="54.9148" y1="23.2952" x2="54.9148" y2="19.97375" width="0.3048" layer="1"/>
<wire x1="53.922" y1="12.5" x2="53.922" y2="10.078" width="0.3048" layer="1"/>
<wire x1="53.922" y1="10.078" x2="54" y2="10" width="0.3048" layer="1"/>
<wire x1="54.26" y1="15.1" x2="54.26" y2="12.838" width="0.3048" layer="1"/>
<wire x1="54.26" y1="12.838" x2="53.922" y2="12.5" width="0.3048" layer="1"/>
<wire x1="54.26" y1="10.416" x2="53.922" y2="10.078" width="0.3048" layer="1"/>
<wire x1="53.7" y1="5.31" x2="53.7" y2="9.778" width="0.3048" layer="1"/>
<wire x1="53.7" y1="9.778" x2="53.922" y2="10" width="0.3048" layer="1"/>
<wire x1="53.922" y1="10" x2="53.922" y2="12.5" width="0.3048" layer="1"/>
<wire x1="54.26" y1="15.1" x2="54.26" y2="12.5" width="0.3048" layer="1"/>
<wire x1="54.26" y1="12.5" x2="54.26" y2="10.416" width="0.3048" layer="1"/>
<wire x1="53.922" y1="12.5" x2="54.26" y2="12.5" width="0.3048" layer="1"/>
</signal>
<signal name="N$11">
<contactref element="R6" pad="E"/>
<contactref element="U$5" pad="P$1"/>
<contactref element="BATTERYSHORTER7:U$12" pad="P$3"/>
<contactref element="BATTERYSHORTER8:R7" pad="2"/>
<contactref element="BATTERYSHORTER8:R1" pad="2"/>
<wire x1="59.76" y1="15.1" x2="59.76" y2="12.662" width="0.3048" layer="1"/>
<wire x1="59.76" y1="12.662" x2="59.922" y2="12.5" width="0.3048" layer="1"/>
<wire x1="59.922" y1="12.5" x2="59.922" y2="10.078" width="0.3048" layer="1"/>
<wire x1="59.922" y1="10.078" x2="60" y2="10" width="0.3048" layer="1"/>
<wire x1="60.5" y1="9.5" x2="60" y2="10" width="0.3048" layer="1"/>
<wire x1="60" y1="10" x2="59.922" y2="10" width="0.3048" layer="1"/>
<wire x1="59.922" y1="10" x2="60" y2="9.922" width="0.3048" layer="1"/>
<wire x1="60" y1="5.44" x2="60.13" y2="5.31" width="0.3048" layer="1"/>
<wire x1="60" y1="9.922" x2="60" y2="5.44" width="0.3048" layer="1"/>
<wire x1="59.76" y1="19.31895" x2="59.76" y2="15.1" width="0.3048" layer="1"/>
<wire x1="60.4148" y1="19.97375" x2="59.76" y2="19.31895" width="0.3048" layer="1"/>
<wire x1="53.23" y1="31.33" x2="60.4148" y2="24.1452" width="0.3048" layer="1"/>
<wire x1="60.4148" y1="24.1452" x2="60.4148" y2="19.97375" width="0.3048" layer="1"/>
</signal>
<signal name="N$12">
<contactref element="R3" pad="S"/>
<contactref element="U$9" pad="P$12"/>
<wire x1="35.45" y1="49.745" x2="33.545" y2="49.745" width="0.3048" layer="1"/>
<wire x1="33.545" y1="49.745" x2="32.91" y2="49.11" width="0.3048" layer="1"/>
<wire x1="32.91" y1="49.11" x2="32.91" y2="36.41" width="0.3048" layer="1"/>
<wire x1="32.91" y1="36.41" x2="35.45" y2="33.87" width="0.3048" layer="1"/>
</signal>
<signal name="N$13">
<contactref element="U$9" pad="P$11"/>
<contactref element="R6" pad="S"/>
<wire x1="35.45" y1="48.475" x2="38.625" y2="48.475" width="0.3048" layer="1"/>
<wire x1="38.625" y1="48.475" x2="39.26" y2="47.84" width="0.3048" layer="1"/>
<via x="39.26" y="47.84" extent="1-16" drill="0.35"/>
<wire x1="39.26" y1="47.84" x2="53.23" y2="33.87" width="0.3048" layer="16"/>
</signal>
<signal name="N$14">
<contactref element="U$9" pad="P$14"/>
<contactref element="R4" pad="S"/>
<wire x1="35.45" y1="52.285" x2="37.355" y2="52.285" width="0.3048" layer="1"/>
<wire x1="41.8" y1="34.3846" x2="41.8" y2="33.87" width="0.3048" layer="1"/>
<wire x1="43.4256" y1="36.0102" x2="41.8" y2="34.3846" width="0.3048" layer="1"/>
<wire x1="43.4256" y1="46.2144" x2="43.4256" y2="36.0102" width="0.3048" layer="1"/>
<wire x1="37.355" y1="52.285" x2="43.4256" y2="46.2144" width="0.3048" layer="1"/>
</signal>
<signal name="N$15">
<contactref element="U$9" pad="P$15"/>
<contactref element="R5" pad="S"/>
<wire x1="46.88" y1="33.87" x2="44.34" y2="36.41" width="0.3048" layer="1"/>
<wire x1="44.34" y1="36.41" x2="44.34" y2="50.38" width="0.3048" layer="1"/>
<wire x1="44.34" y1="50.38" x2="41.165" y2="53.555" width="0.3048" layer="1"/>
<wire x1="41.165" y1="53.555" x2="35.45" y2="53.555" width="0.3048" layer="1"/>
</signal>
<signal name="N$16">
<contactref element="U$5" pad="P$2"/>
<contactref element="R9" pad="E"/>
<contactref element="BATTERYSHORTER6:U$12" pad="P$3"/>
<contactref element="BATTERYSHORTER7:R7" pad="2"/>
<contactref element="BATTERYSHORTER7:R1" pad="2"/>
<wire x1="65.13" y1="5.31" x2="65.13" y2="9.708" width="0.3048" layer="1"/>
<wire x1="65.13" y1="9.708" x2="65.422" y2="10" width="0.3048" layer="1"/>
<wire x1="65.422" y1="10" x2="65.422" y2="12.5" width="0.3048" layer="1"/>
<wire x1="65.76" y1="15.1" x2="65.422" y2="14.762" width="0.3048" layer="1"/>
<wire x1="65.422" y1="14.762" x2="65.422" y2="12.5" width="0.3048" layer="1"/>
<wire x1="65.76" y1="19.31895" x2="65.76" y2="15.1" width="0.3048" layer="1"/>
<wire x1="66.4148" y1="19.97375" x2="65.76" y2="19.31895" width="0.3048" layer="1"/>
<wire x1="58.31" y1="31.33" x2="66.4148" y2="23.2252" width="0.3048" layer="1"/>
<wire x1="66.4148" y1="23.2252" x2="66.4148" y2="19.97375" width="0.3048" layer="1"/>
</signal>
<signal name="N$17">
<contactref element="U$6" pad="P$1"/>
<contactref element="R10" pad="E"/>
<contactref element="BATTERYSHORTER5:U$12" pad="P$3"/>
<contactref element="BATTERYSHORTER6:R7" pad="2"/>
<contactref element="BATTERYSHORTER6:R1" pad="2"/>
<wire x1="71.422" y1="12.5" x2="71.422" y2="10" width="0.3048" layer="1"/>
<wire x1="71.422" y1="10" x2="71.422" y2="5.448" width="0.3048" layer="1"/>
<wire x1="71.422" y1="5.448" x2="71.56" y2="5.31" width="0.3048" layer="1"/>
<wire x1="71.76" y1="15.1" x2="71.422" y2="14.762" width="0.3048" layer="1"/>
<wire x1="71.422" y1="14.762" x2="71.422" y2="12.5" width="0.3048" layer="1"/>
<wire x1="71.76" y1="19.31895" x2="71.76" y2="15.1" width="0.3048" layer="1"/>
<wire x1="72.4148" y1="19.97375" x2="71.76" y2="19.31895" width="0.3048" layer="1"/>
<wire x1="64.66" y1="31.33" x2="72.4148" y2="23.5752" width="0.3048" layer="1"/>
<wire x1="72.4148" y1="23.5752" x2="72.4148" y2="19.97375" width="0.3048" layer="1"/>
</signal>
<signal name="N$18">
<contactref element="U$6" pad="P$2"/>
<contactref element="R11" pad="E"/>
<contactref element="BATTERYSHORTER4:U$12" pad="P$3"/>
<contactref element="BATTERYSHORTER5:R7" pad="2"/>
<contactref element="BATTERYSHORTER5:R1" pad="2"/>
<wire x1="76.922" y1="12.5" x2="76.922" y2="10" width="0.3048" layer="1"/>
<wire x1="76.922" y1="10" x2="76.922" y2="5.672" width="0.3048" layer="1"/>
<wire x1="76.922" y1="5.672" x2="76.56" y2="5.31" width="0.3048" layer="1"/>
<wire x1="77.26" y1="15.1" x2="77.26" y2="12.838" width="0.3048" layer="1"/>
<wire x1="77.26" y1="12.838" x2="76.922" y2="12.5" width="0.3048" layer="1"/>
<wire x1="77.26" y1="19.31895" x2="77.26" y2="15.1" width="0.3048" layer="1"/>
<wire x1="77.9148" y1="19.97375" x2="77.26" y2="19.31895" width="0.3048" layer="1"/>
<wire x1="69.74" y1="31.33" x2="77.9148" y2="23.1552" width="0.3048" layer="1"/>
<wire x1="77.9148" y1="23.1552" x2="77.9148" y2="19.97375" width="0.3048" layer="1"/>
</signal>
<signal name="N$19">
<contactref element="U$7" pad="P$1"/>
<contactref element="R12" pad="E"/>
<contactref element="BATTERYSHORTER3:U$12" pad="P$3"/>
<contactref element="BATTERYSHORTER4:R7" pad="2"/>
<contactref element="BATTERYSHORTER4:R1" pad="2"/>
<wire x1="82.922" y1="12.5" x2="82.922" y2="10" width="0.3048" layer="1"/>
<wire x1="82.922" y1="10" x2="82.99" y2="9.932" width="0.3048" layer="1"/>
<wire x1="82.99" y1="9.932" x2="82.99" y2="5.31" width="0.3048" layer="1"/>
<wire x1="82.76" y1="19.31895" x2="82.76" y2="15.1" width="0.3048" layer="1"/>
<wire x1="83.4148" y1="19.97375" x2="82.76" y2="19.31895" width="0.3048" layer="1"/>
<wire x1="76.09" y1="31.33" x2="83.4148" y2="24.0052" width="0.3048" layer="1"/>
<wire x1="83.4148" y1="24.0052" x2="83.4148" y2="19.97375" width="0.3048" layer="1"/>
<wire x1="82.76" y1="15.1" x2="82.76" y2="12.662" width="0.3048" layer="1"/>
<wire x1="82.76" y1="12.662" x2="82.922" y2="12.5" width="0.3048" layer="1"/>
</signal>
<signal name="N$22">
<contactref element="U$7" pad="P$2"/>
<contactref element="BATTERYSHORTER3:R7" pad="2"/>
<contactref element="BATTERYSHORTER3:R1" pad="2"/>
<contactref element="R13" pad="E"/>
<wire x1="87.99" y1="5.31" x2="87.99" y2="9.568" width="0.3048" layer="1"/>
<wire x1="87.99" y1="9.568" x2="88.422" y2="10" width="0.3048" layer="1"/>
<wire x1="88.422" y1="10" x2="88.422" y2="12.5" width="0.3048" layer="1"/>
<wire x1="81.17" y1="31.33" x2="88.422" y2="24.078" width="0.3048" layer="1"/>
<wire x1="88.422" y1="24.078" x2="88.422" y2="12.5" width="0.3048" layer="1"/>
</signal>
<signal name="N$23">
<contactref element="R9" pad="S"/>
<contactref element="U$10" pad="P$1"/>
<wire x1="64.66" y1="53.555" x2="60.215" y2="53.555" width="0.3048" layer="1"/>
<wire x1="60.215" y1="53.555" x2="59.58" y2="52.92" width="0.3048" layer="1"/>
<wire x1="59.9356" y1="36.8098" x2="59.9356" y2="36.0102" width="0.3048" layer="1"/>
<wire x1="58.31" y1="34.3846" x2="58.31" y2="33.87" width="0.3048" layer="1"/>
<wire x1="59.9356" y1="36.0102" x2="58.31" y2="34.3846" width="0.3048" layer="1"/>
<wire x1="59.58" y1="52.92" x2="59.58" y2="37.1654" width="0.3048" layer="1"/>
<wire x1="59.58" y1="37.1654" x2="59.9356" y2="36.8098" width="0.3048" layer="1"/>
</signal>
<signal name="N$24">
<contactref element="U$10" pad="P$5"/>
<contactref element="R10" pad="S"/>
<wire x1="64.66" y1="48.475" x2="61.485" y2="48.475" width="0.3048" layer="1"/>
<wire x1="61.485" y1="48.475" x2="60.85" y2="47.84" width="0.3048" layer="1"/>
<wire x1="60.85" y1="37.68" x2="64.66" y2="33.87" width="0.3048" layer="1"/>
<wire x1="60.85" y1="47.84" x2="60.85" y2="37.68" width="0.3048" layer="1"/>
</signal>
<signal name="N$25">
<contactref element="U$10" pad="P$2"/>
<contactref element="R11" pad="S"/>
<wire x1="64.66" y1="52.285" x2="62.755" y2="52.285" width="0.3048" layer="1"/>
<wire x1="62.755" y1="52.285" x2="62.12" y2="51.65" width="0.3048" layer="1"/>
<via x="62.12" y="51.65" extent="1-16" drill="0.35"/>
<wire x1="62.12" y1="51.65" x2="67.2" y2="46.57" width="0.3048" layer="16"/>
<wire x1="67.2" y1="36.41" x2="69.74" y2="33.87" width="0.3048" layer="16"/>
<wire x1="67.2" y1="46.57" x2="67.2" y2="36.41" width="0.3048" layer="16"/>
</signal>
<signal name="N$26">
<contactref element="U$10" pad="P$4"/>
<contactref element="R12" pad="S"/>
<wire x1="64.66" y1="49.745" x2="66.565" y2="49.745" width="0.3048" layer="1"/>
<wire x1="68.47" y1="47.84" x2="68.47" y2="41.49" width="0.3048" layer="1"/>
<wire x1="68.47" y1="41.49" x2="76.09" y2="33.87" width="0.3048" layer="1"/>
<wire x1="66.565" y1="49.745" x2="68.47" y2="47.84" width="0.3048" layer="1"/>
</signal>
<signal name="N$27">
<contactref element="U$9" pad="P$3"/>
<contactref element="U$11" pad="P$4"/>
<contactref element="C1" pad="1"/>
<wire x1="48.32" y1="58.54" x2="42.26" y2="58.54" width="0.3048" layer="1"/>
<wire x1="42.26" y1="58.54" x2="40.78" y2="60.02" width="0.3048" layer="1"/>
<wire x1="42.26" y1="58.54" x2="33.64" y2="58.54" width="0.3048" layer="1"/>
<wire x1="32.3" y1="57.2" x2="33.64" y2="58.54" width="0.3048" layer="1"/>
<wire x1="27.83" y1="52.285" x2="29.585" y2="52.285" width="0.3048" layer="1"/>
<wire x1="32.3" y1="55" x2="32.3" y2="57.2" width="0.3048" layer="1"/>
<wire x1="29.585" y1="52.285" x2="32.3" y2="55" width="0.3048" layer="1"/>
</signal>
<signal name="N$28">
<contactref element="U$9" pad="P$13"/>
<contactref element="U$11" pad="P$5"/>
<contactref element="C2" pad="1"/>
<wire x1="35.45" y1="51.015" x2="33.385" y2="51.015" width="0.3048" layer="1"/>
<wire x1="33.385" y1="51.015" x2="33" y2="51.4" width="0.3048" layer="1"/>
<wire x1="33" y1="51.4" x2="33" y2="56.7" width="0.3048" layer="1"/>
<wire x1="34.34" y1="58.04" x2="40.8" y2="58.04" width="0.3048" layer="1"/>
<wire x1="40.8" y1="58.04" x2="48.32" y2="58.04" width="0.3048" layer="1"/>
<wire x1="33" y1="56.7" x2="34.34" y2="58.04" width="0.3048" layer="1"/>
<wire x1="40.75" y1="56.74" x2="40.75" y2="57.99" width="0.3048" layer="1"/>
<wire x1="40.75" y1="57.99" x2="40.8" y2="58.04" width="0.3048" layer="1"/>
</signal>
<signal name="N$31">
<contactref element="U$10" pad="P$3"/>
<contactref element="U$11" pad="P$6"/>
<contactref element="C3" pad="1"/>
<wire x1="64.66" y1="51.015" x2="66.565" y2="51.015" width="0.3048" layer="1"/>
<wire x1="66.565" y1="51.015" x2="67.2" y2="51.65" width="0.3048" layer="1"/>
<wire x1="67.2" y1="51.65" x2="67.2" y2="54.19" width="0.3048" layer="1"/>
<wire x1="63.35" y1="58.04" x2="56.8" y2="58.04" width="0.3048" layer="1"/>
<wire x1="56.8" y1="58.04" x2="53.52" y2="58.04" width="0.3048" layer="1"/>
<wire x1="67.2" y1="54.19" x2="63.35" y2="58.04" width="0.3048" layer="1"/>
<wire x1="56.97" y1="56.56" x2="56.97" y2="57.87" width="0.3048" layer="1"/>
<wire x1="56.97" y1="57.87" x2="56.8" y2="58.04" width="0.3048" layer="1"/>
</signal>
<signal name="N$32">
<contactref element="U$10" pad="P$13"/>
<contactref element="U$11" pad="P$7"/>
<contactref element="C4" pad="1"/>
<wire x1="67.6572" y1="54.37938125" x2="67.6572" y2="54.19" width="0.3048" layer="1"/>
<wire x1="53.52" y1="58.54" x2="63.49658125" y2="58.54" width="0.3048" layer="1"/>
<wire x1="63.49658125" y1="58.54" x2="66.318290625" y2="55.718290625" width="0.3048" layer="1"/>
<wire x1="66.318290625" y1="55.718290625" x2="67.6572" y2="54.37938125" width="0.3048" layer="1"/>
<wire x1="67.6572" y1="54.19" x2="69.74" y2="52.1072" width="0.3048" layer="1"/>
<wire x1="69.74" y1="52.1072" x2="69.74" y2="50.38" width="0.3048" layer="1"/>
<wire x1="69.74" y1="50.38" x2="70.375" y2="49.745" width="0.3048" layer="1"/>
<wire x1="70.375" y1="49.745" x2="72.28" y2="49.745" width="0.3048" layer="1"/>
<wire x1="67.349946875" y1="56.82005" x2="67.349946875" y2="56.749946875" width="0.3048" layer="1"/>
<wire x1="67.349946875" y1="56.749946875" x2="66.318290625" y2="55.718290625" width="0.3048" layer="1"/>
</signal>
<signal name="N$20">
<contactref element="JP3" pad="1"/>
<contactref element="U$11" pad="P$2"/>
<wire x1="48.32" y1="59.54" x2="45.74" y2="59.54" width="0.3048" layer="1"/>
<wire x1="45.74" y1="59.54" x2="44.8" y2="60.48" width="0.3048" layer="1"/>
</signal>
<signal name="N$21">
<contactref element="U$11" pad="P$9"/>
<contactref element="JP2" pad="2"/>
<wire x1="53.52" y1="59.54" x2="57.64" y2="59.54" width="0.3048" layer="1"/>
<wire x1="57.64" y1="59.54" x2="60.45" y2="62.35" width="0.3048" layer="1"/>
</signal>
<signal name="N$29">
<contactref element="U$11" pad="P$10"/>
<contactref element="JP2" pad="1"/>
<wire x1="53.52" y1="60.04" x2="55.6" y2="60.04" width="0.3048" layer="1"/>
<wire x1="55.6" y1="60.04" x2="57.91" y2="62.35" width="0.3048" layer="1"/>
</signal>
<signal name="BATTERYSHORTER3:N$20">
<contactref element="BATTERYSHORTER3:JP3" pad="1"/>
<contactref element="BATTERYSHORTER3:U$12" pad="P$1"/>
<wire x1="85.3" y1="21.1" x2="85.3" y2="24.3" width="0.3048" layer="1"/>
<wire x1="85.3" y1="24.3" x2="85.5" y2="24.5" width="0.3048" layer="1"/>
</signal>
<signal name="BATTERYSHORTER4:N$20">
<contactref element="BATTERYSHORTER4:JP3" pad="1"/>
<contactref element="BATTERYSHORTER4:U$12" pad="P$1"/>
<wire x1="79.8" y1="21.1" x2="79.8" y2="24.3" width="0.3048" layer="1"/>
<wire x1="79.8" y1="24.3" x2="80" y2="24.5" width="0.3048" layer="1"/>
</signal>
<signal name="BATTERYSHORTER5:N$20">
<contactref element="BATTERYSHORTER5:JP3" pad="1"/>
<contactref element="BATTERYSHORTER5:U$12" pad="P$1"/>
<wire x1="74.3" y1="21.1" x2="74.3" y2="24.3" width="0.3048" layer="1"/>
<wire x1="74.3" y1="24.3" x2="74.5" y2="24.5" width="0.3048" layer="1"/>
</signal>
<signal name="BATTERYSHORTER6:N$20">
<contactref element="BATTERYSHORTER6:JP3" pad="1"/>
<contactref element="BATTERYSHORTER6:U$12" pad="P$1"/>
<wire x1="68.3" y1="21.1" x2="68.3" y2="24.3" width="0.3048" layer="1"/>
<wire x1="68.3" y1="24.3" x2="68.5" y2="24.5" width="0.3048" layer="1"/>
</signal>
<signal name="BATTERYSHORTER7:N$20">
<contactref element="BATTERYSHORTER7:JP3" pad="1"/>
<contactref element="BATTERYSHORTER7:U$12" pad="P$1"/>
<wire x1="62.3" y1="21.1" x2="62.3" y2="24.3" width="0.3048" layer="1"/>
<wire x1="62.3" y1="24.3" x2="62.5" y2="24.5" width="0.3048" layer="1"/>
</signal>
<signal name="BATTERYSHORTER8:N$20">
<contactref element="BATTERYSHORTER8:JP3" pad="1"/>
<contactref element="BATTERYSHORTER8:U$12" pad="P$1"/>
<wire x1="56.8" y1="21.1" x2="56.8" y2="24.3" width="0.3048" layer="1"/>
<wire x1="56.8" y1="24.3" x2="57" y2="24.5" width="0.3048" layer="1"/>
</signal>
<signal name="BATTERYSHORTER9:N$20">
<contactref element="BATTERYSHORTER9:JP3" pad="1"/>
<contactref element="BATTERYSHORTER9:U$12" pad="P$1"/>
<wire x1="50.8" y1="21.1" x2="50.8" y2="24.3" width="0.3048" layer="1"/>
<wire x1="50.8" y1="24.3" x2="51" y2="24.5" width="0.3048" layer="1"/>
</signal>
<signal name="BATTERYSHORTER10:N$20">
<contactref element="BATTERYSHORTER10:JP3" pad="1"/>
<contactref element="BATTERYSHORTER10:U$12" pad="P$1"/>
<wire x1="45.3" y1="21.1" x2="45.3" y2="24.3" width="0.3048" layer="1"/>
<wire x1="45.3" y1="24.3" x2="45.5" y2="24.5" width="0.3048" layer="1"/>
</signal>
<signal name="BATTERYSHORTER11:N$20">
<contactref element="BATTERYSHORTER11:JP3" pad="1"/>
<contactref element="BATTERYSHORTER11:U$12" pad="P$1"/>
<wire x1="39.3" y1="21.1" x2="39.3" y2="24.3" width="0.3048" layer="1"/>
<wire x1="39.3" y1="24.3" x2="39.5" y2="24.5" width="0.3048" layer="1"/>
</signal>
<signal name="BATTERYSHORTER12:N$20">
<contactref element="BATTERYSHORTER12:JP3" pad="1"/>
<contactref element="BATTERYSHORTER12:U$12" pad="P$1"/>
<wire x1="33.8" y1="21.1" x2="33.8" y2="24.2" width="0.3048" layer="1"/>
<wire x1="33.8" y1="24.2" x2="33.5" y2="24.5" width="0.3048" layer="1"/>
</signal>
<signal name="BATTERYSHORTER13:N$20">
<contactref element="BATTERYSHORTER13:JP3" pad="1"/>
<contactref element="BATTERYSHORTER13:U$12" pad="P$1"/>
<wire x1="27.8" y1="21.1" x2="27.8" y2="24.3" width="0.3048" layer="1"/>
<wire x1="27.8" y1="24.3" x2="28" y2="24.5" width="0.3048" layer="1"/>
</signal>
<signal name="BATTERYSHORTER14:N$20">
<contactref element="BATTERYSHORTER14:JP3" pad="1"/>
<contactref element="BATTERYSHORTER14:U$12" pad="P$1"/>
<wire x1="22" y1="24.5" x2="22" y2="21.3" width="0.3048" layer="1"/>
<wire x1="22" y1="21.3" x2="21.8" y2="21.1" width="0.3048" layer="1"/>
</signal>
<signal name="BATTERYSHORTER15:N$20">
<contactref element="BATTERYSHORTER15:JP3" pad="1"/>
<contactref element="BATTERYSHORTER15:U$12" pad="P$1"/>
<wire x1="16.3" y1="21.1" x2="16.3" y2="24.3" width="0.3048" layer="1"/>
<wire x1="16.3" y1="24.3" x2="16.5" y2="24.5" width="0.3048" layer="1"/>
</signal>
<signal name="BATTERYSHORTER3:N$21">
<contactref element="BATTERYSHORTER3:U$12" pad="P$4"/>
<contactref element="BATTERYSHORTER3:R7" pad="1"/>
<contactref element="BATTERYSHORTER3:R1" pad="1"/>
<wire x1="85.3" y1="15.1" x2="85.578" y2="14.822" width="0.3048" layer="1"/>
<wire x1="85.578" y1="14.822" x2="85.578" y2="12.5" width="0.3048" layer="1"/>
<wire x1="85.578" y1="12.5" x2="85.578" y2="10" width="0.3048" layer="1"/>
</signal>
<signal name="BATTERYSHORTER4:N$21">
<contactref element="BATTERYSHORTER4:U$12" pad="P$4"/>
<contactref element="BATTERYSHORTER4:R7" pad="1"/>
<contactref element="BATTERYSHORTER4:R1" pad="1"/>
<wire x1="79.8" y1="15.1" x2="79.8" y2="12.778" width="0.3048" layer="1"/>
<wire x1="79.8" y1="12.778" x2="80.078" y2="12.5" width="0.3048" layer="1"/>
<wire x1="80.078" y1="12.5" x2="80.078" y2="10" width="0.3048" layer="1"/>
</signal>
<signal name="BATTERYSHORTER5:N$21">
<contactref element="BATTERYSHORTER5:U$12" pad="P$4"/>
<contactref element="BATTERYSHORTER5:R7" pad="1"/>
<contactref element="BATTERYSHORTER5:R1" pad="1"/>
<wire x1="74.3" y1="15.1" x2="74.3" y2="12.722" width="0.3048" layer="1"/>
<wire x1="74.3" y1="12.722" x2="74.078" y2="12.5" width="0.3048" layer="1"/>
<wire x1="74.078" y1="12.5" x2="74.078" y2="10" width="0.3048" layer="1"/>
</signal>
<signal name="BATTERYSHORTER6:N$21">
<contactref element="BATTERYSHORTER6:U$12" pad="P$4"/>
<contactref element="BATTERYSHORTER6:R7" pad="1"/>
<contactref element="BATTERYSHORTER6:R1" pad="1"/>
<wire x1="68.3" y1="15.1" x2="68.3" y2="12.778" width="0.3048" layer="1"/>
<wire x1="68.3" y1="12.778" x2="68.578" y2="12.5" width="0.3048" layer="1"/>
<wire x1="68.578" y1="12.5" x2="68.578" y2="10" width="0.3048" layer="1"/>
</signal>
<signal name="BATTERYSHORTER7:N$21">
<contactref element="BATTERYSHORTER7:U$12" pad="P$4"/>
<contactref element="BATTERYSHORTER7:R7" pad="1"/>
<contactref element="BATTERYSHORTER7:R1" pad="1"/>
<wire x1="62.3" y1="15.1" x2="62.578" y2="14.822" width="0.3048" layer="1"/>
<wire x1="62.578" y1="14.822" x2="62.578" y2="12.5" width="0.3048" layer="1"/>
<wire x1="62.578" y1="12.5" x2="62.578" y2="10" width="0.3048" layer="1"/>
</signal>
<signal name="BATTERYSHORTER8:N$21">
<contactref element="BATTERYSHORTER8:U$12" pad="P$4"/>
<contactref element="BATTERYSHORTER8:R7" pad="1"/>
<contactref element="BATTERYSHORTER8:R1" pad="1"/>
<wire x1="56.8" y1="15.1" x2="56.8" y2="12.778" width="0.3048" layer="1"/>
<wire x1="56.8" y1="12.778" x2="57.078" y2="12.5" width="0.3048" layer="1"/>
<wire x1="57.078" y1="12.5" x2="57.078" y2="10" width="0.3048" layer="1"/>
</signal>
<signal name="BATTERYSHORTER9:N$21">
<contactref element="BATTERYSHORTER9:U$12" pad="P$4"/>
<contactref element="BATTERYSHORTER9:R7" pad="1"/>
<contactref element="BATTERYSHORTER9:R1" pad="1"/>
<wire x1="50.8" y1="15.1" x2="50.8" y2="12.778" width="0.3048" layer="1"/>
<wire x1="50.8" y1="12.778" x2="51.078" y2="12.5" width="0.3048" layer="1"/>
<wire x1="51.078" y1="12.5" x2="51.078" y2="10" width="0.3048" layer="1"/>
</signal>
<signal name="BATTERYSHORTER10:N$21">
<contactref element="BATTERYSHORTER10:U$12" pad="P$4"/>
<contactref element="BATTERYSHORTER10:R7" pad="1"/>
<contactref element="BATTERYSHORTER10:R1" pad="1"/>
<wire x1="45.3" y1="15.1" x2="45.28" y2="13.308" width="0.3048" layer="1"/>
<wire x1="45.28" y1="13.308" x2="45.578" y2="13" width="0.3048" layer="1"/>
<wire x1="45.578" y1="13" x2="45.518" y2="12.7" width="0.3048" layer="1"/>
<wire x1="45.518" y1="10.91" x2="45.518" y2="10.718" width="0.3048" layer="1"/>
<wire x1="45.518" y1="10.718" x2="45.1" y2="10.3" width="0.3048" layer="1"/>
<wire x1="45.578" y1="10" x2="45.518" y2="10.91" width="0.3048" layer="1"/>
<wire x1="45.518" y1="10.91" x2="45.518" y2="12.7" width="0.3048" layer="1"/>
</signal>
<signal name="BATTERYSHORTER11:N$21">
<contactref element="BATTERYSHORTER11:U$12" pad="P$4"/>
<contactref element="BATTERYSHORTER11:R7" pad="1"/>
<contactref element="BATTERYSHORTER11:R1" pad="1"/>
<wire x1="39.3" y1="15.1" x2="39.3" y2="12.778" width="0.3048" layer="1"/>
<wire x1="39.3" y1="12.778" x2="39.578" y2="12.5" width="0.3048" layer="1"/>
<wire x1="39.578" y1="12.5" x2="39.578" y2="10" width="0.3048" layer="1"/>
</signal>
<signal name="BATTERYSHORTER12:N$21">
<contactref element="BATTERYSHORTER12:U$12" pad="P$4"/>
<contactref element="BATTERYSHORTER12:R7" pad="1"/>
<contactref element="BATTERYSHORTER12:R1" pad="1"/>
<wire x1="33.8" y1="15.1" x2="34.078" y2="14.822" width="0.3048" layer="1"/>
<wire x1="34.078" y1="14.822" x2="34.078" y2="12.5" width="0.3048" layer="1"/>
<wire x1="34.078" y1="12.5" x2="34.078" y2="10" width="0.3048" layer="1"/>
</signal>
<signal name="BATTERYSHORTER13:N$21">
<contactref element="BATTERYSHORTER13:U$12" pad="P$4"/>
<contactref element="BATTERYSHORTER13:R7" pad="1"/>
<contactref element="BATTERYSHORTER13:R1" pad="1"/>
<wire x1="27.8" y1="15.1" x2="27.8" y2="12.778" width="0.3048" layer="1"/>
<wire x1="27.8" y1="12.778" x2="28.078" y2="12.5" width="0.3048" layer="1"/>
<wire x1="28.078" y1="12.5" x2="28.078" y2="10" width="0.3048" layer="1"/>
</signal>
<signal name="BATTERYSHORTER14:N$21">
<contactref element="BATTERYSHORTER14:U$12" pad="P$4"/>
<contactref element="BATTERYSHORTER14:R7" pad="1"/>
<contactref element="BATTERYSHORTER14:R1" pad="1"/>
<wire x1="21.8" y1="15.1" x2="21.8" y2="13.278" width="0.3048" layer="1"/>
<wire x1="21.8" y1="13.278" x2="22.578" y2="12.5" width="0.3048" layer="1"/>
<wire x1="22.578" y1="12.5" x2="22.578" y2="10" width="0.3048" layer="1"/>
</signal>
<signal name="BATTERYSHORTER15:N$21">
<contactref element="BATTERYSHORTER15:U$12" pad="P$4"/>
<contactref element="BATTERYSHORTER15:R7" pad="1"/>
<contactref element="BATTERYSHORTER15:R1" pad="1"/>
<wire x1="16.3" y1="15.1" x2="16.3" y2="12.778" width="0.3048" layer="1"/>
<wire x1="16.3" y1="12.778" x2="16.578" y2="12.5" width="0.3048" layer="1"/>
<wire x1="16.578" y1="12.5" x2="16.578" y2="10" width="0.3048" layer="1"/>
</signal>
<signal name="N$30">
<contactref element="U$10" pad="P$14"/>
<contactref element="U$10" pad="P$11"/>
<contactref element="U$10" pad="P$12"/>
<contactref element="R13" pad="S"/>
<contactref element="U$10" pad="P$15"/>
<wire x1="81.17" y1="33.87" x2="81.17" y2="34.3846" width="0.3048" layer="1"/>
<wire x1="81.17" y1="34.3846" x2="79.5444" y2="36.0102" width="0.3048" layer="1"/>
<wire x1="79.5444" y1="36.0102" x2="79.5444" y2="43.1156" width="0.3048" layer="1"/>
<wire x1="75.455" y1="47.205" x2="72.28" y2="47.205" width="0.3048" layer="1"/>
<wire x1="79.5444" y1="43.1156" x2="75.455" y2="47.205" width="0.3048" layer="1"/>
<wire x1="72.28" y1="47.205" x2="72.28" y2="48.475" width="0.3048" layer="1"/>
<wire x1="72.28" y1="52.285" x2="72.28" y2="51.015" width="0.3048" layer="1"/>
<wire x1="72.28" y1="51.015" x2="75.455" y2="51.015" width="0.3048" layer="1"/>
<wire x1="75.455" y1="51.015" x2="76.09" y2="50.38" width="0.3048" layer="1"/>
<wire x1="76.09" y1="50.38" x2="75.455" y2="49.745" width="0.3048" layer="1"/>
<wire x1="75.455" y1="49.745" x2="75.455" y2="47.205" width="0.3048" layer="1"/>
</signal>
<signal name="N$33">
<via x="3" y="63.5" extent="1-16" drill="3"/>
</signal>
<signal name="N$34">
<via x="97" y="63.5" extent="1-16" drill="3"/>
</signal>
<signal name="N$35">
<via x="97" y="3" extent="1-16" drill="3"/>
</signal>
<signal name="N$36">
<via x="3" y="3" extent="1-16" drill="3"/>
</signal>
</signals>
</board>
</drawing>
<compatibility>
<note version="6.3" minversion="6.2.2" severity="warning">
Since Version 6.2.2 text objects can contain more than one line,
which will not be processed correctly with this version.
</note>
<note version="8.2" severity="warning">
Since Version 8.2, EAGLE supports online libraries. The ids
of those online libraries will not be understood (or retained)
with this version.
</note>
<note version="8.3" severity="warning">
Since Version 8.3, EAGLE supports URNs for individual library
assets (packages, symbols, and devices). The URNs of those assets
will not be understood (or retained) with this version.
</note>
<note version="8.3" severity="warning">
Since Version 8.3, EAGLE supports the association of 3D packages
with devices in libraries, schematics, and board files. Those 3D
packages will not be understood (or retained) with this version.
</note>
</compatibility>
</eagle>
