<?xml version="1.0" encoding="utf-8"?>
<!DOCTYPE eagle SYSTEM "eagle.dtd">
<eagle version="9.1.3">
<drawing>
<settings>
<setting alwaysvectorfont="no"/>
<setting verticaltext="up"/>
</settings>
<grid distance="0.1" unitdist="inch" unit="inch" style="lines" multiple="1" display="no" altdistance="0.01" altunitdist="inch" altunit="inch"/>
<layers>
<layer number="1" name="Top" color="4" fill="1" visible="no" active="no"/>
<layer number="2" name="Route2" color="1" fill="3" visible="no" active="no"/>
<layer number="3" name="Route3" color="4" fill="3" visible="no" active="no"/>
<layer number="4" name="Route4" color="1" fill="4" visible="no" active="no"/>
<layer number="5" name="Route5" color="4" fill="4" visible="no" active="no"/>
<layer number="6" name="Route6" color="1" fill="8" visible="no" active="no"/>
<layer number="7" name="Route7" color="4" fill="8" visible="no" active="no"/>
<layer number="8" name="Route8" color="1" fill="2" visible="no" active="no"/>
<layer number="9" name="Route9" color="4" fill="2" visible="no" active="no"/>
<layer number="10" name="Route10" color="1" fill="7" visible="no" active="no"/>
<layer number="11" name="Route11" color="4" fill="7" visible="no" active="no"/>
<layer number="12" name="Route12" color="1" fill="5" visible="no" active="no"/>
<layer number="13" name="Route13" color="4" fill="5" visible="no" active="no"/>
<layer number="14" name="Route14" color="1" fill="6" visible="no" active="no"/>
<layer number="15" name="Route15" color="4" fill="6" visible="no" active="no"/>
<layer number="16" name="Bottom" color="1" fill="1" visible="no" active="no"/>
<layer number="17" name="Pads" color="2" fill="1" visible="no" active="no"/>
<layer number="18" name="Vias" color="2" fill="1" visible="no" active="no"/>
<layer number="19" name="Unrouted" color="6" fill="1" visible="no" active="no"/>
<layer number="20" name="Dimension" color="24" fill="1" visible="no" active="no"/>
<layer number="21" name="tPlace" color="7" fill="1" visible="no" active="no"/>
<layer number="22" name="bPlace" color="7" fill="1" visible="no" active="no"/>
<layer number="23" name="tOrigins" color="15" fill="1" visible="no" active="no"/>
<layer number="24" name="bOrigins" color="15" fill="1" visible="no" active="no"/>
<layer number="25" name="tNames" color="7" fill="1" visible="no" active="no"/>
<layer number="26" name="bNames" color="7" fill="1" visible="no" active="no"/>
<layer number="27" name="tValues" color="7" fill="1" visible="no" active="no"/>
<layer number="28" name="bValues" color="7" fill="1" visible="no" active="no"/>
<layer number="29" name="tStop" color="7" fill="3" visible="no" active="no"/>
<layer number="30" name="bStop" color="7" fill="6" visible="no" active="no"/>
<layer number="31" name="tCream" color="7" fill="4" visible="no" active="no"/>
<layer number="32" name="bCream" color="7" fill="5" visible="no" active="no"/>
<layer number="33" name="tFinish" color="6" fill="3" visible="no" active="no"/>
<layer number="34" name="bFinish" color="6" fill="6" visible="no" active="no"/>
<layer number="35" name="tGlue" color="7" fill="4" visible="no" active="no"/>
<layer number="36" name="bGlue" color="7" fill="5" visible="no" active="no"/>
<layer number="37" name="tTest" color="7" fill="1" visible="no" active="no"/>
<layer number="38" name="bTest" color="7" fill="1" visible="no" active="no"/>
<layer number="39" name="tKeepout" color="4" fill="11" visible="no" active="no"/>
<layer number="40" name="bKeepout" color="1" fill="11" visible="no" active="no"/>
<layer number="41" name="tRestrict" color="4" fill="10" visible="no" active="no"/>
<layer number="42" name="bRestrict" color="1" fill="10" visible="no" active="no"/>
<layer number="43" name="vRestrict" color="2" fill="10" visible="no" active="no"/>
<layer number="44" name="Drills" color="7" fill="1" visible="no" active="no"/>
<layer number="45" name="Holes" color="7" fill="1" visible="no" active="no"/>
<layer number="46" name="Milling" color="3" fill="1" visible="no" active="no"/>
<layer number="47" name="Measures" color="7" fill="1" visible="no" active="no"/>
<layer number="48" name="Document" color="7" fill="1" visible="no" active="no"/>
<layer number="49" name="Reference" color="7" fill="1" visible="no" active="no"/>
<layer number="51" name="tDocu" color="7" fill="1" visible="no" active="no"/>
<layer number="52" name="bDocu" color="7" fill="1" visible="no" active="no"/>
<layer number="88" name="SimResults" color="9" fill="1" visible="yes" active="yes"/>
<layer number="89" name="SimProbes" color="9" fill="1" visible="yes" active="yes"/>
<layer number="90" name="Modules" color="5" fill="1" visible="yes" active="yes"/>
<layer number="91" name="Nets" color="2" fill="1" visible="yes" active="yes"/>
<layer number="92" name="Busses" color="1" fill="1" visible="yes" active="yes"/>
<layer number="93" name="Pins" color="2" fill="1" visible="no" active="yes"/>
<layer number="94" name="Symbols" color="4" fill="1" visible="yes" active="yes"/>
<layer number="95" name="Names" color="7" fill="1" visible="yes" active="yes"/>
<layer number="96" name="Values" color="7" fill="1" visible="yes" active="yes"/>
<layer number="97" name="Info" color="7" fill="1" visible="yes" active="yes"/>
<layer number="98" name="Guide" color="6" fill="1" visible="yes" active="yes"/>
<layer number="99" name="SpiceOrder" color="5" fill="1" visible="yes" active="yes"/>
</layers>
<schematic xreflabel="%F%N/%S.%C%R" xrefpart="/%S.%C%R">
<libraries>
<library name="BMS">
<packages>
<package name="SRA-05VDC-CL">
<pad name="P$1" x="3.9" y="1.15" drill="0.64" shape="octagon"/>
<pad name="P$2" x="3.9" y="11.15" drill="0.64" shape="octagon"/>
<pad name="P$3" x="14.1" y="11.15" drill="0.64" shape="octagon" rot="R90"/>
<pad name="P$4" x="14.1" y="1.15" drill="0.64" shape="octagon"/>
<pad name="P$5" x="1.4" y="6.15" drill="0.64" shape="octagon"/>
<wire x1="0" y1="0" x2="15.5" y2="0" width="0.127" layer="21"/>
<wire x1="0" y1="12.3" x2="0" y2="0" width="0.127" layer="21"/>
<wire x1="0" y1="12.3" x2="15.5" y2="12.3" width="0.127" layer="21"/>
<wire x1="15.5" y1="0" x2="15.5" y2="12.3" width="0.127" layer="21"/>
</package>
</packages>
<symbols>
<symbol name="SRA-05VDC-CL">
<wire x1="-12.7" y1="12.7" x2="-12.7" y2="7.62" width="0.254" layer="94"/>
<wire x1="-5.08" y1="7.62" x2="-20.32" y2="7.62" width="0.254" layer="94"/>
<wire x1="-20.32" y1="7.62" x2="-20.32" y2="0" width="0.254" layer="94"/>
<wire x1="-20.32" y1="0" x2="-12.7" y2="0" width="0.254" layer="94"/>
<wire x1="-12.7" y1="0" x2="-5.08" y2="0" width="0.254" layer="94"/>
<wire x1="-5.08" y1="0" x2="-5.08" y2="7.62" width="0.254" layer="94"/>
<wire x1="-12.7" y1="0" x2="-12.7" y2="-5.08" width="0.254" layer="94"/>
<wire x1="7.62" y1="7.62" x2="0" y2="7.62" width="0.254" layer="94"/>
<wire x1="0" y1="7.62" x2="0" y2="5.08" width="0.254" layer="94"/>
<wire x1="0" y1="0" x2="0" y2="-2.54" width="0.254" layer="94"/>
<wire x1="0" y1="-2.54" x2="7.62" y2="-2.54" width="0.254" layer="94"/>
<wire x1="5.08" y1="2.54" x2="0" y2="5.08" width="0.254" layer="94"/>
<circle x="5.08" y="2.54" radius="0.508" width="0.762" layer="94"/>
<wire x1="5.08" y1="2.54" x2="7.62" y2="2.54" width="0.254" layer="94"/>
<pin name="P$1" x="-12.7" y="12.7" length="middle" rot="R270"/>
<pin name="P$2" x="-12.7" y="-5.08" length="middle" rot="R90"/>
<pin name="P$3" x="10.16" y="-2.54" length="middle" rot="R180"/>
<pin name="P$4" x="10.16" y="2.54" length="middle" rot="R180"/>
<pin name="P$5" x="10.16" y="7.62" length="middle" rot="R180"/>
</symbol>
</symbols>
<devicesets>
<deviceset name="RELAY(SRA-05VDC-CL)">
<gates>
<gate name="G$1" symbol="SRA-05VDC-CL" x="2.54" y="-2.54"/>
</gates>
<devices>
<device name="" package="SRA-05VDC-CL">
<connects>
<connect gate="G$1" pin="P$1" pad="P$1"/>
<connect gate="G$1" pin="P$2" pad="P$2"/>
<connect gate="G$1" pin="P$3" pad="P$3"/>
<connect gate="G$1" pin="P$4" pad="P$5"/>
<connect gate="G$1" pin="P$5" pad="P$4"/>
</connects>
<technologies>
<technology name=""/>
</technologies>
</device>
</devices>
</deviceset>
</devicesets>
</library>
</libraries>
<attributes>
</attributes>
<variantdefs>
</variantdefs>
<classes>
<class number="0" name="default" width="0" drill="0">
</class>
</classes>
<parts>
<part name="U$1" library="BMS" deviceset="RELAY(SRA-05VDC-CL)" device=""/>
</parts>
<sheets>
<sheet>
<plain>
</plain>
<instances>
<instance part="U$1" gate="G$1" x="22.86" y="33.02" rot="R90"/>
</instances>
<busses>
</busses>
<nets>
</nets>
</sheet>
</sheets>
</schematic>
</drawing>
</eagle>
