<?xml version="1.0" encoding="utf-8"?>
<!DOCTYPE eagle SYSTEM "eagle.dtd">
<eagle version="8.5.1">
<drawing>
<settings>
<setting alwaysvectorfont="no"/>
<setting verticaltext="up"/>
</settings>
<grid distance="0.635" unitdist="mm" unit="mm" style="lines" multiple="1" display="no" altdistance="5" altunitdist="mil" altunit="mil"/>
<layers>
<layer number="1" name="Top" color="4" fill="1" visible="yes" active="yes"/>
<layer number="2" name="Route2" color="1" fill="3" visible="no" active="no"/>
<layer number="3" name="Route3" color="4" fill="3" visible="no" active="no"/>
<layer number="4" name="Route4" color="1" fill="4" visible="no" active="no"/>
<layer number="5" name="Route5" color="4" fill="4" visible="no" active="no"/>
<layer number="6" name="Route6" color="1" fill="8" visible="no" active="no"/>
<layer number="7" name="Route7" color="4" fill="8" visible="no" active="no"/>
<layer number="8" name="Route8" color="1" fill="2" visible="no" active="no"/>
<layer number="9" name="Route9" color="4" fill="2" visible="no" active="no"/>
<layer number="10" name="Route10" color="1" fill="7" visible="no" active="no"/>
<layer number="11" name="Route11" color="4" fill="7" visible="no" active="no"/>
<layer number="12" name="Route12" color="1" fill="5" visible="no" active="no"/>
<layer number="13" name="Route13" color="4" fill="5" visible="no" active="no"/>
<layer number="14" name="Route14" color="1" fill="6" visible="no" active="no"/>
<layer number="15" name="Route15" color="4" fill="6" visible="no" active="no"/>
<layer number="16" name="Bottom" color="1" fill="1" visible="yes" active="yes"/>
<layer number="17" name="Pads" color="2" fill="1" visible="yes" active="yes"/>
<layer number="18" name="Vias" color="2" fill="1" visible="yes" active="yes"/>
<layer number="19" name="Unrouted" color="6" fill="1" visible="yes" active="yes"/>
<layer number="20" name="Dimension" color="24" fill="1" visible="yes" active="yes"/>
<layer number="21" name="tPlace" color="7" fill="1" visible="yes" active="yes"/>
<layer number="22" name="bPlace" color="7" fill="1" visible="yes" active="yes"/>
<layer number="23" name="tOrigins" color="15" fill="1" visible="yes" active="yes"/>
<layer number="24" name="bOrigins" color="15" fill="1" visible="yes" active="yes"/>
<layer number="25" name="tNames" color="7" fill="1" visible="yes" active="yes"/>
<layer number="26" name="bNames" color="7" fill="1" visible="yes" active="yes"/>
<layer number="27" name="tValues" color="7" fill="1" visible="yes" active="yes"/>
<layer number="28" name="bValues" color="7" fill="1" visible="yes" active="yes"/>
<layer number="29" name="tStop" color="7" fill="3" visible="no" active="yes"/>
<layer number="30" name="bStop" color="7" fill="6" visible="no" active="yes"/>
<layer number="31" name="tCream" color="7" fill="4" visible="no" active="yes"/>
<layer number="32" name="bCream" color="7" fill="5" visible="no" active="yes"/>
<layer number="33" name="tFinish" color="6" fill="3" visible="no" active="yes"/>
<layer number="34" name="bFinish" color="6" fill="6" visible="no" active="yes"/>
<layer number="35" name="tGlue" color="7" fill="4" visible="no" active="yes"/>
<layer number="36" name="bGlue" color="7" fill="5" visible="no" active="yes"/>
<layer number="37" name="tTest" color="7" fill="1" visible="no" active="yes"/>
<layer number="38" name="bTest" color="7" fill="1" visible="no" active="yes"/>
<layer number="39" name="tKeepout" color="4" fill="11" visible="yes" active="yes"/>
<layer number="40" name="bKeepout" color="1" fill="11" visible="yes" active="yes"/>
<layer number="41" name="tRestrict" color="4" fill="10" visible="yes" active="yes"/>
<layer number="42" name="bRestrict" color="1" fill="10" visible="yes" active="yes"/>
<layer number="43" name="vRestrict" color="2" fill="10" visible="yes" active="yes"/>
<layer number="44" name="Drills" color="7" fill="1" visible="no" active="yes"/>
<layer number="45" name="Holes" color="7" fill="1" visible="no" active="yes"/>
<layer number="46" name="Milling" color="3" fill="1" visible="no" active="yes"/>
<layer number="47" name="Measures" color="7" fill="1" visible="no" active="yes"/>
<layer number="48" name="Document" color="7" fill="1" visible="yes" active="yes"/>
<layer number="49" name="Reference" color="7" fill="1" visible="yes" active="yes"/>
<layer number="51" name="tDocu" color="7" fill="1" visible="yes" active="yes"/>
<layer number="52" name="bDocu" color="7" fill="1" visible="yes" active="yes"/>
<layer number="88" name="SimResults" color="9" fill="1" visible="no" active="no"/>
<layer number="89" name="SimProbes" color="9" fill="1" visible="no" active="no"/>
<layer number="90" name="Modules" color="5" fill="1" visible="no" active="no"/>
<layer number="91" name="Nets" color="2" fill="1" visible="no" active="no"/>
<layer number="92" name="Busses" color="1" fill="1" visible="no" active="no"/>
<layer number="93" name="Pins" color="2" fill="1" visible="no" active="no"/>
<layer number="94" name="Symbols" color="4" fill="1" visible="no" active="no"/>
<layer number="95" name="Names" color="7" fill="1" visible="no" active="no"/>
<layer number="96" name="Values" color="7" fill="1" visible="no" active="no"/>
<layer number="97" name="Info" color="7" fill="1" visible="no" active="no"/>
<layer number="98" name="Guide" color="6" fill="1" visible="no" active="no"/>
<layer number="99" name="SpiceOrder" color="5" fill="1" visible="no" active="no"/>
</layers>
<board>
<plain>
<wire x1="0" y1="0" x2="200.64" y2="0" width="0" layer="20"/>
<wire x1="200.64" y1="0" x2="200.64" y2="195.25" width="0" layer="20"/>
<wire x1="200.64" y1="195.25" x2="0" y2="195.25" width="0" layer="20"/>
<wire x1="0" y1="195.25" x2="0" y2="0" width="0" layer="20"/>
</plain>
<libraries>
<library name="BMS">
<packages>
<package name="BATTERY-HOLDER-QUAD">
<wire x1="0" y1="0" x2="0" y2="20" width="0.127" layer="21"/>
<wire x1="0" y1="20" x2="0" y2="39" width="0.127" layer="21"/>
<wire x1="0" y1="39" x2="0" y2="59" width="0.127" layer="21"/>
<wire x1="0" y1="59" x2="0" y2="78.74" width="0.127" layer="21"/>
<wire x1="0" y1="0" x2="77.98" y2="0" width="0.127" layer="21"/>
<wire x1="77.98" y1="78.84" x2="77.98" y2="0.1" width="0.127" layer="21"/>
<wire x1="77.98" y1="78.84" x2="0" y2="78.84" width="0.127" layer="21"/>
<wire x1="0" y1="20" x2="78" y2="20" width="0.127" layer="21"/>
<wire x1="0" y1="39" x2="78" y2="39" width="0.127" layer="21"/>
<wire x1="0" y1="59" x2="78" y2="59" width="0.127" layer="21"/>
<pad name="P$9" x="2.5" y="10.35" drill="1.8" shape="long"/>
<pad name="P$10" x="2.5" y="29.65" drill="1.8" shape="long"/>
<pad name="P$11" x="2.5" y="48.95" drill="1.8" shape="long"/>
<pad name="P$12" x="2.5" y="68.25" drill="1.8" shape="long"/>
<pad name="P$13" x="75.4" y="10.35" drill="1.9" shape="long"/>
<pad name="P$14" x="75.4" y="29.65" drill="1.8" shape="long"/>
<pad name="P$15" x="75.4" y="48.95" drill="1.8" shape="long"/>
<pad name="P$16" x="75.4" y="68.25" drill="1.8" shape="long"/>
<hole x="11.22" y="10.31" drill="3.2"/>
<hole x="66.83" y="10.31" drill="3.2"/>
<hole x="11.22" y="29.61" drill="3.2"/>
<hole x="66.83" y="29.61" drill="3.2"/>
<hole x="11.22" y="48.91" drill="3.2"/>
<hole x="66.83" y="48.91" drill="3.2"/>
<hole x="11.22" y="68.21" drill="3.2"/>
<hole x="66.83" y="68.21" drill="3.2"/>
<text x="-0.3" y="-6.2" size="3.81" layer="21">+</text>
<text x="76.2" y="-7.4" size="3.81" layer="21">-</text>
</package>
<package name="PHOENIX-2PIN">
<pad name="P$1" x="0" y="0" drill="1.6" shape="long" rot="R90"/>
<pad name="P$2" x="5" y="0" drill="1.6" shape="long" rot="R90"/>
<wire x1="-2.5" y1="3" x2="-2.5" y2="-3" width="0.127" layer="21"/>
<wire x1="-2.5" y1="-3" x2="7.5" y2="-3" width="0.127" layer="21"/>
<wire x1="7.5" y1="-3" x2="7.5" y2="3" width="0.127" layer="21"/>
<wire x1="7.5" y1="3" x2="-2.5" y2="3" width="0.127" layer="21"/>
</package>
</packages>
</library>
<library name="con-molex" urn="urn:adsk.eagle:library:165">
<description>&lt;b&gt;Molex Connectors&lt;/b&gt;&lt;p&gt;
&lt;author&gt;Created by librarian@cadsoft.de&lt;/author&gt;</description>
<packages>
<package name="5566-8" library_version="2">
<description>&lt;b&gt;Mini-Fit Jr.™ Vertical Header, 4.20mm Pitch, Dual Row, 8 Circuits, without Snap-in Plastic Peg PCB Lock, Tin, Natural&lt;/b&gt;&lt;p&gt;&lt;a href =http://www.molex.com/pdm_docs/sd/039281083_sd.pdf&gt;Datasheet &lt;/a&gt;</description>
<wire x1="-8.9" y1="4.5" x2="8.9" y2="4.5" width="0.254" layer="21"/>
<wire x1="8.9" y1="4.5" x2="8.9" y2="-2.2" width="0.254" layer="21"/>
<wire x1="8.9" y1="-3.3" x2="8.9" y2="-4.9" width="0.254" layer="21"/>
<wire x1="8.9" y1="-4.9" x2="-8.9" y2="-4.9" width="0.254" layer="21"/>
<wire x1="-8.9" y1="-4.9" x2="-8.9" y2="4.5" width="0.254" layer="21"/>
<wire x1="-12.4" y1="3.2" x2="-9.6" y2="3.2" width="0.254" layer="21" curve="-114.529547"/>
<wire x1="-12.4" y1="1.4" x2="-9.6" y2="1.4" width="0.254" layer="21" curve="114.529547"/>
<wire x1="-12.4" y1="3.2" x2="-12.4" y2="1.4" width="0.254" layer="21"/>
<wire x1="-9.7" y1="3.3" x2="-9" y2="3.3" width="0.254" layer="21"/>
<wire x1="-9.7" y1="1.3" x2="-9" y2="1.3" width="0.254" layer="21"/>
<wire x1="9.6" y1="1.4" x2="12.4" y2="1.4" width="0.254" layer="21" curve="114.529547"/>
<wire x1="9.6" y1="3.2" x2="12.4" y2="3.2" width="0.254" layer="21" curve="-114.529547"/>
<wire x1="12.4" y1="1.4" x2="12.4" y2="3.2" width="0.254" layer="21"/>
<wire x1="9.7" y1="1.3" x2="9" y2="1.3" width="0.254" layer="21"/>
<wire x1="9.7" y1="3.3" x2="9" y2="3.3" width="0.254" layer="21"/>
<wire x1="8.9" y1="-2.2" x2="8.9" y2="-3.3" width="0.254" layer="21" curve="-180"/>
<wire x1="-2.1" y1="6.3" x2="2.1" y2="6.3" width="0.254" layer="27"/>
<wire x1="-2.1" y1="6.3" x2="-2.1" y2="4.6" width="0.254" layer="27"/>
<wire x1="2.1" y1="6.3" x2="2.1" y2="4.6" width="0.254" layer="27"/>
<pad name="1" x="6.3" y="-2.75" drill="1.4" shape="square"/>
<pad name="2" x="2.1" y="-2.75" drill="1.4" shape="square"/>
<pad name="3" x="-2.1" y="-2.75" drill="1.4" shape="square"/>
<pad name="4" x="-6.3" y="-2.75" drill="1.4" shape="square"/>
<pad name="8" x="-6.3" y="2.75" drill="1.4" shape="square"/>
<pad name="7" x="-2.1" y="2.75" drill="1.4" shape="square"/>
<pad name="6" x="2.1" y="2.75" drill="1.4" shape="square"/>
<pad name="5" x="6.3" y="2.75" drill="1.4" shape="square"/>
<text x="2.54" y="-6.985" size="1.27" layer="25">&gt;NAME</text>
<text x="-2.54" y="6.985" size="1.27" layer="27">&gt;VALUE</text>
<hole x="11" y="2.29" drill="3"/>
<hole x="-11" y="2.29" drill="3"/>
</package>
</packages>
</library>
</libraries>
<attributes>
</attributes>
<variantdefs>
</variantdefs>
<classes>
<class number="0" name="default" width="0" drill="0">
</class>
</classes>
<designrules name="default">
<description language="de">&lt;b&gt;EAGLE Design Rules&lt;/b&gt;
&lt;p&gt;
Die Standard-Design-Rules sind so gewählt, dass sie für 
die meisten Anwendungen passen. Sollte ihre Platine 
besondere Anforderungen haben, treffen Sie die erforderlichen
Einstellungen hier und speichern die Design Rules unter 
einem neuen Namen ab.</description>
<description language="en">&lt;b&gt;EAGLE Design Rules&lt;/b&gt;
&lt;p&gt;
The default Design Rules have been set to cover
a wide range of applications. Your particular design
may have different requirements, so please make the
necessary adjustments and save your customized
design rules under a new name.</description>
<param name="layerSetup" value="(1*16)"/>
<param name="mtCopper" value="0.035mm 0.035mm 0.035mm 0.035mm 0.035mm 0.035mm 0.035mm 0.035mm 0.035mm 0.035mm 0.035mm 0.035mm 0.035mm 0.035mm 0.035mm 0.035mm"/>
<param name="mtIsolate" value="1.5mm 0.15mm 0.2mm 0.15mm 0.2mm 0.15mm 0.2mm 0.15mm 0.2mm 0.15mm 0.2mm 0.15mm 0.2mm 0.15mm 0.2mm"/>
<param name="mdWireWire" value="6mil"/>
<param name="mdWirePad" value="6mil"/>
<param name="mdWireVia" value="6mil"/>
<param name="mdPadPad" value="6mil"/>
<param name="mdPadVia" value="6mil"/>
<param name="mdViaVia" value="6mil"/>
<param name="mdSmdPad" value="6mil"/>
<param name="mdSmdVia" value="6mil"/>
<param name="mdSmdSmd" value="6mil"/>
<param name="mdViaViaSameLayer" value="6mil"/>
<param name="mnLayersViaInSmd" value="2"/>
<param name="mdCopperDimension" value="40mil"/>
<param name="mdDrill" value="6mil"/>
<param name="mdSmdStop" value="0mil"/>
<param name="msWidth" value="6mil"/>
<param name="msDrill" value="0.35mm"/>
<param name="msMicroVia" value="9.99mm"/>
<param name="msBlindViaRatio" value="0.5"/>
<param name="rvPadTop" value="0.25"/>
<param name="rvPadInner" value="0.25"/>
<param name="rvPadBottom" value="0.25"/>
<param name="rvViaOuter" value="0.25"/>
<param name="rvViaInner" value="0.25"/>
<param name="rvMicroViaOuter" value="0.25"/>
<param name="rvMicroViaInner" value="0.25"/>
<param name="rlMinPadTop" value="10mil"/>
<param name="rlMaxPadTop" value="20mil"/>
<param name="rlMinPadInner" value="10mil"/>
<param name="rlMaxPadInner" value="20mil"/>
<param name="rlMinPadBottom" value="10mil"/>
<param name="rlMaxPadBottom" value="20mil"/>
<param name="rlMinViaOuter" value="8mil"/>
<param name="rlMaxViaOuter" value="20mil"/>
<param name="rlMinViaInner" value="8mil"/>
<param name="rlMaxViaInner" value="20mil"/>
<param name="rlMinMicroViaOuter" value="4mil"/>
<param name="rlMaxMicroViaOuter" value="20mil"/>
<param name="rlMinMicroViaInner" value="4mil"/>
<param name="rlMaxMicroViaInner" value="20mil"/>
<param name="psTop" value="-1"/>
<param name="psBottom" value="-1"/>
<param name="psFirst" value="-1"/>
<param name="psElongationLong" value="100"/>
<param name="psElongationOffset" value="100"/>
<param name="mvStopFrame" value="1"/>
<param name="mvCreamFrame" value="0"/>
<param name="mlMinStopFrame" value="4mil"/>
<param name="mlMaxStopFrame" value="4mil"/>
<param name="mlMinCreamFrame" value="0mil"/>
<param name="mlMaxCreamFrame" value="0mil"/>
<param name="mlViaStopLimit" value="0mil"/>
<param name="srRoundness" value="0"/>
<param name="srMinRoundness" value="0mil"/>
<param name="srMaxRoundness" value="0mil"/>
<param name="slThermalIsolate" value="10mil"/>
<param name="slThermalsForVias" value="0"/>
<param name="dpMaxLengthDifference" value="10mm"/>
<param name="dpGapFactor" value="2.5"/>
<param name="checkAngle" value="0"/>
<param name="checkFont" value="1"/>
<param name="checkRestrict" value="1"/>
<param name="checkStop" value="0"/>
<param name="checkValues" value="0"/>
<param name="useDiameter" value="13"/>
<param name="maxErrors" value="50"/>
</designrules>
<autorouter>
<pass name="Default">
<param name="RoutingGrid" value="50mil"/>
<param name="AutoGrid" value="1"/>
<param name="Efforts" value="0"/>
<param name="TopRouterVariant" value="1"/>
<param name="tpViaShape" value="round"/>
<param name="PrefDir.1" value="a"/>
<param name="PrefDir.2" value="0"/>
<param name="PrefDir.3" value="0"/>
<param name="PrefDir.4" value="0"/>
<param name="PrefDir.5" value="0"/>
<param name="PrefDir.6" value="0"/>
<param name="PrefDir.7" value="0"/>
<param name="PrefDir.8" value="0"/>
<param name="PrefDir.9" value="0"/>
<param name="PrefDir.10" value="0"/>
<param name="PrefDir.11" value="0"/>
<param name="PrefDir.12" value="0"/>
<param name="PrefDir.13" value="0"/>
<param name="PrefDir.14" value="0"/>
<param name="PrefDir.15" value="0"/>
<param name="PrefDir.16" value="a"/>
<param name="cfVia" value="8"/>
<param name="cfNonPref" value="5"/>
<param name="cfChangeDir" value="2"/>
<param name="cfOrthStep" value="2"/>
<param name="cfDiagStep" value="3"/>
<param name="cfExtdStep" value="0"/>
<param name="cfBonusStep" value="1"/>
<param name="cfMalusStep" value="1"/>
<param name="cfPadImpact" value="4"/>
<param name="cfSmdImpact" value="4"/>
<param name="cfBusImpact" value="0"/>
<param name="cfHugging" value="3"/>
<param name="cfAvoid" value="4"/>
<param name="cfPolygon" value="10"/>
<param name="cfBase.1" value="0"/>
<param name="cfBase.2" value="1"/>
<param name="cfBase.3" value="1"/>
<param name="cfBase.4" value="1"/>
<param name="cfBase.5" value="1"/>
<param name="cfBase.6" value="1"/>
<param name="cfBase.7" value="1"/>
<param name="cfBase.8" value="1"/>
<param name="cfBase.9" value="1"/>
<param name="cfBase.10" value="1"/>
<param name="cfBase.11" value="1"/>
<param name="cfBase.12" value="1"/>
<param name="cfBase.13" value="1"/>
<param name="cfBase.14" value="1"/>
<param name="cfBase.15" value="1"/>
<param name="cfBase.16" value="0"/>
<param name="mnVias" value="20"/>
<param name="mnSegments" value="9999"/>
<param name="mnExtdSteps" value="9999"/>
<param name="mnRipupLevel" value="10"/>
<param name="mnRipupSteps" value="100"/>
<param name="mnRipupTotal" value="100"/>
</pass>
<pass name="Follow-me" refer="Default" active="yes">
</pass>
<pass name="Busses" refer="Default" active="yes">
<param name="cfNonPref" value="4"/>
<param name="cfBusImpact" value="4"/>
<param name="cfHugging" value="0"/>
<param name="mnVias" value="0"/>
</pass>
<pass name="Route" refer="Default" active="yes">
</pass>
<pass name="Optimize1" refer="Default" active="yes">
<param name="cfVia" value="99"/>
<param name="cfExtdStep" value="10"/>
<param name="cfHugging" value="1"/>
<param name="mnExtdSteps" value="1"/>
<param name="mnRipupLevel" value="0"/>
</pass>
<pass name="Optimize2" refer="Optimize1" active="yes">
<param name="cfNonPref" value="0"/>
<param name="cfChangeDir" value="6"/>
<param name="cfExtdStep" value="0"/>
<param name="cfBonusStep" value="2"/>
<param name="cfMalusStep" value="2"/>
<param name="cfPadImpact" value="2"/>
<param name="cfSmdImpact" value="2"/>
<param name="cfHugging" value="0"/>
</pass>
<pass name="Optimize3" refer="Optimize2" active="yes">
<param name="cfChangeDir" value="8"/>
<param name="cfPadImpact" value="0"/>
<param name="cfSmdImpact" value="0"/>
</pass>
<pass name="Optimize4" refer="Optimize3" active="yes">
<param name="cfChangeDir" value="25"/>
</pass>
</autorouter>
<elements>
<element name="U$1" library="BMS" package="BATTERY-HOLDER-QUAD" value="BATTERY_HOLDER_QUAD" x="97.79" y="93.98" rot="R180"/>
<element name="U$2" library="BMS" package="BATTERY-HOLDER-QUAD" value="BATTERY_HOLDER_QUAD" x="182.88" y="93.98" rot="R180"/>
<element name="U$3" library="BMS" package="BATTERY-HOLDER-QUAD" value="BATTERY_HOLDER_QUAD" x="105.41" y="111.76"/>
<element name="U$4" library="BMS" package="BATTERY-HOLDER-QUAD" value="BATTERY_HOLDER_QUAD" x="20.32" y="111.76"/>
<element name="U$5" library="BMS" package="PHOENIX-2PIN" value="PHOENIX-2PIN" x="64.77" y="7.62" rot="R180"/>
<element name="U$6" library="BMS" package="PHOENIX-2PIN" value="PHOENIX-2PIN" x="146.05" y="8.89"/>
<element name="U$7" library="BMS" package="PHOENIX-2PIN" value="PHOENIX-2PIN" x="7.62" y="60.96" rot="R90"/>
<element name="U$8" library="BMS" package="PHOENIX-2PIN" value="PHOENIX-2PIN" x="7.62" y="166.37" rot="R270"/>
<element name="X1" library="con-molex" library_urn="urn:adsk.eagle:library:165" package="5566-8" value="5566-8" x="8.89" y="143.51" rot="R90">
<attribute name="MF" value="MOLEX" x="8.89" y="143.51" size="1.778" layer="27" rot="R90" display="off"/>
<attribute name="MPN" value="" x="8.89" y="143.51" size="1.778" layer="27" rot="R90" display="off"/>
<attribute name="OC_FARNELL" value="unknown" x="8.89" y="143.51" size="1.778" layer="27" rot="R90" display="off"/>
<attribute name="OC_NEWARK" value="unknown" x="8.89" y="143.51" size="1.778" layer="27" rot="R90" display="off"/>
</element>
<element name="X2" library="con-molex" library_urn="urn:adsk.eagle:library:165" package="5566-8" value="5566-8" x="8.89" y="43.18" rot="R90">
<attribute name="MF" value="MOLEX" x="8.89" y="43.18" size="1.778" layer="27" rot="R90" display="off"/>
<attribute name="MPN" value="" x="8.89" y="43.18" size="1.778" layer="27" rot="R90" display="off"/>
<attribute name="OC_FARNELL" value="unknown" x="8.89" y="43.18" size="1.778" layer="27" rot="R90" display="off"/>
<attribute name="OC_NEWARK" value="unknown" x="8.89" y="43.18" size="1.778" layer="27" rot="R90" display="off"/>
</element>
<element name="X3" library="con-molex" library_urn="urn:adsk.eagle:library:165" package="5566-8" value="5566-8" x="101.6" y="7.62">
<attribute name="MF" value="MOLEX" x="101.6" y="7.62" size="1.778" layer="27" display="off"/>
<attribute name="MPN" value="" x="101.6" y="7.62" size="1.778" layer="27" display="off"/>
<attribute name="OC_FARNELL" value="unknown" x="101.6" y="7.62" size="1.778" layer="27" display="off"/>
<attribute name="OC_NEWARK" value="unknown" x="101.6" y="7.62" size="1.778" layer="27" display="off"/>
</element>
</elements>
<signals>
<signal name="BATTERY1+">
<contactref element="U$1" pad="P$9"/>
<contactref element="U$1" pad="P$10"/>
<contactref element="U$1" pad="P$11"/>
<contactref element="U$1" pad="P$12"/>
<contactref element="U$2" pad="P$13"/>
<contactref element="U$2" pad="P$14"/>
<contactref element="U$2" pad="P$15"/>
<contactref element="U$2" pad="P$16"/>
<contactref element="U$5" pad="P$1"/>
<contactref element="X3" pad="1"/>
<contactref element="X3" pad="2"/>
<contactref element="X3" pad="3"/>
<contactref element="X3" pad="4"/>
<contactref element="X3" pad="5"/>
<contactref element="X3" pad="6"/>
<contactref element="X3" pad="7"/>
<contactref element="X3" pad="8"/>
<polygon width="1.27" layer="1" isolate="0.6096">
<vertex x="115.57" y="91.44"/>
<vertex x="87.63" y="91.44"/>
<vertex x="87.63" y="2.54"/>
<vertex x="115.57" y="2.54"/>
</polygon>
<polygon width="1.27" layer="16" isolate="0.6096">
<vertex x="115.57" y="91.44"/>
<vertex x="87.63" y="91.44"/>
<vertex x="87.63" y="2.54"/>
<vertex x="115.57" y="2.54"/>
</polygon>
<wire x1="64.77" y1="7.62" x2="87.63" y2="7.62" width="1.27" layer="1"/>
<wire x1="87.63" y1="7.62" x2="91.44" y2="3.81" width="1.27" layer="1"/>
</signal>
<signal name="BATTERY2+">
<contactref element="U$3" pad="P$13"/>
<contactref element="U$3" pad="P$14"/>
<contactref element="U$3" pad="P$15"/>
<contactref element="U$3" pad="P$16"/>
<contactref element="U$2" pad="P$9"/>
<contactref element="U$2" pad="P$10"/>
<contactref element="U$2" pad="P$11"/>
<contactref element="U$2" pad="P$12"/>
<contactref element="U$6" pad="P$2"/>
<polygon width="1.27" layer="1" isolate="0.6096">
<vertex x="165.1" y="12.7"/>
<vertex x="189.23" y="12.7"/>
<vertex x="189.23" y="193.04"/>
<vertex x="165.1" y="193.04"/>
</polygon>
<polygon width="1.27" layer="16" isolate="0.6096">
<vertex x="165.1" y="12.7"/>
<vertex x="189.23" y="12.7"/>
<vertex x="189.23" y="193.04"/>
<vertex x="165.1" y="193.04"/>
</polygon>
<wire x1="151.05" y1="8.89" x2="165.1" y2="8.89" width="1.27" layer="1"/>
<wire x1="165.1" y1="8.89" x2="173.99" y2="17.78" width="1.27" layer="1"/>
</signal>
<signal name="BATTERY3+">
<contactref element="U$4" pad="P$13"/>
<contactref element="U$4" pad="P$14"/>
<contactref element="U$4" pad="P$15"/>
<contactref element="U$4" pad="P$16"/>
<contactref element="U$3" pad="P$9"/>
<contactref element="U$3" pad="P$10"/>
<contactref element="U$3" pad="P$11"/>
<contactref element="U$3" pad="P$12"/>
<contactref element="U$6" pad="P$1"/>
<polygon width="1.27" layer="1" isolate="0.6096">
<vertex x="115.57" y="193.04"/>
<vertex x="87.63" y="193.04"/>
<vertex x="87.63" y="101.6"/>
<vertex x="115.57" y="101.6"/>
</polygon>
<polygon width="1.27" layer="16" isolate="0.6096">
<vertex x="115.57" y="193.04"/>
<vertex x="87.63" y="193.04"/>
<vertex x="87.63" y="101.6"/>
<vertex x="115.57" y="101.6"/>
</polygon>
<wire x1="146.05" y1="8.89" x2="124.46" y2="30.48" width="1.27" layer="1"/>
<wire x1="124.46" y1="30.48" x2="124.46" y2="92.71" width="1.27" layer="1"/>
<wire x1="124.46" y1="92.71" x2="114.3" y2="113.03" width="1.27" layer="1"/>
<wire x1="114.3" y1="113.03" x2="113.03" y2="113.03" width="1.27" layer="1"/>
</signal>
<signal name="BATTERY4+">
<contactref element="U$8" pad="P$1"/>
<contactref element="U$8" pad="P$2"/>
<contactref element="U$4" pad="P$9"/>
<contactref element="U$4" pad="P$10"/>
<contactref element="U$4" pad="P$11"/>
<contactref element="U$4" pad="P$12"/>
<contactref element="X1" pad="1"/>
<contactref element="X1" pad="2"/>
<contactref element="X1" pad="3"/>
<contactref element="X1" pad="4"/>
<contactref element="X1" pad="5"/>
<contactref element="X1" pad="6"/>
<contactref element="X1" pad="7"/>
<contactref element="X1" pad="8"/>
<polygon width="1.27" layer="1" isolate="0.6096">
<vertex x="31.75" y="194.31"/>
<vertex x="3.81" y="194.31"/>
<vertex x="3.81" y="110.49"/>
<vertex x="31.75" y="110.49"/>
</polygon>
<polygon width="1.27" layer="16" isolate="0.6096">
<vertex x="31.75" y="194.31"/>
<vertex x="3.81" y="194.31"/>
<vertex x="3.81" y="110.49"/>
<vertex x="31.75" y="110.49"/>
</polygon>
</signal>
<signal name="BATTERY1-">
<contactref element="X2" pad="1"/>
<contactref element="X2" pad="2"/>
<contactref element="X2" pad="3"/>
<contactref element="X2" pad="4"/>
<contactref element="X2" pad="5"/>
<contactref element="X2" pad="6"/>
<contactref element="X2" pad="7"/>
<contactref element="X2" pad="8"/>
<contactref element="U$7" pad="P$2"/>
<contactref element="U$7" pad="P$1"/>
<contactref element="U$1" pad="P$13"/>
<contactref element="U$1" pad="P$14"/>
<contactref element="U$1" pad="P$15"/>
<contactref element="U$1" pad="P$16"/>
<contactref element="U$5" pad="P$2"/>
<polygon width="1.27" layer="1" isolate="0.6096">
<vertex x="31.75" y="99.06"/>
<vertex x="3.81" y="99.06"/>
<vertex x="3.81" y="7.62"/>
<vertex x="31.75" y="7.62"/>
</polygon>
<polygon width="1.27" layer="16" isolate="0.6096">
<vertex x="31.75" y="99.06"/>
<vertex x="3.81" y="99.06"/>
<vertex x="3.81" y="7.62"/>
<vertex x="31.75" y="7.62"/>
</polygon>
<wire x1="59.77" y1="7.62" x2="58.5" y2="8.89" width="1.27" layer="1"/>
<wire x1="58.5" y1="8.89" x2="22.86" y2="8.89" width="1.27" layer="1"/>
</signal>
<signal name="N$3">
<via x="101.615" y="104.155" extent="1-16" drill="7" diameter="5"/>
</signal>
<signal name="N$1">
<via x="10.175" y="10.175" extent="1-16" drill="7" diameter="5"/>
</signal>
<signal name="N$2">
<via x="10.175" y="185.435" extent="1-16" drill="7" diameter="5"/>
</signal>
<signal name="N$4">
<via x="190.515" y="185.435" extent="1-16" drill="7" diameter="5"/>
</signal>
<signal name="N$5">
<via x="190.515" y="10.175" extent="1-16" drill="7" diameter="5"/>
</signal>
<signal name="N$6">
<via x="190.515" y="104.155" extent="1-16" drill="7" diameter="5"/>
</signal>
<signal name="N$7">
<via x="10.175" y="104.155" extent="1-16" drill="7" diameter="5"/>
</signal>
</signals>
</board>
</drawing>
<compatibility>
<note version="8.2" severity="warning">
Since Version 8.2, EAGLE supports online libraries. The ids
of those online libraries will not be understood (or retained)
with this version.
</note>
</compatibility>
</eagle>
